<?xml version="1.0" encoding="UTF-8" standalone="no"?>
<svg
   xmlns:dc="http://purl.org/dc/elements/1.1/"
   xmlns:cc="http://creativecommons.org/ns#"
   xmlns:rdf="http://www.w3.org/1999/02/22-rdf-syntax-ns#"
   xmlns:svg="http://www.w3.org/2000/svg"
   xmlns="http://www.w3.org/2000/svg"
   viewBox="0 0 1755.3917 2127.8101"
   height="2127.8101"
   width="1755.3917"
   id="svg933"
   version="1.1">
  <metadata
     id="metadata939">
    <rdf:RDF>
      <cc:Work
         rdf:about="">
        <dc:format>image/svg+xml</dc:format>
        <dc:type
           rdf:resource="http://purl.org/dc/dcmitype/StillImage" />
        <dc:title></dc:title>
      </cc:Work>
    </rdf:RDF>
  </metadata>
  <defs
     id="defs937" />
  <path
     id="path6907"
     d="m 927.89747,2126.3721 c -1.4017,-1.689 1.9404,-14.6345 11.1234,-43.087 15.1518,-46.9462 35.6743,-82.0647 62.97543,-107.7648 15.7328,-14.8102 21.0096,-17.5748 59.3754,-31.107 41.5683,-14.6618 57.7811,-22.6871 76.5377,-37.886 11.6707,-9.4571 38.8069,-37.002 59.741,-60.6409 33.0682,-37.3407 38.81,-42.5397 184.2555,-166.8382 36.1188,-30.8673 58.1939,-54.3555 65.4708,-69.6618 3.8073,-8.0085 6.7015,-19.8013 12.5163,-51 5.553,-29.7942 5.6481,-30.201 10.5231,-45 12.2725,-37.2561 32.1137,-79.5291 53.2436,-113.4394 17.8492,-28.6451 29.157,-43.4794 65.5949,-86.0514 18.7641,-21.9229 34.4209,-43.6714 39.0847,-54.2914 1.2603,-2.8698 5.5364,-15.544 9.5026,-28.1649 10.5516,-33.5774 34.3603,-99.2353 40.101,-110.5875 l 1.7874,-3.5346 -6.6605,-2.3115 c -9.021,-3.1307 -34.7309,-15.5728 -46.538,-22.5216 -13.4934,-7.9413 -27.8137,-18.9779 -36.6224,-28.2247 -7.9745,-8.3711 -14.8974,-18.9093 -15.6786,-23.8666 -0.6086,-3.8618 6.0616,-23.0895 17.7495,-51.16542 13.1505,-31.5893 22.0276,-48.3064 27.0236,-50.8899 6.2786,-3.2468 28.2659,-5.8486 49.4055,-5.8463 18.9069,0 20.4814,0.1502 28.8075,2.7109 13.5604,4.1707 22.4601,9.1225 33.7142,18.7587 4.7762,4.0896 7.7817,7.4626 15.5273,17.4256 1.4338,1.8443 1.5259,1.3201 1.183,-6.7348 -0.3433,-8.0644 -0.7423,-9.4843 -5.1982,-18.5 -8.807,-17.8193 -24.1843,-29.695 -44.0338,-34.0069 -12.4681,-2.7085 -40.6744,-2.4037 -54.5,0.5889 -27.7126,5.9984 -47.0301,12.779 -71.8938,25.2354 -53.6792,26.8926 -105.4767,75.64312 -134.85,126.91742 -19.5166,34.0682 -33.2825,61.7464 -38.6771,77.7652 -2.9595,8.788 -4.3597,11.2893 -10.8663,19.4114 -10.6198,13.2564 -12.6973,16.8071 -29.5687,50.5354 -15.9066,31.7994 -23.5594,45.4104 -36.1461,64.288 -4.2172,6.325 -10.2695,16.225 -13.4497,22 -11.4868,20.8596 -21.7151,35.0859 -28.0331,38.9906 -7.7747,4.805 -44.3482,16.9671 -51.1964,17.0247 -1.0003,0.01 -2.4439,0.4112 -3.208,0.8951 -1.474,0.9334 2.7131,7.0893 13.0766,19.2254 4.7993,5.6202 6.2144,10.1123 3.5122,11.1492 -3.6657,1.4067 -7.0673,-2.4977 -34.266,-39.332 -22.4828,-30.4475 -30.3342,-39.8652 -30.3902,-36.453 -0.018,1.1 1.0907,10.325 2.4639,20.5 2.885,21.376 5.285,50.7141 5.7024,69.7068 0.2565,11.6669 0.079,13.4158 -1.5242,15 -1.7455,1.725 -1.8821,1.7109 -3.5915,-0.3718 -1.475,-1.7972 -1.8932,-5.025 -2.4616,-19 -0.9295,-22.853 -2.1369,-36.568 -5.7078,-64.835 -8.3499,-66.097 -17.9138,-112.9075 -34.071,-166.7593 -10.8721,-36.2367 -19.2104,-56.1031 -37.1529,-88.5176 -16.3321,-29.5053 -16.083,-28.9228 -22.6629,-53.003 -10.5038,-38.44072 -23.4711,-73.50612 -37.8035,-102.22642 l -9.7343,-19.5063 -33.50003,-4.8649 c -18.425,-2.6757 -49.7566,-7.4793 -69.6258,-10.6748 -41.9684,-6.7495 -55.9098,-8.2965 -101.6617,-11.2806 l -33.6035,-2.1918 -0.7114,2.0123 c -0.3912,1.1068 -0.8015,15.4257 -0.9117,31.8197 -0.1323,19.674 -0.5661,30.1729 -1.276,30.8828 -1.5977,1.5977 -4.0941,0.2326 -5.3295,-2.9145 -1.319,-3.3599 -1.7318,-42.2409 -0.5723,-53.9034 l 0.808,-8.1278 -3.308,-0.5718 c -1.8195,-0.3144 -7.8132,-0.8698 -13.3195,-1.2341 l -10.0114,-0.6623 -1.6093,3.3619 c -2.7801,5.8078 -18.8593,26.7244 -21.0876,27.4316 -1.4541,0.4615 -2.5356,0.1179 -3.4154,-1.0853 -1.5997,-2.1878 -1.0017,-3.4042 6.6302,-13.4844 7.487,-9.889 11.4166,-15.9216 10.7836,-16.5546 -1.205,-1.205 -27.8669,-2.5126 -62.7787,-3.0788 -34.8187,-0.5648 -38.6083,-0.455 -53,1.5352 -15.2925,2.1148 -27.0455,4.2267 -34.1242,6.132 -3.558,0.9577 -3.7288,1.2415 -9.3602,15.5561 -9.6751,24.5933 -35.5038,74.2631 -39.8181,76.572 -2.7265,1.4592 -4.0811,-0.3121 -3.3169,-4.3372 0.3472,-1.8286 4.2391,-9.8497 8.6488,-17.8247 4.4096,-7.975 10.9706,-20.5355 14.5799,-27.9123 6.4627,-13.2084 15.8237,-35.0722 15.2066,-35.5167 -13.3103,-9.5877 -22.2393,-23.0285 -29.6094,-44.571 -8.1833,-23.91953 -11.0649,-40.64182 -14.2167,-82.5 -4.3146,-57.29986 -8.2249,-78.67022 -23.9705,-131 -4.3027,-14.3 -9.194,-32.075 -10.8696,-39.5 -5.0996,-22.59741 -10.9304,-60.59593 -15.1533,-98.75134 -4.1167,-37.19588 -8.7925,-69.27724 -18.4008,-126.24866 -3.0146,-17.875 -7.1116,-43.525 -9.1045,-57 -8.2502,-55.78446 -13.4763,-77.14385 -24.2112,-98.9515 -4.6291,-9.40384 -6.9015,-12.72785 -12.7085,-18.58947 -7.7153,-7.78794 -16.6705,-13.53457 -29.0714,-18.65547 -7.7719,-3.20938 -8.3991,-3.30249 -22,-3.26597 -12.1079,0.0325 -15.3465,0.40863 -23.9627,2.7829 -16.8646,4.64716 -28.3914,12.39439 -38.6749,25.99376 -13.9882,18.49857 -18.1678,35.43777 -15.3348,62.14928 1.6478,15.53682 3.1623,25.50526 9.8051,64.53647 3.8038,22.34997 4.6093,29.47549 5.1433,45.5 1.1124,33.37785 4.4544,59.57413 10.6235,83.27374 1.6788,6.44944 3.8886,14.94507 4.9107,18.87916 2.7131,10.44317 3.7765,21.90071 6.5293,70.3471 1.3594,23.925 3.1739,54.525 4.0322,68 0.8582,13.475 1.814,46.775 2.1239,74 0.3099,27.225 0.8427,50.25615 1.1839,51.18034 0.5379,1.45671 1.6186,1.1214 8.1205,-2.51964 24.6058,-13.77913 46.4889,-20.9294 72.7455,-23.76943 8.8239,-0.95444 11.8198,-0.95475 13.912,-10e-4 4.8786,2.22283 0.9799,4.00901 -11.1988,5.1308 -26.7941,2.46803 -48.8514,9.51645 -73.6132,23.52321 l -9.6545,5.46116 0.5006,4.24752 c 2.2655,19.22235 9.1876,44.53779 20.2831,74.17999 9.6064,25.66381 14.076,43.16275 18.0244,70.56755 10.0732,69.9161 7.0901,103.3115 -11.4088,127.71932 -9.5673,12.6232 -19.0055,18.7255 -35.3906,22.8819 -10.7916,2.7376 -16.9588,3.0364 -19.7586,0.9574 -3.5677,-2.6493 -0.7035,-4.9084 7.9044,-6.2345 8.0158,-1.2349 16.8507,-3.5569 22.5297,-5.9214 l 3.3753,-1.4053 -12.8906,-13.2771 c -16.8356,-17.34042 -39.0049,-45.47382 -50.9999,-64.72032 -9.3846,-15.058 -37.3505,-65.7768 -44.93822,-81.5 -13.52075,-28.01741 -17.13843,-38.53578 -29.40684,-85.50003 -12.29881,-47.08062 -29.0846,-91.00362 -51.40105,-134.5 -22.87665,-44.58822 -38.70114,-65.71452 -59.40722,-79.31085 -24.233396,-15.9125 -48.273866,-19.30889 -66.579696,-9.40624 -4.81326,2.60376 -17.10671,13.07069 -16.29956,13.87783 0.21374,0.21374 3.17522,-0.92922 6.58106,-2.53993 12.17079,-5.75588 31.14901,-6.2854 42.66692,-1.19049 5.10685,2.25901 5.07039,2.1941 17.20181,30.61828 10.91092,25.5645 14.29695,35.21249 14.97482,42.66844 0.44501,4.89461 0.10904,6.54897 -2.33538,11.5 -3.60376,7.29921 -12.78802,17.88918 -20.62137,23.77761 -9.44082,7.09679 -23.82493,13.84491 -29.69817,13.9325 -8.12294,0.12115 -8.83515,-0.94618 -23.64002,-35.42715 -4.84107,-11.275 -9.12358,-20.87673 -9.51669,-21.33718 -1.00571,-1.17798 0.75936,7.85295 2.70443,13.83718 0.89385,2.75 4.21008,11.525 7.3694,19.5 3.15933,7.975 7.87143,20.575 10.47134,28 l 4.72711,13.5 0.81452,19.5 c 1.34627,32.23021 3.71594,42.48247 19.17829,82.97389 3.24994,8.51065 6.0807,15.64562 6.29059,15.85551 0.20989,0.20989 2.99663,-1.62456 6.19277,-4.07655 7.9288,-6.08277 20.14364,-13.04423 31.414286,-17.90357 12.56464,-5.41724 33.68553,-11.46062 35.10225,-10.0439 2.02514,2.02514 -0.14304,4.12014 -5.90799,5.70855 -13.34608,3.67724 -27.46889,9.00839 -37.640196,14.20859 -10.52869,5.38245 -26.65719,16.36542 -26.65719,18.15218 0,0.48591 3.21094,8.47528 7.13543,17.75415 8.76971,20.73468 16.71874,41.92948 20.20396,53.87068 2.98864,10.2397 10.948516,42.904 12.716706,52.1844 l 1.1783,6.1844 7.46486,-6.5103 c 12.76258,-11.1306 30.09772,-21.4415 44.11338,-26.2385 6.69508,-2.2915 8.18736,-2.135 8.18736,0.8587 0,1.3611 -1.40934,2.3188 -5.25,3.5674 -13.93001,4.5289 -34.77106,17.3022 -46.21326,28.3236 l -6.61286,6.3696 1.15921,3.6304 c 4.88475,15.2977 22.71343,49.13032 25.89006,49.13032 3.92246,0 13.30522,-3.5722 23.86648,-9.0865 6.2368,-3.2564 11.7493,-5.6676 12.25,-5.3581 1.64109,1.0142 0.95636,3.2633 -1.60755,5.28 -4.29076,3.3751 -19.679,10.8939 -25.98208,12.695 -3.3,0.943 -6.14521,1.8421 -6.3227,1.9981 -0.17748,0.1559 4.15082,8.0883 9.61845,17.6275 30.88435,53.8829 60.20425,108.5066 60.20425,112.1621 0,1.4636 6.33771,27.7532 14.0838,58.4215 18.0342,71.4008 16.61358,65.514 25.323,104.9337 l 7.4736,33.8267 0.5628,44 c 0.6192,48.4125 1.5621,74.3998 4.6078,127 4.0232,69.4827 7.7849,96.9545 19.45,142.0442 8.6235,33.3328 14.0558,48.9186 30.3081,86.9558 l 7.6909,18 -0.1274,17 c -0.2104,28.0738 -3.7484,51.084 -14.3831,93.542 -11.3492,45.3104 -31.4916,111.3895 -34.6604,113.7066 -2.4583,1.7976 -3.2577,1.5694 -4.3236,-1.2343 -0.7607,-2.0007 0.8111,-8.0792 8.0558,-31.1545 12.4323,-39.5983 15.0236,-48.6535 23.4255,-81.8598 10.3158,-40.7703 14.5269,-68.2271 14.4937,-94.5 -0.017,-13.2013 -0.096,-13.6881 -3.5818,-22 -18.083,-43.1179 -23.7048,-58.5157 -30.9278,-84.7088 -13.2544,-48.0649 -18.1333,-78.8227 -21.9363,-138.2912 -3.2264,-50.4533 -4.7078,-87.5852 -5.5056,-138 -0.7504,-47.4262 -1.026,-53.3215 -2.8509,-61 -1.1111,-4.675 -4.9507,-21.55 -8.53232,-37.5 -3.58165,-15.95 -9.64938,-41.15 -13.48383,-56 -3.83446,-14.85 -10.87923,-42.729 -15.65504,-61.9532 -5.94314,-23.9232 -9.64647,-36.8614 -11.73553,-41 -9.46009,-18.7414 -50.83348,-92.9769 -70.98215,-127.3619 -15.93912,-27.20122 -21.47209,-40.55112 -26.307796,-63.47532 -7.78844,-36.922 -15.04822,-61.3842 -26.47972,-89.2247 C 36.197574,774.95838 32.867524,763.76368 31.373994,724.735 30.613654,704.86591 30.257604,703.52137 15.922404,666.38638 5.8802944,640.37253 4.6419844,635.3875 4.3305144,619.72126 c -0.20193,-10.15684 -0.69271,-13.87435 -2.47812,-18.771 -4.90891,-13.46315 -0.0309,-27.88081 14.2725896,-42.18425 13.19251,-13.19251 29.39813,-18.97896 47.03439,-16.79429 25.52365,3.16172 50.680236,18.56721 69.261516,42.41466 29.06643,37.30421 65.76406,117.27161 82.60333,180 16.75467,62.41325 18.65446,68.0911 31.83235,95.1368 10.7671,22.0978 38.6698,72.2473 48.7306,87.5835 11.1929,17.0618 30.3818,40.8285 45.3222,56.13452 l 14.5,14.8548 6.1158,-6.5743 c 7.2598,-7.8041 12.4508,-17.76272 15.4477,-29.63532 4.5892,-18.1815 3.572,-55.2903 -2.6728,-97.5 -4.3427,-29.3537 -7.8268,-42.52914 -18.9071,-71.5 -6.9215,-18.09723 -11.202,-32.06869 -15.0935,-49.26494 -4.9804,-22.00737 -5.4808,-28.94062 -6.405,-88.73506 -0.4803,-31.075 -1.3398,-63.25 -1.91,-71.5 -0.5703,-8.25 -2.1689,-35.025 -3.5525,-59.5 -3.5825,-63.36993 -3.8733,-65.97771 -10.0896,-90.5 -8.3855,-33.07873 -10.9128,-51.03324 -12.3872,-88 -0.611,-15.3198 -1.6789,-28.15926 -2.9527,-35.5 -11.5816,-66.74324 -13.5802,-81.91638 -12.7768,-97 1.1988,-22.5063 8.7942,-38.94848 26.519,-57.40696 8.0108,-8.34244 10.2186,-9.87431 19.7082,-13.67411 14.2809,-5.71836 25.545,-8.03534 39.4565,-8.11607 14.3894,-0.0835 20.5694,1.45234 35.0003,8.69831 35.0455,17.59674 48.2897,48.05948 61.5193,141.49883 0.8955,6.325 5.3845,34.225 9.9756,62 10.4373,63.14293 13.7352,85.92343 17.0102,117.5 4.3141,41.59634 10.0781,78.05897 16.4904,104.31843 1.6517,6.7641 6.3924,23.54155 10.5348,37.28324 14.5329,48.20962 18.4793,70.11421 22.9525,127.39833 1.4173,18.15 3.2542,37.25567 4.082,42.45705 3.1585,19.84718 10.3215,43.25329 17.4016,56.86202 3.8743,7.44693 14.9841,21.18093 17.1337,21.18093 0.5108,0 0.6486,-1.7176 0.3084,-3.8451 -1.2841,-8.03 5.6164,-31.11326 14.4794,-48.43641 l 5.8157,-11.36689 0.734,-19.88184 c 0.4037,-10.93502 1.1641,-22.37662 1.6897,-25.4258 0.5256,-3.04918 1.3695,-10.94396 1.8753,-17.54396 0.5058,-6.6 1.6492,-14.42868 2.5408,-17.39706 1.4073,-4.68503 1.4582,-6.53204 0.3859,-14 -0.6794,-4.73162 -1.2415,-14.50769 -1.2491,-21.7246 -0.012,-11.00866 0.3596,-14.28308 2.3053,-20.33402 2.2549,-7.01285 2.2857,-7.60424 1.1146,-21.37834 -0.6624,-7.79129 -1.2116,-23.16598 -1.2203,-34.16598 -0.017,-21.727 0.6824,-28.30438 6.2694,-58.92807 1.9385,-10.62596 1.9433,-11.03986 0.1721,-14.97161 -1.4393,-3.19479 -1.8078,-6.46332 -1.756,-15.57192 0.061,-10.75003 0.3868,-12.60814 4.8226,-27.52037 10.3428,-34.77081 16.9532,-73.26228 18.6349,-108.50803 1.3433,-28.15629 2.6286,-41.42897 4.389,-45.3259 1.0696,-2.36772 1.5572,-9.39831 1.9196,-27.6741 0.3059,-15.43016 1.2521,-30.97846 2.5559,-42 8.0369,-67.93644 9.693,-96.12118 8.0498,-137 -1.9465,-48.427368 -0.046,-73.684718 6.9969,-92.982538 6.0731,-16.64087 14.5646,-25.6553 32.5019,-34.50374 19.5757,-9.6566802 37.3218,-13.22299018 60.9256,-12.24377018 9.4408,0.39166 15.1082,1.15780998 20.1382,2.72237998 33.3766,10.3817102 56.251,44.8117202 60.4239,90.9489002 0.6189,6.842668 1.2331,12.549108 1.365,12.680958 0.1318,0.13186 5.0729,-0.26152 10.9802,-0.87417 11.1277,-1.15407 13.0142,-0.81515 18.8021,3.37791 1.2401,0.89839 3.7946,0.25553 12.1212,-3.05035 5.8024,-2.30375 12.9704,-4.86226 15.9288,-5.68559 7.5487,-2.100848 29.2176,-2.965428 37.0715,-1.479138 21.4187,4.053298 40.3832,14.913668 51.8762,29.707898 20.12993,25.91185 24.33493,46.04365 34.85653,166.88125 1.6282,18.7 3.2445,40.075 3.5918,47.5 0.3473,7.425 1.367,16.875 2.266,21 1.3794,6.32924 1.641,14.83676 1.6757,54.5 l 0.041,47 3.8335,29.5 c 4.8789,37.54547 5.178,41.48608 3.7318,49.16878 -0.9912,5.26589 -0.9268,7.61145 0.3827,13.93963 6.3781,30.82216 7.6722,56.88343 4.6165,92.97278 -1.1913,14.06966 -2.0933,28.69466 -2.0046,32.5 0.6627,28.42439 0.048,52.13602 -1.915,73.91881 -8.5986,95.39737 -8.8181,99.1628 -6.8235,117.0719 0.9232,8.2896 1.6739,16.3896 1.6681,18 -0.01,1.7146 4.732,12.6669 11.4333,26.4281 15.4646,31.7567 27.9575,65.5646 37.6615,101.91912 6.1949,23.2083 5.99,22.7013 17.4628,43.2168 19.583,35.0181 28.9461,55.9283 38.8957,86.8641 11.4059,35.4637 22.8214,82.7448 29.5536,122.4053 2.3791,14.0162 4.3955,23.2267 5.1958,23.7337 0.7193,0.4557 1.543,0.9483 1.8305,1.0947 1.9751,1.0061 17.5477,20.0295 27.8457,34.0163 6.7829,9.2125 12.7145,16.75 13.1813,16.75 3.8383,0 23.9578,-4.7637 32.2158,-7.6277 18.6163,-6.4565 24.3295,-9.2093 28.4974,-13.7309 5.3803,-5.8369 12.6686,-16.844 21.0022,-31.7183 3.8756,-6.9174 11.3216,-19.0674 16.5468,-27 12.2018,-18.5244 20.2374,-32.9948 37.0557,-66.7292 14.3729,-28.8292 16.2212,-31.9431 26.3415,-44.3765 5.3269,-6.5444 6.9253,-9.466 9.8821,-18.0623 5.806,-16.8797 27.4225,-59.3667 44.0458,-86.5715 20.8618,-34.1414 49.8104,-64.96032 88.363,-94.07212 38.8202,-29.3138 85.1521,-48.8597 132,-55.6863 17.4286,-2.5397 39.1675,-0.7003 54.6411,4.6233 14.36,4.9406 27.9126,16.1476 35.7799,29.5874 7.1591,12.2299 9.0401,18.8643 9.0612,31.9587 0.012,7.6904 -0.3836,11.5788 -1.2903,12.6725 -1.0333,1.2464 -1.0794,2.8388 -0.2192,7.5826 1.2605,6.9509 0.019,17.14282 -2.8788,23.63382 -0.9862,2.2091 -6.6631,10.7665 -12.6153,19.0165 -18.6728,25.8811 -42.4786,63.8037 -42.4786,67.6683 0,1.0148 -3.1143,8.0296 -6.9207,15.5884 -9.9864,19.8311 -31.4088,77.126 -44.024,117.7433 -7.4497,23.9859 -10.1267,30.9004 -15.3356,39.6099 -5.2227,8.7325 -19.445,27.6214 -31.5063,41.844 -40.1554,47.3509 -44.9501,53.428 -58.5334,74.1884 -22.8643,34.9452 -37.1378,62.134 -51.8981,98.8577 -10.359,25.7733 -14.7432,41.5445 -21.2658,76.5 -4.7415,25.4106 -8.5514,40.5846 -12.0431,47.9654 -7.8088,16.5065 -29.5995,39.7379 -68.5076,73.0369 -13.4941,11.5488 -36.4441,31.1924 -51,43.6527 -88.9227,76.1199 -104.2533,90.3403 -134.6033,124.8552 -29.4773,33.5225 -54.844,57.8886 -71.3621,68.5473 -14.356,9.2634 -34.7712,18.4142 -63.5,28.4626 -24.7978,8.6735 -37.1295,13.6826 -43.2206,17.556 -7.8635,5.0006 -26.95083,23.9224 -35.32003,35.0137 -19.7514,26.1755 -33.8019,56.6319 -46.5535,100.9102 -3.1678,11 -6.4249,20.7875 -7.2378,21.75 -1.8162,2.1503 -3.5264,2.2281 -5.18,0.2357 z m 755.52433,-1020.913 c 2.9883,-3.918 3.1072,-3.4986 -4.776,-16.8553 -10.6215,-17.9965 -30.4451,-29.9438 -63.2886,-38.1426 -9.9755,-2.4902 -29.1072,-5.2487 -30.0266,-4.3293 -0.2636,0.2635 1.6406,3.2992 4.2316,6.7459 9.4489,12.5699 30.9716,28.5659 54.7801,40.7137 17.4118,8.884 31.5677,15.1815 34.2662,15.244 1.3668,0.032 3.1885,-1.2463 4.8133,-3.3764 z m 12.2986,-21.4774 c 8.4868,-14.8809 22.6656,-36.609 35.5561,-54.4876 13.6242,-18.8961 14.7204,-21.076 15.351,-30.52582 0.3995,-5.987 0.084,-8.7742 -1.5015,-13.2498 -6.8775,-19.4178 -31.2925,-39.4507 -54.2166,-44.4854 -10.4142,-2.2873 -32.073,-2.2904 -48.5,-0.01 -19.8073,2.7531 -19.803,2.7514 -23.9501,9.5783 -10.2721,16.9096 -36.5499,79.90432 -36.5499,87.61942 0,2.3372 0.2991,2.4627 5.869,2.4627 12.7404,0 40.0194,6.379 55.1212,12.8898 19.4626,8.3907 32.8371,19.2719 41.0045,33.3602 2.4711,4.2625 4.7414,7.75 5.0451,7.75 0.3037,0 3.3507,-4.9071 6.7712,-10.9047 z M 1028.9018,889.13638 c 0,-2.0625 -0.4637,-7.575 -1.0211,-12.25 -1.5303,-12.8344 -1.2215,-29.25459 1.0465,-55.64868 1.1273,-13.11822 2.6965,-31.72632 3.4873,-41.35132 0.7907,-9.625 1.909,-22 2.4851,-27.5 1.3834,-13.20559 3.0744,-55.12968 2.3112,-57.29755 -1.2148,-3.45021 -4.7614,-6.20723 -11.6937,-9.09026 -12.766,-5.30915 -39.07623,-10.93741 -68.10773,-14.56954 -46.2003,-5.78012 -190.2126,-10.28257 -245.5,-7.67539 -22.5485,1.06331 -71.4926,5.97272 -81.991,8.22422 -3.3881,0.72662 -5.4247,1.78529 -6.24,3.2436 -1.4548,2.60247 -1.6927,27.54863 -0.3972,41.66492 0.71,7.73609 0.5708,10.50849 -0.75,14.9315 -0.892,2.98733 -1.6224,8.38733 -1.6232,12 -7e-4,3.61268 -0.7064,10.3935 -1.5682,15.0685 -0.9291,5.03992 -1.766,16.84491 -2.056,29 l -0.4892,20.5 -7.4037,15.5 c -4.0721,8.525 -8.5728,19.55 -10.0016,24.5 -2.6972,9.344 -4.2357,18.5 -3.1086,18.5 0.3574,0 4.5826,-0.8675 9.3893,-1.9277 24.8941,-5.4911 36.8672,-6.5783 71.2394,-6.4688 32.9942,0.1051 50.8215,0.9494 93,4.4042 12.925,1.0587 37.675,2.844 55,3.9673 49.7918,3.2285 60.1752,4.4074 111,12.6031 33.3982,5.3856 86.03283,13.1948 89.75003,13.316 3.109,0.1013 3.2497,-0.057 3.2424,-3.6441 z m 7.0076,-208.09127 c 0,-0.46269 0.9571,-11.60019 2.1268,-24.75 3.4602,-38.89825 2.8013,-57.63032 -3.258,-92.61808 l -2.2011,-12.70935 -12.1181,-4.98251 c -18.4677,-7.59322 -35.03673,-11.92553 -65.04963,-17.00855 -24.1301,-4.0867 -60.2565,-7.07165 -85.75,-7.0851 l -9.75,-0.005 v 9.57946 9.57945 l 2.75,-0.53902 c 1.5125,-0.29646 8.15,-0.82077 14.75,-1.16514 9.8818,-0.5156 12.353,-0.3581 14,0.89224 3.6714,2.78727 0.4378,3.75977 -15.4647,4.65103 -8.3708,0.46915 -15.3413,0.99901 -15.49,1.17749 -0.2147,0.25766 -2.2461,31.87225 -2.0875,32.48863 0.023,0.0903 5.2172,-0.45275 11.5422,-1.20672 16.7468,-1.99629 30.7839,-1.79645 41.5,0.59084 12.134,2.70317 32.1519,5.9513 36.6786,5.95154 2.1134,1.2e-4 4.3943,0.71597 5.3609,1.68253 1.5764,1.57643 1.5665,1.76696 -0.1567,3.02706 -1.2293,0.89887 -3.3384,1.15275 -6.3609,0.76569 -11.0633,-1.41669 -25.1965,-3.8308 -33.0219,-5.64053 -12.5803,-2.90934 -23.4104,-3.27884 -40.5,-1.38176 -8.25,0.91582 -15.2552,1.97609 -15.5671,2.35616 -1.127,1.37343 -4.1202,23.02553 -3.4674,25.08245 0.6291,1.98189 1.3524,2.1086 12.0368,2.1086 6.2521,0 12.5045,0.43228 13.8941,0.96063 2.0362,0.77416 3.9415,0.31649 9.8151,-2.35775 15.9261,-7.25105 24.879,-9.14504 25.5899,-5.41358 0.2509,1.31666 -1.291,2.16611 -6.9898,3.85089 -10.1702,3.00668 -28.2874,11.8197 -34.5322,16.798 -5.167,4.11907 -9.2794,5.38344 -9.2794,2.85294 0,-1.81765 1.8366,-3.90251 6.4237,-7.2919 l 3.9237,-2.89923 -2.9237,-0.63169 c -3.9759,-0.85901 -11.5328,-0.99649 -15.1382,-0.27541 l -2.9645,0.5929 -1.67,11.89888 c -0.9185,6.54439 -2.7429,15.27758 -4.0543,19.4071 -1.3113,4.12952 -2.0946,7.51203 -1.7405,7.51669 7.3189,0.0963 68.2147,3.37812 83.6438,4.50773 42.4372,3.10696 87.90603,11.68855 100.50003,18.96792 2.8247,1.63268 5,1.92618 5,0.67461 z M 935.62927,645.27293 c -1.709,-1.70895 -0.6213,-4.37066 2.0301,-4.96813 1.5125,-0.34083 5.1184,-1.33346 8.0132,-2.20584 4.2257,-1.27348 5.507,-1.33821 6.5,-0.32838 0.9853,1.00201 0.76,1.64736 -1.1079,3.17373 -3.0586,2.49942 -14.1533,5.61074 -15.4354,4.32862 z M 57.341624,675.85805 c 8.92384,-4.5637 15.48325,-9.16547 20.51392,-14.3916 l 3.44616,-3.58007 h -4.5362 c -5.27421,0 -18.25679,3.13592 -23.04785,5.56717 -6.05754,3.07393 -12.80828,8.77124 -12.80828,10.80958 0,2.86288 2.91224,5.62325 5.93262,5.62325 1.44246,0 6.16729,-1.81275 10.49963,-4.02833 z M 43.247294,663.921 c 8.75049,-6.60668 20.98147,-10.66616 35.30726,-11.71854 l 8.14518,-0.59835 2.10482,-3.74502 c 2.7004,-4.8047 2.70019,-10.83445 -6.6e-4,-19.5788 -2.70967,-8.77287 -21.64552,-53.36558 -23.60249,-55.58233 -3.34076,-3.78425 -21.12801,-5.04687 -31.83193,-2.25958 -7.62846,1.98644 -13.57328,5.49363 -19.18212,11.31662 -9.1072596,9.455 -9.0385796,7.00525 -0.80272,28.63138 6.6883,17.56248 23.56093,57.5 24.29235,57.5 0.17501,0 2.68165,-1.78442 5.57031,-3.96538 z m 604.726176,-1.98553 c 36.3703,-4.43924 46.4973,-5.21485 73.9359,-5.66258 15.675,-0.25578 29.9625,-0.69277 31.75,-0.97109 3.8888,-0.60551 4.5248,-3.41542 0.7731,-3.41542 -1.5507,0 -3.101,-0.95232 -4.1456,-2.54665 -1.4642,-2.23461 -1.5819,-4.52196 -0.9602,-18.66727 0.6833,-15.54826 1.8021,-28.10832 3.1383,-35.23095 l 0.6385,-3.40347 -4.847,-0.78126 c -7.4216,-1.19621 -28.7476,-0.89878 -39.2641,0.5476 -7.6159,1.04743 -11.2266,1.05566 -18.8777,0.043 -6.1178,-0.80972 -13.841,-1.01798 -21.8577,-0.58941 -10.7874,0.57669 -12.4761,0.45701 -13.0052,-0.92164 -1.0086,-2.62831 0.6946,-3.27578 11.6576,-4.43164 8.4109,-0.88679 12.6886,-0.81954 21.5,0.33802 6.05,0.79479 12.7492,1.15226 14.8871,0.79437 3.8781,-0.64921 3.8666,-0.65728 -5,-3.51339 -16.8449,-5.42605 -21.1264,-7.94893 -17.9557,-10.58034 0.9757,-0.80979 3.5902,-0.22358 10.1905,2.28486 20.4558,7.77422 27.665,9.39655 44.393,9.99003 8.5331,0.30274 16.2768,0.84284 17.2081,1.20021 1.2828,0.49225 1.8424,-0.0389 2.3086,-2.19115 2.2773,-10.51392 7.0933,-28.17598 11.4089,-41.84092 2.7792,-8.8 5.0545,-16.40629 5.0563,-16.90286 0.01,-1.87172 -64.7552,2.28718 -84.9337,5.4543 -11.0546,1.73508 -22.9012,4.74065 -37.9102,9.61811 -10.9779,3.5675 -14.5542,5.15176 -15.2294,6.74641 -0.4853,1.14622 -2.5007,11.75904 -4.4787,23.58404 -4.3176,25.81241 -5.3122,46.06023 -3.5107,71.46816 1.5531,21.90365 1.7423,22.82988 4.5197,22.1328 1.1959,-0.30017 9.5706,-1.44851 18.6103,-2.55187 z m 47.5391,-41.58008 c -7.8068,-1.31084 -9.9049,-2.51929 -8.9037,-5.12833 0.6358,-1.65694 0.1769,-1.66472 12.5571,0.2127 5.6339,0.85436 15.4184,1.49276 21.7434,1.41868 6.325,-0.0741 12.0625,-0.0981 12.75,-0.0534 1.8081,0.11763 1.5382,3.75674 -0.3318,4.47433 -2.8429,1.09091 -29.7273,0.434 -37.815,-0.924 z m -50.9734,-53.99137 c -0.8192,-2.13467 5.6783,-9.03933 11.8228,-12.56377 5.3133,-3.0476 8.004,-3.60211 9.0745,-1.87007 0.9432,1.52614 -1.0274,3.47998 -6.8584,6.79996 -2.8428,1.6186 -6.4904,4.34091 -8.1058,6.04957 -3.235,3.42176 -5.0428,3.90449 -5.9331,1.58431 z m 80.3702,-20.6196 c -4.125,-0.47871 -12.2721,-0.5977 -18.1047,-0.26441 -8.9644,0.51225 -10.6953,0.36984 -11.1906,-0.92071 -1.155,-3.00994 2.1975,-4.06025 14.342,-4.49325 11.6053,-0.41377 26.6526,1.05386 30.1844,2.94402 0.9729,0.52067 1.7689,1.60584 1.7689,2.41149 0,1.67415 -4.603,1.76157 -17,0.32286 z m 114.4866,107.51984 c 2.0231,-4.84209 1.9996,-4.92582 -1.7366,-6.17643 l -3.25,-1.08786 3.6099,0.52821 c 3.5707,0.52247 3.6222,0.47904 4.75,-3.99962 1.5159,-6.02022 1.5628,-5.91214 -1.8102,-4.16786 -1.6227,0.83912 -4.2746,1.52568 -5.8931,1.52568 -3.7239,0 -6.018,4.44862 -2.6696,5.17668 0.9896,0.21516 0.6189,0.7271 -1.1083,1.53038 -2.7968,1.30071 -2.8456,0.99149 -0.8547,-5.41171 1.004,-3.22886 -2.2433,-3.79857 -21.524,-3.77624 -18.3163,0.0212 -27.9471,1.49668 -28.0789,4.30179 -0.049,1.04028 -0.2709,1.20353 -0.5834,0.4291 -0.2774,-0.6875 -0.9731,-1.25 -1.546,-1.25 -2.2794,0 -12.7917,5.35126 -12.7917,6.51156 0,0.68114 -0.2812,2.64469 -0.625,4.36344 l -0.625,3.125 h 6.625 c 6.1634,0 6.6345,-0.15679 6.7612,-2.25 0.1308,-2.16084 0.1526,-2.1661 0.5521,-0.13275 0.5426,2.76149 6.0656,3.32861 32.7294,3.36073 10.9547,0.0132 20.1422,0.24855 20.4166,0.52301 0.2745,0.27446 1.768,0.49901 3.3189,0.49901 2.2957,0 3.1013,-0.67341 4.3334,-3.62212 z m -34.2546,-2.37788 c 0,-1.925 0.2058,-2.7125 0.4573,-1.75 0.2516,0.9625 0.2516,2.5375 0,3.5 -0.2515,0.9625 -0.4573,0.175 -0.4573,-1.75 z m -26.5393,-4.35852 c -0.333,-0.86758 -0.1451,-1.8619 0.4175,-2.20959 1.5569,-0.96219 2.1883,0.21227 1.1305,2.10257 -0.842,1.5045 -1.0074,1.51593 -1.548,0.10702 z m 44.5763,-2.33447 c 0.973,-0.25354 2.323,-0.23687 3,0.0371 0.6771,0.27393 -0.119,0.48137 -1.769,0.46099 -1.65,-0.0204 -2.2039,-0.2445 -1.231,-0.49804 z m -48.769,-9.68334 c 10.4869,-3.75412 19.4419,-5.03264 35.5,-5.06837 10.5509,-0.0235 16.0711,0.41669 20.2686,1.61615 5.0236,1.43552 5.9548,1.46224 7.2101,0.20695 1.7032,-1.7032 8.5213,-22.28104 8.5213,-25.71833 0,-4.34402 -15.312,-12.75706 -25.75,-14.1481 -3.8392,-0.51163 -5.25,-0.3728 -5.25,0.51664 0,0.94562 -0.3318,0.94093 -1.4909,-0.0211 -1.4148,-1.17414 -4.3517,-1.05384 -14.0091,0.57383 -2.3471,0.39558 -2.641,0.27993 -1.3504,-0.53137 0.9073,-0.57035 4.7323,-1.37742 8.5,-1.7935 l 6.8504,-0.7565 0.6081,-4 0.6081,-4 0.1419,4.25 c 0.1372,4.11002 0.2503,4.25 3.4318,4.25 6.1492,0 14.774,2.98368 21.4961,7.43648 4.5339,3.00325 6.9052,4.05575 7.3268,3.25195 0.7561,-1.44143 3.8872,-21.58126 3.8872,-25.00338 0,-2.17729 -0.7216,-2.62317 -6.6593,-4.11468 -4.8634,-1.22163 -6.8486,-1.36665 -7.3609,-0.53772 -0.4788,0.77469 -0.8944,0.63221 -1.3093,-0.4488 -0.3342,-0.87112 -1.4094,-1.62871 -2.3891,-1.68353 -1.1954,-0.0669 -0.959,-0.3436 0.7186,-0.8412 1.375,-0.40783 2.95,-0.41052 3.5,-0.006 0.55,0.40456 3.6988,1.41708 6.9973,2.25003 4.4821,1.13185 6.1836,1.2217 6.7347,0.35564 0.4056,-0.63735 0.7443,-9.32024 0.7527,-19.29529 l 0.015,-18.13645 -4.75,-0.78877 c -2.6125,-0.43382 -5.9875,-0.87866 -7.5,-0.98854 -6.2471,-0.45383 -6.4136,-0.51035 -4.174,-1.41657 1.83,-0.74049 7.1859,-0.18439 14.174,1.47168 2.1039,0.49858 2.25,0.20927 2.25,-4.45459 v -4.9878 l -14.25,0.002 c -7.8375,10e-4 -14.7604,0.32465 -15.3843,0.71875 -0.6239,0.39411 -1.3592,1.61656 -1.634,2.71656 -0.4378,1.7524 -0.5141,1.70934 -0.6157,-0.34785 l -0.116,-2.34785 -14.25,0.61757 c -7.8375,0.33967 -16.8096,0.58612 -19.938,0.54767 -4.5084,-0.0554 -5.8828,0.30341 -6.6277,1.73028 -0.8604,1.64814 -9.1843,28.68527 -9.1843,29.8319 0,1.10245 11.9568,-5.627 12.9116,-7.26682 0.5652,-0.9707 1.0413,-1.2024 1.058,-0.5149 0.017,0.6875 0.8179,1.26802 1.7804,1.29004 1.2477,0.0285 0.9607,0.46825 -1,1.53193 -1.5125,0.82055 -2.7816,2.26503 -2.8203,3.20997 -0.064,1.55399 -0.1382,1.54577 -0.7821,-0.0861 -0.6611,-1.67573 -1.1011,-1.60233 -6.1797,1.03096 -5.1784,2.68503 -5.5826,3.17766 -7.6335,9.30418 -1.1911,3.55797 -2.481,8.1685 -2.8663,10.24561 l -0.7007,3.77657 6.2131,-3.7011 c 3.4172,-2.03561 6.591,-4.63506 7.0529,-5.77657 0.6902,-1.70559 0.8511,-1.76359 0.9032,-0.32547 0.035,0.9625 0.1759,1.74513 0.3134,1.73918 0.1375,-0.006 2.459,-0.68096 5.1589,-1.5 2.6999,-0.81905 5.8499,-1.44709 7,-1.39564 1.1501,0.0514 -0.8339,0.99425 -4.4089,2.09513 -3.575,1.10088 -7.2115,2.63477 -8.0812,3.40865 -0.8696,0.77387 -1.8448,1.14337 -2.167,0.8211 -0.8483,-0.84825 -11.4539,6.14465 -12.5553,8.27847 -2.6172,5.07013 -6.1278,34.05986 -6.1707,50.95693 l -0.026,10.15382 5.25,-2.83905 c 2.8875,-1.56148 8.4,-3.96669 12.25,-5.34492 z m 6.6579,-6.62367 c 0,-1.375 0.227,-1.9375 0.5044,-1.25 0.2774,0.6875 0.2774,1.8125 0,2.5 -0.2774,0.6875 -0.5044,0.125 -0.5044,-1.25 z m 0.8568,-5.25 c -0.01,-0.9625 -0.5507,-1.75 -1.2058,-1.75 -0.6999,0 -0.5284,-0.51558 0.4156,-1.25 0.8837,-0.6875 1.7796,-2.15 1.9908,-3.25 0.3312,-1.72475 0.4526,-1.65594 0.8825,0.5 0.2741,1.375 -0.079,3.625 -0.7849,5 -0.9436,1.83798 -1.2873,2.03659 -1.2982,0.75 z m 29.0006,-6.5 c 0.01,-0.4125 0.4515,-1.425 0.9847,-2.25 0.7839,-1.21296 0.9723,-1.06944 0.9847,0.75 0.01,1.2375 -0.4347,2.25 -0.9847,2.25 -0.55,0 -0.9931,-0.3375 -0.9847,-0.75 z m -26.9364,-3.83333 c 0.048,-1.16495 0.285,-1.4019 0.6042,-0.60417 0.2889,0.72187 0.2534,1.58438 -0.079,1.91667 -0.3323,0.33229 -0.5687,-0.25834 -0.5253,-1.3125 z m 1.0874,-3.91667 c -0.013,-2.12885 2.5648,-10.69231 2.7096,-9 0.047,0.55 -0.5406,3.25 -1.3058,6 -0.7652,2.75 -1.3969,4.1 -1.4038,3 z m 28.0657,-3.5 c 0,-1.925 0.2058,-2.7125 0.4573,-1.75 0.2516,0.9625 0.2516,2.5375 0,3.5 -0.2515,0.9625 -0.4573,0.175 -0.4573,-1.75 z m -43.1531,-2.58333 c 0.048,-1.16495 0.285,-1.4019 0.6042,-0.60417 0.2889,0.72187 0.2534,1.58438 -0.079,1.91667 -0.3323,0.33229 -0.5687,-0.25834 -0.5253,-1.3125 z m 0.071,-5.36667 c 0.4297,-1.28914 1.8013,-1.5207 1.925,-0.325 0.041,0.39875 -0.465,0.905 -1.125,1.125 -0.66,0.22 -1.02,-0.14 -0.8,-0.8 z m 18.02,-0.05 c 0.016,-0.825 0.3896,-2.625 0.83,-4 0.6436,-2.00973 0.8064,-2.10779 0.83,-0.5 0.016,1.1 -0.3573,2.9 -0.83,4 -0.5265,1.22531 -0.848,1.41898 -0.83,0.5 z m -16.0911,-6.58333 c 0.048,-1.16495 0.285,-1.4019 0.6042,-0.60417 0.2889,0.72187 0.2534,1.58438 -0.079,1.91667 -0.3323,0.33229 -0.5687,-0.25834 -0.5253,-1.3125 z m 63,-12 c 0.048,-1.16495 0.285,-1.4019 0.6042,-0.60417 0.2889,0.72187 0.2534,1.58438 -0.079,1.91667 -0.3323,0.33229 -0.5687,-0.25834 -0.5253,-1.3125 z m -19.8839,-5.91667 c 0.02,-1.65 0.2445,-2.20394 0.4981,-1.23097 0.2535,0.97297 0.2369,2.32297 -0.037,3 -0.2739,0.67703 -0.4813,-0.11903 -0.461,-1.76903 z m -37.116,-8.08333 c 0.048,-1.16495 0.285,-1.4019 0.6042,-0.60417 0.2889,0.72187 0.2534,1.58438 -0.079,1.91667 -0.3323,0.33229 -0.5687,-0.25834 -0.5253,-1.3125 z m 38,0 c 0.048,-1.16495 0.285,-1.4019 0.6042,-0.60417 0.2889,0.72187 0.2534,1.58438 -0.079,1.91667 -0.3323,0.33229 -0.5687,-0.25834 -0.5253,-1.3125 z m 21.079,-7.41667 c 0,-1.375 0.227,-1.9375 0.5044,-1.25 0.2774,0.6875 0.2774,1.8125 0,2.5 -0.2774,0.6875 -0.5044,0.125 -0.5044,-1.25 z m -35.6029,-9.91106 c -0.4462,-0.7219 -0.3711,-1.59974 0.1669,-1.95074 0.538,-0.35101 1.2352,-1.3132 1.5492,-2.1382 0.4708,-1.23687 0.5849,-1.20763 0.65,0.16667 0.043,0.91666 0.6414,1.89364 1.3289,2.17105 0.7795,0.31454 0.6227,0.5341 -0.4167,0.58333 -0.9166,0.0434 -1.8467,0.61929 -2.0669,1.2797 -0.2982,0.89453 -0.6071,0.86602 -1.2114,-0.11181 z m 26.2575,-0.77205 c 0.7219,-0.28887 1.5844,-0.25335 1.9167,0.0789 0.3323,0.33229 -0.2584,0.56864 -1.3125,0.52522 -1.165,-0.048 -1.4019,-0.28494 -0.6042,-0.60416 z m -43.7336,-1.90022 c 0.048,-1.16495 0.285,-1.4019 0.6042,-0.60417 0.2889,0.72187 0.2534,1.58438 -0.079,1.91667 -0.3323,0.33229 -0.5687,-0.25834 -0.5253,-1.3125 z m 31.6711,0.8776 c 1.2375,-0.23836 3.2625,-0.23836 4.5,0 1.2375,0.23835 0.225,0.43337 -2.25,0.43337 -2.475,0 -3.4875,-0.19502 -2.25,-0.43337 z m -8.6711,-18.8776 c 0.048,-1.16495 0.285,-1.4019 0.6042,-0.60417 0.2889,0.72187 0.2534,1.58438 -0.079,1.91667 -0.3323,0.33229 -0.5687,-0.25834 -0.5253,-1.3125 z m 227.19373,12.83333 c 0.2703,-2.0625 -1.2394,-18.08663 -3.3549,-35.60917 -6.0416,-50.04118 -6.2667,-53.68186 -5.39,-87.14083 0.8849,-33.76757 0.7775,-42.39934 -0.5924,-47.63637 -0.6655,-2.54421 -3.0383,-5.60527 -7.9004,-10.19187 -3.822,-3.60552 -7.9791,-7.10671 -9.2379,-7.78042 -2.1655,-1.15891 -2.1408,-1.03092 0.4571,2.37515 3.0506,3.99952 3.586,8.19716 1.1641,9.12652 -0.87,0.33385 -3.4023,0.60699 -5.6273,0.60699 h -4.04563 l 4.19083,4.5465 c 2.8023,3.04017 4.087,5.27656 3.8774,6.75 -0.2812,1.9767 -1.0576,2.26141 -7.5428,2.76611 -3.97613,0.30944 -7.48733,0.82061 -7.80263,1.13593 -0.3153,0.31533 1.1379,1.59628 3.2293,2.84655 4.79843,2.86855 9.30263,6.97781 9.30263,8.48701 0,2.21177 -3.6725,4.46127 -8.32423,5.09886 l -4.6781,0.6412 5.3993,3.37728 c 5.57893,3.48963 6.94883,5.28591 5.97213,7.83103 -0.5812,1.51451 -6.21583,3.50395 -9.95243,3.51395 -4.0572,0.0109 -3.3628,1.40139 2.5746,5.15553 9.31103,5.88722 8.23653,8.84391 -4.1839,11.51292 -4.2941,0.92275 -7.8062,1.9386 -7.8047,2.25743 0,0.31884 3.039,2.1547 6.75,4.0797 4.8825,2.53267 6.8353,4.11918 7.0656,5.74033 0.3847,2.70778 -1.5766,3.70409 -11.1247,5.65113 -3.7435,0.76338 -7.1185,1.71178 -7.5,2.10756 -0.3815,0.39578 0.4141,1.45791 1.768,2.36029 5.079,3.3853 12.0384,9.21976 12.0384,10.09251 0,2.06057 -3.1854,3.8172 -8.1838,4.51306 l -5.3162,0.74009 7.0929,3.2669 c 7.7412,3.56553 9.5361,5.87761 6.696,8.62572 -1.8568,1.79677 -14.014,5.90241 -17.4776,5.90241 -3.4577,0 -1.466,2.0649 6.1188,6.34371 11.7356,6.62033 11.8373,9.70526 0.3672,11.13834 -10.47,1.30815 -10.5165,1.64924 -0.956,7.01563 13.3375,7.48641 12.6346,11.27449 -2.6385,14.21881 -8.7231,1.68164 -10.6561,2.8056 -6.4528,3.75202 1.2375,0.27864 7.425,1.64102 13.75,3.02752 13.2931,2.91396 26.70973,7.16 37.75163,11.94749 4.2616,1.84773 8.2617,3.40383 8.889,3.458 0.6273,0.0542 1.3617,-1.58902 1.632,-3.65152 z m -392.66503,-4.24506 c 26.3328,-9.07994 41.2037,-11.90688 78.3924,-14.90232 48.5158,-3.90779 118.2135,-6.01971 163,-4.93909 28.8473,0.69603 40.2079,1.58106 63.8376,4.97318 14.3018,2.05307 14.341,2.05325 15.7299,0.0704 1.0261,-1.46507 3.8956,-2.45928 10.9124,-3.78085 5.236,-0.98619 9.5201,-2.05275 9.5201,-2.37013 0,-0.31737 -4.0729,-2.95767 -9.0509,-5.86733 -4.9779,-2.90966 -9.3245,-6.00362 -9.6591,-6.87548 -1.2205,-3.18055 1.1896,-4.78587 8.5603,-5.70196 3.9323,-0.48874 7.1497,-1.23348 7.1497,-1.65498 0,-0.4215 -2.0708,-1.97995 -4.6018,-3.46322 -6.1137,-3.58283 -8.3982,-5.99622 -8.3982,-8.87187 0,-2.67185 2.0438,-3.70134 11,-5.54101 8.9875,-1.84608 9.0536,-2.43401 0.7238,-6.44047 -4.1232,-1.98319 -7.8004,-4.39702 -8.1715,-5.36406 -0.9109,-2.37379 2.759,-5.2554 6.8085,-5.34607 1.7266,-0.0386 3.9989,-0.40735 5.0496,-0.81933 1.6911,-0.66308 1.4951,-1.00569 -1.7078,-2.98518 -3.5234,-2.17754 -8.7026,-7.54022 -8.7026,-9.0108 0,-2.44621 3.405,-4.50017 10.06,-6.06839 l 7.44,-1.75319 -6.0598,-3.06481 c -6.7517,-3.41472 -8.7653,-5.31877 -8.2728,-7.82279 0.4569,-2.32274 2.0922,-3.04207 11.2982,-4.96969 8.9139,-1.86644 8.9193,-1.76585 -0.3968,-7.38373 -7.6314,-4.60196 -6.1022,-9.05277 3.3804,-9.83915 3.053,-0.25317 5.5508,-0.81163 5.5508,-1.24102 0,-0.42939 -2.4553,-2.16638 -5.4561,-3.85997 -3.0009,-1.69359 -5.925,-3.9553 -6.4981,-5.02601 -1.6079,-3.00445 1.1525,-5.08256 6.7756,-5.10096 7.7682,-0.0254 8.094,-1.22628 1.5192,-5.59969 -4.3639,-2.90271 -5.919,-4.56331 -6.1505,-6.56774 -0.3962,-3.42882 1.7791,-4.63566 9.882,-5.48258 l 6.16423,-0.6443 -5.61813,-4.92803 c -3.8246,-3.35472 -5.6182,-5.67631 -5.6182,-7.27186 0,-2.86142 1.867,-3.35996 8.3239,-2.2227 2.65313,0.4673 5.20483,0.71072 5.67053,0.54093 0.4656,-0.1698 -2.1318,-4.21128 -5.77213,-8.98107 -6.3701,-8.34654 -6.9776,-8.8428 -16.1705,-13.20923 -11.9326,-5.6677 -21.452,-8.151 -40.5518,-10.57867 -59.7809,-7.59841 -165.9999,-8.33015 -218.1165,-1.5026 -27.6269,3.61927 -55.0781,13.32949 -64.118,22.6803 -4.1213,4.26311 -4.907,8.41052 -5.7368,30.28255 -1.711,45.10283 -8.148,86.38699 -19.2558,123.5 -4.1022,13.70578 -4.688,16.86013 -5.0614,27.25 -0.2322,6.4625 -0.1449,11.75 0.1939,11.75 0.3388,0 5.8298,-1.79778 12.2022,-3.99506 z M 1020.9997,326.38638 c -0.5666,-7.15 -1.709,-20.425 -2.5388,-29.5 -0.8297,-9.075 -2.4284,-26.85 -3.5526,-39.5 -4.1281,-46.45232 -9.035,-79.07425 -14.4607,-96.13847 -7.05623,-22.19234 -24.34793,-41.61757 -44.20203,-49.65584 -11.9801,-4.85037 -18.943,-6.14231 -32.3362,-5.99989 -13.9619,0.14847 -21.6778,1.7848 -36,7.63452 l -8.5,3.47173 v 4.34397 c 0,5.02079 -0.4708,4.93911 11,1.9085 26.7283,-7.06168 58.3435,-4.00566 75.1394,7.26318 13.102,8.79047 13.1313,8.86943 13.9823,37.6723 0.6617,22.39816 -0.7305,46.79267 -2.9707,52.05288 -2.0355,4.77941 -13.7415,13.98139 -24.0179,18.88021 -13.8893,6.62117 -19.1572,7.53279 -43.6331,7.55096 -11.825,0.009 -25.1,-0.20905 -29.5,-0.48405 l -8,-0.5 v 32.78731 c 0,28.05654 0.2164,32.924 1.5,33.73468 1.9371,1.22348 15.3067,1.26437 16.55,0.0506 3.7149,-3.62645 49.8882,-7.85832 56.7,-5.19666 2.7584,1.07785 3.8434,4.08942 1.5,4.16364 -0.6875,0.0218 -8.675,0.22373 -17.75,0.44878 -9.075,0.22505 -18.075,0.83617 -20,1.35804 -1.925,0.52188 -2.9272,0.99493 -2.2272,1.05123 12.4953,1.00488 41.813,4.44509 48.1891,5.65462 21.2572,4.03242 39.8972,12.67698 58.53813,27.14781 l 7,5.43407 0.3101,-6.31707 c 0.1706,-3.47439 -0.1533,-12.16707 -0.7198,-19.31707 z m -338.01173,-1.29582 c 19.0859,-6.73443 41.5551,-10.3318 75.9214,-12.15521 30.61,-1.62411 33,-1.9055 33,-3.88533 0,-0.92245 1.1062,-6.62413 2.4583,-12.67041 4.1235,-18.43986 5.8854,-38.03846 7.5507,-83.99323 1.5669,-43.23889 2.6189,-48.91549 10.9913,-59.30546 6.0331,-7.4871 7.4995,-10.85773 9.5824,-22.02605 0.8892,-4.76767 2.1798,-10.02552 2.8681,-11.68411 1.3075,-3.1511 7.8075,-9.48438 9.734,-9.48438 1.614,0 0.2361,-21.288318 -2.1035,-32.499998 -7.2364,-34.67724 -28.5876,-61.0535 -55.0813,-68.0449202 -8.7813,-2.3173 -32.0532,-2.36474 -44.8178,-0.0913 -23.7893,4.2368902 -46.544,17.5259602 -53.4674,31.2256602 -4.0646,8.04293 -7.5943,20.69612 -9.3986,33.6924 -1.3603,9.79841 -1.6117,17.46647 -1.2694,38.718198 0.2348,14.575 0.403,40.675 0.3738,58 -0.055,32.71937 -0.243,35.41161 -6.4533,92.5 -4.4781,41.16411 -6.2198,69.91415 -4.349,71.785 0.3401,0.34008 4.0526,-1.10792 8.25,-3.21777 4.1974,-2.10985 11.4921,-5.19823 16.2103,-6.86305 z m 42.2572,-32.7714 c -0.9163,-2.38791 0.3875,-2.99577 10.5043,-4.89718 6.8792,-1.29293 9.6344,-1.46112 10.4571,-0.63838 1.8926,1.89259 -1.5182,4.18497 -8.4331,5.66779 -8.4787,1.81819 -11.7932,1.78321 -12.5283,-0.13223 z m -30.8358,-17.31092 c -2.1135,-0.45194 -3,-1.22959 -3,-2.63168 0,-1.88655 0.5748,-1.97308 11.0397,-1.66182 11.8934,0.35376 25.7573,-0.88469 39.7154,-3.54773 6.6091,-1.26093 9.0377,-1.38788 9.9076,-0.51789 2.9235,2.92347 -5.3078,5.68261 -24.4851,8.2074 -8.4184,1.10834 -28.2793,1.19916 -33.1776,0.15172 z m -2.1642,-23.68908 c -0.3307,-0.86197 -0.1396,-2.02897 0.4248,-2.59334 1.4053,-1.40529 22.8376,-7.5068 33.2394,-9.46285 12.528,-2.35586 29.0243,-1.47031 39.2785,2.10854 7.3382,2.5611 10.7215,4.60572 10.7215,6.47931 0,2.0478 -3.5437,1.69685 -11.6918,-1.1579 -16.0155,-5.61118 -30.8522,-4.92138 -57.1878,2.6588 -14.1201,4.0642 -13.9868,4.04646 -14.7846,1.96744 z m 9.5744,-29.04099 c -2.1772,-2.6234 0.936,-3.96405 12.345,-5.31617 15.4025,-1.8254 27.0652,-1.87666 29.1771,-0.12823 3.1115,2.57596 -0.6435,4.04995 -10.3734,4.07205 -4.7074,0.0107 -13.0589,0.67143 -18.5589,1.46829 -5.5,0.79687 -10.2824,1.46312 -10.6276,1.48056 -0.3451,0.0174 -1.2281,-0.69199 -1.9622,-1.5765 z m 0.5396,-51.85301 c -7.9882,-1.45114 -11.8827,-3.20647 -15.3508,-6.91892 -2.0139,-2.15589 -2.5269,-4.0651 -3.1827,-11.84501 -1.6603,-19.69687 -3.1538,-73.862448 -2.4351,-88.313408 l 0.7441,-14.96144 4.1374,-3.86137 c 5.0965,-4.75658 16.3355,-12.44426 23.4832,-16.06299 10.7125,-5.42352 18.9458,-6.93527 37.6541,-6.91386 15.1099,0.0173 18.0845,0.30883 26.7537,2.62218 11.0065,2.93701 19.8052,7.2553 26.134,12.82613 l 4.2991,3.78418 0.5877,13.30286 c 1.5378,34.80725 -3.4919,80.362868 -10.3748,93.968658 -2.4634,4.86966 -5.7866,7.08077 -17.7968,11.84159 -25.0595,9.93345 -54.8276,14.13287 -74.6531,10.5314 z m 39.8114,-8.49796 c 17.3736,-2.97015 42.7427,-11.60748 41.239,-14.04048 -0.9443,-1.52798 -11.2569,-6.56026 -18.3196,-8.93952 -10.3855,-3.49861 -31.358,-2.17928 -45.7463,2.87779 -11.0856,3.8963 -27.1418,15.65143 -24.7452,18.11656 4.0802,4.19673 28.6419,5.22193 47.5721,1.98565 z m -45.4552,-13.1013 c 11.562,-10.1772 32.5793,-17.02854 52.694,-17.17742 11.3194,-0.0838 20.7345,2.48264 32.2844,8.80038 3.4565,1.89063 6.4765,3.43752 6.7113,3.43752 0.8882,0 3.611,-10.90619 5.4898,-21.98902 3.0079,-17.74331 4.0128,-31.568638 4.0137,-55.220508 l 8e-4,-21.70953 -2.75,-2.58557 c -3.6052,-3.38962 -15.2009,-9.04461 -22.75,-11.09473 -9.0212,-2.4499 -33.8143,-3.03935 -44.3281,-1.05389 -13.1293,2.4794 -35.6635,15.70925 -38.3456,22.51279 -1.5967,4.05009 0.2358,100.140458 1.9097,100.140458 0.2514,0 2.5329,-1.82722 5.07,-4.06048 z m 166.6094,141.31048 c -0.3241,-11.9625 -0.137,-29.85 0.4159,-39.75 l 1.0052,-18 -2.4651,-3.79937 c -1.3558,-2.08965 -3.092,-4.03993 -3.8583,-4.33396 -0.7662,-0.29403 -2.1511,-1.69145 -3.0776,-3.10538 -1.465,-2.23593 -1.4808,-2.49264 -0.1211,-1.97088 1.1334,0.43493 1.6764,-0.14127 1.9746,-2.09525 0.3839,-2.51508 0.4213,-2.48433 0.5612,0.46023 0.093,1.96943 1.4319,4.68996 3.561,7.23833 l 3.4112,4.08294 0.6253,-8.73833 c 0.3439,-4.80608 0.9696,-12.22407 1.3904,-16.48441 l 0.7652,-7.74609 -3.3017,-3.20008 c -1.8159,-1.76005 -3.3016,-3.65008 -3.3016,-4.20008 0,-0.55 1.5332,0.48602 3.4071,2.30226 l 3.4071,3.30227 1.18,-5.8561 c 0.649,-3.22085 1.566,-7.64613 2.0378,-9.83395 0.744,-3.45028 0.5281,-4.41005 -1.6278,-7.23657 -3.0703,-4.02543 -6.0312,-5.79355 -6.7446,-4.02759 -0.2994,0.74121 -0.5335,0.54568 -0.5807,-0.48494 -0.137,-2.99867 -4.8544,-5.15914 -11.8138,-5.41053 -3.5583,-0.12854 -6.7236,-0.48769 -7.034,-0.79811 -1.193,-1.193 10.4682,-0.40483 14.2689,0.96443 5.2007,1.8736 5.2856,1.86219 5.7943,-0.77884 0.3351,-1.74 0.4642,-1.55933 0.5695,0.79705 0.095,2.12765 1.3376,4.22019 4.1178,6.93503 2.1899,2.13838 4.1904,3.67924 4.4455,3.42414 1.0305,-1.03051 2.5334,-13.88508 1.9914,-17.03338 -1.013,-5.88466 -2.4315,-7.64689 -7.4866,-9.30031 -5.474,-1.79048 -19.1022,-2.06071 -25.8201,-0.51199 -6.4506,1.4871 -14.8951,5.74886 -19.3298,9.75541 -7.7098,6.96534 -9.9274,13.40025 -11.2633,32.68405 l -0.6235,9 4.9331,-5.13792 c 4.7848,-4.98346 13.748,-11.11909 14.762,-10.10507 0.275,0.275 -1.441,1.63753 -3.8134,3.02785 -2.3724,1.39032 -6.8409,4.95633 -9.93,7.92448 l -5.6166,5.39664 -0.6426,16.94701 c -0.3534,9.32085 -1.3167,26.62201 -2.1407,38.44701 -1.3798,19.80203 -1.977,25.4541 -4.0146,38 l -0.7309,4.5 5.8993,-5.44104 c 3.2445,-2.99256 6.1242,-5.61554 6.3992,-5.82882 0.275,-0.21328 0.7532,-5.63982 1.0626,-12.05896 l 0.5626,-11.67118 0.1874,10.75 c 0.1031,5.9125 0.422,10.75 0.7088,10.75 0.2868,0 2.321,-1.19085 4.5204,-2.64634 2.1994,-1.45548 4.2572,-2.38797 4.573,-2.07219 0.3158,0.31579 -1.1965,1.69192 -3.3606,3.05808 -6.218,3.9252 -7.2404,5.37257 -7.4044,10.48188 l -0.1502,4.67857 -0.6383,-4.5 -0.6384,-4.5 -6.5415,6.52553 c -4.2211,4.21066 -6.7621,7.62799 -7.1632,9.63333 -0.3418,1.7093 -0.9171,4.28531 -1.2783,5.72448 l -0.6567,2.61666 h 7.1084 c 6.6647,0 7.1169,-0.14046 7.2446,-2.25 l 0.1362,-2.25 0.4333,2.25 c 0.4206,2.18339 0.7866,2.25 12.3639,2.25 h 11.9304 v -8.5 -8.5 l -3.25,-0.16004 -3.25,-0.16003 3.25,-0.40333 c 1.7875,-0.22182 3.25,-0.91481 3.25,-1.53996 0,-0.81365 0.341,-0.79565 1.2,0.0634 0.66,0.66 2.0323,1.2 3.0497,1.2 2.1908,0 8.1571,2.9265 7.4362,3.64747 -0.275,0.275 -1.8695,-0.20818 -3.5433,-1.07373 -1.6738,-0.86556 -3.9656,-1.57374 -5.0929,-1.57374 -1.9045,0 -2.0497,0.59844 -2.0497,8.44774 v 8.44774 l 5.25,0.36728 c 2.8875,0.202 8.5136,0.45052 12.5024,0.55226 l 7.2524,0.18498 -0.5894,-21.75 z m -49.143,10.75 c 0,-2.475 0.195,-3.4875 0.4333,-2.25 0.2384,1.2375 0.2384,3.2625 0,4.5 -0.2383,1.2375 -0.4333,0.225 -0.4333,-2.25 z m 40.8855,-11 c 0,-1.375 0.227,-1.9375 0.5044,-1.25 0.2774,0.6875 0.2774,1.8125 0,2.5 -0.2774,0.6875 -0.5044,0.125 -0.5044,-1.25 z m -15.9417,-23.87723 -0.2162,-12.37723 -5.022,0.48255 c -5.9902,0.57559 -5.7575,-0.3561 0.2906,-1.16333 l 4.2314,-0.56476 0.5267,-15 0.5267,-15 0.4733,14.91789 0.4733,14.9179 3,0.94512 c 1.65,0.51981 4.6611,2.24426 6.6914,3.8321 2.0302,1.58785 4.1677,2.88699 4.75,2.88699 0.5822,0 1.0686,0.5625 1.0808,1.25 0.012,0.6875 0.9023,2.375 1.9778,3.75 1.0755,1.375 1.9655,3.04205 1.9778,3.70455 0.027,1.44692 -3.7687,-2.21021 -6.2947,-6.0655 -1.882,-2.87217 -10.1247,-8.63905 -12.3481,-8.63905 -0.9448,0 -1.3546,3.16108 -1.588,12.25 l -0.3146,12.25 z m 16.0562,-11.12277 c 0,-2.475 0.195,-3.4875 0.4333,-2.25 0.2384,1.2375 0.2384,3.2625 0,4.5 -0.2383,1.2375 -0.4333,0.225 -0.4333,-2.25 z m -39.0551,-17.25 c -0.1556,-9.12926 -0.5581,-12.75 -1.4173,-12.75 -0.9333,0 -0.9333,-0.26667 0,-1.2 0.66,-0.66 1.2522,-2.1225 1.316,-3.25 0.099,-1.74546 0.1851,-1.78385 0.5813,-0.25843 0.3434,1.32194 1.0339,1.61471 2.634,1.11685 l 2.1687,-0.67473 -2.2416,1.88315 c -2.0784,1.74617 -2.2627,2.82883 -2.5326,14.88316 l -0.2911,13 z m 40.0551,-2.75 c 0,-2.475 0.195,-3.4875 0.4333,-2.25 0.2384,1.2375 0.2384,3.2625 0,4.5 -0.2383,1.2375 -0.4333,0.225 -0.4333,-2.25 z m -15.9625,-28.5 c 0.01,-3.3 0.1923,-4.52944 0.4148,-2.73209 0.2226,1.79735 0.218,4.49735 -0.01,6 -0.2281,1.50265 -0.4102,0.0321 -0.4046,-3.26791 z m 0.885,-17 c 0.02,-1.65 0.2445,-2.20394 0.4981,-1.23097 0.2535,0.97297 0.2369,2.32297 -0.037,3 -0.2739,0.67703 -0.4813,-0.11903 -0.461,-1.76903 z m 23,-34 c 0.02,-1.65 0.2445,-2.20394 0.4981,-1.23097 0.2535,0.97297 0.2369,2.32297 -0.037,3 -0.2739,0.67703 -0.4813,-0.11903 -0.461,-1.76903 z m 1,-6 c 0.02,-1.65 0.2445,-2.20394 0.4981,-1.23097 0.2535,0.97297 0.2369,2.32297 -0.037,3 -0.2739,0.67703 -0.4813,-0.11903 -0.461,-1.76903 z m 71.0918,87.61856 c 8.712,-2.29978 22.2593,-8.94197 25.6934,-12.59739 l 2.2525,-2.39768 -5.3663,-1.52357 c -10.6859,-3.03388 -19.6717,-4.04822 -35.8663,-4.04869 -17.9926,-5.2e-4 -23.7167,1.03327 -35.6296,6.43486 -10.2715,4.65733 -15.3704,8.62677 -15.3704,11.96572 v 2.85573 l 10.75,0.65317 c 5.9125,0.35924 11.425,0.83066 12.25,1.0476 0.825,0.21693 8.7,0.23047 17.5,0.0301 12.0314,-0.27396 17.9314,-0.87418 23.7867,-2.41984 z m -56.9084,-16.04361 c 12.4394,-7.10425 25.0154,-10.03572 43.1217,-10.05169 14.0155,-0.0124 27.8481,1.7255 39,4.89979 6.1219,1.74256 7.1408,1.80756 8.1223,0.51822 2.9531,-3.87914 3.604,-58.35234 0.86,-71.9684 -0.3974,-1.972 -8.8235,-8.5476 -15.0899,-11.77597 -1.7092,-0.88055 -7.7842,-2.569 -13.5,-3.75212 -8.9488,-1.85232 -12.476,-2.07327 -25.3924,-1.5906 -15.0803,0.56353 -18.3331,1.06441 -30.75,4.73508 l -6.75,1.99543 0.011,4.70766 c 0.01,2.58921 0.681,6.91667 1.5,9.61658 2.1873,7.21005 1.8415,13.93571 -1.4805,28.80175 -4.2486,19.01223 -7.5369,46.78932 -5.539,46.78932 0.4209,0 3.07,-1.31627 5.887,-2.92505 z m -43.8783,-82.07495 c 3.1972,-1.1 7.0661,-2 8.5975,-2 2.9456,0 4.6269,-1.43426 2.9188,-2.48992 -1.4555,-0.89958 -1.233,-7.11415 0.4837,-13.51008 0.8119,-3.025 1.4816,-5.77708 1.4881,-6.11573 0.01,-0.33865 -1.9006,-0.24574 -4.2381,0.20645 -2.3375,0.4522 -4.5875,0.84178 -5,0.86573 -0.4125,0.0239 -0.8022,1.05605 -0.866,2.29355 -0.087,1.6874 -0.2302,1.81334 -0.5726,0.50368 -1.1159,-4.26781 -7.3114,3.57578 -7.3114,9.25636 0,2.01258 0.1352,1.99505 4.5452,-0.58938 2.4998,-1.46501 4.7788,-2.43001 5.0643,-2.14445 0.2856,0.28555 -1.5537,1.55446 -4.0873,2.81978 -2.5335,1.26533 -5.0139,2.79158 -5.512,3.39167 -1.2386,1.49243 -2.9758,9.51234 -2.0605,9.51234 0.4055,0 3.3531,-0.9 6.5503,-2 z m 36.5,-3.85975 c 0,-2.2617 -0.7934,-3.12716 -4.5314,-4.94324 l -4.5314,-2.20152 -0.9052,2.25226 c -0.8391,2.08765 -0.9047,2.033 -0.8983,-0.74775 0,-1.65 0.3936,-3.9 0.8663,-5 0.8507,-1.97973 0.8601,-1.97921 0.9297,0.0507 0.048,1.40744 1.4819,2.73655 4.5703,4.23701 l 4.5,2.18627 v -4.83778 c 0,-6.68844 -1.6923,-10.92574 -5.0588,-12.66661 -6.8615,-3.54825 -9.8226,-1.02356 -12.3951,10.56838 -1.0329,4.6541 -2.548,9.2495 -3.367,10.212 -1.3922,1.63621 -1.1051,1.75523 4.4159,1.83048 3.2478,0.0443 7.93,0.63215 10.405,1.30642 5.4377,1.48141 6,1.27088 6,-2.24665 z M 1007.3689,1781.9519 c 1.3399,-2.1679 18.8746,-11.7271 50.9583,-27.7802 31.3106,-15.6663 45.2464,-21.9545 46.3062,-20.8947 0.2581,0.2582 -21.6673,11.5526 -48.7231,25.0988 -27.0558,13.5462 -48.8994,24.1554 -48.5414,23.5761 z M 446.19117,1505.684 c -1.22,-3.1364 -4.0587,-16.1864 -6.3084,-29 -6.4466,-36.7194 -16.7226,-88.6705 -20.91,-105.712 -4.4712,-18.1962 -5.7369,-26.0856 -4.1852,-26.0856 0.5863,0 1.7928,2.5875 2.6812,5.75 0.8884,3.1625 3.1321,10.925 4.9859,17.25 5.5029,18.7755 8.02,29.8265 14.3495,63 9.5638,50.1247 12.2198,66.6224 11.8975,73.9005 l -0.2923,6.5995 z m 343.7258,-24.0476 c 0.012,-6.7531 1.7105,-15.6805 7.5302,-39.578 5.3167,-21.8319 22.2567,-86.2949 34.9958,-133.172 10.0747,-37.0727 19.8115,-64.7909 34.4253,-98 4.2355,-9.625 8.7297,-20.0875 9.9872,-23.25 2.14,-5.3822 4.0539,-7.4643 4.0539,-4.41 0,4.1456 -4.7167,18.3542 -11.3397,34.16 -15.1598,36.1787 -23.8647,61.6392 -33.5059,98 -12.7261,47.9949 -26.4778,99.8091 -28.6636,108 -1.321,4.95 -4.2274,16.875 -6.4587,26.5 -3.7164,16.0312 -9.6042,36 -10.6146,36 -0.2296,0 -0.4141,-1.9125 -0.4099,-4.25 z m -245.9878,-23 c 0.011,-3.9875 0.4421,-10.175 0.9582,-13.75 0.5161,-3.575 2.7729,-26.3 5.015,-50.5 2.2422,-24.2 6.9715,-73.475 10.5096,-109.5 7.5648,-77.0249 10.1042,-105.3726 11.502,-128.3995 0.5642,-9.2948 1.5358,-19.9877 2.1592,-23.762 1.1091,-6.7163 3.0202,-10.9878 4.33,-9.678 0.938,0.9379 -2.1201,51.3521 -5.0513,83.2745 -1.3669,14.8857 -4.71,49.565 -7.4291,77.065 -2.719,27.5 -6.5331,67.1 -8.4756,88 -6.9138,74.3865 -7.3989,78.6043 -10.2089,88.75 -0.8758,3.1625 -1.9832,5.75 -2.4607,5.75 -0.4775,0 -0.8593,-3.2625 -0.8484,-7.25 z m -280.6443,-136.214 c -0.7913,-2.062 1.0731,-3.49 4.6245,-3.542 2.2405,-0.033 10.2626,-2.6322 22.9037,-7.4216 2.422,-0.9176 5.122,-1.3897 6,-1.0491 5.0328,1.9528 -16.0088,12.2106 -27.1325,13.2271 -4.8181,0.4403 -5.8349,0.2472 -6.3957,-1.2144 z m 1248.98453,-29.9038 c -7.7638,-5.7869 -26.7178,-25.2443 -25.8923,-26.58 1.4442,-2.3368 4.421,-0.7115 11.0591,6.0381 3.8353,3.8996 10.9107,10.4552 15.7232,14.5678 4.8125,4.1127 8.75,8.1221 8.75,8.9098 0,2.6147 -3.7087,1.4852 -9.64,-2.9357 z m -70.5955,0.2559 c -6.1131,-3.4211 -18.9818,-28.2402 -24.2823,-46.8317 -3.5876,-12.5837 -3.7598,-15.0564 -1.0488,-15.0564 2.0475,0 2.9144,1.928 6.0268,13.4036 3.5134,12.9537 8.9171,25.3211 15.0739,34.4994 8.925,13.305 8.6222,12.7224 7.2192,13.8868 -0.8353,0.6932 -1.8652,0.7271 -2.9888,0.098 z M 252.08977,1278.7296 c 0.2657,-1.793 1.7535,-2.5415 8.8196,-4.437 12.5303,-3.3614 31.8588,-11.8731 43.1551,-19.0041 7.7696,-4.9047 10.9299,-1.6649 3.5949,3.6853 -10.632,7.7551 -44.6785,21.9126 -52.6962,21.9126 -2.7024,0 -3.1438,-0.3313 -2.8734,-2.1568 z m 1313.45433,-13.5932 c -5.2048,-7.8567 -11.1851,-14.4281 -30.7969,-33.8411 -23.2118,-22.9765 -25.0886,-24.583 -40.5664,-34.7223 -8.9257,-5.8472 -18.4882,-11.7763 -21.25,-13.1758 -7.5861,-3.8441 -5.915,-8.738 1.7376,-5.0887 4.8759,2.3252 30.3512,18.8283 37.741,24.449 6.57,4.9971 45.9106,43.9116 51.6888,51.1289 5.2966,6.6157 10.8057,16.1725 10.8086,18.75 0.01,4.499 -3.0182,2.0771 -9.3627,-7.5 z m 16.3999,-50 c -3.879,-4.8125 -8.6112,-9.875 -10.5161,-11.25 -5.7471,-4.1484 -4.1601,-8.804 1.7497,-5.1333 6.4079,3.9801 18.7318,19.0951 18.7318,22.9742 0,4.0845 -2.9143,2.157 -9.9654,-6.5909 z m -1343.03463,-3.4719 c 0,-0.7913 5.2875,-4.8572 11.75,-9.0354 6.4625,-4.1782 16.025,-11.1775 21.25,-15.554 13.0652,-10.9435 31.9661,-30.5465 41.8831,-43.4387 5.6146,-7.299 8.9085,-10.75 10.2605,-10.75 3.7835,0 1.137,4.9041 -10.793,20 -15.3447,19.4168 -44.4081,45.29 -60.9806,54.2872 -10.1967,5.5357 -13.37,6.6016 -13.37,4.4909 z m 182.135,-11.0281 c -0.4485,-1.2375 -1.8135,-18 -3.0334,-37.25 -1.2198,-19.25 -2.8957,-44.225 -3.7242,-55.5 -1.8794,-25.5754 -2.8376,-48.6922 -1.9852,-47.8975 1.0474,0.9767 4.3332,19.5443 6.016,33.9958 0.8583,7.3709 2.2674,25.1017 3.1313,39.4017 0.8639,14.3 1.9857,31.4 2.4929,38 1.0686,13.9044 1.2341,27.6419 0.3606,29.9182 -0.8641,2.2519 -2.3069,1.956 -3.258,-0.6682 z m 138.4303,-13.01 c -0.8144,-1.2429 -2.8087,-5.4802 -4.4317,-9.4161 -1.6231,-3.9359 -4.1171,-9.146 -5.5423,-11.5779 -2.8172,-4.8072 -3.3785,-8.746 -1.2463,-8.746 0.7398,0 2.0536,0.7875 2.9197,1.75 2.141,2.3794 8.2161,14.664 10.155,20.5349 2.713,8.2148 1.5932,12.7168 -1.8544,7.4551 z m 991.93473,-36.8106 c -10.3782,-6.943 -19.7192,-11.7059 -29.1625,-14.8697 -5.0229,-1.6829 -9.9926,-3.0597 -11.0439,-3.0597 -1.0512,0 -2.7848,-0.6475 -3.8525,-1.4389 -1.7775,-1.3176 -1.8068,-1.5753 -0.3473,-3.0581 1.4598,-1.4831 2.1598,-1.4879 8.3289,-0.057 3.7043,0.8591 10.1871,2.9884 14.4062,4.7317 8.8256,3.6467 25.12,13.0816 29.3142,16.9737 6.5053,6.0369 1.0479,6.5926 -7.6431,0.7782 z M 770.28607,1002.4257 c -0.3379,-0.8806 -0.3278,-3.03392 0.023,-4.78532 1.0621,-5.3107 11.6634,-31.1232 13.6119,-33.1429 1.9371,-2.0079 4.6558,-1.6426 5.5735,0.7488 0.4431,1.1547 -10.7181,31.4825 -13.4844,36.64012 -1.1402,2.126 -4.9759,2.4874 -5.7235,0.5393 z M 126.94572,984.43018 c -1.75309,-2.1123 -0.66343,-3.1776 5.22541,-5.1082 9.51724,-3.1203 33.48446,-15.8746 51.83813,-27.5861 8.25296,-5.2662 10.90011,-5.9673 10.90011,-2.8868 0,2.384 -6.18762,6.6927 -25.5,17.757 -17.4586,10.0023 -26.24704,14.3999 -34.25398,17.14 -7.43057,2.543 -6.71635,2.4834 -8.20967,0.6841 z M 83.254454,837.34325 c -0.79977,-2.08416 -0.21314,-2.52741 6.95962,-5.25863 9.63692,-3.6695 10.695296,-3.79541 10.695296,-1.27235 0,1.66637 -1.426186,2.83374 -6.249996,5.11578 -6.95213,3.28892 -10.5162,3.73117 -11.40492,1.4152 z m -12.87215,-56.50067 c -1.17963,-1.90868 1.92986,-4.25337 12.02707,-9.06894 12.01682,-5.73108 22.037986,-8.74927 23.660986,-7.12627 2.14052,2.14052 -0.082,4.01998 -7.333156,6.20138 -4.03031,1.21245 -11.40866,4.19192 -16.39633,6.62104 -9.58323,4.66727 -10.9247,5.04562 -11.95857,3.37279 z m 332.777066,0.41714 c -2.0189,-0.87215 -1.4355,-3.35423 1,-4.25497 1.2375,-0.45767 5.2269,-1.12786 8.8653,-1.4893 15.2465,-1.5146 32.1999,-7.98701 48.7814,-18.6236 6.2608,-4.01616 8.5082,-5.00056 9.394,-4.11477 0.8326,0.83258 0.8642,1.65515 0.1108,2.88682 -2.6484,4.32986 -23.7862,16.31537 -35.4015,20.07321 -12.3414,3.99275 -29.5673,6.89755 -32.75,5.52261 z m -29.5833,-26.04001 c -1.5327,-1.53267 -0.46,-3.52151 2.5833,-4.78981 6.8227,-2.84335 39.8002,-11.66916 42.4605,-11.36376 3.9176,0.44975 3.5146,2.98267 -0.7105,4.46529 -3.2557,1.14246 -42.5769,12.35495 -43.3276,12.35495 -0.1865,0 -0.6391,-0.3 -1.0057,-0.66667 z m -17.3246,-51.88421 c -0.9591,-2.49926 3.1241,-5.89166 12.977,-10.78158 9.1451,-4.53866 27.0238,-10.9344 33.6809,-12.04866 1.925,-0.3222 4.175,-0.15953 5,0.36148 2.6731,1.68818 -0.9344,3.87873 -10.6852,6.48822 -10.5344,2.81919 -27.0358,9.85163 -33.7514,14.38394 -5.2721,3.55809 -6.375,3.80195 -7.2213,1.5966 z m 111.6474,-10.96178 c -1.2368,-1.49026 -1.1755,-1.87817 0.4894,-3.09555 2.6545,-1.94105 9.4178,-1.82456 10.1853,0.17543 0.8407,2.1909 -0.5173,3.22706 -5.2125,3.97714 -3.1453,0.50249 -4.3636,0.26674 -5.4622,-1.05702 z m -5.3231,-11.91423 c -0.8246,-2.149 1.2344,-3.23337 7.4654,-3.93166 4.4903,-0.50322 5.9015,-0.30621 6.9623,0.97192 1.1285,1.35972 1.0415,1.81432 -0.573,2.99484 -2.6103,1.90872 -13.119,1.8821 -13.8547,-0.0351 z m -95.3097,-16.08584 c -0.3192,-0.83201 -0.075,-2.12176 0.5427,-2.86611 1.5526,-1.87077 14.3086,-7.11061 24.4996,-10.06386 15.2976,-4.43307 39.733,-7.02508 43.5367,-4.6182 2.6137,1.65389 -0.6504,4.0609 -5.5069,4.0609 -14.6859,0 -40.1892,5.51859 -53.1261,11.49579 -8.5984,3.97273 -9.1438,4.08193 -9.946,1.99148 z m -3.0209,-194.05449 c -0.9063,-2.36188 0.5268,-3.21658 8.1783,-4.87733 3.8423,-0.83395 7.8859,-1.75594 8.9859,-2.04886 1.1,-0.29293 2.675,-0.0916 3.5,0.44749 2.644,1.72753 -1.8223,4.6966 -9.6974,6.44655 -8.9484,1.98847 -10.2146,1.99218 -10.9668,0.0322 z m -20.6691,-16.09945 c -2.793,-2.79292 3.1242,-6.25973 19.8333,-11.62009 20.1946,-6.47852 50.3506,-11.91208 53.162,-9.57881 1.3702,1.13718 1.295,1.48195 -0.6701,3.07322 -1.2174,0.98579 -3.4349,1.79235 -4.9278,1.79235 -9.4923,0 -41.2482,7.46496 -55.6201,13.07479 -10.9303,4.26642 -10.8043,4.23157 -11.7773,3.25854 z m -10,-27 c -2.103,-2.10297 -0.1745,-4.69504 6.9568,-9.35038 8.1225,-5.30243 14.1638,-7.66227 16.9141,-6.60691 2.4764,0.95028 0.316,3.15829 -6.4778,6.62067 -3.0579,1.55843 -7.8084,4.44671 -10.5566,6.4184 -5.2586,3.77274 -5.7656,3.98914 -6.8365,2.91822 z m 7.9304,-97.3262 c -10.4807,-3.34741 -18.5002,-10.05278 -21.9781,-18.37668 -4.719,-11.29413 -18.7937,-90.77062 -16.8324,-95.04825 1.7204,-3.75211 13.9115,-18.15292 19.875,-23.47748 11.4602,-10.23231 22.8653,-13.86288 46.3384,-14.75082 16.8451,-0.63722 25.0723,0.67877 36.1421,5.78115 7.5129,3.46292 12.0335,7.76098 13.7038,13.02918 5.1789,16.33407 6.3873,90.06825 1.6652,101.61187 -4.3337,10.59449 -31.8193,27.63957 -51.1864,31.74314 -9.3978,1.99123 -20.5336,1.78556 -27.7276,-0.51211 z m 33.882,-9.14536 c 9.307,-3.08586 15.8392,-6.40619 25.9106,-13.17035 6.8542,-4.60346 6.6321,-4.92177 -4.6986,-6.73511 -9.9511,-1.59255 -26.6593,-0.72156 -36.8268,1.91977 -11.1469,2.89577 -26.8643,11.16821 -26.8643,14.13931 0,1.22264 9.8864,6.06732 14.2225,6.96951 6.8271,1.42048 18.4164,0.13955 28.2566,-3.12313 z m -41.8339,-11.96165 c 7.4576,-5.13097 19.1867,-10.02095 28.7905,-12.00308 12.3791,-2.5549 30.3571,-2.53414 41.0643,0.0474 6.3507,1.53119 8.2601,1.67448 9.2614,0.69504 2.5281,-2.47267 3.5007,-18.46242 2.8977,-47.63949 -0.6262,-30.30273 -2.4719,-49.25845 -5.2018,-53.42488 -1.9088,-2.91308 -11.4754,-7.66974 -19.4573,-9.67446 -7.8341,-1.96759 -29.3481,-1.68268 -40,0.52972 -12.4323,2.58221 -18.5362,6.24339 -29.3124,17.58172 -5.0532,5.31683 -9.8226,10.85754 -10.5987,12.3127 -1.2543,2.35185 -1.0523,4.95225 1.819,23.41047 5.9489,38.243 13.1825,71.26473 15.6109,71.26473 0.3415,0 2.6483,-1.39495 5.1264,-3.09988 z"
     style="fill:#000000" />
</svg>
