<?xml version="1.0" encoding="UTF-8" standalone="no"?>
<svg
   xmlns:dc="http://purl.org/dc/elements/1.1/"
   xmlns:cc="http://creativecommons.org/ns#"
   xmlns:rdf="http://www.w3.org/1999/02/22-rdf-syntax-ns#"
   xmlns:svg="http://www.w3.org/2000/svg"
   xmlns="http://www.w3.org/2000/svg"
   version="1.1"
   id="svg14245"
   width="556.52264"
   height="486.93301"
   viewBox="0 0 556.52264 486.93301">
  <metadata
     id="metadata14251">
    <rdf:RDF>
      <cc:Work
         rdf:about="">
        <dc:format>image/svg+xml</dc:format>
        <dc:type
           rdf:resource="http://purl.org/dc/dcmitype/StillImage" />
        <dc:title></dc:title>
      </cc:Work>
    </rdf:RDF>
  </metadata>
  <defs
     id="defs14249" />
  <path
     style="fill:#000000"
     d="m 147.42482,485.70118 c -0.80086,-2.35372 1.41644,-8.26133 8.83479,-23.53876 4.08312,-8.40883 7.4276,-16.50883 7.43217,-18 0.0232,-7.56955 2.98706,-24.25802 4.94159,-27.82434 8.77281,-16.00721 16.66046,-24.9083 23.00621,-25.96215 1.94914,-0.32369 3.92769,-0.67962 4.39678,-0.79094 1.25834,-0.29862 11.37741,-18.30958 13.25217,-23.58759 0.88816,-2.50042 2.46536,-6.65464 3.50489,-9.2316 1.03953,-2.57696 1.89005,-6.36689 1.89005,-8.42207 0,-2.05518 0.70224,-7.48432 1.56054,-12.06475 2.52568,-13.47868 1.64258,-27.67649 -2.94377,-47.3278 -4.45443,-19.08606 -4.96704,-20.49222 -14.76417,-40.5 -7.09395,-14.48733 -7.71712,-15.3845 -18.23325,-26.25 -5.98854,-6.1875 -11.30431,-11.25 -11.81282,-11.25 -0.50851,0 -0.63064,0.47558 -0.2714,1.05684 1.00754,1.63023 -0.40553,5.94316 -1.94719,5.94316 -1.65773,0 -2.58794,-2.16482 -2.58794,-6.02277 0,-1.57256 -0.39884,-3.10569 -0.88631,-3.40697 -1.37103,-0.84734 -2.09277,3.35456 -1.04814,6.10216 0.51395,1.35178 0.93445,3.44902 0.93445,4.66055 0,5.80404 11.58855,16.05716 17.48104,15.46657 3.3747,-0.33824 4.86756,2.46898 1.91543,3.60181 -4.57022,1.75376 -15.30394,-4.87399 -20.51377,-12.66663 -0.35347,-0.5287 -1.93497,-0.24193 -3.70034,0.67098 -4.40515,2.27799 -11.829,2.12308 -13.11166,-0.2736 -0.54982,-1.02734 -2.39547,-2.14705 -4.10146,-2.48825 -3.47171,-0.69434 -3.13627,-2.64385 0.45492,-2.64385 1.26837,0 3.49181,-0.93266 4.94098,-2.07258 2.50389,-1.96956 2.63486,-1.9795 2.63486,-0.2 0,1.02992 -0.54,2.41258 -1.2,3.07258 -0.93333,0.93333 -0.83004,1.2 0.46482,1.2 4.03698,0 4.97208,-8.94861 1.72636,-16.52058 -2.55893,-5.96974 -5.81139,-10.23607 -6.36329,-8.34688 -0.21971,0.7521 -0.92732,3.30794 -1.57245,5.67963 -1.29444,4.75869 -5.93997,10.44981 -11.90329,14.58239 -3.57414,2.47688 -4.54802,2.66743 -12.25634,2.39806 -7.1543,-0.25001 -8.4241,-0.55638 -8.71988,-2.1039 -0.30021,-1.57073 0.12995,-1.72196 3.23894,-1.13871 2.36626,0.44391 3.58513,0.29475 3.58513,-0.43872 0,-0.61121 1.125,-1.11129 2.5,-1.11129 1.375,0 2.5,-0.56877 2.5,-1.26393 0,-0.69516 1.81484,-2.38266 4.03298,-3.75 4.23243,-2.60902 8.08772,-7.43376 9.97719,-12.48607 l 1.12195,-3 -3.31606,3.40159 c -5.08925,5.22052 -12.10688,8.0798 -19.81606,8.0739 -6.54525,-0.005 -10.99207,-1.41441 -11.75436,-3.72549 -0.22749,-0.68967 0.40951,-1.26363 1.42103,-1.28041 1.7743,-0.0294 1.77411,-0.0648 -0.006,-1.09958 -1.56045,-0.90716 -2.585057,-0.2323 -6.761397,4.45345 -5.34201,5.99361 -8.407409,7.27336 -14.824845,6.18914 -8.207115,-1.38658 -16.740407,-12.49665 -15.509693,-20.19311 0.428378,-2.67893 1.319419,-4.18903 2.916471,-4.94272 2.203511,-1.03989 2.327421,-0.87581 2.964319,3.92537 0.910425,6.86312 2.66102,9.82752 7.364682,12.47113 l 4.006445,2.25175 3.024839,-2.54524 c 1.663661,-1.39988 3.539776,-4.10551 4.169142,-6.01251 1.06997,-3.24204 3.9892,-4.91064 3.9892,-2.28018 0,0.6529 1.26212,-0.0221 2.80472,-1.5 1.54259,-1.4779 3.625107,-2.68709 4.627807,-2.68709 1.55629,0 1.73263,0.56567 1.20498,3.86542 l -0.6181,3.86541 5.88132,1.2481 c 7.38849,1.56795 11.74662,0.32568 16.04929,-4.57478 2.57915,-2.9375 3.04998,-4.29168 3.04998,-8.77228 0,-2.91419 0.30325,-5.60179 0.6739,-5.97244 1.06987,-1.06987 1.09848,-6.03678 0.0427,-7.40943 -0.61817,-0.80368 -0.61163,-1.25 0.0183,-1.25 1.12854,0 12.2651,11.8103 12.2651,13.00712 0,1.15666 6.80969,4.99288 8.86288,4.99288 0.96171,0 3.29849,1.16431 5.19284,2.58736 1.89435,1.42305 5.69428,3.60808 8.44428,4.85562 2.75,1.24754 5.85724,3.23323 6.90499,4.41264 1.04774,1.17941 2.30989,2.14438 2.80477,2.14438 0.49488,0 3.88423,1.8 7.53188,4 3.64765,2.2 7.1105,3.99029 7.69522,3.97843 1.15592,-0.0235 -6.3625,-7.31678 -13.48512,-13.0814 -4.56497,-3.69475 -10.03178,-11.89703 -7.92918,-11.89703 0.6327,0 3.55133,2.3625 6.48584,5.25 2.93451,2.8875 8.556,8.14973 12.49219,11.69384 3.93619,3.54411 8.05652,8.20761 9.15629,10.36333 1.09976,2.15572 4.88941,8.09329 8.42143,13.19459 3.53202,5.1013 6.42186,9.91753 6.42186,10.70273 0,1.46231 11.88935,17.00068 25.73098,33.6282 4.27296,5.13298 8.62491,10.69164 9.67099,12.35259 1.84777,2.93385 1.8487,3.00964 0.0325,2.65988 -1.99976,-0.38512 -14.8976,-15.02859 -27.88734,-31.6617 -4.37403,-5.6009 -8.07241,-10.18346 -8.21858,-10.18346 -0.54771,0 1.09949,3.62017 3.18503,7 3.09768,5.02009 5.10576,10.97835 7.92007,23.5 3.68499,16.39547 4.79174,30.56503 3.63202,46.5 -2.26193,31.0796 -6.5396,50.29723 -13.50651,60.67862 -1.77959,2.65176 -4.88341,7.2291 -6.89739,10.17187 -2.01397,2.94277 -3.66177,6.15712 -3.66177,7.14301 0,0.98589 -0.60477,2.0246 -1.34394,2.30824 -0.73917,0.28365 -2.36911,3.25699 -3.62209,6.60742 -1.77449,4.74495 -2.01912,6.4038 -1.10653,7.50341 1.65254,1.99119 8.66375,3.39511 22.57256,4.51994 27.54564,2.22766 31.89928,2.30092 40.56713,0.68264 4.63808,-0.86592 13.83287,-2.04361 20.43287,-2.61708 6.6,-0.57347 15.375,-1.89886 19.5,-2.94532 16.56244,-4.20166 47.40261,-9.03842 57.68462,-9.04685 7.75209,-0.006 17.96822,-1.86192 28.31538,-5.14291 3.91354,-1.24095 11.36412,-2.39639 18.72397,-2.90373 8.90648,-0.61396 13.52016,-1.42085 17,-2.97317 2.62682,-1.17178 8.37603,-2.5147 12.77603,-2.98427 8.2991,-0.88566 33.45773,-6.7188 42.71395,-9.90341 2.91703,-1.0036 8.32978,-3.67691 12.02835,-5.94068 8.25712,-5.05391 20.26848,-11.15773 21.95668,-11.15773 2.71489,0 18.69241,-11.76464 25.36873,-18.67963 3.88725,-4.0262 7.76317,-7.32037 8.61316,-7.32037 1.40318,0 6.24689,-4.75071 12.79595,-12.55025 2.12623,-2.53222 2.52777,-2.69217 2.83675,-1.13003 0.19796,1.00084 -0.77419,3.53348 -2.16033,5.62808 -2.52535,3.81606 -12.52489,14.37694 -18.15324,19.17231 -1.65,1.4058 -4.1713,3.86638 -5.6029,5.46795 -5.58057,6.24316 -16.47807,15.09425 -23.22978,18.86753 -6.57706,3.67568 -13.94554,6.78465 -34.16732,14.41617 -10.8456,4.09303 -30.87933,9.90355 -37,10.73136 -2.75,0.37193 -8.43825,1.6999 -12.64055,2.95105 -4.2023,1.25115 -15.9023,3.23731 -26,4.41369 -10.0977,1.17637 -22.85945,3.02699 -28.35945,4.11248 -5.5,1.08548 -16.525,3.08619 -24.5,4.44601 -7.975,1.35982 -15.175,2.73969 -16,3.06637 -0.825,0.32668 -8.7,0.79236 -17.5,1.03484 -8.8,0.24248 -18.7,0.89245 -22,1.44436 -25.91983,4.33501 -61.9814,5.79912 -78.5,3.18712 -14.51688,-2.29548 -14.75672,-2.29734 -15.3264,-0.1189 -0.48213,1.84368 -0.885,1.72568 -5.72615,-1.67707 -4.07953,-2.86744 -5.39265,-3.36817 -6.06218,-2.31168 -1.58616,2.50291 -0.9024,3.52143 4.24469,6.32282 8.08015,4.39777 17.82217,6.48804 30.37004,6.51624 6.05,0.0136 14.68781,0.44879 19.19514,0.96709 4.50732,0.5183 16.76982,1.25816 27.25,1.64412 17.8752,0.65831 22.4956,1.49667 16.5176,2.99705 -2.78339,0.69858 -30.79061,-0.006 -58.96274,-1.48361 -20.05758,-1.05191 -26.84763,-2.48294 -36.23311,-7.63626 l -6.23312,-3.42243 -2.51688,3.70393 c -1.38429,2.03716 -2.51689,4.7142 -2.51689,5.94897 0,2.92723 -4.07083,13.57601 -7.37447,19.29069 -1.43079,2.475 -2.60686,5.21998 -2.61348,6.09996 -0.007,0.87998 -1.26923,3.35498 -2.80579,5.5 -1.53656,2.14502 -3.83858,6.37504 -5.11561,9.40004 -1.27704,3.025 -3.16985,6.30503 -4.20626,7.28896 -1.03642,0.98392 -1.88439,2.22142 -1.88439,2.75 0,1.41546 -2.76205,1.17054 -3.25865,-0.28896 z m 33.22685,-70.5 c 0.0175,-1.2375 -0.37006,-2.25 -0.86121,-2.25 -1.18047,0 -2.10699,2.53857 -2.10699,5.77292 0,2.50904 0.0564,2.53472 1.4682,0.66821 0.8075,-1.06762 1.4825,-2.95363 1.5,-4.19113 z m 7.5318,-12.25 c 0.33992,-0.55 0.14148,-1 -0.44098,-1 -0.58246,0 -1.05902,0.45 -1.05902,1 0,0.55 0.19844,1 0.44098,1 0.24254,0 0.7191,-0.45 1.05902,-1 z M 157.10168,222.34419 c 1.82344,-0.69972 2.16166,-6.73763 0.60654,-10.82791 -1.66134,-4.36965 -2.52454,-2.85594 -2.52977,4.43619 -0.003,3.84929 0.0729,6.99871 0.16821,6.99871 0.0953,0 0.88504,-0.27314 1.75502,-0.60699 z m 29.58179,-1.69006 c 0,-0.16338 -1.88033,-2.07588 -4.17852,-4.25 l -4.17851,-3.95295 3.26254,4.25 c 2.68422,3.49663 5.09449,5.36682 5.09449,3.95295 z m -30.11452,-14.95295 c -0.65169,-1.2375 -1.68002,-2.58061 -2.28518,-2.98469 -2.22296,-1.48431 -2.6134,-0.69133 -1.1003,2.23469 0.85325,1.65 2.23064,3 3.06086,3 1.24983,0 1.30567,-0.38707 0.32462,-2.25 z m -23.07861,-15.27646 c -0.30789,-0.30789 -0.86705,0.24711 -1.24258,1.23333 -0.54268,1.4252 -0.42782,1.54006 0.5598,0.5598 0.68342,-0.67834 0.99067,-1.48524 0.68278,-1.79313 z m 164.69313,244.60825 c 1.1,-0.43991 6.5,-1.05675 12,-1.37076 6.04783,-0.34527 8.41913,-0.25545 6,0.22729 -5.81903,1.16118 -20.35296,2.08447 -18,1.14347 z m 68.90086,-8.92138 c 0.41082,-0.66472 3.19457,-1.16041 6.51672,-1.16041 3.37856,0 14.72928,-2.05211 27.19098,-4.91588 11.76529,-2.70373 24.09144,-5.45137 27.39144,-6.10587 3.3,-0.65449 19.32661,-5.64234 35.61468,-11.08412 16.28808,-5.44177 29.90058,-9.89413 30.25,-9.89413 1.79063,0 0.2407,2.15305 -2.61468,3.63215 -5.23157,2.70998 -54.68439,18.45149 -61.25,19.49671 -3.3,0.52535 -12.525,2.44949 -20.5,4.27586 -19.62737,4.4949 -25.46203,5.53928 -35.09711,6.28229 -6.1156,0.4716 -8.03565,0.33682 -7.50203,-0.5266 z m -93.90086,-12.16041 c -0.33992,-0.55 0.10587,-1 0.99064,-1 3.44415,0 7.55613,-3.23866 11.10567,-8.74701 2.03895,-3.16415 4.75589,-7.34062 6.03765,-9.28107 2.40403,-3.63946 21.51463,-21.27745 30.04249,-27.7275 2.65295,-2.00656 8.73073,-7.13367 13.50617,-11.39358 4.77544,-4.25991 11.75044,-9.75919 15.5,-12.22062 7.13764,-4.68556 26.87506,-12.5308 43.37674,-17.24141 12.76579,-3.64414 24.15627,-8.5446 31.72707,-13.64974 6.75901,-4.55775 6.76989,-4.58802 4.66834,-12.98907 -0.95997,-3.83749 1.08705,-3.54968 3.55619,0.5 2.23722,3.6693 2.61641,9.15703 0.73904,10.6955 -12.27426,10.05852 -14.00443,10.85592 -47.78553,22.02316 -12.94454,4.27916 -25.79618,8.92585 -28.5592,10.32597 -5.61534,2.84551 -12.28316,7.88339 -23.40527,17.68389 -4.125,3.63483 -13.0452,11.05536 -19.82266,16.49006 -6.77746,5.4347 -14.61271,12.03129 -17.41166,14.65909 -4.41113,4.14138 -4.91211,4.99096 -3.761,6.37797 1.15168,1.38769 0.54245,2.39988 -4.58833,7.62312 -3.25399,3.31264 -7.1315,6.66383 -8.61669,7.4471 -3.14738,1.65991 -6.41845,1.84997 -7.29966,0.42414 z m 19.21406,-72.61927 c -1.44188,-1.44188 -0.62271,-1.95939 3.3525,-2.11791 2.76971,-0.11045 3.94104,0.22042 3.67299,1.03751 -0.44122,1.34491 -5.91865,2.18724 -7.02549,1.0804 z m -4.14398,-8.63073 c -0.39226,-1.33545 -6.00581,-17.33594 -9.5603,-27.25 -1.18314,-3.3 -2.39684,-6.7875 -2.69711,-7.75 -0.89961,-2.88371 2.0839,-2.04153 3.94821,1.11449 2.36083,3.99657 10.73912,29.38219 10.73912,32.53878 0,2.64377 -1.7621,3.62038 -2.42992,1.34673 z m 12.95675,-1.5 c -0.3795,-1.5125 -2.8696,-7.7 -5.53357,-13.75 -2.66396,-6.05 -6.528,-16.39545 -8.58674,-22.98989 -5.50009,-17.61757 -7.82179,-22.99028 -11.5558,-26.74154 -1.8429,-1.8514 -4.64956,-5.81923 -6.23704,-8.81738 -1.58747,-2.99815 -4.57506,-7.49773 -6.63908,-9.99906 -2.06402,-2.50132 -6.10107,-8.77704 -8.97121,-13.94602 -5.04675,-9.08896 -13.72716,-23.33722 -17.97587,-29.50611 -5.66152,-8.2202 -10.97164,-16.59256 -13.95336,-22 l -3.30846,-6 2.90371,2.73261 c 4.83624,4.55125 33.15105,46.50075 38.35236,56.82054 1.78712,3.54577 5.32581,8.72347 7.86377,11.506 5.50531,6.03584 13.95213,19.60337 17.39532,27.94085 1.36282,3.3 4.38049,12.07234 6.70594,19.49408 2.32544,7.42175 6.02756,17.24657 8.22692,21.83293 4.52286,9.4316 5.99276,16.17299 3.52636,16.17299 -0.8378,0 -1.83376,-1.2375 -2.21325,-2.75 z M 466.37732,296.3117 c -1.10229,-1.10229 0.32819,-2.36052 2.68367,-2.36052 8.68018,0 21.64697,-8.33057 21.60052,-13.87736 -0.0346,-4.13157 -3.20923,-10.10169 -9.07191,-17.06036 -2.97337,-3.52922 -8.14698,-9.82451 -11.49691,-13.98952 -3.34992,-4.16502 -9.39123,-10.72276 -13.42511,-14.57276 -20.73702,-19.79172 -22.20139,-21.54969 -16.78068,-20.14513 3.24762,0.84149 29.46577,26.6622 36.19378,35.64513 3.08954,4.125 7.85581,10.2 10.59172,13.5 5.59092,6.74365 8.7032,14.60116 7.57281,19.11893 -1.07809,4.30876 -8.94922,11.12169 -14.886,12.88473 -5.1958,1.54298 -11.85615,1.9826 -12.98189,0.85686 z m -16.66003,-3.96116 c -15.30068,-4.11201 -38.43257,-22.31577 -49.99735,-39.34566 -8.95257,-13.18324 -6.9647,-15.97288 2.34435,-3.2899 11.5036,15.67291 28.45517,30.15142 43.21075,36.90675 3.96972,1.8174 8.10333,2.80277 13.10373,3.12368 4.01759,0.25783 7.3047,0.76961 7.3047,1.13728 0,3.24199 -6.97768,3.88348 -15.96618,1.46785 z m -182.56398,-7.64936 c -4.86317,-5.26853 -8.06996,-10.05529 -11.73337,-17.5143 -7.72223,-15.72311 -4.12154,-15.07934 4.27484,0.7643 2.18605,4.125 7.1278,10.94759 10.98167,15.16132 3.85386,4.21372 7.00702,7.92622 7.00702,8.25 0,0.32377 -0.86355,0.58868 -1.919,0.58868 -1.10016,0 -4.77453,-3.09356 -8.61116,-7.25 z m -21.37672,-38 c -0.98694,-2.3375 -2.56046,-6.35244 -3.49672,-8.92208 -0.93627,-2.56964 -3.96755,-8.40167 -6.73619,-12.96006 -6.30881,-10.38705 -9.14496,-15.91645 -8.4965,-16.5649 1.02284,-1.02285 2.87336,1.0828 8.17759,9.30503 6.55794,10.16564 8.68351,14.24953 12.03139,23.11611 3.85018,10.19687 3.86547,10.2759 1.98771,10.2759 -1.01993,0 -2.37324,-1.65882 -3.46728,-4.25 z M 53.992941,217.31526 c -0.345269,-0.89976 -0.0971,-2.36226 0.551489,-3.25 2.271511,-3.10909 4.138451,-8.07463 4.07259,-10.83196 -0.111676,-4.67543 -5.21051,-12.46544 -11.51668,-17.59522 -5.788193,-4.70843 -19.278772,-11.85397 -28.5878,-15.14207 -5.953204,-2.10277 -13.3775378,-9.41452 -16.5585988,-16.3075 -2.9321172,-6.35355 -2.4479951,-9.22948 0.674391,-4.00622 2.119617,3.54578 11.5037258,11.39814 17.0477268,14.26506 1.417088,0.7328 4.360974,1.63075 6.541969,1.99544 11.589261,1.93785 17.664253,3.88218 19.132856,6.12355 0.83133,1.26877 2.326606,2.56555 3.322837,2.88174 0.99623,0.3162 4.366013,2.92124 7.488406,5.789 5.553755,5.10083 5.707544,5.38788 7.079538,13.2141 1.771148,10.1031 1.795316,13.96173 0.09628,15.3718 -0.740042,0.61418 -2.158385,2.91928 -3.151874,5.12245 -1.905153,4.22487 -5.0234,5.41808 -6.193126,2.36983 z m 410.236039,-3.3549 c -2.54152,-0.48897 -4.68536,-1.72693 -6,-3.46469 -2.49048,-3.29207 -14.42886,-16.55282 -27.04842,-30.04449 -13.89688,-14.85727 -16.48823,-18.28487 -29.84066,-39.47058 -8.81106,-13.9801 -14.75149,-24.84715 -19.69534,-36.02942 -5.14708,-11.641955 -8.17921,-13.831775 -5.43782,-3.92722 2.86836,10.36327 2.96887,11.92722 0.76656,11.92722 -1.50528,0 -2.63505,-1.64741 -4.7747,-6.96242 -2.7185,-6.752895 -2.78159,-7.325935 -2.09633,-19.041475 0.81739,-13.97429 3.51412,-29.175865 7.14192,-40.259286 1.39757,-4.269746 2.27845,-8.188032 1.95753,-8.707302 -0.88102,-1.425506 7.25834,-17.001495 11.14029,-21.318762 1.87393,-2.084081 3.67362,-5.121581 3.99931,-6.7499999 0.82172,-4.108609 3.34215,-3.870978 3.34215,0.3151049 0,2.149028 -1.56225,5.786233 -4.54166,10.573842 -4.60579,7.401017 -7.00562,13.067499 -9.88401,23.338077 -2.45832,8.771742 -5.29748,23.534646 -6.08066,31.617896 l -0.70784,7.30568 9.29367,18.547305 c 5.11152,10.20102 9.82837,18.75249 10.48189,19.00327 0.65352,0.25078 4.02214,-0.69556 7.48582,-2.10298 3.46368,-1.40742 6.96799,-2.55895 7.78734,-2.55895 2.17528,0 9.54151,-4.51896 18.66545,-11.45069 4.4,-3.34281 16.04648,-11.246425 25.88108,-17.563585 9.83459,-6.31715 20.7512,-14.06883 24.25913,-17.22595 3.50793,-3.15711 8.96145,-7.03724 12.11892,-8.622499 5.82142,-2.922731 29.30348,-9.933607 36.50797,-10.899932 3.39869,-0.45586 3.88758,-0.282671 3.5842,1.269695 -0.25822,1.321289 -2.22233,2.236959 -7.41308,3.455982 -8.89275,2.088422 -26.23312,9.361252 -32.70695,13.717814 -2.71274,1.82554 -5.61208,3.31916 -6.44298,3.31916 -0.8309,0 -3.59818,1.71195 -6.14951,3.80434 -2.55133,2.09238 -7.78878,5.9844 -11.63878,8.64893 -3.85,2.66453 -8.35,6.05438 -10,7.53301 -1.65,1.47863 -6.15,4.85603 -10,7.50533 -3.85,2.649305 -10.375,7.142215 -14.5,9.984265 -4.125,2.84204 -9.6659,6.43202 -12.3131,7.97774 l -4.81311,2.8104 4.31311,1.97081 c 8.78957,4.01627 15.52801,5.92993 23.59254,6.70006 8.78823,0.83925 9.8578,1.22503 8.67999,3.13077 -1.10227,1.7835 -15.78664,0.52812 -22.45943,-1.92008 -3.025,-1.10985 -8.35102,-3.20508 -11.83561,-4.65607 -6.09119,-2.53638 -6.48704,-2.57756 -10.26104,-1.06751 -2.15898,0.86386 -4.25796,1.51902 -4.66439,1.45591 -10.76854,-1.67207 10.43561,9.12427 26.76104,13.6257 5.225,1.4407 13.775,3.89757 19,5.45973 11.83105,3.53721 18.75794,4.67714 36.5,6.00662 23.73105,1.77825 25.19937,1.94185 31.18583,3.47477 3.19779,0.81883 9.81705,2.48918 14.70947,3.71188 7.65792,1.91385 9.4206,2.76979 12.67169,6.1532 3.94567,4.10627 5.69796,8.32525 4.11517,9.90804 -0.57141,0.57141 -1.76792,-0.42955 -3.11082,-2.60242 -2.25673,-3.65146 -7.52758,-8.61542 -9.14807,-8.61542 -0.5078,0 -0.92327,1.125 -0.92327,2.5 0,3.26798 -0.99947,3.15377 -4.51528,-0.51595 -1.5892,-1.65877 -4.6972,-3.50272 -6.90666,-4.09767 -2.20945,-0.59494 -13.25588,-1.17639 -24.54762,-1.29211 l -20.53044,-0.21041 -10.5,-3.53172 c -5.775,-1.94246 -13.425,-4.08604 -17,-4.76352 -3.575,-0.67749 -10.1,-2.074 -14.5,-3.10335 -4.4,-1.02936 -10.7,-2.17989 -14,-2.55675 -3.49065,-0.39862 -7.77745,-1.71682 -10.25,-3.15187 -2.3375,-1.35668 -4.25,-2.036 -4.25,-1.50959 0,1.32424 6.01286,8.8664 15.5,19.44226 4.4,4.90494 11.15,12.4472 15,16.76059 3.85,4.31339 9.40331,9.72746 12.3407,12.03126 3.12994,2.45482 5.97278,5.70171 6.86767,7.84378 2.71284,6.49363 7.32483,11.95117 11.51705,13.62857 3.31361,1.32584 3.76728,1.83035 2.7491,3.05718 -1.31638,1.58614 -2.36296,1.64555 -8.42901,0.47848 z m 25.20449,-58.69851 c -0.9625,-0.25152 -2.5375,-0.25152 -3.5,0 -0.9625,0.25153 -0.175,0.45733 1.75,0.45733 1.925,0 2.7125,-0.2058 1.75,-0.45733 z m -77.57166,23.30949 c -1.52769,-2.40891 -4.73154,-8.82141 -7.11967,-14.25 -6.01774,-13.67923 -15.38372,-32.83247 -19.15177,-39.16498 -3.28573,-5.52194 -3.24455,-7.99869 0.0773,-4.64962 3.5544,3.58351 11.79382,18.36232 16.56191,29.70661 2.59784,6.18081 6.29115,14.3702 8.20736,18.19866 4.42047,8.8318 6.45395,14.53917 5.18015,14.53917 -0.53772,0 -2.22759,-1.97093 -3.75528,-4.37984 z m -275.95152,-7.31351 c -1.26808,-7.96994 -5.51188,-18.36947 -9.77929,-23.96433 -2.74181,-3.5947 -3.10247,-5.34232 -1.10252,-5.34232 1.90854,0 3.94018,2.54573 7.98057,10 4.38758,8.09481 6.88809,16.63032 6.48385,22.13264 -0.50448,6.86685 -2.26085,5.48141 -3.58261,-2.82599 z m 6.17653,-5.52443 c 0.0532,-5.10522 -0.2804,-11.19472 -0.74125,-13.53222 -0.55975,-2.83917 -0.48844,-4.25 0.21482,-4.25 1.75142,0 3.07452,3.50308 4.22731,11.19234 0.86846,5.79281 0.81574,8.12098 -0.25433,11.23113 -2.39826,6.97054 -3.55129,5.41783 -3.44655,-4.64125 z m -25.29853,-13.86709 c -1.31735,-0.52695 -2.19205,-1.16123 -1.94378,-1.40951 0.52928,-0.52927 7.83896,1.37428 7.83896,2.04138 0,0.74865 -3.33855,0.39081 -5.89518,-0.63187 z m 185.13864,-14.16513 c -2.04279,-2.54985 -5.09803,-9.45785 -5.77209,-13.05093 -0.8362,-4.4573 1.04363,-7.87978 5.63098,-10.252 4.44311,-2.29762 4.68031,-1.07315 0.50266,2.59487 -4.58124,4.02238 -4.6286,6.6835 -0.27298,15.33767 2.01748,4.00853 2.85482,6.62039 2.12244,6.62039 -0.66527,0 -1.66022,-0.5625 -2.21101,-1.25 z M 49.571617,103.07152 C 33.203585,94.476345 29.986631,92.482255 25.355471,88.060685 c -4.990756,-4.7649 -10.372025,-12.74282 -9.310983,-13.80386 0.332203,-0.3322 4.099375,2.98784 8.371495,7.37786 6.452841,6.63094 9.459991,8.83171 17.76749,13.00307 17.799573,8.937525 17.598963,8.895625 30.804681,6.434565 6.259965,-1.166635 12.643605,-2.121145 14.185866,-2.121145 1.542261,0 5.325313,-0.8764 8.406783,-1.94756 3.08147,-1.07116 8.099567,-2.6324 11.151327,-3.46941 4.7443,-1.30123 5.86778,-2.08963 7.75,-5.43859 4.40495,-7.83755 2.26634,-13.65286 -7.2279,-19.65412 -5.0702,-3.20484 -5.91883,-5.49032 -2.03864,-5.49032 11.93858,0 20.27919,15.6089 14.44813,27.03872 -3.16424,6.20242 -7.83107,8.59148 -23.546717,12.054165 -14.590546,3.21477 -25.448025,4.76252 -34.045386,4.8532 -4.065692,0.0429 -6.623874,-0.74007 -12.5,-3.82574 z m 96.111853,-5.620345 c -5.75494,-5.77897 -8.80511,-9.5 -7.78725,-9.5 1.89902,0 12.24406,9.26376 16.87608,15.112165 5.77006,7.2853 0.53733,4.0542 -9.08883,-5.612165 z m 74,4.772745 c -2.75584,-1.04604 -10,-6.356315 -10,-7.330405 0,-0.52888 2.1375,0.14963 4.75,1.50779 7.28528,3.787385 11.64873,4.073595 23.91931,1.56893 5.95688,-1.21591 13.53069,-3.12823 16.83069,-4.24958 6.43643,-2.18714 24.2636,-10.77344 28.45299,-13.70415 5.85732,-4.09751 7.49083,-4.10872 3.04701,-0.0209 -6.37719,5.86628 -13.16194,10.05345 -23.26076,14.35524 -13.87481,5.910255 -37.64036,10.188065 -43.73924,7.873085 z m -86.70072,-3.522745 c -4.40046,-4.8313 -5.62427,-10.40546 -2.79928,-12.75 1.58907,-1.31881 1.83361,-0.87792 1.53648,2.77019 -0.1017,1.2486 0.97349,4.34278 2.38931,6.87595 1.41582,2.53317 2.57421,4.774095 2.57421,4.979815 0,1.06881 -1.89223,0.10961 -3.70072,-1.875955 z m -85.299277,-15.3683 c -5.804491,-4.53448 -12,-10.54785 -12,-11.6472 0,-0.78453 5.492065,3.64133 14.876524,11.98844 4.85546,4.31875 2.772279,4.07162 -2.876524,-0.34124 z m 12.44113,-7.9437 c -1.820237,-1.46471 -1.699715,-1.5227 1.935167,-0.93099 5.174405,0.84232 9.130169,-0.94719 11.053541,-5.0004 2.119626,-4.46678 2.100221,-4.50661 -2.19544,-4.50661 -4.070481,0 -10.011779,-2.69997 -11.647479,-5.293093 -1.716068,-2.720533 0.08687,-3.007955 3.418431,-0.544963 2.660742,1.967059 4.365599,2.338056 10.744165,2.338056 5.052843,0 7.716839,0.404621 7.987079,1.213118 0.223017,0.667215 -0.708532,1.492719 -2.070107,1.834452 -1.835938,0.46079 -2.641245,1.50434 -3.116704,4.03876 -0.930924,4.96225 -5.073464,8.41367 -10.098435,8.41367 -2.237999,0 -4.942597,-0.7029 -6.010218,-1.562 z M 11.822867,63.227042 c -0.878331,-2.08132 -1.228711,-5.836047 -0.988499,-10.592921 0.312775,-6.193851 0.816869,-7.9519 3.161497,-11.025867 1.534165,-2.011393 3.441489,-3.657079 4.238499,-3.657079 2.013929,0 1.844638,0.615831 -1.300891,4.73226 -2.469562,3.231818 -2.800989,4.627202 -3.25,13.683278 -0.477078,9.622142 -0.562377,9.936652 -1.860606,6.860329 z M 345.68347,27.206236 c 0,-2.654239 33.6318,-24.2247699 40.93214,-26.25277192 4.53542,-1.259919 7.78318,-1.271925 8.54974,-0.03161 0.55312,0.89496702 -0.57705,1.29423902 -7.48188,2.64323302 -2.85836,0.558437 -22.09889,11.4118229 -32.5,18.3329199 -9.3299,6.208292 -9.5,6.303338 -9.5,5.308225 z"
     id="path14798" />
</svg>
