<?xml version="1.0" encoding="UTF-8" standalone="no"?>
<svg
   xmlns:dc="http://purl.org/dc/elements/1.1/"
   xmlns:cc="http://creativecommons.org/ns#"
   xmlns:rdf="http://www.w3.org/1999/02/22-rdf-syntax-ns#"
   xmlns:svg="http://www.w3.org/2000/svg"
   xmlns="http://www.w3.org/2000/svg"
   viewBox="0 0 1910.3195 2030.6263"
   height="2030.6263"
   width="1910.3195"
   id="svg944"
   version="1.1">
  <metadata
     id="metadata950">
    <rdf:RDF>
      <cc:Work
         rdf:about="">
        <dc:format>image/svg+xml</dc:format>
        <dc:type
           rdf:resource="http://purl.org/dc/dcmitype/StillImage" />
        <dc:title></dc:title>
      </cc:Work>
    </rdf:RDF>
  </metadata>
  <defs
     id="defs948" />
  <path
     id="path2583"
     d="m 600.08926,2029.8465 c -3.195,-3.195 -1.5516,-4.5987 16.2535,-13.8828 20.9866,-10.943 64.5656,-37.9114 79.8578,-49.4191 13.9106,-10.468 14.0654,-10.952 1.6422,-5.136 -17.3191,8.1081 -33.5108,12.7672 -71.5,20.574 -27.5738,5.6664 -43.0369,9.8125 -71,19.0371 -27.767,9.1599 -40.6735,12.4589 -54.8423,14.018 -22.4753,2.4731 -40.8766,-3.0135 -55.49352,-16.5462 l -5.85672,-5.4223 -15.18993,1.0847 c -29.48862,2.1058 -56.77879,-1.909 -116.72204,-17.1715 -19.04091,-4.8482 -59.74886,-17.7531 -79.06543,-25.0648 -25.27832,-9.5684 -64.21284,-27.9936 -82.83006,-39.1983 -48.000571,-28.8888 -74.391761,-52.8245 -98.955131,-89.7481 -17.43467,-26.2077 -29.3006,-53.3638 -37.5652997,-85.9712 -11.25324,-44.3983 -11.76343,-96.3763 -1.40179,-142.8122 5.6388797,-25.2708 26.1921197,-91.9003 31.9496897,-103.5746 2.45304,-4.9739 3.14284,-7.3607 2.48335,-8.593 -2.30109,-4.2996 -10.49218,-30.0053 -14.02696,-44.0202 -13.0968,-51.9267 -11.8793,-99.7771 3.95982,-155.6306 11.54312,-40.7044 33.8954,-96.0589 46.64954,-115.5256 2.64633,-4.0391 4.75392,-7.5809 4.68353,-7.8706 -2.26603,-9.3284 -6.52054,-33.8037 -7.64382,-43.9732 -5.03795,-45.6107 -1.88705,-74.8516 12.88353,-119.5615 12.689911,-38.4119 31.586731,-73.4087 56.059401,-103.8218 14.22969,-17.6838 59.92252,-62.00043 75.73775,-73.45667 7.3734,-5.34115 8.19718,-6.33611 14.62178,-17.66003 3.7445,-6.6 9.36803,-17.10916 12.49674,-23.35368 3.12872,-6.24453 6.72747,-12.31953 7.99724,-13.5 2.05136,-1.9071 2.4388,-3.651 3.47613,-15.64632 2.85433,-33.00633 9.06919,-57.21042 23.13135,-90.08615 12.44649,-29.09848 31.7539,-59.32128 56.48194,-88.41385 18.22773,-21.44494 41.9848,-42.60875 55.08767,-49.07443 l 5.10645,-2.51981 0.56646,-17.20288 c 1.58751,-48.21189 17.21167,-89.488 51.21842,-135.30948 34.09481,-45.94014 50.49071,-61.27706 92.13211,-86.18147 17.8954,-10.70268 22.8703,-13.33095 26.7818,-14.14891 2.7571,-0.57656 3.0572,-1.16703 5.6532,-11.12118 11.9135,-45.68216 41.3523,-90.66045 77.9351,-119.07388 10.8594,-8.43439 48.3465,-34.30536 57.5,-39.68249 9.7564,-5.73131 26.2297,-12.47013 28.8661,-11.80842 2.8349,0.71151 10.6275,-6.30415 10.6486,-9.58692 0.024,-3.76711 7.6842,-25.37944 12.0964,-34.12982 C 773.07966,17.59561 789.10286,0 798.06996,0 c 5.8181,0 4.5897,2.81704 -5.1448,11.79783 -16.7432,15.44687 -27.5739,35.2979 -34.7557,63.70217 -2.0397,8.06703 -2.6246,13.28604 -3.0258,27 -0.4563,15.59576 -0.2783,18.07383 2.1539,30 6.0433,29.63225 12.9719,43.63174 38.6036,78 21.6193,28.98814 38.7024,44.97224 69.9416,65.44195 11.1748,7.32235 59.6205,32.77092 60.5726,31.81882 0.209,-0.20899 -0.4717,-2.62124 -1.5125,-5.36057 -7.3278,-19.28507 -6.5817,-47.53425 1.774,-67.16979 6.1702,-14.49976 17.9043,-29.83535 30.7128,-40.13929 4.2211,-3.39563 7.0022,-6.27301 6.2697,-6.48651 -32.2486,-9.39898 -63.4596,-23.93336 -85.8166,-39.9632 -9.8644,-7.07273 -25.3137,-21.63968 -31.6235,-29.81739 -6.354,-8.23503 -11.8708,-19.03843 -14.9744,-29.32402 -2.3866,-7.90941 -2.7269,-10.76202 -2.8089,-23.54099 -0.079,-12.33943 0.1752,-14.95114 1.6799,-17.25 1.9452,-2.97214 4.8133,-3.51475 6.6812,-1.26404 0.924,1.11327 0.9357,3.18387 0.051,9.01983 -1.9378,12.78422 1.3153,31.28486 7.7431,44.0352 3.9594,7.85392 8.0619,13.34512 16.7205,22.38044 15.2621,15.92604 30.6382,26.4469 58.0311,39.70682 18.7572,9.07969 29.1147,12.98657 46.1661,17.41387 11.224,2.91428 11.4383,2.93073 17.5981,1.35133 8.633,-2.2135 21.11074,-1.39481 29.73584,1.95103 3.575,1.38682 12.8,5.00671 20.5,8.04422 31.679,12.49677 48.573,14.89164 70.6317,10.01262 10.0828,-2.23015 9.8119,-1.77105 10.2425,-17.36033 0.4512,-16.33361 1.611,-20.83162 9.7254,-37.71942 3.3776,-7.02932 7.3339,-16.38058 8.7918,-20.78058 3.1996,-9.65643 3.6923,-10.5 6.1324,-10.5 2.9869,0 4.0873,3.15171 3.0255,8.66575 -1.3184,6.84631 -2.9541,11.0772 -9.9877,25.83425 -7.7174,16.19164 -9.3572,22.26621 -9.4483,35 -0.093,12.98469 1.219,17.19673 12.9254,41.5 12.0791,25.077 13.918,32.8379 13.1506,55.5 -0.3486,10.29543 -1.314,19.06183 -3.0781,27.9507 -3.7193,18.7416 -4.9541,32.23535 -4.1681,45.5493 0.8656,14.66336 3.1077,22.20769 11.1312,37.45521 11.4536,21.76613 13.7771,31.66087 13.8648,59.04479 l 0.061,19 12.8008,22.73277 c 24.147,42.88222 31.7625,62.54149 37.7153,97.3612 3.0199,17.66496 2.5585,22.40603 -2.1809,22.40603 -2.4931,0 -3.4091,-2.29897 -4.781,-12 -1.3956,-9.86863 -5.7354,-31.04289 -7.0259,-34.28014 -0.5332,-1.33745 -0.6597,4.73648 -0.3183,15.28014 0.6409,19.794 -0.484,34.35438 -4.3266,56 -3.2941,18.55641 -2.973,25.64239 1.5032,33.17502 5.9835,10.06919 9.2898,17.80732 10.4149,24.37546 0.9841,5.74533 0.843,8.00152 -1.1108,17.76532 -2.906,14.52203 -2.8469,23.19428 0.2305,33.82233 7.5028,25.9123 10.3541,41.26767 11.2083,60.36187 1.1765,26.30107 -3.5978,42.3364 -30.469,102.3355 -3.2849,7.3345 -6.9416,14.3671 -8.1261,15.6279 -2.7277,2.9034 -3.533,10.0585 -2.5732,22.8609 0.6577,8.7721 0.8948,9.5853 2.8778,9.8678 3.3507,0.4774 3.089,3.1997 -1.7122,17.8079 -4.2405,12.9025 -10.6105,39.708 -14.2584,60 -1.2958,7.2087 -1.7707,16.4572 -1.9689,38.3449 -0.2223,24.5512 -0.4948,29.1029 -1.8304,30.5787 -0.863,0.9536 -1.5691,2.4532 -1.5691,3.3325 0,0.8792 -1.558,4.5876 -3.4622,8.2408 l -3.4622,6.6423 6.3124,5.9049 c 14.2119,13.2946 19.2964,34.4236 16.7138,69.4559 -3.2733,44.4021 -3.473,50.3124 -2.3059,68.25 1.4034,21.5681 4.2486,38.9479 8.8809,54.2494 5.2712,17.4121 15.4065,41.5346 21.1439,50.3233 14.9877,22.9589 17.5452,39.0614 12.6549,79.6773 -1.992,16.5448 -2.8413,29.125 -3.2089,47.5309 -0.5741,28.7534 0.6115,46.5731 4.4042,66.1984 2.2765,11.7799 2.9429,13.743 5.4656,16.1006 2.6516,2.4782 2.7816,2.9269 1.6874,5.8256 -1.0282,2.7241 -0.7525,4.6465 2.0783,14.4926 6.6317,23.0662 10.72,30.253 33.4791,58.8519 26.823,33.7056 37.6604,50.6405 57.2536,89.4667 20.8814,41.3792 27.8793,51.7198 38.7178,57.212 14.3996,7.2968 31.7613,-2.4109 47.8656,-26.7639 6.9118,-10.4521 10.348,-17.3117 22.3946,-44.7054 5.2507,-11.9402 11.981,-26.7 14.9561,-32.7996 6.5804,-13.4912 23.2665,-38.7088 38.9319,-58.8375 14.9906,-19.2617 20.4472,-27.5734 26.9635,-41.0723 11.6835,-24.2028 16.851,-47.6914 19.0302,-86.5 1.7729,-31.5728 7.0267,-55.3502 18.0368,-81.6295 2.4122,-5.7576 11.0043,-23.3838 19.0935,-39.1694 8.0893,-15.7856 17.9437,-35.0407 21.8988,-42.789 15.4285,-30.2257 30.6307,-75.7631 34.8996,-104.5404 2.0878,-14.0739 1.9832,-25.2255 -0.4068,-43.3717 -2.3985,-18.2102 -2.5923,-38.9128 -0.4786,-51.119 0.8458,-4.8846 4.2028,-19.231 7.46,-31.881 15.4864,-60.1459 17.637,-89.6215 9.4119,-129 -5.1359,-24.5889 -5.7468,-29.039 -5.7651,-42 -0.016,-11.6884 0.3973,-14.816 4.1017,-31 2.8214,-12.3261 4.7935,-24.4619 6.2565,-38.5 2.7679,-26.55986 5.4541,-46.10585 8.7268,-63.5 3.9074,-20.76739 3.6987,-31.34591 -0.9472,-48 -5.6047,-20.0914 -6.1982,-23.88763 -6.1762,-39.5 0.024,-16.94893 1.3306,-23.41534 7.4993,-37.11518 l 4.1662,-9.25263 -0.8859,-12.5661 c -3.3177,-47.05986 2.5108,-83.99816 18.1759,-115.18905 4.4133,-8.78754 7.5763,-13.95676 21.6469,-35.37704 7.2084,-10.97375 6.9511,-10.11944 12.2913,-40.7999 3.0568,-17.56191 8.4901,-39.66441 12.6861,-51.60648 1.6606,-4.72649 6.1719,-15.56862 10.0249,-24.09362 17.1901,-38.03374 22.7277,-57.10231 27.7422,-95.53002 5.9032,-45.23784 10.7663,-63.02654 22.3555,-81.77393 6.2557,-10.11965 7.9227,-13.65067 7.26,-15.37772 -0.3169,-0.82563 0.1555,-4.27251 1.0496,-7.65974 2.3835,-9.02933 2.0389,-20.34048 -0.9726,-31.92515 -3.9706,-15.27412 -9.9288,-24.44701 -21.3685,-32.89801 -4.4965,-3.32177 -5.344,-4.43161 -5.0864,-6.66068 1.1183,-9.67465 21.1062,5.51946 29.369,22.32525 5.9716,12.14556 7.768,20.86514 7.9319,38.5 0.172,18.5116 -0.4915,21.05061 -9.2777,35.5 l -6.0806,10 2.6833,0.71656 c 1.4758,0.3941 5.9964,1.62413 10.0458,2.7334 9.9048,2.71327 27.7351,4.39107 38.1375,3.58868 13.044,-1.00616 31.9595,-4.20258 48.2791,-8.15841 16.1709,-3.91977 19.7209,-3.8994 19.7209,0.11314 0,3.4106 -2.8229,4.62276 -20.5,8.80263 -26.4322,6.2501 -33.1393,7.13125 -54.5,7.16007 -21.5084,0.029 -32.3538,-1.52766 -41.4638,-5.95145 -2.7301,-1.32572 -5.1285,-2.24561 -5.33,-2.0442 -0.2014,0.20141 -1.6142,4.11771 -3.1395,8.70289 -4.4329,13.32523 -7.6229,29.81523 -10.6083,54.83669 -3.5775,29.98325 -10.0261,55.31211 -20.4728,80.41297 -2.1921,5.26709 -3.9856,9.80389 -3.9856,10.08178 0,2.0654 22.5385,-1.50702 37.5,-5.94386 6.6,-1.95723 21.225,-6.02074 32.5,-9.03001 11.275,-3.00927 26.35,-7.32243 33.5,-9.58481 17.783,-5.62682 50.6657,-13.89091 58.1428,-14.61247 5.494,-0.53018 6.2582,-0.37714 7.2355,1.44895 2.1773,4.06841 -1.0333,5.69624 -18.9169,9.59111 -9.0962,1.98107 -22.5962,5.4082 -30,7.61586 -40.5626,12.09491 -90.6943,25.9626 -99.5781,27.54581 -4.3358,0.77269 -11.5882,1.42059 -16.1165,1.43978 l -8.2331,0.0349 -2.3936,4.75 c -7.6532,15.18767 -15.4172,43.09189 -21.0688,75.72269 -1.9026,10.98498 -3.372,19.99542 -3.2653,20.02322 1.5018,0.39123 11.9594,4.53717 22.694,8.99712 41.9376,17.424 81.0109,22.54664 129.8201,17.01985 14.5675,-1.64952 17.5558,-1.15787 16.9906,2.79541 -0.4792,3.35183 -4.0155,4.36402 -21.3107,6.09979 -18.4222,1.84889 -44.2193,2.07611 -58.2894,0.51341 -25.9736,-2.88475 -55.502,-11.39148 -84.4891,-24.3402 -7.0914,-3.16777 -9.3048,-3.2354 -10.8423,-0.33129 -0.6552,1.2375 -5.5654,9 -10.9116,17.25 -18.875,29.12669 -25.0957,45.55708 -30.5458,80.67825 -1.9117,12.31927 -2.1552,38.41957 -0.4787,51.29418 0.6426,4.93484 1.3386,9.14265 1.5467,9.3507 0.208,0.20805 7.7315,-1.46608 16.7188,-3.72027 8.9874,-2.2542 21.2796,-4.76239 27.316,-5.57377 27.925,-3.75347 74.059,-4.62799 104.4754,-1.98043 9.625,0.8378 24.5921,1.41522 33.2601,1.28316 13.0244,-0.19843 16.0252,0.0249 17.2868,1.28649 2.0409,2.04094 0.9697,4.42507 -2.6646,5.93046 -4.1428,1.71597 -29.9456,1.65255 -47.8823,-0.1177 -17.7011,-1.747 -65.9694,-1.79898 -84.5,-0.091 -19.6169,1.8081 -26.5456,2.95579 -43.705,7.23939 -8.6378,2.1563 -16.9685,3.92054 -18.5127,3.92054 -2.5631,0 -3.1397,0.7482 -6.6195,8.58856 -6.0947,13.73225 -6.8065,16.81773 -7.3627,31.91144 -0.5359,14.54672 0.056,19.77202 3.8217,33.72737 l 2.1239,7.87122 7.1272,3.59251 c 14.9437,7.53254 42.0737,16.39871 61.7792,20.18967 20.2761,3.90073 37.6497,5.40914 69.3479,6.02092 l 31,0.59831 0.3099,2.68274 c 0.5437,4.70625 -1.8169,5.13417 -28.7976,5.22033 -31.4784,0.10052 -62.714,-3.02395 -84.2519,-8.42765 -13.6453,-3.42349 -33.5954,-9.91799 -43.2137,-14.06763 -4.9757,-2.14668 -9.2788,-3.90413 -9.5626,-3.90543 -0.2837,-0.001 -0.3496,4.8545 -0.1464,10.79065 0.3019,8.822 -0.1902,13.88971 -2.695,27.75 -3.6068,19.95831 -5.2473,31.84492 -8.689,62.95699 -1.3994,12.64999 -3.1986,26.14999 -3.9982,29.99999 -0.7996,3.85 -1.4542,7.0925 -1.4547,7.2056 -4e-4,0.1131 1.9117,-0.4704 4.2492,-1.2967 6.8319,-2.4152 21.7668,-3.3823 36.6788,-2.3753 15.9222,1.0752 27.6453,3.0238 63.0317,10.477 14.3359,3.0195 32.022,6.1905 39.3024,7.0466 19.6901,2.3156 20.1806,2.4514 20.5535,5.6923 0.2468,2.1449 -0.218,2.9527 -2.1135,3.6733 -4.375,1.6634 -24.3568,-0.9502 -54.2029,-7.0897 -46.318,-9.5278 -54.3784,-10.8051 -72.5,-11.4891 -14.8239,-0.5594 -17.3574,-0.4053 -24.9404,1.5167 -4.6422,1.1766 -9.2374,2.1393 -10.2114,2.1393 -3.1826,0 -4.361,7.0014 -4.2075,25 0.1151,13.5016 0.578,18.4071 2.5476,26.9945 l 2.4069,10.4944 4.689,0.6707 c 7.3005,1.0443 13.7438,3.4129 34.0591,12.5205 36.4627,16.3465 54.1265,22.0606 83.1567,26.9006 11.2857,1.8815 15.5,3.6073 15.5,6.3472 0,4.8371 -12.3837,3.9599 -40.5,-2.8689 -20.5716,-4.9963 -27.9795,-7.7862 -71.5,-26.9271 -10.471,-4.6053 -21.9452,-8.3997 -22.8684,-7.5625 -0.2026,0.1837 0.2325,4.9683 0.967,10.6323 1.6397,12.645 1.6319,38.8459 -0.015,52.2983 -1.5319,12.5094 -6.1973,36.4073 -10.0531,51.4962 -1.6158,6.3228 -2.6211,11.7803 -2.2339,12.1276 1.6307,1.463 44.6401,14.906 55.2038,17.2544 14.6757,3.2627 39.0451,7.2469 50,8.1746 10.9631,0.9285 13,1.7037 13,4.9472 0,3.8145 -3.1743,4.5532 -14.6684,3.4136 -28.6132,-2.837 -55.9394,-8.7395 -85.2726,-18.4188 -10.8255,-3.5721 -20.1418,-6.4948 -20.7029,-6.4948 -2.5009,0 -7.7927,32.0022 -7.1755,43.3939 l 0.3194,5.8939 4.1737,1.228 c 6.5436,1.9255 17.1279,8.0255 39.8263,22.9528 28.5917,18.8031 34.7065,22.6219 51.5,32.163 7.975,4.5309 15.5125,8.9634 16.75,9.8499 2.9147,2.088 2.9871,6.1498 0.1259,7.0579 -4.0618,1.2892 -28.2652,-12.5335 -70.412,-40.2125 -25.3471,-16.6461 -36.7974,-23.3269 -39.9807,-23.3269 -1.2359,0 -1.4567,0.7516 -1.0285,3.5 0.2999,1.925 0.788,5.0605 1.0846,6.9678 1.6468,10.5898 2.2288,25.0983 1.4098,35.1458 -1.6083,19.7325 -8.6232,47.6637 -19.4207,77.327 -2.4906,6.8424 -4.5284,12.7179 -4.5284,13.0567 0,0.3388 3.2542,1.3971 7.2316,2.3516 14.4439,3.4665 31.1077,11.0864 63.7345,29.1439 10.1937,5.6417 21.6839,11.8392 25.5339,13.7721 8.4376,4.2362 11.3902,7.0953 9.8558,9.5436 -0.583,0.9303 -2.0321,1.836 -3.2201,2.0126 -2.221,0.3303 -16.7362,-6.9327 -43.6357,-21.8338 -26.6526,-14.7644 -47.0074,-23.5291 -59.1383,-25.465 l -4.1383,-0.6604 -7.5717,15.3191 c -4.1645,8.4254 -12.5109,24.7461 -18.5476,36.2682 -6.0368,11.5221 -10.784,21.2597 -10.5494,21.6392 0.2345,0.3795 1.6347,0.9933 3.1115,1.364 5.0821,1.2755 13.1676,7.6431 28.9855,22.827 19.8159,19.0218 27.5343,25.6651 39.4345,33.9419 20.9159,14.5473 42.0185,25.8598 64.9138,34.7983 14.1181,5.5118 19.1146,8.9325 16.9163,11.5812 -0.6386,0.7696 -2.3773,1.3992 -3.8636,1.3992 -8.4328,0 -43.3305,-15.795 -66.8545,-30.259 -17.9669,-11.0471 -33.107,-22.9812 -51.3318,-40.4619 -22.1649,-21.2599 -25.9942,-24.3082 -33.0947,-26.3446 -2.9364,-0.8421 -2.9689,-0.8046 -7.2379,8.3598 -9.5109,20.417 -15.9375,41.3974 -18.9366,61.8203 -0.8388,5.712 -2.2289,20.2013 -3.0889,32.1985 -2.0433,28.5009 -5.058,46.3739 -10.4735,62.0935 -1.1191,3.2486 -2.0348,5.9898 -2.0348,6.0917 0,0.1018 1.9125,0.7496 4.25,1.4394 9.17,2.7064 21.1004,9.6076 35.8664,20.7471 20.7282,15.6374 41.5749,32.3044 57.8836,46.2783 7.425,6.362 15.1699,12.8379 17.2108,14.3909 4.2042,3.199 5.5158,6.0655 3.7494,8.194 -2.881,3.4713 -5.8845,1.5618 -30.1077,-19.141 -18.1055,-15.4741 -55.2676,-44.5482 -66.517,-52.0402 -8.0611,-5.3686 -16.9935,-9.5684 -22.8355,-10.7368 -2.9187,-0.5837 -3.0942,-0.393 -6.4737,7.0314 -4.7158,10.36 -14.2393,24.7583 -29.0133,43.8643 -15.6087,20.1854 -30.026,41.9967 -36.6812,55.4933 -2.8425,5.7645 -9.5147,20.381 -14.8271,32.481 -5.3123,12.1 -12.0713,26.636 -15.02,32.3022 -11.0831,21.2974 -24.6312,36.5002 -38.3777,43.065 -6.6852,3.1926 -8.5159,3.6296 -15.107,3.6062 -9.9216,-0.035 -17.1088,-3.6279 -25.7619,-12.8781 -7.3699,-7.8783 -13.2153,-17.5706 -25.9279,-42.9908 -23.0023,-45.9958 -32.4571,-60.8771 -63.2834,-99.6045 -20.2532,-25.4443 -25.2404,-34.415 -32.0173,-57.5903 -2.2275,-7.6176 -4.3822,-14.1824 -4.7881,-14.5883 -1.1294,-1.1294 -22.5522,1.931 -33.1707,4.7387 -18.1728,4.8052 -35.8551,12.855 -60.5507,27.5656 -28.6277,17.0528 -43.0895,29.038 -70.4368,58.3743 -27.4314,29.4265 -32.7002,35.9448 -54.56124,67.5 -7.0491,10.175 -19.661,27.725 -28.0265,39 -8.3655,11.275 -37.9583,54.7873 -65.7619,96.694 -27.8037,41.9067 -52.9853,79.4817 -55.9593,83.5 -8.1108,10.959 -30.0246,36.0808 -34.9377,40.0522 -5.9037,4.7724 -8.7849,6.1855 -10.044,4.9264 -1.182,-1.182 4.7782,-9.7648 16.2274,-23.3677 18.5557,-22.0462 25.2108,-30.9347 41.4079,-55.3049 9.5043,-14.3 33.2611,-50.075 52.793,-79.5 19.5319,-29.425 42.6913,-63.175 51.4653,-75 8.7741,-11.825 21.0687,-28.925 27.3215,-38 19.63334,-28.4951 26.51344,-37.0168 52.37914,-64.8777 17.0601,-18.3761 33.2313,-33.5987 45.6332,-42.9563 20.5355,-15.4948 58.7731,-36.3938 79.7345,-43.5794 10.5549,-3.6183 25.704,-6.8974 37.5155,-8.1206 3.7125,-0.3844 6.75,-0.8844 6.75,-1.1111 0,-0.2266 -1.105,-5.9117 -2.4556,-12.6335 -6.581,-32.7527 -7.0393,-71.6103 -1.3825,-117.2214 2.7915,-22.5085 2.7855,-39.4206 -0.018,-49.8422 -2.4793,-9.2172 -7.1645,-18.9418 -11.1571,-23.1578 -5.425,-5.7285 -22.8616,-51.1539 -26.4817,-68.9895 -5.0441,-24.8512 -6.7593,-58.4186 -4.5274,-88.6035 0.6915,-9.3528 1.0703,-17.1921 0.8418,-17.4207 -0.7016,-0.7015 -12.9902,10.4677 -15.2266,13.8397 -2.6852,4.0483 -18.5626,14.7047 -33.4958,22.4811 -13.489,7.0243 -51.3562,23.5914 -75.0973,32.8553 -17.4794,6.8207 -60.03484,20.3033 -79.72334,25.2585 -36.1171,9.09 -103.9542,20.3897 -138.7767,23.1164 -23.4622,1.8371 -46.3822,8.1792 -50.709,14.0315 -1.1549,1.562 -3.4309,3.1325 -5.0578,3.4898 -5.9525,1.3074 -15.8498,12.5561 -22.1503,25.1748 -8.6179,17.26 -11.6796,39.0665 -8.0115,57.0588 5.8646,28.7651 16.6894,44.5902 36.4286,53.2562 4.8427,2.126 6.9939,2.4168 18,2.4331 16.5432,0.024 26.0838,-1.9977 52.8916,-11.2108 11.8846,-4.0844 43.2084,-14.7582 69.6084,-23.7194 26.4,-8.9613 57.45,-19.6738 69,-23.8056 29.72434,-10.6331 68.18444,-22.5892 87.55424,-27.2179 23.6691,-5.656 55.4297,-8.0864 66.9458,-5.123 12.9911,3.3431 18.6914,10.0335 17.7158,20.7929 -0.9727,10.7275 -7.7654,18.9779 -28.2158,34.271 -38.632,28.8896 -104.0932,66.1579 -152.50004,86.8212 -42.8344,18.2846 -126.3404,47.7537 -174.9084,61.7248 -53.3909,15.3585 -81.1287,21.2025 -131.0916,27.6193 -19.3196,2.4812 -24.227,2.7428 -48.3898,2.5794 -30.6282,-0.2071 -36.1948,0.5233 -48.2769,6.3346 -18.4856,8.8912 -31.8131,30.2733 -34.6308,55.5604 -0.9007,8.0828 -0.8009,10.9812 0.6282,18.255 0.9344,4.7556 2.827,11.1974 4.2058,14.3151 3.138,7.0955 8.9665,14.3215 11.5519,14.3215 1.0999,0 2.4391,1.0636 3.0629,2.4327 1.9698,4.3233 9.8124,6.9073 22.3487,7.3634 13.0664,0.4755 21.4882,-0.8271 50.5,-7.8107 43.4309,-10.4544 58.8778,-11.9255 135.909,-12.9432 33.7749,-0.4463 62.6678,-0.4504 64.2063,-0.01 12.697,3.6414 13.8266,11.9941 3.4631,25.6056 -14.8659,19.525 -53.3537,43.9562 -108.0784,68.6058 -26.7032,12.0279 -55.7108,21.9922 -104.2219,35.8009 -57.3379,16.3212 -74.8165,19.8039 -105.2781,20.977 -25.1301,0.9677 -33.0563,2.4304 -45.7441,8.4414 -25.6446,12.1495 -40.03088,32.9813 -41.94549,60.7383 -0.97763,14.1732 2.76557,31.2459 9.29254,42.3834 4.40187,7.5112 15.98025,18.4744 23.39705,22.154 20.5455,10.1928 39.6162,8.5471 89.4324,-7.7174 30.3446,-9.9073 43.3261,-13.3345 79.2793,-20.9307 41.6641,-8.8027 54.2468,-13.112 78.0508,-26.7305 9.463,-5.4138 13.8887,-7.4239 15.448,-7.0161 1.202,0.3143 2.7497,0.1032 3.4395,-0.4693 1.5947,-1.3235 4.9801,-0.2818 5.7695,1.7753 0.9638,2.5117 -2.9155,7.7147 -12.2424,16.4199 -13.4186,12.524 -29.4844,24.1532 -57.2029,41.4058 -27.0663,16.8467 -37.6108,22.8388 -50.5457,28.7236 -10.0779,4.585 -12.596,5.2324 -14.182,3.6464 z m -167.81318,-44.9444 c 0.32773,-0.3289 -0.49458,-2.5789 -1.82736,-5 -1.33278,-2.4212 -3.676,-8.2271 -5.20717,-12.9021 -2.57493,-7.8619 -2.78825,-9.7387 -2.84136,-25 -0.0448,-12.8743 0.33452,-17.9283 1.72631,-23 2.16201,-7.8785 6.48744,-17.3536 10.75055,-23.5498 1.73717,-2.5249 2.93922,-4.81 2.67122,-5.078 -0.268,-0.268 -4.80937,-1.1366 -10.09195,-1.9302 -36.57301,-5.4941 -80.06049,-16.9573 -112.61356,-29.6845 -19.00299,-7.4295 -64.19326,-30.2885 -94,-47.5489 -16.16101,-9.3584 -52.01507,-33.6067 -62,-41.9309 -15.35439,-12.8007 -42.25941,-38.603 -51.9156,-49.7879 C 83.294969,1692.1164 59.975549,1648.2556 54.031539,1620 c -4.16224,-19.7857 -4.68993,-26.5368 -4.6507,-59.5 0.0392,-32.9728 1.07121,-45.3058 4.06809,-48.6173 1.37407,-1.5183 1.14254,-2.4302 -2.4095,-9.4897 l -3.92965,-7.81 -1.52594,2.9585 c -3.43734,6.6644 -22.55595,68.8118 -28.13565,91.4585 -6.0819,24.6849 -7.7155997,37.5575 -8.3170097,65.533 -0.88134,40.9967 2.4639397,65.1538 13.9126997,100.467 11.4694,35.3769 28.74415,65.4718 54.12919,94.3004 19.4513,22.0898 58.736181,50.1911 96.902781,69.3164 29.59577,14.8305 54.59782,24.986 90.26691,36.6653 36.2968,11.8848 90.9532,25.4261 117.60911,29.1379 10.22105,1.4232 49.01591,1.7949 50.32421,0.4821 z m 21.01828,-108.3356 c 9.2353,-6.626 17.8236,-10.7726 29.3293,-14.1607 7.5482,-2.2228 11.6734,-2.6871 30.7191,-3.4577 24.453,-0.9895 36.8029,-2.7691 61.8228,-8.9088 36.2321,-8.891 94.6126,-26.2159 118.6772,-35.2185 37.3909,-13.9879 86.573,-39.2039 112.4489,-57.6533 15.397,-10.978 30.0693,-28.0493 26.8631,-31.2555 -2.2891,-2.2891 -9.9588,-2.8142 -25.812,-1.7675 -9.3425,0.6169 -26.4023,0.7855 -41,0.4052 -37.3139,-0.9722 -75.0417,1.4044 -103.9033,6.5449 -6.1032,1.0871 -20.3217,4.1845 -31.5967,6.8831 -41.5825,9.9527 -57.6698,10.3279 -73.3661,1.7107 l -6.1339,-3.3674 -10.5,1.7446 c -38.7868,6.4444 -92.6963,4.9274 -149.43367,-4.2052 -45.05701,-7.2524 -76.58326,-17.9168 -125.56633,-42.475 -32.16085,-16.1242 -37.75642,-19.3604 -71.80845,-41.5304 -26.99924,-17.5781 -40.62522,-27.4436 -59.19155,-42.856 -32.95103,-27.3535 -49.728381,-46.1688 -67.989031,-76.2474 -3.56584,-5.8735 -6.8372,-10.3254 -7.26968,-9.8929 -0.43248,0.4325 -1.31437,10.799 -1.95976,23.0368 -1.83443,34.7839 1.14171,65.9539 8.38221,87.7894 3.83105,11.5534 16.15286,36.8214 25.08815,51.4475 8.27962,13.5529 15.645211,23.4967 25.605621,34.5685 9.54455,10.6095 38.20651,37.4497 50.6032,47.3868 9.78453,7.8433 43.4265,30.3336 58.53929,39.1347 12.75188,7.4263 61.3854,33.1435 72,38.0734 35.5894,16.5293 87.09697,31.1832 135.5,38.5496 11.20315,1.705 11.7854,1.5801 19.9516,-4.2789 z m 72.8714,-145.0628 c 7.0527,-0.8262 13.9266,-1.7792 15.2755,-2.1178 l 2.4525,-0.6155 -2.1014,-3.1352 c -16.581,-24.7377 -13.8825,-65.0529 6.0315,-90.1115 1.6604,-2.0893 3.0189,-4.117 3.0189,-4.5061 0,-0.3891 -8.8875,-0.9854 -19.75,-1.3251 -18.1691,-0.5682 -21.471,-0.9742 -41.25,-5.0726 -68.00178,-14.0903 -112.89213,-30.1943 -167.62155,-60.1327 -53.2783,-29.1446 -90.53484,-57.1983 -130.38573,-98.1791 -24.67128,-25.3707 -35.13552,-38.5241 -52.09693,-65.4851 -23.3866,-37.174 -38.30906,-76.2323 -45.779131,-119.823 -3.6026,-21.0226 -6.50187,-74.9924 -4.95165,-92.1751 0.57971,-6.4256 0.39677,-9.4186 -0.80185,-13.1186 -1.22591,-3.7843 -1.83179,-4.5623 -2.87722,-3.6946 -4.29459,3.5642 -25.58473,52.5003 -35.38737,81.3391 -21.70626,63.8585 -26.94926,105.4901 -19.55589,155.2819 2.95608,19.9082 11.13525,49.3805 19.66715,70.8673 8.58589,21.6228 25.77175,51.5826 41.4971,72.3411 21.060231,27.8009 57.586601,58.6712 109.012471,92.132 29.13429,18.9566 41.71823,26.2342 68.77396,39.7738 32.06392,16.046 49.87284,23.2979 77.96107,31.7462 27.19101,8.1785 68.00863,14.394 117.54557,17.8992 10.7386,0.7599 48.693,-0.409 61.323,-1.8886 z m 43.0107,-113.945 c 14.4657,-7.265 19.0567,-7.991 48.8115,-7.7195 20.5921,0.1879 29.2619,-0.1757 44,-1.8455 50.2754,-5.6961 80.9791,-11.9821 137.3548,-28.1207 47.2974,-13.5399 131.9608,-43.4173 174.3977,-61.5445 61.40044,-26.2275 152.02194,-81.0892 170.52314,-103.2336 7.0189,-8.4012 6.6514,-16.9346 -0.8834,-20.5101 -11.3916,-5.4057 -40.6562,-3.585 -72.982,4.5405 -19.3662,4.868 -53.0723,15.3466 -78.93444,24.5392 -13.2666,4.7156 -45.721,15.9096 -72.121,24.8756 -26.4,8.966 -57.9,19.6991 -70,23.8512 -12.1,4.1522 -26.725,8.5106 -32.5,9.6852 -13.9571,2.8389 -30.0137,3.0559 -39.5,0.5339 l -7,-1.861 -19.5,3.2195 c -10.725,1.7707 -44.3156,8.1271 -74.6458,14.1253 -30.3302,5.9982 -55.7817,10.9058 -56.5589,10.9058 -3.2236,0 -4.7924,-2.5337 -5.438,-8.7826 l -0.649,-6.2827 -6.259,-3.5002 c -11.3836,-6.366 -11.3591,-8.6268 0.1776,-16.4345 8.3003,-5.6173 10.5815,-7.8992 16.2512,-16.2564 1.9026,-2.8046 4.8988,-5.6095 7.301,-6.835 l 4.0742,-2.0785 -8.5169,-2.862 c -10.3946,-3.493 -30.5592,-12.4993 -33.0695,-14.7702 -1.3601,-1.2304 -1.7313,-2.6954 -1.4384,-5.6781 0.3578,-3.6456 -0.01,-4.412 -3.917,-8.2325 -4.4647,-4.3624 -5.5115,-8.1765 -3.3517,-12.2122 0.8552,-1.5979 0.01,-2.04 -7.75,-4.055 -37.7572,-9.804 -102.897,-32.1318 -161.2098,-55.2575 -22.63907,-8.9782 -67.88333,-31.3561 -101.5,-50.2022 -11.55,-6.4752 -29.1,-16.0689 -39,-21.3195 -19.42414,-10.3019 -27.59756,-15.4461 -34.1759,-21.5098 l -4.1991,-3.8706 v 6.6499 c 0,9.1759 -1.78613,11.8548 -7.45962,11.188 -2.29096,-0.2693 -6.78939,-1.4543 -9.99652,-2.6334 -3.20712,-1.1791 -8.15712,-2.2385 -11,-2.3544 l -5.16886,-0.2106 -0.31644,3.8519 c -0.17404,2.1186 0.61346,6.9134 1.75,10.6553 2.57871,8.4898 2.57798,10.0728 -0.006,13.3579 -2.66179,3.384 -4.59679,3.3171 -11.69604,-0.4043 -3.50169,-1.8355 -7.56687,-3.1226 -10.26462,-3.25 l -4.4669,-0.2108 -0.2574,6 c -0.36937,8.6101 -0.98127,10.4501 -3.836,11.5355 -3.09218,1.1757 -5.29494,0.1514 -11.13426,-5.1774 -2.32521,-2.122 -5.13318,-3.8581 -6.23993,-3.8581 -2.61227,0 -15.7935,-15.7907 -25.45982,-30.5 -9.95183,-15.1438 -15.47284,-25.0147 -25.72881,-46 l -8.796991,-18 -0.0138,6.5 c -0.0208,9.7491 1.83614,44.123 2.99814,55.5 2.150651,21.0569 7.857521,46.2387 16.203821,71.5 8.83786,26.7491 27.65545,61.288 48.76508,89.5064 21.36853,28.5645 59.92463,66.4691 91,89.4625 61.43039,45.4536 130.07042,78.6855 197.42757,95.584 44.0538,11.0522 63.1125,13.9638 93.5724,14.2953 l 13.5,0.1469 z m 106.2405,-128.0114 c 29.1092,-5.749 58.5508,-11.3836 65.4258,-12.5213 6.875,-1.1378 13.7377,-2.3198 15.2504,-2.6269 l 2.7505,-0.5582 -6.0075,-6.0075 c -10.3291,-10.3291 -17.5008,-25.2852 -21.4984,-44.8334 -2.6117,-12.7708 -1.6825,-35.2311 1.965,-47.4991 3.2925,-11.0739 7.034,-19.0155 12.9566,-27.5009 2.4952,-3.575 4.1154,-6.644 3.6004,-6.8199 -0.515,-0.1759 -10.742,1.3809 -22.7267,3.4597 -19.7696,3.4291 -23.4595,3.7791 -39.7903,3.7736 -18.7988,-0.01 -19.0728,-0.053 -32.2118,-5.4932 -1.7665,-0.7314 -3.49,-1.0518 -3.8298,-0.7119 -0.3399,0.3399 -0.038,4.0692 0.6707,8.2874 1.1063,6.5844 1.0794,8.0467 -0.1905,10.3368 -2.0361,3.6719 -7.4676,6.1641 -13.4386,6.1661 -2.75,0 -8.5271,0.6767 -12.838,1.5016 -4.3109,0.8249 -9.2609,1.5067 -11,1.5151 -5.9083,0.029 -6.4438,1.377 -2.3474,5.9112 4.8639,5.3837 4.7586,7.9706 -0.5646,13.8663 -2.3375,2.589 -5.122,6.42 -6.1878,8.5134 -1.2761,2.5067 -3.7515,4.8912 -7.25,6.9837 -2.9217,1.7475 -5.3122,3.7283 -5.3122,4.4016 0,0.6733 2.0044,2.3989 4.4543,3.8346 4.9025,2.873 6.0371,5.041 5.1402,9.8217 -0.5953,3.1733 -0.5936,3.1746 8.7486,7.3246 9.2277,4.0991 20.2637,8.092 28.2715,10.2288 11.6185,3.1003 12.4594,12.0114 1.4284,15.1371 -5.8484,1.6573 -7.6238,3.119 -13.391,11.0254 -3.629,4.9751 -7.4735,8.8625 -11.2329,11.3587 l -5.7157,3.7949 4.6114,2.8702 c 6.1241,3.8118 8.0953,6.9127 7.252,11.4081 -0.3616,1.9274 -0.4911,3.5044 -0.2879,3.5044 0.2033,0 24.1862,-4.7037 53.2953,-10.4527 z m -78.3475,-94.2973 c 0.8452,-0.9625 1.8183,-2.6775 2.1624,-3.811 0.3442,-1.1336 2.1797,-3.5672 4.079,-5.4081 l 3.4534,-3.3471 -3.826,-4.5919 c -5.0158,-6.0198 -5.6195,-8.156 -3.181,-11.2561 2.3219,-2.9518 7.4899,-4.6418 17.6938,-5.7862 4.1352,-0.4637 7.7999,-1.1245 8.1437,-1.4683 1.0385,-1.0385 -3.2926,-8.9289 -7.6902,-14.0099 -3.1261,-3.612 -3.9721,-5.2974 -3.4746,-6.9229 1.0754,-3.5136 2.425,-4.6323 10.466,-8.6752 l 7.6647,-3.8538 -0.4766,-4.9596 c -0.4362,-4.5396 -0.2465,-5.1104 2.2398,-6.7395 2.4632,-1.6139 3.2895,-1.6558 8.8676,-0.4491 12.1363,2.6253 10.8376,3.0226 16.894,-5.167 3.0059,-4.0645 6.0359,-8.4957 6.7334,-9.8471 0.6976,-1.3515 2.3698,-3.6397 3.7161,-5.085 l 2.4478,-2.6278 -3.2192,-1.1222 c -1.7706,-0.6172 -4.8492,-1.1222 -6.8414,-1.1222 -3.7166,0 -58.3266,-12.3579 -81.5794,-18.4609 -34.0541,-8.9379 -80.5867,-24.607 -129.80502,-43.7096 -82.1619,-31.8888 -108.8069,-45.0577 -141.19498,-69.7836 -5.5,-4.1988 -14.87665,-11.1698 -20.83701,-15.4911 l -10.837,-7.857 -5.06927,5.0693 c -4.40301,4.403 -5.20375,5.8357 -6.09251,10.9011 -0.56279,3.2075 -0.90283,11.515 -0.75566,18.4612 0.29199,13.781 -0.22984,15.7501 -5.87887,22.184 l -2.93292,3.3404 2.3842,4.7094 c 1.31131,2.5902 2.69356,7.1854 3.07167,10.2117 0.92944,7.439 -0.78286,9.4251 -8.12583,9.4251 -2.89477,0 -5.97503,0.2731 -6.84501,0.607 -2.36654,0.9081 -1.94138,5.7421 0.99973,11.3669 2.76344,5.285 2.63463,7.6155 -0.58178,10.5263 -1.41436,1.28 -3.46525,1.7291 -7.47447,1.6367 -3.0389,-0.07 -5.52527,0.3063 -5.52527,0.8365 0,0.5301 0.65234,0.7135 1.44964,0.4076 0.81349,-0.3122 5.75039,2.2737 11.25,5.8927 5.3902,3.547 16.55036,9.9615 24.80036,14.2544 8.25,4.293 26.7,14.3279 41,22.2999 38.41127,21.4136 81.02622,42.5965 104.5,51.9444 58.8453,23.434 112.9133,41.8482 167.5,57.0465 8.9775,2.4996 8.9127,2.497 10.7267,0.4311 z m 44.6129,-36.9037 c 2.5339,-0.6784 2.4985,0.133 0.6106,-14.0217 -0.6268,-4.6994 -0.4535,-5.4122 1.8843,-7.75 2.2071,-2.2071 3.4511,-2.5746 8.7157,-2.5746 4.637,0 6.8639,0.5147 9.0923,2.1014 1.6231,1.1558 4.7137,2.3379 6.868,2.6268 3.5068,0.4704 4.0437,0.247 5.1287,-2.1343 1.0654,-2.3383 0.9582,-2.8374 -0.8872,-4.1299 -1.1544,-0.8086 -2.6269,-3.07 -3.2722,-5.0253 -1.0368,-3.1416 -1.4819,-3.4889 -3.8266,-2.9859 -2.9844,0.6402 -20.6283,-0.8837 -23.5529,-2.0343 -1.6519,-0.6499 -1.8143,-0.4073 -1.2453,1.8598 1.1476,4.5726 -1.2013,7.6208 -8.8059,11.4275 -3.877,1.9408 -7.1736,3.6379 -7.3257,3.7714 -0.1522,0.1335 1.2642,2.5324 3.1475,5.3309 1.8832,2.7985 4.2064,7.1366 5.1625,9.6401 1.8092,4.7375 3.0305,5.3106 8.3062,3.8981 z m 51.8944,-21.8312 c 1.0446,-3.4036 0.8997,-3.6963 -6.2211,-12.5651 -6.9008,-8.5947 -7.3471,-9.4609 -8.3472,-16.1989 -0.5811,-3.9153 -0.8295,-7.486 -0.5521,-7.9349 0.2774,-0.4489 0.076,-0.8162 -0.4486,-0.8162 -0.5242,0 -3.9274,4.3875 -7.5627,9.75 l -6.6096,9.75 3.9866,0.3067 c 3.9977,0.3075 7.0207,2.9056 7.0207,6.0338 0,0.7675 1.3873,2.9755 3.0829,4.9066 2.935,3.3429 3.1122,4.4012 1.4236,8.5029 -0.6455,1.5678 0,1.75 6.2187,1.75 h 6.9392 z m 42.766,-2.231 c 24.9401,-4.1875 27.4196,-4.7895 32.5,-7.8915 12.9221,-7.8899 30.9847,-12.6414 56.5,-14.863 29.0136,-2.5261 80.4213,-10.5031 114,-17.6894 28.7877,-6.161 70.10764,-18.3016 97.78594,-28.7314 15.2293,-5.7388 63.2425,-26.3541 74.1784,-31.8499 14.1627,-7.1174 28.6314,-16.4923 32.3487,-20.9601 4.1327,-4.9671 19.2828,-17.9297 22.8606,-19.5599 2.2423,-1.0216 2.3264,-1.483 2.3264,-12.7629 0,-13.5099 -0.9436,-19.5937 -4.6239,-29.8128 -3.2136,-8.9232 -10.5506,-17.4066 -18.5583,-21.4581 -5.2302,-2.6462 -5.744,-2.7051 -23.6106,-2.7051 -19.7689,0 -38.3231,1.6157 -64.2072,5.5912 -30.2656,4.6485 -34.8174,5.9301 -89.52824,25.2087 -26.512,9.3421 -37.4971,11.5655 -57.4718,11.6327 -18.3292,0.062 -23.04,-1.057 -32.1039,-7.6228 l -4.3142,-3.1252 -26.5409,-0.1982 c -21.4326,-0.1601 -30.6791,-0.6966 -48.041,-2.787 -11.825,-1.4238 -25.907,-2.9017 -31.2934,-3.2843 -7.3836,-0.5243 -10.393,-1.1672 -12.2304,-2.6125 -1.3403,-1.0543 -4.7743,-2.2864 -7.631,-2.738 -3.1193,-0.4931 -5.7234,-1.5452 -6.5196,-2.6339 -1.9178,-2.6228 -1.628,-7.1972 0.6594,-10.4096 l 1.985,-2.7877 -5.235,-2.2855 c -3.7325,-1.6295 -7.3876,-2.331 -12.735,-2.4439 -12.8686,-0.2717 -13.7653,-0.4356 -16.9233,-3.0929 -5.4754,-4.6073 -3.3923,-9.0796 6.1625,-13.2303 l 4.7393,-2.0588 -0.5652,-4.311 c -0.5529,-4.2174 -0.4216,-4.4606 6.0406,-11.1993 6.2377,-6.5045 6.5138,-6.9899 4.955,-8.7123 -0.9079,-1.0033 -3.2838,-2.3412 -5.2798,-2.9732 -5.2091,-1.6494 -8.0847,-3.6792 -9.1384,-6.4506 -1.0735,-2.8235 -0.5087,-2.6735 -22.4907,-5.9751 -22.2518,-3.3423 -39.1218,-6.5572 -66,-12.578 -55.1135,-12.3455 -92.6593,-26.403 -144.8066,-54.217 -43.99253,-23.4645 -76.56491,-43.1988 -82.03866,-49.704 -2.92966,-3.4817 -3.25473,-5.0015 -1.45474,-6.8015 2.07736,-2.0774 4.40635,-1.3336 9.93512,3.1728 14.60393,11.9035 88.03738,52.8859 119.86488,66.8953 46.3004,20.3799 98.5932,34.4515 167.8687,45.1722 12.8527,1.989 24.1027,4.0012 25,4.4717 0.8972,0.4704 6.0843,1.0438 11.5268,1.2742 9.138,0.3869 9.7121,0.3031 7.5,-1.0952 -4.3284,-2.736 -9.7008,-8.9279 -10.3632,-11.9442 -0.3577,-1.6284 -2.1988,-5.1387 -4.0913,-7.8006 -4.1148,-5.7876 -4.3529,-8.7026 -0.8958,-10.9678 2.369,-1.5522 2.9403,-1.5538 8.25,-0.023 6.0685,1.7495 18.7016,4.6447 20.2669,4.6447 0.5158,0 0.9379,-0.8745 0.9379,-1.9433 0,-3.0196 3.8496,-5.0567 9.5558,-5.0567 2.811,0 5.4035,-0.2927 5.7613,-0.6504 0.3577,-0.3577 -0.4673,-1.6862 -1.8334,-2.9523 -2.2316,-2.0682 -2.4837,-3.0852 -2.4837,-10.0208 0,-12.6699 3.3333,-13.9572 20.6532,-7.9762 9.6421,3.3297 23.395,6.5997 27.7567,6.5997 1.9975,0 2.1911,-0.4895 2.143,-5.4174 -0.042,-4.2874 0.4164,-5.9174 2.1971,-7.8145 1.2375,-1.3183 2.25,-3.5054 2.25,-4.86 0,-3.5505 2.6002,-6.7435 6.2948,-7.7299 2.7548,-0.7356 3.1755,-1.265 2.9939,-3.767 -0.1162,-1.6012 -0.964,-3.3612 -1.884,-3.9112 -7.5404,-4.5081 -9.7176,-9.9598 -5.1547,-12.9073 3.2811,-2.1195 17.2519,-5.4514 25.8259,-6.1593 8.1869,-0.6758 13.9241,-2.108 13.9241,-3.4758 0,-1.8802 -3.8646,-2.7838 -12.0209,-2.8107 -11.7187,-0.038 -23.3104,-1.7691 -68.9791,-10.2982 -37.5679,-7.0161 -62.3192,-13.0121 -128,-31.0077 -84.7046,-23.2079 -103.2025,-30.553 -169.5,-67.30455 -15.4,-8.53689 -28.3466,-15.52495 -28.7703,-15.52903 -0.9686,-0.009 2.0539,5.83368 6.7034,12.95886 1.9618,3.00645 3.5669,6.01181 3.5669,6.67857 0,2.11152 -2.9491,4.26775 -7.295,5.33366 -4.719,1.15741 -12.29067,4.75001 -14.34884,6.80819 -0.74589,0.74589 -1.35616,2.92136 -1.35616,4.83439 0,5.20758 -2.23909,8.54722 -7.95851,11.87025 -4.19029,2.43459 -5.03172,3.36518 -4.52089,4.99996 0.3452,1.1048 0.87152,4.094 1.1696,6.6426 1.00834,8.6218 -5.05183,11.0423 -17.1902,6.8661 -3.19721,-1.1 -6.0239,-2 -6.28155,-2 -1.28512,0 1.11485,6.6424 3.72933,10.3217 2.7946,3.9327 9.05222,20.5759 9.05222,24.0758 0,3.1921 -3.8893,5.783 -8.33304,5.5512 -2.29183,-0.1195 -7.03614,-0.1569 -10.54291,-0.083 l -6.37595,0.1343 0.67598,14.75 c 0.3718,8.1125 0.71605,16.0272 0.76501,17.5882 0.0572,1.8239 -0.86226,3.7895 -2.57272,5.5 -2.26042,2.2605 -3.57978,2.6801 -8.75069,2.7834 -6.25069,0.1249 -7.81975,1.0631 -7.85037,4.6941 -0.0195,2.317 -1.8863,5.8344 -3.92865,7.4025 -2.46978,1.8962 -10.45938,1.4961 -17.28357,-0.8655 -4.74793,-1.6431 -6.30446,-1.8486 -6.62898,-0.875 -0.91886,2.7566 -4.29561,5.0223 -7.48501,5.0223 -2.52799,0 -5.29817,-1.5139 -11.71496,-6.4022 -7.17574,-5.4666 -8.85985,-6.3283 -11.52255,-5.8962 -2.75698,0.4474 -3.59952,-0.057 -7.26774,-4.3478 -5.48903,-6.4211 -17.77573,-27.1339 -24.23428,-40.8538 -22.77831,-48.3881 -30.3486,-80.38802 -31.66101,-133.83223 l -0.58524,-23.83222 -2.69899,4.83222 c -18.231,32.64049 -25.93444,47.07994 -37.8839,71.01025 -22.14675,44.35168 -29.84102,63.64998 -36.60956,91.82198 -8.43713,35.117 -10.61384,70.7647 -5.95351,97.5 3.9526,22.6752 12.97312,45.2601 24.49211,61.3215 7.04501,9.8232 12.09933,14.7433 26.19803,25.5024 9.20312,7.0232 9.69282,7.2618 11.92487,5.8098 1.2802,-0.8328 4.61878,-1.8145 7.41907,-2.1817 4.46016,-0.5848 5.58875,-1.2449 9.1024,-5.324 2.20604,-2.5611 4.75705,-6.0992 5.66892,-7.8626 2.04771,-3.9598 4.37457,-5.2654 9.38441,-5.2654 3.03957,0 4.51403,0.6708 6.81574,3.101 1.6154,1.7055 8.56209,7.1855 15.43709,12.1776 6.875,4.9922 17.675,12.9661 24,17.7197 34.44835,25.8901 55.95467,36.693 133.42194,67.0197 48.92236,19.152 92.02796,33.9755 128.11636,44.0578 19.7071,5.5057 82.1495,19.9193 86.4185,19.9481 1.9488,0.013 5.3432,0.5006 7.5432,1.0833 2.2,0.5827 7.5018,1.8788 11.7818,2.8801 4.28,1.0013 8.4425,2.3689 9.25,3.0391 2.2679,1.8822 1.7457,6.7432 -1.1294,10.5127 -2.3066,3.0241 -2.5197,3.9729 -1.9014,8.4683 0.7024,5.1068 3.4291,9.4066 12.2926,19.3842 3.2428,3.6504 3.4232,4.2188 2.9118,9.1741 l -0.5452,5.2826 3.6699,-0.5155 c 2.0184,-0.2835 15.8199,-2.5554 30.6699,-5.0487 z M 169.7942,1285.7908 c 1.62525,-7.5783 3.10014,-8.7908 10.69282,-8.7908 3.84704,0 8.3384,0.7615 11.43819,1.9393 l 5.10391,1.9394 -0.84318,-2.6894 c -0.46375,-1.4791 -0.84318,-6.8401 -0.84318,-11.9133 0,-8.2273 0.24262,-9.4664 2.24552,-11.4677 1.90363,-1.9022 3.19778,-2.2136 8.5,-2.0457 5.47667,0.1734 15.74878,2.4759 21.00448,4.7081 1.42669,0.606 1.75,0.2266 1.75,-2.0535 0,-1.5383 -0.52141,-5.3212 -1.15869,-8.4067 -1.58938,-7.695 -0.64756,-10.7757 3.87154,-12.6639 2.00292,-0.8369 4.9119,-1.3351 6.46441,-1.1073 3.15486,0.4631 3.22425,0.3794 1.83677,-2.2131 -0.54228,-1.0132 -1.05211,-4.8926 -1.13295,-8.6208 -0.13926,-6.4224 0.0185,-6.9265 3.00174,-9.592 1.7318,-1.5474 4.37913,-2.8904 5.88296,-2.9845 1.50382,-0.094 3.49774,-0.22 4.43092,-0.28 0.93319,-0.06 1.99054,-0.4028 2.34967,-0.7619 1.19618,-1.1962 -1.55334,-7.4195 -4.54382,-10.2846 -3.36807,-3.2268 -9.00255,-15.9211 -9.00255,-20.2824 0,-1.6055 1.34181,-4.8993 2.9818,-7.3195 3.17699,-4.6885 3.45437,-5.665 2.17974,-7.6734 -0.64529,-1.0167 -1.54712,-0.9639 -4.48192,0.2623 -2.32851,0.9729 -5.04925,1.3152 -7.42903,0.9347 l -3.75495,-0.6005 -1.10354,4.7564 c -1.00078,4.3135 -0.89216,5.0679 1.16654,8.1016 2.95252,4.3507 3.99458,10.5686 2.41166,14.3901 -0.94727,2.2869 -0.96378,4.2841 -0.0728,8.8126 1.48061,7.5258 0.50929,10.0518 -5.43898,14.1443 -5.08403,3.4979 -7.45847,7.7973 -7.45847,13.505 0,3.6905 -1.44878,7.3984 -3.3997,8.7011 -0.60517,0.4041 -3.42908,0.7416 -6.27538,0.75 -5.04913,0.015 -5.23203,0.1187 -7.5154,4.2653 -1.89115,3.4343 -3.20103,4.516 -6.82492,5.6361 -9.18254,2.838 -8.9846,2.6722 -8.9846,7.5274 0,9.9153 -3.55356,12.551 -18.25,13.5362 -0.4125,0.028 -0.75,1.0708 -0.75,2.3182 0,1.2473 -1.05484,3.8348 -2.34409,5.75 -1.28925,1.9151 -2.58599,5.0571 -2.88165,6.9821 -0.51289,3.3395 0.70794,4.9773 5.89288,7.9056 0.0919,0.052 0.66986,-2.2497 1.2843,-5.1148 z m -11.59565,-23.5466 c -1.90302,-5.2543 -4.17644,-9.0175 -8.24184,-13.6425 -3.52145,-4.0062 -8.00912,-11.0513 -12.03992,-18.9012 -6.32748,-12.3226 -6.39993,-12.5542 -4.72695,-15.1075 2.23865,-3.4166 4.30512,-3.2763 13.35929,0.907 4.16641,1.925 7.76724,3.5 8.00185,3.5 0.23461,0 0.13391,-0.922 -0.22376,-2.049 -0.38285,-1.2062 0.0102,-3.057 0.95566,-4.5 1.96923,-3.0054 5.79071,-3.1696 13.30988,-0.572 2.8875,0.9975 5.25,1.4888 5.25,1.0918 0,-0.3971 -1.09958,-3.2083 -2.44351,-6.2472 -1.34394,-3.0388 -3.31574,-8.1573 -4.38179,-11.3744 -1.06604,-3.2171 -4.01646,-9.2035 -6.55648,-13.3032 -4.98579,-8.0473 -5.47423,-10.0471 -3.04679,-12.4746 2.53786,-2.5378 5.87543,-1.8361 11.55125,2.4286 7.47983,5.6202 8.6575,5.3945 8.08167,-1.5494 -0.3881,-4.6799 -0.1244,-5.9068 1.68307,-7.8308 2.04474,-2.1765 2.07361,-2.4788 0.62792,-6.5763 -1.82162,-5.1631 -1.95582,-10.203 -0.31534,-11.8435 2.11253,-2.1125 4.87786,-1.3014 9.53284,2.796 4.71468,4.1501 9.68778,7.5519 17.93426,12.2678 2.65809,1.5201 6.83689,4.3757 9.28622,6.3458 4.04042,3.2499 4.52066,3.4108 5.17971,1.7362 0.39952,-1.0152 0.75803,-3.6886 0.79668,-5.9408 0.12249,-7.1366 3.66186,-8.6072 14.07029,-5.846 2.41293,0.6401 2.38934,0.5554 -0.67707,-2.4304 -1.74738,-1.7015 -3.45434,-3.889 -3.79323,-4.8611 -0.3389,-0.9721 -6.50323,-6.2675 -13.69853,-11.7675 -14.06126,-10.7483 -20.24572,-16.9149 -28.05575,-27.9749 -10.64265,-15.0714 -19.31022,-36.635 -23.96653,-59.6251 -2.07126,-10.2267 -2.30371,-14.0759 -2.25855,-37.4 0.0567,-29.2774 1.57506,-42.4036 7.87027,-68.0378 6.71762,-27.3542 14.41668,-46.9319 34.55103,-87.85905 6.52174,-13.25673 11.7595,-24.20225 11.63947,-24.32338 -0.45849,-0.46267 -20.88483,18.72646 -38.94995,36.59079 C 155.38555,890.732 141.83443,907.2049 128.21716,929 c -19.75236,31.6146 -37.563651,78.6908 -43.904011,116.0407 -3.63783,21.4297 -2.95507,56.6711 1.62661,83.9593 5.62383,33.4953 14.01379,58.3386 31.372041,92.895 10.68581,21.273 21.71923,39.0459 33.45614,53.8919 l 4.17972,5.287 2.9394,-5.787 2.93939,-5.7869 z m 21.12218,-1.6044 c 1.31626,-0.9625 1.95485,-2.9113 2.18382,-6.6644 0.42132,-6.9059 2.31963,-9.7189 7.08064,-10.4923 6.13926,-0.9973 8.0692,-2.1935 10.16413,-6.3 2.33964,-4.586 6.48722,-6.6948 11.15231,-5.6702 3.87206,0.8505 4.89541,-0.3932 4.94778,-6.0129 0.0585,-6.2798 3.08397,-11.741 8.35005,-15.0726 l 4.60785,-2.9151 -0.0542,-9.5062 c -0.0298,-5.2283 -0.0119,-10.848 0.0398,-12.4881 0.13955,-4.4279 -2.76645,-7.713 -7.05309,-7.9733 -3.36794,-0.2045 -6.14306,-1.7983 -15.03115,-8.633 -1.85124,-1.4235 -5.95339,-4.0148 -9.11589,-5.7585 l -5.75,-3.1703 v 2.936 c 0,1.982 -0.85763,3.6106 -2.63952,5.0122 -2.41653,1.9008 -2.59342,2.523 -2.09374,7.3644 0.85962,8.329 -2.05797,11.4355 -9.22707,9.8247 -2.22182,-0.4992 -4.03967,-0.5843 -4.03967,-0.1891 0,1.2619 4.69996,14.3143 7.92557,22.0103 3.84559,9.1754 6.28737,18.3401 5.46047,20.495 -1.54518,4.0267 -6.13112,4.0032 -9.46828,-0.049 -2.12638,-2.5817 -9.02418,-7.3879 -10.60298,-7.3879 -1.09582,0 -1.15115,0.4372 -0.26493,2.0931 1.51915,2.8386 0.43246,6.5475 -2.11343,7.2133 -2.40022,0.6276 -11.6499,-1.5898 -15.98696,-3.8325 -1.6222,-0.8389 -2.94946,-1.351 -2.94946,-1.1381 0,1.6466 8.78166,15.7885 11.91475,19.1875 4.26009,4.6217 6.40589,8.3203 7.5253,12.9711 0.39641,1.6469 1.18966,3.5594 1.76279,4.25 1.39999,1.6869 10.92777,1.6118 13.27513,-0.1046 z M 256.0225,1182.75 c 2.42765,-3.4068 2.55968,-4.8112 1.85673,-19.75 -0.19411,-4.125 -0.0264,-8.5125 0.37269,-9.75 0.62195,-1.9286 0.36693,-2.25 -1.78507,-2.25 -1.41478,0 -3.15101,0.9142 -3.97765,2.0944 -1.31968,1.8841 -1.22857,2.6089 0.90735,7.2191 2.68102,5.7867 2.44078,8.497 -1.18509,13.3698 -2.63321,3.5387 -2.93506,5.9796 -1.20818,9.7696 1.51024,3.3147 2.22796,3.2141 5.01922,-0.7029 z m 678.32026,-24.8448 c 5.5,-1.1081 18.4375,-4.9151 28.75,-8.46 10.3125,-3.5449 27.1875,-9.3508 37.50004,-12.9021 21.1224,-7.2738 38.6292,-11.1459 67.75,-14.9849 27.4803,-3.6227 43.2897,-4.6105 62.3002,-3.8928 l 16.7923,0.634 2.7038,-6.0247 c 1.487,-3.3137 2.7037,-6.67 2.7037,-7.4586 0,-0.7886 0.6483,-2.3073 1.4406,-3.375 1.1739,-1.5819 1.333,-4.9021 0.8592,-17.9411 -0.6025,-16.5848 0.6296,-35.9577 3.2702,-51.4168 2.5901,-15.1642 8.5333,-41.2576 12.0309,-52.8219 1.8695,-6.1814 3.3991,-11.5089 3.3991,-11.8389 0,-0.3301 -1.4101,0.5863 -3.1335,2.0365 -10.0591,8.4642 -28.2149,12.6998 -70.8665,16.5325 -52.8329,4.7477 -74.7593,7.1588 -99.5,10.9413 -14.30004,2.1862 -33.42504,4.9211 -42.50004,6.0775 -29.3233,3.7365 -46.3226,8.0553 -58.438,14.8467 -9.1959,5.1549 -19.8657,21.2643 -24.4864,36.9701 -4.2061,14.2966 -5.4842,24.0567 -5.4571,41.673 0.04,25.9649 4.2656,47.462 10.6803,54.3327 9.1493,9.7996 28.2776,12.2955 54.2012,7.0725 z M 256.26171,1145.6 c 2.99972,0 3.48434,-0.3664 4.0188,-3.0387 0.34088,-1.7045 2.63285,-5.0948 5.21967,-7.7211 l 4.61191,-4.6823 -2.11678,-2.6911 -2.11679,-2.6911 -0.90312,2.3622 c -0.49671,1.2991 -1.91313,3.2621 -3.14758,4.3621 -1.23446,1.1 -3.30177,3.6638 -4.59402,5.6973 -2.4122,3.7958 -6.75012,5.7852 -12.64104,5.7971 -3.21086,0.01 -3.1477,-0.1886 -1.33819,4.1335 2.11207,5.0446 2.66216,5.1927 6.2764,1.6897 2.42022,-2.3458 4.24393,-3.2176 6.73074,-3.2176 z m 611.39025,2.9025 c 0.17,-0.1581 -0.3742,-2.6984 -1.2095,-5.645 -5.1318,-18.1039 -7.1122,-51.3903 -4.1702,-70.0907 2.3603,-15.0026 4.9636,-23.7595 10.3358,-34.7668 2.5501,-5.225 4.7705,-9.725 4.9343,-10 0.1638,-0.275 -8.8141,-0.5434 -19.9509,-0.5966 -11.1368,-0.053 -25.1987,-0.6291 -31.2487,-1.28 -15.221,-1.6375 -35.8737,-5.856 -42.7199,-8.7257 -7.5657,-3.1715 -8.7801,-3.0971 -8.7801,0.5374 0,2.2909 0.8802,3.5531 4.0097,5.75 4.0046,2.8112 5.4678,5.534 4.8289,8.9858 -0.5098,2.7539 -8.4467,6.3291 -14.0505,6.3291 -3.3792,0 -4.7881,0.4017 -4.7881,1.3651 0,0.7509 -0.9718,2.6006 -2.1596,4.1106 -1.9826,2.5205 -2.5767,2.7004 -7.25,2.1956 -2.7997,-0.3025 -7.9029,-1.1965 -11.3404,-1.9867 -7.0639,-1.6238 -7.2272,-1.4338 -4.304,5.0049 1.2643,2.7849 3.3524,5.0841 6.228,6.858 8.7145,5.3755 10.7377,6.9632 11.7756,9.2413 1.2754,2.7992 0.049,5.6024 -3.2225,7.3658 -2.4085,1.2982 -12.1624,1.5236 -17.7586,0.4103 l -3.4685,-0.69 4.7384,4.6065 c 2.6061,2.5337 5.1404,5.3743 5.6318,6.3126 1.4176,2.7068 -0.4456,5.9488 -4.6523,8.0948 -5.931,3.0258 -9.7933,8.6676 -9.3901,13.7167 0.2988,3.7416 -0.036,4.4168 -3.778,7.6198 l -4.1058,3.5145 7.8124,0.4522 c 6.1233,0.3545 9.3873,1.1782 15.0968,3.8099 10.9326,5.0392 13.103,9.0113 7.9845,14.613 l -1.9325,2.1149 4.9371,0.6549 c 2.7153,0.3602 6.4654,1.6921 8.3334,2.9598 2.9449,1.9985 5.5188,2.4652 19.3604,3.5106 8.7801,0.6632 22.4889,1.8593 30.4639,2.658 7.975,0.7987 17.2,1.6239 20.5,1.8338 5.9789,0.3802 32.7214,-0.2977 33.3092,-0.8444 z m 2.1908,-132.28 c 0,-1.5276 0.6175,-3.6651 1.3722,-4.75 0.7547,-1.0849 1.7122,-3.5475 2.1278,-5.4725 0.4156,-1.925 1.3731,-4.3876 2.1278,-5.4725 2.3272,-3.3453 1.5982,-4.4051 -5.1278,-7.4548 -6.1109,-2.7708 -6.4987,-3.1456 -6.478,-6.26 0.012,-1.822 0.9247,-5.3026 2.028,-7.7346 1.3592,-2.996 1.6783,-4.7498 0.9896,-5.4385 -1.3059,-1.3059 -19.1591,-1.6488 -25.0396,-0.4809 -7.2493,1.4397 -7.2283,1.416 -4.6397,5.2306 2.6838,3.9548 4.2299,13.6393 2.6491,16.5932 -0.6057,1.1317 -2.7364,2.239 -5.2635,2.7355 -3.8079,0.748 -4.2774,1.1558 -4.5514,3.9533 -0.1681,1.7156 -1.1806,3.9111 -2.25,4.879 -1.9856,1.7969 -2.6669,7.7654 -1.1574,10.1395 0.9119,1.4341 6.6894,1.8812 27.4629,2.1252 l 15.75,0.185 z m 17.0757,0.1929 c 1.3334,-1.4216 2.2855,-3.4348 2.1159,-4.4738 -0.5278,-3.2331 3.3994,-10.5279 7.2483,-13.4636 l 3.6776,-2.805 -2.0805,-2.0805 c -1.1443,-1.1442 -4.8832,-3.4332 -8.3088,-5.0865 -4.9606,-2.3942 -6.437,-3.6519 -7.254,-6.1795 -0.5642,-1.7455 -1.7961,-4.0247 -2.7375,-5.065 -0.9414,-1.0402 -2.215,-3.3351 -2.8302,-5.0997 -0.9693,-2.7807 -0.771,-3.9185 1.4876,-8.5348 1.4332,-2.9295 2.6059,-5.619 2.6059,-5.9767 0,-0.3577 -1.575,-0.6503 -3.5,-0.6503 -3.2984,0 -3.5,0.1916 -3.5,3.3257 0,2.2658 -0.8071,4.0839 -2.5326,5.7049 l -2.5326,2.3793 2.5326,1.327 c 3.0242,1.5846 3.2018,4.0163 0.6609,9.0529 -3.8108,7.5541 -3.7642,7.7725 2.2485,10.5251 2.9996,1.3733 6.2563,3.7217 7.2372,5.2188 1.7262,2.6345 1.7169,2.838 -0.2899,6.3441 -1.1403,1.9922 -2.4122,5.1972 -2.8265,7.1222 -0.4142,1.925 -1.3707,4.3876 -2.1254,5.4725 -2.7751,3.989 -1.8139,5.5275 3.4535,5.5275 3.8976,0 5.2919,-0.4971 7.25,-2.5846 z m 25.1525,-13.0289 c 10.8112,-3.7362 24.1168,-6.3052 48.7718,-9.4169 9.075,-1.1454 26.4,-3.6013 38.5,-5.4577 26.97144,-4.1378 41.98034,-5.8843 73.00004,-8.4944 49.2482,-4.144 59.723,-5.4771 75.4729,-9.6056 10.5097,-2.7549 16.518,-5.8298 20.3954,-10.4378 2.5083,-2.9809 2.579,-3.4555 2.5714,-17.2696 0,-8.9929 0.5211,-16.3753 1.4337,-20.121 1.3903,-5.7065 1.3602,-6.0437 -0.8463,-9.5 -5.1492,-8.0655 -8.882,-9.9069 -22.5105,-11.1042 -14.6706,-1.289 -45.9767,1.8435 -110.321,11.0386 -34.3366,4.9068 -54.79984,6.3258 -71.72554,4.9735 -13.7831,-1.1012 -17.4571,-1.8077 -25.9858,-4.9973 -5.7481,-2.1496 -6.0935,-2.159 -45.6381,-1.2395 -52.7152,1.2258 -62.4338,0.3026 -63.1614,-5.9993 -0.4177,-3.6181 3.3405,-7.064 10.6801,-9.7923 7.0631,-2.6256 10.1351,-4.5915 10.1351,-6.4861 0,-0.8172 -0.9061,-1.4769 -2.0285,-1.4769 -2.7786,0 -13.1614,-5.35389 -17.1782,-8.85796 -1.8113,-1.58009 -5.1986,-3.83892 -7.5273,-5.01962 -9.7811,-4.95926 -4.5558,-14.62775 10.9637,-20.28645 5.0321,-1.8348 8.8283,-4.38111 7.6628,-5.13979 -2.689,-1.75032 -8.6776,-3.69618 -11.3754,-3.69618 -7.3308,0 -29.0743,-5.29851 -51.5171,-12.55385 -41.3568,-13.36987 -48.9345,-15.99532 -79,-27.37095 -44.0688,-16.67395 -55.3711,-22.47288 -102,-52.33367 -62.5304,-40.04397 -83.774,-55.77214 -111,-82.18119 -10.2587,-9.95086 -19.2121,-19.55529 -21.031,-22.56034 -0.7487,-1.23687 -1.2618,-1.28072 -2.9249,-0.25 -2.6693,1.65429 -4.2897,1.5774 -8.4371,-0.40037 -3.4057,-1.62405 -3.5139,-1.60604 -6.78394,1.12886 -1.82768,1.52858 -3.56586,3.73375 -3.86261,4.90037 -0.345,1.35631 -1.4763,2.23132 -3.13751,2.42671 -2.03716,0.2396 -3.35289,-0.62386 -6.09514,-4 -17.17079,-21.13994 -29.25382,-52.44825 -35.74972,-92.63093 -1.36992,-8.47419 -0.86956,-8.79819 -8.84182,5.72532 -5.57663,10.15926 -18.20057,37.11368 -23.01841,49.14851 -4.18263,10.4481 -7.91585,23.7826 -9.78195,34.93964 -2.23598,13.36851 -2.19454,38.6338 0.0845,51.51189 5.63463,31.83954 12.21774,53.96943 22.14997,74.45973 8.084,16.67738 15.26946,27.57804 24.99026,37.91131 7.40772,7.87446 7.53889,7.95862 10.22169,6.55905 3.86574,-2.01669 6.2045,-1.78575 11.7982,1.165 2.70571,1.42729 8.05721,3.63111 11.89221,4.89737 6.87421,2.26976 7.00682,2.27548 9.38486,0.40492 2.75091,-2.16383 7.61921,-2.4485 10.81931,-0.63264 1.1973,0.67939 15.5973,8.71961 32,17.86714 65.4492,36.5 79.9881,41.96012 192.3488,72.23662 44.3025,11.9376 66.482,17.0782 103.9743,24.0983 45.3975,8.5003 47.3564,8.7512 71.3782,9.1425 18.9327,0.3084 22.2978,0.6014 24.9945,2.1764 4.2901,2.5055 5.5888,6.4982 3.3489,10.2956 -0.9469,1.6053 -2.4846,4.2117 -3.4171,5.792 -1.6537,2.8022 -1.629,2.9524 1,6.0767 1.4825,1.7619 2.6955,3.8692 2.6955,4.683 0,0.8137 2.0681,2.3943 4.5958,3.5124 5.3459,2.3647 12.2318,8.2709 13.4845,11.5659 1.276,3.356 -0.5004,7.2295 -5.3463,11.6581 -2.3455,2.1435 -3.3419,3.537 -2.234,3.1241 1.1,-0.4098 6.3777,-2.258 11.7282,-4.107 z m -567.76233,-20.279 c 0.33035,-1.0408 1.98683,-2.4666 3.68107,-3.1684 2.71722,-1.1255 4.03976,-0.9593 11.21674,1.4096 4.47498,1.4771 8.68148,2.6779 9.34778,2.6685 0.6663,-0.01 1.71529,-1.8883 2.33109,-4.1752 0.6158,-2.2869 2.39853,-5.4369 3.96162,-7 2.51166,-2.5117 3.56284,-2.842 9.04391,-2.842 h 6.20192 l -0.79821,-3.25 c -0.43902,-1.7875 -0.85457,-8.875 -0.92346,-15.75 -0.11519,-11.4971 -0.342,-12.9186 -2.82678,-17.7168 -3.14982,-6.0823 -3.21983,-6.6221 -1.13012,-8.7118 2.45725,-2.4572 6.02838,-1.8617 10.05944,1.6776 3.47067,3.0473 4.10606,3.2317 10.23211,2.9694 3.59241,-0.1538 6.65363,-0.4017 6.8027,-0.5508 0.8897,-0.8897 -3.87895,-12.9294 -6.70688,-16.9334 -2.79534,-3.9577 -3.43645,-5.8718 -3.78144,-11.2897 -0.33384,-5.2429 -0.0671,-6.9089 1.3586,-8.4842 2.1976,-2.4284 9.55252,-2.6569 14.8098,-0.4603 4.37428,1.8277 6.65976,1.9138 6.63757,0.25 -0.009,-0.6875 -2.03417,-4.6045 -4.5,-8.70439 -5.53572,-9.20419 -5.82598,-13.22463 -1.48333,-20.54561 1.63124,-2.75 2.97357,-5.72681 2.98295,-6.61514 0.009,-0.88833 0.93755,-2.78537 2.06261,-4.21565 1.93526,-2.46028 1.95602,-2.73717 0.38499,-5.13486 -1.89528,-2.89256 -3.23069,-3.21875 -4.08312,-0.99736 -0.77578,2.02165 -5.58833,4.46301 -8.79777,4.46301 -2.50974,0 -2.54966,0.11926 -2.54966,7.61765 0,7.49801 -0.0591,7.67469 -3.76472,11.25 -2.0706,1.99779 -5.2206,4.39892 -7,5.33584 -2.83978,1.49524 -3.23528,2.20209 -3.23528,5.78212 0,2.24324 -0.675,5.69409 -1.5,7.66859 -1.80927,4.3302 -1.87662,6.6623 -0.31698,10.9754 2.25844,6.2456 -2.59466,11.5549 -10.81574,11.8325 -4.44653,0.1502 -6.31957,1.4624 -6.35197,4.45 -0.008,0.7767 -1.18495,3.408 -2.61452,5.8474 -2.87283,4.9021 -2.82369,6.2328 0.57646,15.6116 2.58826,7.1393 2.07661,10.2151 -2.42502,14.5783 -2.48182,2.4055 -3.53145,4.4625 -4.03172,7.9014 -0.86913,5.9743 -2.83915,8.9666 -7.06617,10.7327 -4.83722,2.0211 -10.80226,1.7526 -16.61496,-0.7479 -4.53996,-1.9531 -5.50331,-2.0435 -9.86308,-0.9262 -4.92445,1.2621 -8.9763,0.3577 -8.9763,-2.0036 0,-0.5631 -0.45,-0.7457 -1,-0.4058 -1.17363,0.7253 -1.36341,5.5 -0.21861,5.5 0.42976,0 5.04226,3.1168 10.25,6.9262 5.20773,3.8094 9.77579,6.9594 10.15122,7 0.37544,0.041 0.9529,-0.7778 1.28326,-1.8187 z m 13.06625,-18.5565 c 2.78407,-1.1632 3.46898,-2.0013 3.47346,-4.25 0.0104,-5.2457 2.04029,-10.275 5.04309,-12.4951 3.60289,-2.6637 3.83723,-6.2953 0.82633,-12.8059 -2.70631,-5.852 -2.69432,-10.9382 0.0362,-15.3563 1.20116,-1.9435 2.74365,-5.4669 3.42777,-7.8298 1.43059,-4.9411 4.15275,-6.7769 10.0823,-6.7992 2.15669,-0.01 4.68575,-0.7066 5.62013,-1.5522 1.51935,-1.3749 1.55378,-1.9585 0.3258,-5.5228 -1.23203,-3.576 -1.16733,-4.5961 0.62987,-9.931 1.10162,-3.27007 2.00294,-7.56439 2.00294,-9.5429 0,-5.1307 1.40459,-7.13039 7,-9.9658 2.7105,-1.37352 5.40558,-3.38931 5.98905,-4.47955 1.04714,-1.95658 1.08547,-18.32321 0.0466,-19.91864 -0.9262,-1.42248 -6.38013,-3.80633 -10.35671,-4.5268 -2.10156,-0.38075 -4.44428,-0.93145 -5.20604,-1.22377 -1.12063,-0.43002 -1.20252,0.10489 -0.42899,2.80204 0.52582,1.83343 0.95604,5.40247 0.95604,7.93119 0,2.52872 0.67013,6.80669 1.48918,9.5066 2.09798,6.9158 1.90093,9.10721 -0.98918,11.00089 -2.316,1.5175 -2.68414,1.51741 -5.00188,-10e-4 -1.37604,-0.90161 -3.6687,-3.40247 -5.09481,-5.55746 l -2.59291,-3.91816 -3.75037,3.94245 c -4.31633,4.53741 -7.20894,4.96619 -13.67963,2.02776 l -4.1196,-1.87076 0.93078,4.1426 c 0.51193,2.27844 2.07533,6.84267 3.47421,10.14273 3.71052,8.75328 3.97215,11.08828 1.39688,12.46658 -3.0788,1.6477 -5.35351,0.5845 -12.08669,-5.6492 -3.28675,-3.04321 -5.97594,-5.01064 -5.97594,-4.37229 0,0.63836 1.21214,5.20999 2.69365,10.15909 2.50158,8.3569 2.59755,9.3336 1.34589,13.6971 -0.74127,2.5842 -1.84091,8.0736 -2.44365,12.1986 -1.30816,8.9528 -1.87912,10 -5.45196,10 -2.73227,0 -7.74119,-4.3456 -11.49463,-9.9725 -2.97915,-4.4661 -1.93807,0.5812 1.8507,8.9725 1.925,4.2634 3.5,8.675 3.5,9.8034 0,1.1284 -1.4208,3.1636 -3.15734,4.5226 l -3.15733,2.471 2.28436,5.6283 c 1.65991,4.0898 2.14654,6.8511 1.78018,10.1015 -0.56198,4.9858 0.21612,5.4268 6.01099,3.4067 2.47903,-0.8642 3.97732,-0.6894 7.89922,0.9216 8.90651,3.6583 9.90331,3.772 14.87204,1.6959 z m -40.16729,-5.252 3.39175,-3.7011 -1.87829,-4.3818 c -2.54255,-5.9316 -2.44797,-12.2221 0.23503,-15.633 l 2.11332,-2.6867 -2.55499,-5.6982 c -1.40525,-3.134 -3.04797,-7.9482 -3.65049,-10.6982 -0.60252,-2.75 -2.59314,-9.275 -4.42358,-14.5 -4.62166,-13.1925 -5.06593,-16.2 -2.80542,-18.99165 3.03681,-3.7503 5.72093,-1.93237 10.14838,6.87335 2.13756,4.2514 4.56347,8.2917 5.39092,8.9784 0.82744,0.6867 3.4324,4.2077 5.78878,7.8245 4.60541,7.0686 4.26207,7.107 6.74987,-0.7556 1.64821,-5.2091 1.51855,-6.149 -2.88928,-20.94112 -5.8869,-19.75573 -6.59325,-23.34836 -5.19423,-26.41887 1.56448,-3.43365 5.50101,-3.44574 7.91672,-0.0243 6.46047,9.15017 10.29668,13.62236 10.29668,12.0037 0,-0.99066 -1.6474,-6.67347 -3.66089,-12.62848 -3.04022,-8.99164 -3.44331,-11.08944 -2.37755,-12.3736 2.79015,-3.36192 6.17475,-1.87009 13.50833,5.95407 4.76958,5.08863 7.76369,7.50026 9.31149,7.5 2.44919,-4.2e-4 2.72487,-0.47023 3.69465,-6.29641 0.88609,-5.32333 4.38916,-6.9191 8.50653,-3.875 1.61505,1.19406 3.20007,2.17102 3.52226,2.17102 0.91753,0 -0.469,-6.74849 -3.18459,-15.5 -3.63705,-11.72105 -2.3006,-18.5 3.64723,-18.5 3.24378,0 4.92406,1.74295 8.43539,8.75 1.71239,3.41718 3.25981,5.25 4.43249,5.25 4.63219,0 12.39223,3.29424 15.80921,6.71122 l 3.62917,3.62916 2.83624,-3.42019 c 1.55993,-1.8811 2.81154,-3.64519 2.78134,-3.92019 -0.0302,-0.275 -2.60558,-2.71733 -5.7231,-5.42741 C 397.37832,816.72163 385.82344,801.15404 376.07183,781.5 365.71431,760.62475 360.24438,744.00961 354.83754,717 c -4.49113,-22.43523 -5.31485,-30.83661 -4.7062,-48 0.64522,-18.1945 2.4495,-29.33836 7.23112,-44.66173 7.05883,-22.62106 31.53368,-73.38422 40.42161,-83.83827 1.27628,-1.50116 1.59629,-3.30946 1.28302,-7.25 -0.22954,-2.8875 -0.83287,-5.25 -1.34072,-5.25 -3.54071,0 -25.50407,17.79566 -38.42558,31.13405 -43.96742,45.38594 -75.60799,101.90532 -87.32578,155.98954 -5.27854,24.36341 -7.93448,65.76223 -6.22397,97.01445 2.67532,48.88004 11.0942,80.80576 32.89334,124.73686 6.11581,12.325 13.94794,26.1251 14.82706,26.1251 0.18942,0 1.87069,-1.6655 3.73615,-3.701 z m 690.13521,-50.73 c 6.6,-0.738 26.625,-3.3945 44.5,-5.9034 53.4878,-7.5073 68.8069,-9.1065 87.5,-9.1342 13.5498,-0.02 18.1754,0.3375 22.7913,1.7617 6.0671,1.8719 12.4485,6.765 15.4505,11.8469 0.9292,1.573 1.9781,2.86 2.331,2.86 1.2131,0 19.533,-42.37945 24.7845,-57.33407 10.2775,-29.26722 9.8991,-53.84786 -1.4617,-94.95366 -3.0568,-11.06027 -4.6699,-19.10307 -5.076,-25.30901 l -0.5952,-9.09675 -6.9988,5.26511 c -13.7382,10.33509 -38.4203,22.32151 -62.3896,30.29841 -36.8918,12.27746 -67.2667,13.01544 -148.83604,3.61606 -12.1,-1.3943 -28.6204,-2.81673 -36.712,-3.16095 -21.0261,-0.89447 -24.8205,0.87231 -31.8715,14.84017 -5.3131,10.5252 -7.2963,21.22005 -7.2943,39.33469 0,27.82105 3.4085,46.7967 11.3062,63 9.1956,18.8663 23.505,29.4267 43.9411,32.429 8.8933,1.3064 35.488,1.1096 48.63054,-0.36 z m -84.76294,-5.9959 c 0.1304,-0.1177 -1.8227,-2.4259 -4.3403,-5.1293 -15.1443,-16.26248 -23.3968,-45.57885 -23.3968,-83.11531 0,-15.07892 1.4091,-25.72414 4.6103,-34.82849 1.3538,-3.85 2.7321,-7.82343 3.063,-8.82985 0.5691,-1.7306 -0.1168,-1.79791 -12.6455,-1.24101 -7.2861,0.32386 -14.8854,0.17979 -16.8876,-0.32015 -2.0021,-0.49994 -8.2527,-1.18124 -13.8902,-1.51401 -8.9908,-0.53069 -10.25,-0.40799 -10.25,0.99879 0,0.8821 -1.414,2.9247 -3.1423,4.53913 l -3.1422,2.93532 2.1422,2.28034 c 4.6002,4.89662 1.746,9.13546 -6.8624,10.19181 -3.0224,0.37089 -9.3989,2.44321 -14.17,4.60517 -4.9678,2.25116 -10.9502,4.16427 -14,4.47712 -8.3625,0.85784 -8.368,0.86768 -3.6373,6.45445 4.8897,5.77447 15.9406,13.67826 24.2836,17.36791 9.9978,4.42152 11.5284,5.96632 11.5284,11.63568 v 4.94452 l 5.25,2.3257 c 2.8875,1.27913 5.8688,3.07484 6.625,3.99047 4.1365,5.00818 -1.8601,12.94958 -12.9895,17.20237 -7.1416,2.72895 -10.5468,5.39102 -7.9939,6.2494 0.7654,0.25735 3.0154,1.9247 5,3.70523 4.4059,3.95285 10.3007,7.01762 16.4999,8.57862 5.6513,1.42299 9.0186,5.11259 8.1042,8.87969 -1.1404,4.6977 -5.456,9.9836 -10.248,12.552 l -4.7477,2.5447 37.5,-0.6332 c 20.625,-0.3483 37.6067,-0.7295 37.7371,-0.8471 z m -491.2371,-28.39958 c 3.55999,-2.45642 4.05696,-3.30528 4.51781,-7.71678 0.2848,-2.7262 0.87709,-5.52447 1.3162,-6.21836 1.15514,-1.82537 11.19017,-8.08085 14.15838,-8.82583 1.38961,-0.34876 2.79801,-1.07347 3.12991,-1.61046 1.1581,-1.87375 -1.457,-2.99217 -8.02751,-3.43333 -5.26758,-0.35367 -7.11976,-0.0795 -9.07514,1.34344 -1.35124,0.98329 -2.47094,2.31577 -2.48823,2.96107 -0.0173,0.64531 -1.13609,2.48611 -2.48625,4.09067 -1.35015,1.60457 -4.06581,6.0081 -6.03479,9.78563 -3.16513,6.07236 -3.446,7.19165 -2.42385,9.65933 1.42906,3.45005 2.36869,3.44556 7.41347,-0.0354 z m 5.02637,-32.20266 c 1.59951,-1.76744 2.58678,-1.94423 7.65499,-1.37083 3.20025,0.36207 5.81175,0.26268 5.80333,-0.22086 -0.0411,-2.35686 -2.4562,-3.85242 -10.28879,-6.37124 -4.69301,-1.50918 -10.08506,-3.70336 -11.98235,-4.87595 -4.61221,-2.8505 -4.97461,-2.70489 -2.78251,1.11802 1.02498,1.7875 2.19384,4.375 2.59747,5.75 1.0192,3.47195 4.34991,8 5.8846,8 0.7023,0 2.10327,-0.91311 3.11326,-2.02914 z m 396.91033,-9.07329 c -0.3694,-0.59762 -3.5771,-2.39024 -7.1284,-3.98359 -3.5513,-1.59334 -9.6859,-5.13824 -13.6326,-7.87753 -7.124,-4.94468 -21.3316,-19.42202 -21.7134,-22.12573 -0.8038,-5.69157 1.8945,-7.54398 13.1079,-8.99878 5.9855,-0.77654 10.9211,-2.22716 17.0215,-5.0028 4.7255,-2.15003 9.563,-3.90914 10.75,-3.90914 2.3583,0 2.7606,-0.99768 1.0801,-2.67818 -2.0611,-2.06115 -0.5967,-6.68515 2.7897,-8.80831 2.637,-1.65335 3.2183,-2.66238 3.25,-5.64107 0.062,-5.82953 2.5149,-6.81162 14.0385,-5.62043 3.575,0.36955 9.1168,0.88453 12.3151,1.14441 l 5.815,0.4725 -0.6426,-2.92581 c -0.3936,-1.79214 -0.072,-4.06872 0.8289,-5.87547 1.8414,-3.69123 1.3757,-4.15266 -10.2123,-10.11932 -10.9487,-5.63745 -14.1041,-8.32526 -14.1041,-12.01416 0,-4.70146 3.1154,-5.96319 15.1128,-6.12073 5.7129,-0.075 12.2885,0.4006 14.6124,1.05694 4.0509,1.14413 4.5389,1.02709 11.835,-2.83851 4.5986,-2.43647 8.9611,-4.03186 11.0248,-4.03186 1.8783,0 3.415,-0.43743 3.415,-0.97207 0,-1.01564 -2.7079,-1.86343 -22.5,-7.04428 -24.3735,-6.38008 -37.4027,-11.28046 -101.0527,-38.00662 -57.5182,-24.15144 -62.3987,-26.30207 -76.4473,-33.68693 -40.3849,-21.22898 -99.5963,-57.72171 -120,-73.95743 -4.125,-3.28237 -12.5346,-10.54236 -18.688,-16.13331 -9.6004,-8.72284 -11.2758,-9.88884 -11.8065,-8.2167 -0.3402,1.07176 -0.1456,3.65161 0.4324,5.733 0.578,2.08138 1.0535,6.31526 1.0565,9.40861 0,3.09335 0.6806,7.53743 1.5056,9.87573 3.4605,9.80798 1.2965,16.55069 -6.3701,19.84878 -5.8407,2.51262 -6.3753,3.91876 -5.927,15.59219 0.2768,7.20843 0.1277,7.87294 -2.1875,9.74762 -2.5194,2.04011 -2.8987,2.0459 -12.7619,0.19475 l -3.2465,-0.6093 0.5913,5.86298 c 1.0809,10.71988 -2.819,15.0923 -10.6624,11.954 -2.3021,-0.92109 -4.4196,-1.44064 -4.7057,-1.15455 -0.2861,0.28609 -9e-4,4.46742 0.6337,9.29184 1.3765,10.46478 1.7384,24.86314 0.7058,28.07897 -1.4273,4.44527 -5.0681,4.63256 -12.9539,0.66639 l -7.1158,-3.57888 9.7049,9.49116 c 16.368,16.00748 48.1244,40.22868 75.5053,57.58924 6.4844,4.11135 20.1148,12.8621 30.2898,19.4461 26.0432,16.85191 39.3833,24.69733 55.5,32.63988 14.0095,6.9041 61.0957,25.16189 86.5,33.54061 57.9857,19.12453 59.2045,19.4909 74,22.24394 7.769,1.4456 9.6465,1.52815 10.3041,0.45307 0.4423,-0.72305 0.5019,-1.8036 0.1326,-2.40122 z m 78.8025,-75.49474 c 4.5479,-4.10877 9.4071,-6.40283 13.562,-6.40283 1.576,0 3.1583,-0.2928 3.5161,-0.65067 0.3579,-0.35787 -2.5341,-4.00345 -6.4266,-8.10129 -10.3806,-10.92799 -12.0086,-16.65034 -6.0668,-21.32413 2.1455,-1.68765 2.344,-2.2058 1.1376,-2.96887 -2.988,-1.88993 -5.684,-1.09241 -6.2737,1.85582 -0.616,3.07989 -4.0386,5.17926 -8.4849,5.20445 -4.8804,0.0276 -5.5994,1.54932 -1.3357,2.82676 2.1662,0.649 4.9947,2.0358 6.2856,3.08178 2.1653,1.75439 2.2487,2.16044 1.0769,5.23897 -1.2288,3.22829 -1.1554,3.43008 2.25,6.18417 4.7599,3.84948 4.6289,6.8445 -0.564,12.90301 -4.2686,4.98019 -6.2837,5.83943 -7.3258,3.12379 -0.3982,-1.0379 0.7227,-3.26965 3.0986,-6.16908 3.4391,-4.19699 3.5844,-4.62518 1.9087,-5.62379 -4.9395,-2.94356 -6.5972,-4.8519 -6.5972,-7.59448 0,-1.57762 0.5078,-3.18224 1.1284,-3.56581 1.5472,-0.9562 -0.8539,-2.19811 -7.6946,-3.97989 -4.8668,-1.26764 -5.8816,-1.26053 -8.4335,0.0591 -3.4249,1.7711 -7.5176,1.9023 -13.3701,0.42861 -2.3405,-0.58934 -6.0273,-0.92684 -8.1928,-0.75 l -3.9374,0.32155 7.4468,3.9773 c 8.1826,4.37025 15.0532,10.26418 15.0532,12.91332 0,0.93516 -1.0684,2.76866 -2.3741,4.07444 -1.3058,1.30578 -2.8574,3.76032 -3.448,5.45454 L 876.94676,761 h 15.5768 15.5768 z m 182.01084,1.00393 c 21.0279,-3.40101 42.399,-10.41704 65.25,-21.42123 14.875,-7.16325 27.647,-15.53685 41.3473,-27.10819 0.9842,-0.83126 1.2536,-3.33667 1,-9.29705 -0.3632,-8.5335 -1.1157,-10.53094 -9.6814,-25.69767 l -3.1725,-5.61739 -13.7467,-5.75452 c -27.2447,-11.40491 -42.716,-15.56186 -73.3513,-19.70854 -14.0369,-1.89999 -21.0706,-2.22499 -48.8954,-2.25932 -31.201,-0.0385 -33.1595,0.0728 -49,2.78512 -21.87064,3.74478 -36.35484,4.4613 -46.14664,2.28282 -10.1292,-2.25353 -18.1969,-6.29638 -25.3842,-12.72044 -6.6026,-5.90143 -4.8263,-5.24718 -83.4692,-30.74417 -54.903,-17.80021 -103.4612,-43.23812 -140.5,-73.60285 -42.6796,-34.98913 -64.8066,-57.64359 -86.1456,-88.1988 -24.4237,-34.97247 -36.3243,-57.96416 -45.7272,-88.34453 -6.2617,-20.23107 -7.1285,-26.70457 -7.1163,-53.1447 l 0.011,-23.64469 -4.011,3.10213 c -10.7451,8.31044 -25.3751,25.96965 -41.9926,50.68726 -13.054,19.417 -20.4276,36.26945 -23.6273,54 -2.1221,11.75939 -1.6498,37.86812 0.9678,53.5 4.3965,26.25533 8.2858,37.81071 19.6665,58.43085 10.1699,18.42648 10.2317,18.49587 16.5848,18.61739 6.482,0.12399 11.4668,2.51697 13.727,6.58966 3.1995,5.76534 27.7813,28.39478 43.5339,40.0763 31.0861,23.05222 104.6605,66.23721 135.629,79.60835 15.191,6.55897 82.8855,34.96009 100,41.95484 25.3063,10.34279 66.4654,22.87171 83.2809,25.35088 7.2855,1.07412 10.9077,2.94141 14.2784,7.36054 3.4501,4.52342 2.7522,7.91815 -2.1042,10.23399 -1.9208,0.91597 -3.3715,2.01281 -3.2237,2.43742 0.1477,0.42461 3.6936,4.51104 7.8798,9.08094 4.1862,4.5699 7.9287,9.3091 8.3167,10.53155 0.8285,2.61039 1.9982,2.90837 14.5721,3.71203 5.225,0.33395 21.2,1.91206 35.5,3.5069 23.14274,2.58105 42.67654,4.31277 61.00004,5.40779 10.6522,0.63658 35.2719,-0.45971 44.75,-1.99267 z M 1187.6037,650.75 c 0.6622,-4.5375 2.0839,-13.2 3.1593,-19.25 3.1364,-17.64431 4.1194,-35.84125 3.0282,-56.05713 -2.1181,-39.24201 -3.4855,-44.50744 -18.6829,-71.94287 -6.3979,-11.55 -12.2323,-21.94461 -12.9652,-23.09914 -1.3201,-2.0794 -1.4242,-2.05323 -11.0665,2.78292 -28.1025,14.09496 -63.4521,18.60073 -100.1043,12.75958 -8.139,-1.2971 -29.5894,-6.03058 -45.4741,-10.03484 -18.57424,-4.68224 -29.57664,-6.0753 -35.61394,-4.50923 -22.4718,5.82911 -35.8915,40.97074 -40.1104,105.03592 -1.5747,23.91232 -0.2679,32.05262 5.8446,36.40505 1.651,1.17567 3.2576,3.15507 3.5701,4.39866 0.7517,2.99153 7.6054,7.33378 15.6542,9.91792 9.3793,3.0113 24.1569,2.8458 44.1342,-0.4943 22.57704,-3.77474 41.17874,-5.02371 63.11824,-4.23794 46.9301,1.68083 76.8736,7.28887 108.7476,20.36706 7.975,3.27221 14.7378,6.00772 15.0284,6.07891 0.2907,0.0712 1.0703,-3.58307 1.7325,-8.12057 z m -683.75584,1.5 c 0,-2.0625 -0.7435,-10.16449 -1.6585,-18.00441 -2.0022,-17.15589 -1.521,-19.26562 4.382,-19.21015 2.0743,0.0195 4.8964,0.67854 6.2714,1.46456 1.375,0.78602 2.8524,1.44508 3.2832,1.46456 0.4307,0.0195 0.6557,-3.15416 0.5,-7.05256 -0.2607,-6.52395 -0.084,-7.24919 2.2168,-9.11358 2.0248,-1.64055 3.4504,-1.92461 7.5,-1.49436 2.75,0.29217 5.6875,0.80305 6.5278,1.13529 1.2842,0.50776 1.5325,-0.55532 1.5572,-6.66764 0.016,-3.99944 0.6167,-9.00628 1.3343,-11.1263 1.0984,-3.24485 2.1426,-4.22509 6.6008,-6.19673 2.9128,-1.28818 5.5869,-2.81272 5.9423,-3.38788 0.3555,-0.57516 -0.2781,-4.34033 -1.408,-8.36706 -1.1299,-4.02672 -2.0544,-9.8232 -2.0544,-12.88106 v -5.55974 l -3.4652,1.62353 c -3.1122,1.45816 -3.4087,1.9422 -2.9115,4.75205 0.6198,3.50207 -1.616,8.77097 -4.1315,9.73624 -2.3638,0.9071 -4.4918,6.90886 -4.4918,12.66886 0,6.52575 -0.9504,8.18933 -5.9723,10.45387 -3.6403,1.64158 -4.8116,1.71377 -10.5751,0.6518 -7.7334,-1.42492 -10.4497,-0.47796 -10.4582,3.64589 -0.01,4.8213 -1.9394,9.86062 -5.0029,13.06631 -1.98,2.07191 -2.9915,4.15859 -2.9915,6.17153 0,4.1539 -2.1984,8.97666 -5.4596,11.97698 -2.4048,2.2124 -3.5073,2.47808 -9.5837,2.30949 -3.7764,-0.10478 -8.5175,-0.64645 -10.5358,-1.20371 -6.0392,-1.66752 -12.8994,0.44794 -16.5985,5.11849 -3.96142,5.00167 -9.50834,7.8894 -12.51985,6.51782 -2.90841,-1.32462 -5.30255,-6.56875 -5.30255,-11.61471 0,-2.23869 -1.125,-6.61418 -2.5,-9.7233 -3.23859,-7.32304 -3.21386,-10.838 0.0979,-13.90721 2.54449,-2.35816 2.57595,-2.54725 1.53104,-9.20225 -0.58676,-3.73704 -1.35415,-10.23378 -1.7053,-14.4372 -0.57766,-6.9147 -0.43775,-7.84329 1.46896,-9.75 1.15908,-1.15908 2.79247,-2.10742 3.62976,-2.10742 2.55681,0 10.64291,8.23605 12.63066,12.86487 1.03093,2.40069 2.88068,5.77569 4.11068,7.5 l 2.2363,3.13513 0.5,-18.54731 c 0.418,-15.50608 0.7907,-18.99048 2.2731,-21.25 1.8782,-2.86298 5.3061,-3.53346 8.7211,-1.70581 1.6872,0.90296 1.9286,0.45542 2.5628,-4.75 0.9958,-8.17398 3.1642,-13.1388 6.0552,-13.8644 5.5491,-1.39274 8.0844,0.90505 9.8378,8.91637 0.337,1.53937 2.1068,4.42925 3.9329,6.42195 l 3.3204,3.62309 1.579,-4.42195 c 0.8684,-2.43207 1.8476,-5.67474 2.1759,-7.20595 0.3468,-1.61737 1.6241,-3.25199 3.048,-3.90079 2.0831,-0.94909 3.0255,-0.71874 6.2762,1.53401 2.1038,1.45793 4.1806,2.65079 4.6151,2.65079 0.4345,0 0.6353,-3.8795 0.4462,-8.62112 -0.2931,-7.3528 -0.086,-8.78644 1.4063,-9.74488 2.3248,-1.49287 4.5619,-0.0415 7.2057,4.675 1.1244,2.0058 5.0818,6.79928 8.7943,10.65217 9.0249,9.36615 9.2076,6.06946 0.3248,-5.86064 -11.7157,-15.73496 -24.9433,-40.07225 -29.9478,-55.10053 -5.493,-16.49499 -9.6301,-44.14506 -9.6211,-64.30122 0.016,-37.02238 9.6522,-60.45265 43.2197,-105.09356 l 8.9442,-11.89477 -4.8349,2.80052 c -19.9954,11.58195 -41.1335,29.755 -58.145,49.98903 -10.6423,12.65822 -28.9183,37.32969 -36.75316,49.61438 C 416.8188,432.03555 405.47506,474.3747 407.21189,523 c 1.58333,44.32769 12.16374,85.30871 28.84348,111.71921 3.93507,6.23076 5.09709,7.20674 6.28739,5.28079 0.33992,-0.55 1.60398,-1.01431 2.80902,-1.0318 1.20504,-0.0175 3.06449,-0.6925 4.13211,-1.5 2.63017,-1.98939 5.48137,-1.83573 9.00217,0.48516 l 2.9432,1.94018 1.7378,-2.85749 c 2.1238,-3.49241 5.0463,-4.54939 8.0879,-2.92518 1.2583,0.67192 5.7251,4.36417 9.9263,8.20499 4.7007,4.29746 10.2775,8.23886 14.5,10.24778 3.7738,1.79546 7.199,3.30315 7.6115,3.35042 0.4125,0.0473 0.7523,-1.60156 0.7551,-3.66406 z m -44.1046,-34.22889 c 4.4068,-0.93519 7.1811,-0.9869 10.7679,-0.2007 12.8558,2.8179 15.0981,2.46554 17.8212,-2.80039 0.8307,-1.60639 1.5104,-4.51675 1.5104,-6.46748 0,-2.64887 0.8861,-4.52754 3.5,-7.42086 2.6572,-2.94115 3.5,-4.75568 3.5,-7.535 0,-9.16368 5.002,-13.54422 13.7765,-12.06494 11.8243,1.99344 14.2235,0.78129 14.2235,-7.1863 0,-6.34193 1.7149,-10.89806 5.3711,-14.26975 2.1102,-1.94598 2.6289,-3.33695 2.6289,-7.0497 0,-4.24487 -0.473,-5.13581 -5.75,-10.82991 -3.1625,-3.41249 -6.0875,-6.20262 -6.5,-6.2003 -0.4125,0.002 -0.75,1.88129 -0.75,4.17548 0,4.44629 -2.1421,7.82874 -4.958,7.82874 -0.9064,0 -3.5574,-1.40422 -5.8912,-3.12048 -2.3337,-1.71626 -4.4023,-2.95376 -4.5967,-2.75 -0.1944,0.20376 -1.4272,3.52048 -2.7394,7.37048 -2.266,6.64846 -2.5543,7.01626 -5.74,7.32378 -3.0038,0.28996 -4.0707,-0.40859 -10.2144,-6.68769 -3.7732,-3.8563 -6.8886,-6.702 -6.9232,-6.32378 -1.2081,13.20309 -1.861,17.39108 -2.9082,18.65283 -1.8454,2.22362 -6.7544,1.94722 -8.261,-0.46514 -0.6869,-1.1 -1.4782,-1.99924 -1.7584,-1.99831 -0.2802,9.4e-4 -0.6071,5.28844 -0.7264,11.75 -0.1552,8.40997 0.3736,14.94897 1.8611,23.01209 2.2497,12.19551 1.8753,14.23622 -2.6117,14.23622 -2.5018,0 -4.5118,-1.96159 -6.959,-6.79142 -0.9172,-1.81029 -3.8811,-5.73557 -6.58643,-8.72285 -2.70529,-2.98729 -5.84324,-7.24365 -6.97322,-9.45858 C 442.72664,581.81222 441.59751,580 441.34744,580 c -0.56378,0 0.084,4.20841 2.19225,14.24242 1.54706,7.36309 1.53775,7.84078 -0.19007,9.75 -0.99926,1.10417 -2.42209,2.00758 -3.16185,2.00758 -1.70709,0 -1.7758,-0.405 1.15499,6.80772 1.375,3.3839 2.5,7.88648 2.5,10.00574 0,2.11926 0.31778,4.17099 0.70619,4.55939 0.3884,0.38841 2.63038,-1.2734 4.98216,-3.6929 3.51855,-3.61985 5.32755,-4.62224 10.21215,-5.65884 z M 921.08936,606.75 c -0.911,-20.94332 3.083,-59.25329 8.2514,-79.14551 4.9011,-18.86296 9.5837,-29.91011 16.731,-39.47106 3.1566,-4.22256 3.7197,-5.55091 2.6414,-6.23131 -1.2064,-0.76128 -23.2574,-9.56978 -65.3704,-26.1129 -54.8493,-21.5463 -103.9413,-50.62875 -145.2086,-86.02255 -34.4102,-29.51271 -57.2487,-71.03404 -63.9051,-116.18185 -2.1502,-14.58395 -1.4141,-39.06235 1.5662,-52.08482 7.2219,-31.55665 22.9249,-62.97592 47.8614,-95.76345 4.5023,-5.91989 8.1861,-10.95417 8.1861,-11.18728 0,-1.02724 -14.3089,6.20334 -22.6573,11.44919 -13.7353,8.63076 -44.6232,30.34724 -54.9671,38.64587 -34.8018,27.92067 -64.2091,76.40316 -73.3055,120.85567 -6.4915,31.72275 -4.6438,61.09785 5.7606,91.58232 8.0048,23.45392 17.731,42.47333 34.732,67.91768 25.595,38.30646 46.0652,60.01771 91.9373,97.51137 37.5271,30.67288 83.6706,54.86954 138.5,72.6265 11.825,3.82962 32.075,10.49095 45,14.80294 12.925,4.312 23.7781,7.88931 24.118,7.94959 0.3399,0.0603 0.3978,-4.9529 0.1286,-11.1404 z m -377.2466,-79.71482 c 0,-1.08065 -0.8704,-2.43065 -1.9343,-3 -3.4504,-1.84664 -4.1743,-1.10108 -1.9076,1.96482 2.569,3.47479 3.8419,3.81776 3.8419,1.03518 z m 569.43934,-39.97975 c 16.2502,-3.29991 33.8554,-9.99186 41.3744,-15.72693 l 3.4112,-2.60183 -0.4943,-20.11334 c -0.4369,-17.77291 -0.8011,-21.20586 -3.1304,-29.50238 -1.4498,-5.16397 -4.0904,-12.13083 -5.8681,-15.4819 l -3.2321,-6.09286 -26.7367,-14.12491 c -56.8297,-30.02291 -88.2685,-40.53763 -132.76334,-44.40267 -24.5881,-2.13584 -33.8826,-4.72924 -43.7698,-12.21285 -3.616,-2.73687 -7.6359,-5.37972 -8.9333,-5.87299 -6.4513,-2.45276 -56.959,-28.31094 -64.8969,-33.22491 -20.5071,-12.69498 -44.0491,-31.28353 -56.9625,-44.97697 -9.454,-10.02515 -29.0374,-35.4886 -39.1429,-50.8958 -16.9944,-25.91053 -25.4974,-53.73365 -25.693,-84.07233 -0.056,-8.66099 -0.3892,-15.63599 -0.7406,-15.5 -0.9528,0.36865 -7.2222,8.03121 -15.4908,18.93316 -36.505,48.13125 -52.8946,93.81027 -48.4184,134.94614 3.8488,35.37008 18.5289,69.11459 42.4902,97.67077 9.5398,11.3691 21.3301,21.91209 41.058,36.71432 41.6686,31.26479 79.8764,51.8249 136,73.18345 21.2093,8.07148 45.5013,17.85587 51.726,20.83431 l 4.726,2.26135 5.774,-2.3744 c 9.0594,-3.7254 19.5028,-2.9043 45.27404,3.55964 17.7317,4.44748 43.6328,9.83349 52.5,10.91715 12.4366,1.51987 40.2362,0.53331 51.9393,-1.84322 z m 22.4885,-110.70879 c -1.7999,-5.57053 -2.2998,-9.9429 -2.6823,-23.45885 -0.51,-18.02638 0.3147,-26.80678 4.4509,-47.38779 2.0858,-10.37905 2.6176,-15.92336 2.6375,-27.5 0.034,-19.5552 -1.8064,-26.80153 -12.0855,-47.59453 -4.3246,-8.74801 -8.5968,-17.75752 -9.4938,-20.02114 l -1.6309,-4.11568 -5.6082,1.89331 c -14.0326,4.73737 -37.7314,4.94347 -54.0155,0.46974 -10.5115,-2.88783 -23.5679,-7.54854 -39.0566,-13.9419 -13.4857,-5.56657 -21.99734,-7.24335 -29.61774,-5.83464 -24.2722,4.48697 -50.1488,31.79984 -57.9295,61.14484 -3.0947,11.6718 -3.1453,31.00338 -0.1103,42.15411 3.6932,13.56936 9.7199,23.34571 17.8321,28.92705 8.3749,5.7621 13.7239,6.89492 51.88204,10.98756 33.792,3.62436 69.7935,16.1933 115.6865,40.38871 11.7224,6.18024 21.4575,11.12408 21.6335,10.98632 0.176,-0.13776 -0.6755,-3.33146 -1.8922,-7.09711 z M 1381.0428,1744.8 c -0.66,-0.66 -1.2,-1.9403 -1.2,-2.8452 0,-2.6289 22.9822,-51.3775 29.9153,-63.4548 7.4048,-12.8989 13.7389,-21.9145 27.6144,-39.3047 12.1826,-15.2685 20.5662,-27.5916 27.0056,-39.6953 5.7917,-10.8865 7.0955,-12.5 10.1006,-12.5 4.31,0 4.0107,3.9303 -1.0444,13.7179 -6.7819,13.131 -16.7246,27.8646 -30.5455,45.2638 -19.6993,24.7995 -26.3079,35.603 -40.991,67.0103 -10.7252,22.9414 -12.2991,25.9562 -15.5961,29.8745 -2.9183,3.4681 -3.5076,3.6848 -5.2589,1.9335 z m -45.9839,-50.2066 c -3.1767,-3.6181 -17.4821,-32.0814 -33.7206,-67.0934 -5.1018,-11 -16.4676,-34.625 -25.2573,-52.5 -21.9044,-44.5451 -23.6036,-48.4487 -22.217,-51.0396 1.608,-3.0046 2.9539,-2.1168 7.7429,5.1073 4.8168,7.2662 34.4348,66.3922 48.0553,95.9323 9.7582,21.1635 25.366,53.2027 30.2033,62 3.4448,6.265 3.5863,10.3416 0.375,10.8002 -1.3862,0.1979 -3.1513,-0.8945 -5.1816,-3.2068 z m 10.4154,-123.2953 c -2.217,-2.217 1.2688,-9.5069 11.2848,-23.6001 6.5768,-9.254 11.4998,-14.07 19.83,-19.3987 13.4788,-8.6223 38.1974,-18.2993 46.7431,-18.2993 3.9149,0 6.3772,2.4025 4.8858,4.767 -1.4271,2.2625 -2.6917,2.801 -13.3752,5.6966 -11.3225,3.0687 -31.2677,12.7147 -39.1172,18.918 -3.1505,2.4898 -8.3789,8.3209 -11.9063,13.2788 -9.0549,12.7271 -16.5951,20.3876 -18.345,18.6377 z m 16.7525,-113.7397 c -1.2025,-3.1336 0.2812,-5.1385 5.7738,-7.802 11.8732,-5.7578 44.4707,-12.3234 50.5728,-10.1862 3.6646,1.2836 4.3073,5.0415 1.0877,6.3594 -1.2751,0.5218 -6.1433,1.4545 -10.8183,2.0725 -11.0001,1.4542 -27.9031,5.5586 -35.4224,8.6013 -6.7501,2.7315 -10.3926,3.0423 -11.1936,0.955 z m -103.8273,-3.7809 c -1.0486,-1.4971 -1.5586,-4.5161 -1.5626,-9.25 -0.01,-10.0655 -2.5323,-25.4939 -6.0009,-36.6838 -3.3459,-10.7942 -3.7138,-15.0008 -1.4744,-16.8593 3.2432,-2.6916 7.047,4.0617 11.5111,20.4369 3.7715,13.8348 5.4907,37.8689 3.0367,42.4542 -1.4658,2.739 -3.5487,2.702 -5.5099,-0.098 z m 273.3836,-47.417 c -0.8068,-2.109 -0.7818,-3.9114 0.095,-6.8605 1.6608,-5.584 5.368,-12.6564 7.7738,-14.8304 2.5814,-2.3324 6.5971,-1.8536 6.9641,0.8304 0.3791,2.7729 -8.7747,20.4873 -11.5062,22.2666 -2.094,1.364 -2.3008,1.2766 -3.327,-1.4061 z m -25.7287,-77.6105 c -0.5684,-0.6875 -1.823,-3.275 -2.7882,-5.75 -4.4116,-11.3128 -15.0804,-22.9736 -30.4234,-33.2522 -7.5357,-5.0484 -9.5647,-6.9137 -9.8131,-9.0212 -0.9263,-7.8616 14.0333,-0.8159 29.8866,14.076 13.4138,12.6004 21.7387,26.9246 19.0621,32.7991 -1.1762,2.5814 -4.2472,3.1767 -5.924,1.1483 z m 64.5797,-17.3087 c -1.0015,-2.198 -0.5107,-4.5598 3.4803,-16.75 6.1739,-18.858 8.6395,-29.0176 9.6196,-39.6391 1.4621,-15.8459 -1.6156,-42.035 -6.9859,-59.4434 -3.4261,-11.1063 -3.2845,-14.6088 0.5907,-14.6088 3.0018,0 4.5904,2.3713 7.3691,11 6.3613,19.7535 9.5952,50.9563 7.0995,68.5 -2.2901,16.0977 -12.4276,48.808 -16.0384,51.75 -2.8836,2.3495 -3.7587,2.2117 -5.1349,-0.8087 z m -299.7805,-10.9283 c -0.6788,-0.8179 -0.9737,-2.5054 -0.6554,-3.75 1.0041,-3.9264 15.8541,-21.9412 23.0852,-28.005 11.638,-9.7595 23.5594,-14.2289 23.5594,-8.8325 0,2.5844 -1.8694,4.4041 -9.5305,9.2778 -9.9504,6.3299 -13.7167,9.898 -22.6169,21.4272 -8.9063,11.5372 -11.1432,13.1342 -13.8418,9.8825 z m -56.5884,-17.991 c -2.7576,-4.2087 -4.4396,-19.6394 -4.4716,-41.022 -0.038,-25.48 1.9596,-37.6536 10.7207,-65.3308 3.6688,-11.5899 20.656,-47.5479 23.6218,-50.0018 2.0033,-1.6575 4.6533,-1.2057 6.0635,1.0337 0.8575,1.3616 -0.8575,5.6516 -8.5949,21.5 -12.5179,25.6402 -19.7931,48.5045 -22.8459,71.7989 -1.3643,10.4101 -0.7087,39.3026 1.1955,52.6882 1.004,7.0574 0.9927,8.9813 -0.06,10.25 -1.8592,2.2402 -3.7638,1.9302 -5.6289,-0.9162 z m 246.8047,-20.5048 c -3.4502,-1.0301 -10.8752,-2.6558 -16.5,-3.6126 -5.6249,-0.9568 -10.8124,-2.1882 -11.5277,-2.7365 -0.7153,-0.5483 -1.1653,-2.1604 -1,-3.5825 0.2642,-2.2722 0.8182,-2.623 4.5714,-2.8941 2.3489,-0.1697 8.9649,0.6417 14.7023,1.803 19.0472,3.8556 24.5505,6.5558 21.9209,10.7555 -1.5031,2.4007 -4.7803,2.4727 -12.1669,0.2672 z m -13.2271,-123.6719 c -5.9439,-1.9246 -24.8958,-5.8786 -38,-7.9283 -5.775,-0.9033 -20.2737,-1.9314 -32.2193,-2.2847 -17.7841,-0.526 -22.0034,-0.9264 -23.2868,-2.2098 -2.2272,-2.2272 -0.9107,-4.6298 3.2981,-6.0189 4.6849,-1.5461 33.3386,-0.634 49.208,1.5664 27.9629,3.8773 52.0907,9.9624 54.0551,13.6329 2.4882,4.6493 -3.8488,6.2232 -13.0551,3.2424 z m -237.4934,-9.5953 c -1.033,-2.3375 -2.0746,-6.6035 -2.3146,-9.48 -1.1204,-13.4291 5.8965,-52.1766 9.8301,-54.2819 2.4919,-1.3335 4.8747,-0.2475 5.5745,2.5407 0.3186,1.2695 -0.3469,5.8813 -1.4789,10.2484 -3.1005,11.9614 -5.1177,24.6876 -5.1177,32.2874 0,6.6722 0.053,6.8086 2.7414,7.119 3.4983,0.4038 3.9898,2.817 1.6678,8.1885 -3.8967,9.0142 -7.8679,10.2445 -10.9026,3.3779 z m 306.0816,-72.3234 c -9.1392,-7.3115 -17.7703,-12.3524 -33.2841,-19.4394 -9.5691,-4.3713 -12.8041,-6.3088 -12.8041,-7.6682 0,-8.4758 38.3972,7.8918 55.4538,23.6384 5.1522,4.7565 5.3793,8.4033 0.5462,8.7706 -2.3249,0.1767 -4.5553,-1.0162 -9.9118,-5.3014 z m 82.4065,-10.9329 c -0.7543,-0.909 -1.5961,-6.9568 -2.1226,-15.25 -0.8793,-13.8507 -2.7155,-30.0222 -5.325,-46.8992 -3.7216,-24.07 -2.6448,-48.115 3.5308,-78.8372 3.0926,-15.3848 8.3404,-30.37008 11.8725,-33.90215 1.6159,-1.61587 2.2006,-1.72469 3.4951,-0.6504 2.1783,1.80785 2.0059,3.27183 -1.9024,16.15235 -6.6747,21.9972 -10.5649,47.6706 -10.5104,69.363 0.033,13.3015 0.2561,15.6286 3.831,40.0299 2.9313,20.0081 4.6607,46.6516 3.2048,49.3721 -1.3264,2.4784 -4.2817,2.7808 -6.0738,0.6216 z m -98.0718,-48.162 c -21.202,-9.9838 -48.5667,-16.8573 -71.7546,-18.0233 -9.1102,-0.4581 -12.8487,-1.0388 -14.3112,-2.223 -2.7368,-2.2162 -1.4827,-4.8187 2.906,-6.0304 4.693,-1.2958 24.3681,0.217 38.7369,2.9785 19.8528,3.8155 51.307,15.4153 52.8742,19.4992 2.16,5.629 -1.2806,7.1756 -8.4513,3.799 z m -276.3515,-28.9031 c -1.3086,-1.3086 -1.5714,-4.4927 -1.5714,-19.0387 0,-20.713 1.4758,-47.2275 3.556,-63.8899 3.5714,-28.60626 14.9365,-63.53349 31.3196,-96.25153 4.3494,-8.6861 10.9162,-22.53291 14.5929,-30.77069 3.6767,-8.23778 7.2905,-15.60181 8.0306,-16.36452 1.9352,-1.99406 4.5009,-0.62036 4.5009,2.40977 0,3.58827 -10.9594,30.24479 -21.7885,52.99602 -15.472,32.50589 -26.4389,68.79536 -29.1569,96.48095 -1.3823,14.0795 -3.0332,46.8959 -3.045,60.5275 -0.01,8.3503 -0.3875,11.5671 -1.5663,13.25 -1.8453,2.6345 -2.7654,2.7575 -4.8719,0.6511 z m 111.0953,-61.0953 c -1.4459,-1.4458 -0.5481,-5.3033 1.5833,-6.8024 3.4547,-2.4299 22.6364,-8.3423 32.4609,-10.0054 4.834,-0.8184 13.7518,-1.6089 19.8174,-1.7567 9.3419,-0.2277 11.4629,0.014 13.8703,1.5831 l 2.8421,1.8519 -2.0927,2.0927 c -1.8223,1.8223 -3.8085,2.1884 -15.3704,2.8332 -15.6468,0.8727 -25.2517,2.7104 -38.7839,7.4206 -9.8633,3.4332 -13.0566,4.0535 -14.327,2.783 z m 241.3626,-141.86697 c -6.8588,-3.53191 -14.8996,-6.96525 -17.8684,-7.62964 -6.9209,-1.54883 -10.1114,-3.98872 -8.531,-6.52404 1.965,-3.15227 11.3437,-2.30478 20.8701,1.8859 11.7532,5.17023 21.7199,11.16358 22.6226,13.60378 0.8338,2.25394 -1.1728,5.2496 -3.444,5.14166 -0.6482,-0.0308 -6.7904,-2.94575 -13.6493,-6.47766 z m -341.2946,1.12551 c -1.5652,-1.56516 -2.7438,-39.42114 -2.7244,-87.50473 0.013,-32.07648 2.1648,-57.75969 6.0592,-72.3201 1.1992,-4.48369 3.8462,-6.28034 6.4489,-4.3772 1.7225,1.25948 1.7079,1.93229 -0.362,16.71125 -3.6678,26.18727 -4.3194,43.72268 -3.5652,95.94153 0.7191,49.78647 0.5362,52.95741 -3.055,52.95741 -0.7663,0 -2.027,-0.63367 -2.8015,-1.40816 z m 179.5118,-40.15581 c -8.0592,-3.6819 -24.065,-7.66328 -29.7465,-7.39933 -12.1852,0.56609 -12,0.5898 -12,-1.5367 0,-2.82066 5.2364,-5.08506 16,-6.91891 30.8254,-5.25189 72.3649,-4.18489 79.3297,2.0377 2.609,2.3309 2.6257,2.42013 0.7292,3.88346 -2.2831,1.76156 -6.1963,1.88016 -15.3673,0.46572 -3.6804,-0.56761 -14.1166,-0.90511 -23.1916,-0.75 l -16.5,0.28203 3.9634,1.78814 c 7.3337,3.30867 9.7388,7.46292 5.6023,9.67668 -2.4878,1.33145 -2.6017,1.3117 -8.8192,-1.52879 z m -59.7687,-55.47188 c -0.3729,-0.60347 -0.5205,-1.23173 -0.3279,-1.39613 1.1706,-0.99939 10.055,-6.21799 21.1418,-12.41854 15.8123,-8.84328 27.6323,-16.74374 39.2109,-26.20839 C 1427.0886,621.34193 1430.6456,619 1433.4823,619 c 3.9354,0 2.87,3.63355 -2.6385,8.999 -12.2536,11.93542 -35.4758,27.45612 -55.4771,37.07848 -12.362,5.94718 -18.834,7.84775 -20.0461,5.88667 z M 1614.634,642.25 c -1.9359,-4.59235 -1.5613,-31.28476 0.5789,-41.25 4.1834,-19.47837 20.8752,-63.73554 26.2086,-69.49045 1.3506,-1.45728 3.2354,-2.50174 4.1884,-2.32102 3.3067,0.62698 2.4646,5.38985 -3.3563,18.98363 -14.4734,33.80057 -21.1554,59.00056 -22.9569,86.57784 -0.5136,7.86214 -0.9997,10.25 -2.0865,10.25 -0.7793,0 -1.9386,-1.2375 -2.5762,-2.75 z m -374.7611,-81.71379 c -0.6682,-0.80508 -1.6341,-4.96758 -2.1464,-9.25 -2.2999,-19.22385 -8.6517,-44.09408 -15.9854,-62.58997 -2.2236,-5.60793 -9.1394,-20.09624 -15.3686,-32.19624 -12.8753,-25.00991 -15.2868,-31.7873 -16.1406,-45.36308 -0.8229,-13.08449 0.7222,-25.13599 6.5901,-51.40365 2.7317,-12.2283 5.4874,-26.69369 6.1239,-32.14531 1.5125,-12.95592 0.6014,-47.87946 -1.5859,-60.78976 -1.9508,-11.51478 -1.7257,-16.66519 0.7954,-18.19692 3.1781,-1.93083 5.2377,2.12244 7.076,13.92534 3.8247,24.55721 4.371,50.49365 1.5039,71.39566 -0.5717,4.16775 -3.3593,17.70272 -6.1948,30.07772 -5.1122,22.31173 -5.1555,22.64225 -5.1765,39.5 -0.026,20.56672 0.5995,22.80486 12.5697,45 14.5344,26.94978 21.8285,44.9756 27.8944,68.93484 5.0872,20.09363 7.6142,37.70356 5.9776,41.65483 -1.3084,3.15866 -3.9728,3.80828 -5.9328,1.44654 z m 75.9699,-105.61726 c -14.9,-1.13008 -29.0303,-3.63792 -39.714,-7.04844 -9.5965,-3.06345 -12.6,-4.98903 -12.0757,-7.74189 0.4931,-2.58956 3.7029,-2.44117 17.5308,0.8105 22.1511,5.20889 36.1233,6.39541 63.7589,5.4144 13.2,-0.46858 30.6256,-0.85231 38.7235,-0.85274 13.7317,-7.3e-4 14.8682,0.14399 16.8714,2.14835 4.5109,4.5136 -0.808,6.09318 -21.0949,6.26475 -7.975,0.0675 -21.7,0.5604 -30.5,1.09544 -17.5399,1.06642 -18.2738,1.06444 -33.5,-0.0904 z m 148.1043,-0.75508 c -2.9363,-2.02386 -0.296,-3.9487 7.0746,-5.15766 12.3578,-2.02699 32.8282,-5.81517 42.8211,-7.92434 28.5018,-6.01575 68.5403,-6.58698 97.5,-1.39103 19.0837,3.424 33.445,1.79463 50.6188,-5.74296 9.8147,-4.30772 13.8224,-3.83417 12.4897,1.47577 -0.4059,1.61746 -2.4918,3.22332 -6.9578,5.35658 -18.6253,8.89683 -33.9016,10.8896 -56.6507,7.39003 -36.6845,-5.64327 -57.6468,-5.16682 -103.389,2.34989 -22.4121,3.68294 -41.1705,5.25398 -43.5067,3.64372 z m -156.2433,-22.19441 c -20.2899,-6.13935 -42.3301,-17.99072 -54.0985,-29.08966 -6.2461,-5.89084 -7.2572,-9.09166 -3.0614,-9.6916 2.3297,-0.33312 4.4253,0.82442 13.6538,7.54227 15.8516,11.53904 30.9502,18.83396 50.1256,24.21832 11.5252,3.23622 13.5195,4.27862 13.5195,7.06667 0,3.9318 -7.046,3.91571 -20.139,-0.046 z m 67.6611,-107.93364 c -0.6264,-1.01358 2.2458,-2.9965 16.3652,-11.29823 10.0511,-5.90971 20.9191,-13.05681 30.224,-19.87602 6.843,-5.01506 17.1431,-10.27678 18.9428,-9.67686 1.8806,0.62686 -6.7851,10.8729 -13.7196,16.22157 C 1411.7654,311.29371 1385.5772,325 1378.2761,325 c -1.2734,0 -2.5834,-0.43388 -2.9112,-0.96418 z"
     style="fill:#000000" />
</svg>
