<?xml version="1.0" encoding="UTF-8" standalone="no"?>
<svg
   xmlns:dc="http://purl.org/dc/elements/1.1/"
   xmlns:cc="http://creativecommons.org/ns#"
   xmlns:rdf="http://www.w3.org/1999/02/22-rdf-syntax-ns#"
   xmlns:svg="http://www.w3.org/2000/svg"
   xmlns="http://www.w3.org/2000/svg"
   viewBox="0 0 1666.9532 3766.4387"
   height="3766.4387"
   width="1666.9532"
   id="svg319"
   version="1.1">
  <metadata
     id="metadata325">
    <rdf:RDF>
      <cc:Work
         rdf:about="">
        <dc:format>image/svg+xml</dc:format>
        <dc:type
           rdf:resource="http://purl.org/dc/dcmitype/StillImage" />
        <dc:title></dc:title>
      </cc:Work>
    </rdf:RDF>
  </metadata>
  <defs
     id="defs323" />
  <path
     id="path329"
     d="m 5.8613782,3764.8355 c -1.4276,-0.8863 -3.2276,-2.5618 -4,-3.7234 -2.12860002,-3.2011 -2.61650002,-3748.97217 -0.489,-3754.0639 0.7796,-1.86595 2.6728,-4.21514 4.2071,-5.22042 C 8.2756782,0.06113 35.965778,0 833.41298,0 1512.9877,0 1658.863,0.23164 1660.7604,1.31382 c 1.2669,0.7226 3.1778,2.7476 4.2463,4.5 1.9218,3.15188 1.9428,23.36035 1.9465,1877.50188 0,1389.7352 -0.288,1874.8805 -1.1247,1876.5 -0.6206,1.2014 -2.3081,3.1806 -3.75,4.3983 l -2.6216,2.2141 -825.49992,0.01 c -757.3937,0.01 -825.7142018,-0.1236 -828.0956018,-1.6019 z m 195.3481018,-33.296 c 8.7792,-14.4208 45.1127,-75.8619 60.9328,-103.0395 39.4202,-67.7203 78.0734,-141.3761 87.2638,-166.2861 6.6334,-17.979 9.6538,-48.898 7.6998,-78.82 l -1.2373,-18.9481 3.1323,-5.8768 c 4.0982,-7.689 10.7507,-14.2279 18.6083,-18.2907 3.4872,-1.8031 6.342,-3.5569 6.3441,-3.8975 0,-0.3405 -2.1055,-4.3419 -4.6835,-8.892 -2.5779,-4.5501 -5.4343,-10.565 -6.3475,-13.3664 -1.5141,-4.6444 -2.0037,-5.1747 -5.5517,-6.0138 -11.243,-2.6589 -25.3712,-28.2208 -29.8762,-54.0545 -1.9849,-11.3818 -1.9787,-33.2743 0.013,-47.7697 1.9887,-14.4712 6.0237,-32.626 8.573,-38.5733 3.2294,-7.534 8.0176,-12.4429 29.7658,-30.5168 26.3945,-21.9351 32.8907,-28.4994 42.7461,-43.1943 32.4058,-48.3186 58.7383,-110.5285 82.329,-194.5 13.9195,-49.5469 19.4354,-71.0327 27.469,-107 4.1155,-18.425 7.9627,-35.075 8.5495,-37 0.5867,-1.925 4.0067,-17 7.6,-33.5 3.5933,-16.5 15.4801,-70.275 26.4152,-119.5 31.1567,-140.2535 62.4044,-284.8001 91.1187,-421.5 41.895,-199.4491 75.0625,-365.0519 101.3434,-506 5.8455,-31.35 13.061,-70.05 16.0346,-86 9.6601,-51.8162 26.75,-150.9352 35.5718,-206.3115 10.3241,-64.8065 10.9107,-68.6296 17.4448,-113.6885 3.5093,-24.2 10.2451,-70.325 14.9685,-102.5 4.7235,-32.175 11.4858,-78.3 15.0274,-102.5 3.5416,-24.2 10.5207,-70.99996 15.5092,-103.99996 4.9884,-33.00002 11.7265,-78.00002 14.9737,-100.00002 15.5142,-105.1131 40.3007,-268.83815 47.03593,-310.69254 2.18545,-13.58089 3.97354,-25.55359 3.97354,-26.60601 0,-1.06978 -6.23379,-8.68928 -14.13806,-17.28078 -7.77591,-8.45202 -15.66681,-17.66971 -17.53521,-20.48376 -8.4545,-12.73349 -10.0205,-24.21003 -5.9518,-43.61946 2.434,-11.61116 15.9754,-60.57844 27.60352,-99.81747 2.6893,-9.075 9.21336,-31.35 14.49792,-49.5 11.611,-39.8783 12.415,-42.20728 19.1612,-55.5 11.5102,-22.67994 26.0288,-36.42919 48.36238,-45.7994 19.099,-8.01312 38.6611,-6.51549 55.487,4.24797 3.0768,1.96815 5.9805,3.68488 6.4528,3.81494 0.4723,0.13007 3.0889,-3.13851 5.8145,-7.26351 9.4328,-14.27533 25.0682,-26.76369 43.7457,-34.94075 12.563,-5.5001 28.2477,-9.82097 40.5516,-11.1713 11.008,-1.2081 46.8703,-0.70362 50.4484,0.70967 1.7667,0.69782 1.696,0.38826 -0.6057,-2.65383 -7.4788,-9.8842 -9.5991,-20.64553 -6.4948,-32.96378 2.0697,-8.21265 9.408,-23.554883 15.0448,-31.454143 C 1237.625,63.296567 1260.5629,45.57328 1287.2628,32 l 13.7697,-7 -112.288,-0.26496 -112.288,-0.26495 -11,4.67449 c -43.5503,18.5068 -82.70438,42.548377 -115.52783,70.937 -13.73156,11.87624 -37.13459,36.17858 -48.15159,50.00194 -16.8489,21.14076 -22.5021,29.88359 -46.7498,72.30059 -65.1065,113.89215 -107.2572,203.73541 -121.5664,259.11589 -2.2788,8.81976 -10.2008,52.71281 -13.5362,75 -7.3046,48.80982 -13.8997,107.37293 -15.935,141.50002 -1.2986,21.7759 -1.3137,96.1917 -0.026,130.5 1.1939,31.8174 3.1354,66.7219 6.4802,116.5 1.3674,20.35002 3.6456,54.53802 5.0626,75.97338 1.417,21.4353 2.9415,39.4353 3.3878,40 0.4463,0.5646 0.4819,4.1766 0.079,8.0266 -0.4028,3.85 -0.7963,6.1375 -0.8744,5.0833 -0.078,-1.0541 -0.3875,-1.6711 -0.6876,-1.371 -2.683,2.683 -52.2267,191.8211 -66.3473,253.2877 -27.2129,118.4565 -56.6011,274.8509 -84.56,450 -3.5996,22.55 -8.3476,52.25 -10.5511,66 -4.691,29.2727 -11.7435,79.7967 -15.494,111 -1.4544,12.1 -4.3992,36.4 -6.5439,54 -2.1448,17.6 -5.9498,51.35 -8.4557,75 -2.5059,23.65 -5.0022,47.05 -5.5475,52 -0.5452,4.95 -2.5308,24.975 -4.4125,44.5 -1.8817,19.525 -5.2282,53.05 -7.4367,74.5 -6.1191,59.4335 -10.8704,107.2327 -14.6617,147.5 -1.8901,20.075 -4.0959,42.575 -4.9017,50 -0.8058,7.425 -3.2962,35.55 -5.5341,62.5 -2.2379,26.95 -5.8274,68.575 -7.9767,92.5 -2.1493,23.925 -4.1957,47.775 -4.5475,53 -0.6978,10.3627 -2.6447,18.8173 -5.4115,23.5 -0.9749,1.65 -7.6276,12.675 -14.7837,24.5 -14.3511,23.7144 -51.9908,88.8236 -68.5047,118.5 -54.7955,98.4699 -117.7518,227.8929 -169.0375,347.5 -33.9128,79.0905 -77.3966,194.857 -104.0459,277 -23.8392,73.4814 -28.8936,90.1532 -48.3563,159.5 -8.658002,30.8491 -33.344302,128.3037 -33.344302,131.6341 0,1.8064 2.6734,1.8659 83.789902,1.8659 h 83.7899 z m 120.0708,8.7105 c 0.7532,-1.2375 15.6744,-29.25 33.1583,-62.25 44.7399,-84.4448 55.1287,-103.5426 81.468,-149.7641 l 23.2294,-40.7642 8.8977,-5.7358 c 4.8937,-3.1548 12.8269,-7.9859 17.6292,-10.7359 4.9818,-2.8528 11.6018,-7.8017 15.4153,-11.524 5.9658,-5.8231 6.9337,-7.3273 9.0089,-14 4.952,-15.9231 2.3576,-34.7663 -6.6876,-48.5736 -4.8435,-7.3934 -19.7181,-22.1104 -28.9425,-28.6359 -17.9054,-12.6664 -43.7222,-21.9635 -65,-23.4076 -7.6029,-0.516 -10.1643,-0.2631 -16.5,1.6287 -13.1405,3.9238 -20.5556,8.8859 -22.518,15.0689 -0.9973,3.1423 4.1377,12.679 9.9734,18.5225 6.0768,6.085 18.0881,15.0709 29.3015,21.921 8.6798,5.3024 10.7128,7.5516 4.4931,4.9709 -10.6948,-4.4375 -29.1461,-16.6738 -41.1958,-27.3198 l -6.0542,-5.349 v 26.6919 c 0,30.5057 -1.0242,37.9302 -8.1302,58.9364 -12.5633,37.1384 -44.1558,99.3825 -89.3659,176.0696 -19.0525,32.3178 -59.5039,103.9436 -59.5039,105.3616 0,0.8374 14.5363,1.1384 54.9769,1.1384 h 54.977 z m 117.3137,-28.4673 c 30.0568,-45.1029 36.4627,-55.6734 48.3495,-79.7827 22.2851,-45.1997 30.9175,-68.5254 37.563,-101.5 1.4826,-7.3565 1.6201,-12.0947 1.0224,-35.2216 -0.6501,-25.1525 -0.5763,-26.9801 1.256,-31.1224 2.6484,-5.9871 8.2733,-11.9787 15.3411,-16.3412 l 5.8932,-3.6375 -5.2811,-2.8266 c -2.9046,-1.5546 -7.796,-5.5145 -10.8698,-8.7997 l -5.5886,-5.9732 -1.6238,9.892 c -0.893,5.4406 -2.5903,11.9483 -3.7717,14.4616 -2.8904,6.1492 -10.8205,13.1854 -26.4272,23.4485 -14.2754,9.3877 -24.7227,19.0288 -31.4869,29.0572 -2.388,3.5405 -7.4032,13.1486 -11.1448,21.3515 -8.0487,17.6454 -20.1081,40.8965 -30.6538,59.1019 -4.1766,7.2102 -11.3731,19.6345 -15.9922,27.6095 -7.9499,13.7258 -65.2223,127.9021 -65.2223,130.0248 0,0.652 13.6175,0.9077 39.25,0.7368 l 39.25,-0.2616 z m 190.4547,14.9815 c 18.813,-28.5217 34.2989,-48.8694 53.4756,-70.2642 19.5458,-21.8066 50.9136,-51.2817 80.6857,-75.8173 7.0142,-5.7805 12.6392,-10.6127 12.5,-10.7383 -0.1392,-0.1257 -2.503,0.1462 -5.253,0.604 -16.2203,2.7003 -34.5913,0.1692 -47.3005,-6.5169 -20.6867,-10.883 -31.7785,-26.887 -44.7247,-64.5315 -13.0904,-38.0637 -21.1646,-50.5283 -35.4143,-54.6708 -5.0913,-1.4801 -6.4321,-1.4804 -16.5503,0 -6.0556,0.8837 -12.1352,1.8526 -13.5102,2.153 -4.3882,0.9588 9.8054,-5.6077 15.2598,-7.0597 14.5231,-3.8663 25.1715,0.1286 34.6912,13.0149 6.8811,9.3146 9.2959,14.8336 21.6263,49.4274 9.7075,27.235 13.6884,34.6142 24.4163,45.2595 8.3398,8.2757 18.9435,14.3531 30.5064,17.4844 8.0622,2.1833 28.8294,2.9838 36.7908,1.418 6.5133,-1.2809 16.2326,-7.216 15.3946,-9.4007 -0.2367,-0.6173 -1.0142,-3.8223 -1.7277,-7.1223 -0.7134,-3.3 -1.3766,-6.1183 -1.4737,-6.263 -0.097,-0.1446 -2.6517,0.8317 -5.6767,2.1695 -8.2934,3.6677 -16.6181,4.9774 -26.9682,4.2427 -16.3807,-1.1627 -27.0131,-5.0744 -34.5626,-12.7155 -5.8684,-5.9397 -14.9184,-24.8125 -21.307,-44.4337 -5.8706,-18.0302 -9.6796,-26.2463 -17.805,-38.4057 -17.1868,-25.7194 -33.6703,-33.4071 -57.1477,-26.6528 -13.2988,3.826 -20.425,7.7497 -28.0468,15.443 -12.0157,12.1283 -20.4036,33.9795 -27.0462,70.4578 -7.578,41.6149 -12.0627,57.6593 -22.1259,79.1577 -8.2872,17.7042 -15.3021,29.9318 -23.8334,41.5441 -7.1053,9.6713 -9.1949,12.0051 -6.228,6.9559 27.14,-46.1883 29.9492,-53.9123 43.7463,-120.2823 8.4027,-40.4203 14.2584,-57.295 25.8409,-74.4677 1.9476,-2.8875 3.4589,-5.2447 3.3586,-5.2381 -0.1003,0.01 -2.6573,0.689 -5.6823,1.5166 -3.025,0.8277 -11.575,1.7818 -19,2.1202 -10.326,0.4707 -13.9459,0.9958 -15.3962,2.2333 -4.7506,4.0535 -9.561,14.0189 -13.0902,27.118 -0.3705,1.375 -1.0436,13.075 -1.4958,26 -1.0809,30.8936 -3.9069,46.8101 -13.2073,74.3874 -14.24,42.2237 -47.4832,105.6665 -82.9563,158.3174 -2.6698,3.9627 -4.8542,7.6752 -4.8542,8.25 0,0.7193 28.6393,1.0452 91.8561,1.0452 h 91.8562 l 10.3794,-15.7358 z m 182.8467,13.087 c 3.0194,-3.8386 45.9157,-90.4113 59.6333,-120.3512 32.8694,-71.7404 51.82937,-115.0606 67.61988,-154.5 51.12906,-127.7032 79.28764,-231.9879 89.51054,-331.5 1.595,-15.5256 1.7978,-28.2181 1.7978,-112.5 0,-110.717 -0.6497,-126.2659 -7.2075,-172.5 -1.7607,-12.4138 -2.6517,-23.1591 -2.7082,-32.6619 -0.078,-13.171 0.066,-14.3254 2.0693,-16.5 1.3361,-1.4506 3.927,-8.411 6.8259,-18.3381 4.69,-16.0602 11.5039,-38.6143 33.5345,-111 6.5284,-21.45 17.3321,-57 24.0083,-79 6.6762,-22 14.1891,-46.525 16.6952,-54.5 2.5062,-7.975 10.2819,-33.4 17.2793,-56.5 18.1466,-59.9053 35.5159,-116.7619 47.5042,-155.5 5.702,-18.425 13.7985,-44.975 17.9923,-59 10.5664,-35.3368 19.2301,-63.8371 29.0308,-95.5 34.3534,-110.9849 55.8418,-185.8268 120.5896,-420 15.1755,-54.885 27.2431,-94.9445 46.3804,-153.9634 28.862,-89.0097 67.4732,-218.2306 70.1543,-234.7866 0.3339,-2.0625 0.9531,-3.75 1.3758,-3.75 1.5202,0 7.2865,7.4715 9.5968,12.4346 1.2968,2.786 2.6382,7.0904 2.9808,9.5654 0.6055,4.3746 0.9333,4.727 11.7605,12.6456 30.3057,22.1641 64.9281,59.1131 98.3993,105.0115 15.5977,21.3888 52.1707,77.8296 64.0491,98.8429 0.8425,1.4904 1.0743,-67.1688 0.9099,-269.44 l -0.2206,-271.4401 -14,-9.8318 c -45.632,-32.0461 -83.4888,-65.20696 -122.4813,-107.28808 -30.6735,-33.1031 -47.3119,-53.5461 -57.4965,-70.6435 -48.0805,-80.7155 -56.9396,-97.1427 -93.9807,-174.2655 -26.0523,-54.24336 -31.4694,-64.8572 -38.3581,-75.15588 -6.9615,-10.4075 -20.5031,-23.90535 -28.5245,-28.43238 -6.8591,-3.871 -7.6231,-5.80914 -8.3785,-21.25276 l -0.5747,-11.75 -8.6028,-0.004 c -4.7316,-0.002 -12.8779,-0.73942 -18.1029,-1.63824 -15.1546,-2.60695 -13.4219,-3.32088 -22.1874,9.14226 -49.3766,70.20633 -99.3909,198.2502 -142.1795,364 C 1030.1693,1146.5568 981.46992,1423.2363 919.90518,1875 c -15.8068,115.9906 -50.0043,388.3416 -66.4862,529.5 -2.4724,21.175 -5.3779,45.475 -6.4566,54 -2.4523,19.3806 -15.7295,137.2489 -20.9519,186 -5.6089,52.3594 -6.5646,73.6545 -6.4851,144.5 0.069,61.4975 0.6521,76.7882 4.9767,130.5 2.8676,35.6152 8.8178,78.8504 15.0698,109.5 9.108,44.6501 19.342,76.8103 73.3497,230.5 10.53344,29.975 21.42222,61.7 24.19729,70.5 4.89524,15.5233 5.04538,16.3576 5.0388,28 -0.0162,28.6363 -5.93218,50.3791 -21.15669,77.7562 -15.5724,28.0028 -27.8992,42.4925 -43.544,51.1841 -10.364,5.7578 -15.6219,7.0358 -29,7.0484 -10.8859,0.01 -12.3936,-0.2141 -16.2388,-2.4166 -2.3314,-1.3353 -4.3857,-2.2353 -4.5653,-2 -0.1795,0.2354 -1.7961,3.8029 -3.5924,7.9279 -1.7964,4.125 -5.3545,11.0851 -7.907,15.4668 -4.7561,8.1646 -15.2171,21.8857 -17.7788,23.3193 -1.2345,0.6909 -1.2087,1.5552 0.1874,6.2577 0.8908,3.0009 2.9714,8.1344 4.6234,11.4077 l 3.0037,5.9516 -2.4528,2.0484 c -1.3491,1.1267 -6.6437,5.5779 -11.7659,9.8915 -5.1221,4.3137 -19.0331,15.0773 -30.9132,23.9191 -11.8802,8.8419 -25.6503,19.5432 -30.6003,23.7806 -18.2913,15.6584 -42.8362,43.1813 -64.1716,71.9573 -12.7194,17.1553 -34.3284,48.6074 -34.3284,49.9653 0,0.7052 28.3218,1.0347 88.9274,1.0347 h 88.9274 z M 1641.9569,2719.9497 V 1697.3994 l -22.157,-33.6997 c -41.583,-63.2456 -77.0771,-116.6791 -89.1444,-134.1997 -26.3561,-38.2664 -61.2074,-86 -62.7905,-86 -0.4995,0 -0.9081,1.2163 -0.9081,2.7028 0,4.5129 -6.6652,35.7206 -13.5676,63.5261 -20.6849,83.3264 -75.0158,273.8775 -130.9496,459.2711 -5.1441,17.05 -15.0327,50.125 -21.9748,73.5 -6.9421,23.375 -16.6178,55.325 -21.5015,71 -4.8837,15.675 -12.9105,41.775 -17.8372,58 -20.6646,68.0536 -30.7783,100.9917 -38.6883,126 -4.6101,14.575 -13.3124,42.7 -19.3384,62.5 -62.7303,206.1142 -85.647,279.744 -121.8244,391.4131 l -20.5439,63.4131 2.6186,35.0869 c 5.1872,69.5047 7.1002,114.8996 6.9991,166.0869 -0.1202,60.9031 -4.1871,120.5507 -12.8865,189 -10.4054,81.8727 -38.4814,173.549 -92.02848,300.5 -23.21164,55.0306 -76.43124,165.5247 -103.92894,215.7765 -5.8014,10.602 -10.548,19.7145 -10.548,20.25 0,0.6297 139.66684,0.9735 395.49992,0.9735 h 395.5 z M 35.989878,3541 c 10.7089,-36.2661 41.203102,-128.4305 56.247602,-170 61.0578,-168.7089 138.9801,-348.2031 209.8978,-483.5 20.3563,-38.8357 40.8091,-78.2541 56.8157,-109.5 6.1986,-12.1 15.6577,-30.55 21.0204,-41 5.3626,-10.45 18.7387,-36.775 29.7247,-58.5 l 19.9745,-39.5 0.5918,-24.5 c 0.7864,-32.5606 7.0834,-110.7151 16.1948,-201 1.3599,-13.475 3.6101,-37.325 5.0004,-53 1.3904,-15.675 5.8865,-62.7 9.9912,-104.5 10.5113,-107.0388 14.0098,-143.8582 17.5306,-184.5 1.6915,-19.525 3.7356,-41.8 4.5425,-49.5 0.8069,-7.7 2.6093,-25.925 4.0054,-40.5 1.3961,-14.575 5.9126,-59.575 10.0366,-100 4.1241,-40.425 8.818,-86.775 10.431,-103 12.8292,-129.0458 33.1187,-249.5054 65.8578,-391 37.6275,-162.6219 33.5691,-146.1927 52.2457,-211.5 21.526,-75.2713 33.7633,-116.2184 44.0387,-147.3573 l 6.0576,-18.3573 -2.1364,-11.64266 c -13.7942,-75.17582 -19.894,-191.60732 -15.5934,-297.64272 2.4906,-61.41039 8.3261,-137.60463 13.0962,-171.00002 4.6539,-32.58166 17.4804,-81.30528 31.8532,-121 27.6677,-76.41279 69.2627,-164.10401 119.1549,-251.20464 30.5548,-53.34181 62.1737,-89.093863 115.41217,-130.4984 l 3.4756,-2.70305 -458.24997,-0.047 -458.250002,-0.047 0.068,1775.74999 c 0.039,1010.8339 0.4433,1774.8885 0.9396,1773.75 0.4796,-1.1 4.9911,-15.95 10.0257,-33 z m 740.430102,-7.3359 c 28.0415,-13.1222 50.4546,-63.5577 50.5115,-113.6641 0.046,-40.3877 -16.4539,-75.8895 -42.6725,-91.8165 -16.159,-9.8161 -43.129,-13.6904 -56.9133,-8.1758 -3.542,1.417 -9.4475,2.7741 -13.5784,3.1204 -8.8674,0.7433 -25.9174,-0.9848 -36.5139,-3.7007 -8.4524,-2.1665 -23.7282,-9.0643 -30.7073,-13.8661 -15.4239,-10.6119 -28.344,-28.094 -36.2586,-49.0613 l -3.2085,-8.5 -3.811,0.306 c -13.0054,1.0443 -25.9247,7.8507 -35.4127,18.657 l -3.3932,3.8647 -0.092,20.5861 c -0.074,16.4786 -0.5234,22.9518 -2.2537,32.4419 -3.3909,18.5986 -9.0336,33.6927 -17.6264,47.1508 -4.0619,6.3617 -8.4035,10.4567 -13.7856,13.0026 l -4.2474,2.0091 -0.2988,6.284 c -0.3476,7.3095 2.6319,19.497 6.3028,25.7814 3.4506,5.9074 9.4486,10.9078 15.4913,12.9148 4.3477,1.4441 7.6454,1.6632 18.8861,1.2546 15.3125,-0.5566 25.6793,-3.1843 34.4093,-8.7218 16.3844,-10.3927 38.8558,-16.6667 50.6416,-14.1391 14.2825,3.063 26.2525,13.5955 41.0362,36.1079 9.5644,14.5646 13.4624,22.7703 21.5788,45.4257 6.3083,17.6087 12.2361,31.3973 15.2369,35.443 3.0857,4.1601 12.7022,8.8224 20.7959,10.0823 10.2153,1.5902 18.4162,0.7072 25.883,-2.7869 z m 91.0226,-63.5596 c 13.5953,-6.7191 27.0251,-21.949 39.7733,-45.1045 6.3438,-11.5227 9.9397,-20.9945 12.8656,-33.8887 4.87552,-21.4859 0.3048,-48.2513 -17.6937,-103.6113 -3.6657,-11.275 -11.3751,-33.325 -17.1321,-49 -21.6306,-58.8951 -30.4591,-85.194 -41.8344,-124.6194 -25.8835,-89.7087 -37.5668,-163.7347 -41.5686,-263.3806 -1.4985,-37.3138 -0.584,-141.1696 1.475,-167.5 1.2937,-16.5447 11.9531,-113.3179 17.6236,-160 1.0689,-8.8 3.2944,-28.15 4.9454,-43 3.8131,-34.2959 11.5456,-100.4787 13.4946,-115.5 0.8206,-6.325 2.6499,-22.3 4.065,-35.5 1.4152,-13.2 3.4501,-30.975 4.522,-39.5 1.072,-8.525 3.0506,-25.175 4.397,-37 1.3465,-11.825 3.8058,-32.3 5.4653,-45.5 1.6595,-13.2 7.3397,-59.775 12.6227,-103.5 5.283,-43.725 12.0273,-99.2272 14.9874,-123.3383 5.3762,-43.7902 5.38,-43.8424 3.512,-47.5 -1.0286,-2.0139 -2.1767,-5.7992 -2.5515,-8.4117 -0.3747,-2.6125 -1.0802,-4.75 -1.5678,-4.75 -0.4875,0 -0.8864,0.45 -0.8864,1 0,0.55 -1.5269,1 -3.393,1 -3.6959,0 -4.607,-1.2159 -4.607,-6.1475 0,-3.6158 -1.5967,-6.8525 -3.3802,-6.8525 -2.1539,0 -4.4029,-3.2433 -5.1906,-7.4852 -0.6811,-3.6677 -0.8196,-3.8071 -1.7375,-1.75 -0.6788,1.5213 -1.8661,2.2352 -3.7173,2.2352 -2.5348,0 -2.7528,0.3418 -3.2025,5.022 -0.2654,2.7621 -0.7405,5.2799 -1.0557,5.5951 -0.3153,0.3153 -1.8954,0.2828 -3.5114,-0.072 -2.6212,-0.5757 -3.0028,-1.1523 -3.5376,-5.3452 -1.0875,-8.5258 -2.4903,-11.9386 -5.1856,-12.615 -2.2773,-0.5716 -2.4835,-1.0947 -2.5046,-6.3539 l -0.023,-5.7309 -2.1188,3.6541 c -1.9989,3.4474 -5.3609,5.8459 -8.1943,5.8459 -0.6956,0 -2.2495,1.3318 -3.4529,2.9595 -2.098,2.8376 -2.1881,3.8845 -2.1881,25.4182 0,12.3523 -0.2731,23.1705 -0.607,24.0405 -0.3338,0.87 -1.4384,1.5818 -2.4546,1.5818 -2.8226,0 -3.1129,-3.7114 -2.7596,-35.2873 0.306,-27.3521 0.2338,-28.7142 -1.5224,-28.7135 -1.0394,5e-4 -2.0861,-0.9266 -2.3996,-2.1252 -0.4776,-1.8265 -0.8517,-1.5096 -2.6563,2.25 -1.8643,3.884 -2.5221,4.4109 -5.8505,4.6864 l -3.75,0.3103 v -10.1828 c 0,-11.8753 0.345,-11.8802 -9.1139,0.1284 -3.437,4.3635 -6.6088,7.9337 -7.0485,7.9337 -0.4397,0 -1.0951,-1.2375 -1.4564,-2.75 -0.3613,-1.5125 -1.0219,-3.2184 -1.4679,-3.7908 -0.446,-0.5725 -0.7979,-3.778 -0.7819,-7.1235 0.016,-3.3454 -0.2943,-8.2395 -0.6896,-10.8757 l -0.7188,-4.7931 -1.7617,5.6939 c -0.969,3.1316 -2.3691,6.4145 -3.1115,7.2952 -0.7424,0.8808 -1.8208,3.4538 -2.3964,5.718 -1.7719,6.9686 -5.3297,5.4249 -5.4715,-2.374 -0.045,-2.4504 -0.076,-2.4603 -1.5785,-0.5 -1.5216,1.985 -1.5476,1.9823 -3.4682,-0.3608 -1.0643,-1.2984 -1.9352,-3.1249 -1.9352,-4.0589 0,-0.9339 -0.6109,-2.5336 -1.3576,-3.5547 -1.2491,-1.7082 -1.4153,-1.5495 -2.0782,1.984 -0.3963,2.1123 -1.4209,5.5912 -2.277,7.7307 -1.534,3.8338 -1.6159,3.8803 -5.6718,3.2218 -2.2635,-0.3674 -5.2846,-1.7655 -6.7136,-3.1068 l -2.5982,-2.4387 -1.6111,4.2917 c -0.8861,2.3604 -3.4692,14.1917 -5.7401,26.2917 -2.2709,12.1 -8.8387,44.95 -14.5952,73 -5.7564,28.05 -13.8323,67.425 -17.9464,87.5 -4.1141,20.075 -10.3695,50 -13.9009,66.5 -3.5313,16.5 -9.339,43.95 -12.906,61 -16.4215,78.495 -44.9955,209.602 -68.9793,316.5 -68.2586,304.235 -70.3002,312.8193 -92.6342,389.5 -20.7812,71.3494 -49.617,150.3385 -66.5888,182.4049 -14.0553,26.556 -32.3339,47.8113 -52.9483,61.5713 -28.5633,19.0658 -41.7623,43.3686 -45.5255,83.8242 -2.0398,21.9289 1.4444,41.7975 10.5566,60.1996 2.4511,4.95 6.0279,10.8 7.9485,13 l 3.492,4 0.047,-3 c 0.1102,-6.9831 8.4168,-19.6843 21.5985,-33.0251 20.4512,-20.698 59.8639,-52.4749 65.0844,-52.4749 1.6812,0 1.6756,-0.1373 -0.1489,-3.6357 -1.9655,-3.7686 -1.9735,-16.7882 -0.014,-22.3425 3.1621,-8.9624 10.6521,-18.3817 29.0413,-36.5218 26.5205,-26.1612 34.3745,-35.8342 42.054,-51.7939 4.0064,-8.3262 12.6524,-34.3547 14.4546,-43.5153 2.1522,-10.9393 2.1848,-5.856 0.042,6.4646 -2.6282,15.1079 -6.2708,28.6111 -10.5484,39.1033 -6.0682,14.8842 -20.331,34.0605 -38.1768,51.3289 -5.9183,5.7268 -13.0478,12.6648 -15.8432,15.4178 -10.9016,10.736 -15.9998,21.4647 -15.3173,32.2338 0.5969,9.418 2.5039,11.3964 12.3809,12.8445 8.6625,1.2701 9.2022,1.409 40.3726,10.3915 22.8439,6.5831 25.345,7.5667 31.4544,12.3694 4.6611,3.6641 11.3034,13.5888 12.1636,18.1744 l 0.6153,3.2798 6.6576,-6.7497 c 7.8328,-7.941 13.7612,-10.6045 27.4901,-12.3507 l 8.8325,-1.1234 -0.6118,-3.0375 c -1.5995,-7.9424 -2.5546,-22.9609 -2.0055,-31.5375 1.9477,-30.4232 6.7917,-53.457 22.0257,-104.735 29.2311,-98.3927 40.6168,-152.4393 44.0321,-209.015 0.5964,-9.8798 0.8966,-11.25 2.4649,-11.25 2.6046,0 3.4438,7.7537 3.3554,31 -0.056,14.5844 -0.6383,23.4073 -2.3121,35 -4.6003,31.8616 -13.164,73.264 -27.6131,133.5 -20.0599,83.6263 -26.8535,118.4764 -26.8039,137.5 0.07,27.0479 15.8655,61.3247 36.0831,78.304 11.941,10.0284 26.0468,14.7048 44.2841,14.6812 22.725,-0.029 36.1464,-6.1367 41.8461,-19.0418 1.1069,-2.5061 3.133,-9.0311 4.5026,-14.5 8.2185,-32.8175 7.4204,-57.5847 -3.3201,-103.0335 -5.8726,-24.85 -7.4288,-36.9466 -7.5141,-58.4099 -0.041,-10.175 0.2969,-21.9416 0.7497,-26.1479 0.7561,-7.0225 1.0229,-7.686 3.2627,-8.1142 2.9203,-0.5583 2.4098,-2.4766 6.4569,24.2621 4.0536,26.7821 9.1882,53.9234 13.5133,71.4311 10.6746,43.2108 11.2486,82.5931 1.6115,110.5734 -2.379,6.9072 -7.6971,17.5043 -10.8773,21.6745 l -2.4243,3.1791 4.3145,0.5248 c 2.373,0.2887 8.1396,0.753 12.8146,1.0318 11.0664,0.6599 18.5834,2.6668 28.8894,7.7128 14.9998,7.3441 24.7623,19.0798 36.5108,43.8901 14.9779,31.6304 18.149,62.7596 10.046,98.6198 -3.2621,14.4371 -2.2888,15.549 13.189,15.0655 8.2706,-0.2583 9.8655,-0.6462 16.8504,-4.0984 z m -332.4856,-268.1196 c 0,-0.2834 2.7409,-3.9644 6.091,-8.1801 27.6937,-34.8496 49.5578,-84.5985 73.3088,-166.8048 1.9069,-6.6 3.497,-11.4494 3.5336,-10.7764 0.037,0.6729 -1.6947,8.7865 -3.8474,18.0301 -16.2627,69.8318 -39.3735,122.2691 -71.3972,161.9963 -2.7709,3.4375 -5.6345,6.25 -6.3634,6.25 -0.729,0 -1.3254,-0.2318 -1.3254,-0.5151 z m -13.1219,170.9587 c 10.699,-3.1773 15.7118,-10.4792 23.9892,-34.9436 5.3081,-15.6885 7.2478,-26.7259 7.8717,-44.7922 0.5679,-16.444 -0.4731,-22.8869 -5.9202,-36.6412 -3.8774,-9.7905 -5.8294,-12.3537 -12.1714,-15.9823 -8.0008,-4.5775 -57.3936,-16.061 -69.1474,-16.0762 -11.3514,-0.015 -23.9053,8.9333 -54.9098,39.1383 -25.2494,24.5982 -26.5645,26.5239 -26.5805,38.9221 -0.011,8.5033 1.7958,15.5985 6.2212,24.4315 1.6534,3.3 3.128,6.1377 3.277,6.306 0.1489,0.1684 2.9731,-0.3941 6.2758,-1.25 15.0656,-3.9038 33.0533,-0.4416 58.2163,11.2055 11.9283,5.5212 36.8348,21.0951 45,28.1382 4.1332,3.5652 9.5083,4.0294 17.8781,1.5439 z M 899.87268,1864 c 6.3397,-50.8437 16.7275,-129.9635 22.0572,-168 16.81559,-120.0091 25.24342,-173.6404 46.43594,-295.5 24.565,-141.2515 63.80658,-330.7225 91.23258,-440.49996 16.1206,-64.52572 37.6994,-139.06822 54.761,-189.16832 26.0488,-76.4899 72.277,-179.95525 95.2047,-213.08172 2.3792,-3.4375 4.0519,-6.25 3.7171,-6.25 -0.3348,0 -3.6033,0.89183 -7.2634,1.98185 -6.5001,1.93584 -7.0337,2.36534 -22.9828,18.50008 -13.9016,14.06344 -16.2362,16.05841 -15.7093,13.42408 1.6722,-8.36101 17.0321,-33.43397 24.8678,-40.59345 6.0371,-5.51607 13.7025,-9.30578 20.0914,-9.93306 10.2393,-1.00531 9.9668,-0.81154 9.4753,-6.73779 -0.6068,-7.3168 -5.2913,-16.72412 -13.1135,-26.3343 -8.5271,-10.47605 -14.0647,-19.0842 -16.8299,-26.16159 -1.8512,-4.73839 -2.2182,-7.73526 -2.2828,-18.64582 -0.042,-7.15 0.2659,-14.575 0.6851,-16.5 0.6039,-2.77289 -0.288,-1.75864 -4.2933,4.8822 -6.1205,10.14813 -12.4865,18.60318 -20.0411,26.6178 -8.5712,9.09328 -16.4176,19.74695 -24.0911,32.71046 -10.6747,18.03389 -25.2464,48.7968 -30.471,64.32866 -4.0116,11.92586 -4.7085,15.16344 -4.7809,22.21081 -0.047,4.53747 -0.4428,8.24997 -0.8803,8.25 -0.4375,4e-5 -1.9,-1.10448 -3.25,-2.45448 -2.3035,-2.30351 -2.4543,-3.11881 -2.4505,-13.25 0.013,-33.657 10.1696,-58.6038 42.7813,-105.0757 13.5713,-19.3392 23.4313,-34.70152 27.637,-43.05962 5.0648,-10.0653 10.1993,-25.96809 11.6502,-36.08333 1.7266,-12.03671 0.6801,-50.61048 -1.5756,-58.0768 -3.6462,-12.06929 -13.2552,-26.23913 -29.0786,-42.88072 -8.738,-9.1899 -9.3676,-10.12249 -8.4544,-12.52427 0.5426,-1.42725 1.517,-2.59501 2.1652,-2.59501 0.6483,0 4.1469,1.64732 7.7748,3.66071 21.4411,11.89939 35.1331,23.73329 40.078,34.6391 6.1254,13.50928 9.6535,30.94516 10.6763,52.76299 0.7624,16.26191 -0.6538,29.19887 -4.7516,43.40418 -2.6368,9.14054 -2.8948,11.4179 -2.9004,25.60152 -0.01,21.47139 2.4881,28.88077 17.4013,51.64168 8.4638,12.91769 14.1156,24.96087 15.6662,33.38202 l 1.2139,6.5922 10.6062,1.72936 c 13.8094,2.25164 33.2216,3.03158 44.9193,1.80476 12.8724,-1.35002 21.6373,-5.72572 32.6533,-16.30158 9.5433,-9.16188 16.8813,-19.05335 27.0077,-36.40557 13.2361,-22.68107 20.3664,-41.6136 22.4303,-59.55759 3.4527,-30.01842 3.3056,-55.69115 -0.4867,-84.95378 -4.3496,-33.56236 -14.1917,-67.028 -27.129,-92.24584 -11.6393,-22.68758 -30.1125,-44.89842 -48.0329,-57.75144 -14.5282,-10.42002 -34.2177,-18.94447 -53.632,-23.21966 -13.1331,-2.892 -53.6799,-3.66746 -72.4034,-1.38472 -20.3447,2.48039 -38.58,7.94218 -51.2116,15.33881 l -4.4912,2.62988 7.9912,1.33457 c 21.3503,3.56559 39.0715,12.98776 56.045,29.7984 13.119,12.99316 20.2626,24.18399 24.273,38.02522 1.99,6.868 3.5579,15.47478 2.819,15.47478 -0.2078,0 -1.3968,-2.8125 -2.6423,-6.25 -8.4407,-23.2967 -19.1144,-36.23422 -42.81,-51.88938 -14.1119,-9.32349 -26.5505,-13.02724 -51.3487,-15.2897 l -6.6551,-0.60718 -4.0949,6.13208 c -2.2521,3.37265 -4.0948,6.80219 -4.0948,7.6212 0,0.81902 2.0878,3.80524 4.6396,6.63605 2.5517,2.83081 6.8296,8.25906 9.5063,12.06278 4.4049,6.2595 4.7386,7.11366 3.516,9 -0.7429,1.14628 -1.894,3.11067 -2.5582,4.36531 l -1.2074,2.28117 -3.1982,-2.2647 c -1.7589,-1.24558 -6.8439,-5.75758 -11.2999,-10.02666 -11.9262,-11.42608 -22.7757,-15.72125 -48.6921,-19.27659 -13.8436,-1.89912 -19.1497,-1.20038 -27.6143,3.63644 -16.98148,9.70354 -30.16438,32.52109 -45.27798,78.36918 -17.18165,52.12183 -40.74715,130.65003 -45.76364,152.5 -2.0817,9.06716 -2.1106,9.83815 -0.6336,16.92171 2.39036,11.46414 6.09536,16.65699 21.0992,29.57216 13.74344,11.83023 19.33614,18.3077 24.30404,28.14909 5.2934,10.48627 6.1802,15.98195 6.1802,38.30104 0,23.44057 -0.6468,26.056 -6.4439,26.056 -6.2662,0 -6.3968,-0.25094 -4.3095,-8.28554 2.6344,-10.14062 2.052,-26.75656 -1.2337,-35.19429 -2.9054,-7.46123 -3.194,-6.88795 -6.03029,11.97983 -1.15751,7.7 -4.30521,28.625 -6.99488,46.5 -2.68967,17.875 -6.71179,44.65 -8.93806,59.5 -2.22626,14.85002 -6.51696,43.20002 -9.5349,63.00002 -3.01793,19.8 -7.27661,48.15 -9.46371,63 -4.1287,28.0326 -7.7716,52.3882 -28.0448,187.50002 -15.2818,101.84586 -23.0533,154.19606 -28.0577,188.99996 -10.0306,69.7598 -57.5781,361.9629 -67.4478,414.5 -1.3432,7.15 -4.6733,25.6 -7.4002,41 -6.6156,37.3617 -17.41,95.7214 -27.0971,146.5 -14.9587,78.4119 -13.7467,71 -11.6104,71 2.1599,0 2.607,2.3393 2.607,13.6408 0,9.8862 1.0481,12.8687 2.3082,6.5681 0.3116,-1.5579 1.4188,-3.8852 2.4604,-5.1715 2.2898,-2.8278 5.5239,-2.345 10.1034,1.5083 l 3.0261,2.5464 1.0686,-3.9685 c 0.5877,-2.1826 1.7462,-9.4419 2.5744,-16.1318 2.9129,-23.5283 8.2379,-45.5601 10.8072,-44.7134 3.181,1.0483 3.6222,5.24 3.7072,35.2216 0.047,16.5 0.4248,30.8672 0.84,31.9272 0.6389,1.631 1.2341,1.0896 3.8727,-3.5222 3.9234,-6.8573 7.5267,-10.3227 10.0479,-9.6633 1.7198,0.4497 1.9762,-0.2569 2.548,-7.0217 0.3497,-4.137 0.6359,-9.6557 0.6359,-12.2639 0,-4.74 0.9355,-5.9561 4.5818,-5.9561 1.7713,0 1.9422,12.6334 0.3562,26.3296 -0.584,5.0437 -0.92,13.2204 -0.7467,18.1704 l 0.3152,9 1.8463,-4 c 2.6699,-5.7842 4.5338,-7.5 8.1472,-7.5 4.3286,0 6.8395,3.0349 7.48,9.0412 l 0.52,4.8753 5.9361,-12.7083 c 3.2649,-6.9895 6.5971,-13.4957 7.405,-14.4582 1.9731,-2.3508 5.2903,-2.2079 8.0316,0.346 3.2506,3.0285 4.2088,6.339 3.5372,12.2213 -0.5669,4.9647 -0.4407,5.3277 2.9991,8.6289 3.3673,3.2315 3.591,3.8337 3.591,9.6682 0,8.4286 0.5798,9.8057 3.0773,7.3083 1.0575,-1.0575 3.0211,-1.9227 4.3636,-1.9227 1.3426,0 2.7191,-0.45 3.0591,-1 0.3399,-0.55 1.5027,-1 2.584,-1 1.3844,0 2.1435,0.8874 2.566,3 0.5215,2.6077 1.0325,3 3.9076,3 4.3375,0 4.9154,1.9613 3.3401,11.336 -1.3724,8.1679 -0.9055,10.664 1.9948,10.664 1.0755,0 3.0021,1.299 4.2814,2.8866 1.2793,1.5876 2.5918,2.6001 2.9167,2.25 0.3248,-0.3501 3.3961,-23.1366 6.8251,-50.6366 z M 1064.2911,610.25 c 0.303,-1.2375 4.1526,-19.35 8.5547,-40.25 13.1834,-62.59207 17.392,-89.65819 17.4151,-112 0.014,-13.58075 -0.1069,-14.3893 -4.0409,-27 -8.7391,-28.01406 -12.6212,-50.34416 -12.6042,-72.5 0.011,-14.79165 0.2923,-17.52515 2.713,-26.40136 3.3057,-12.12148 9.8409,-28.36811 14.1306,-35.1291 5.8834,-9.27275 14.9632,-15.48186 22.6135,-15.46396 1.3112,0.003 4.1047,0.48339 6.2078,1.06739 l 3.8239,1.06182 -3.5736,4.1826 c -10.5583,12.35788 -20.8724,31.55702 -28.5705,53.18261 -3.08,8.65254 -3.1835,9.44398 -2.6807,20.5 0.6972,15.33386 7.7869,49.29795 17.7429,85 1.7018,6.10242 1.9934,9.27027 1.5652,17 -0.6935,12.51849 -4.5666,31.9936 -10.2634,51.60836 -14.764,50.83346 -22.3676,81.47313 -22.3676,90.13251 0,2.4365 -0.7175,3.53942 -3.368,5.17757 -1.8525,1.14486 -4.3762,2.08156 -5.6084,2.08156 -1.82,0 -2.137,-0.42224 -1.6894,-2.25 z m 577.2528,-295.4963 c -0.2286,-0.22865 -4.7956,3.21169 -10.1489,7.64518 -5.3532,4.4335 -16.9793,13.121 -25.8356,19.30556 -34.2706,23.93179 -53.4263,39.58894 -72.2816,59.0804 -33.8694,35.01208 -53.3498,69.01993 -60.8089,106.1568 -11.4966,57.23826 1.8815,127.74788 38.6001,203.44208 5.4383,11.211 9.8879,20.5531 9.8879,20.7602 0,0.2071 -2.5491,-1.3156 -5.6647,-3.3837 l -5.6647,-3.7602 -13.1085,-26.5 c -16.2501,-32.85103 -31.7298,-67.27276 -35.6556,-79.286 -3.9524,-12.09506 -7.6481,-30.71357 -9.4311,-47.51403 -1.7086,-16.09921 -1.9558,-57.30711 -0.4327,-72.14889 3.7353,-36.39973 22.739,-70.94453 58.9098,-107.08606 20.0761,-20.05994 32.8781,-30.33364 74.0475,-59.42364 17.747,-12.5399 34.7702,-26.38446 47.2435,-38.42211 l 10.7565,-10.38072 V 212.38834 141.5381 l -2.5864,-0.64915 c -7.1797,-1.80198 -26.2917,1.73938 -46.6222,8.63888 -38.8707,13.19145 -63.0266,27.78578 -88.2914,53.34326 -41.1573,41.63405 -59.6701,74.7345 -59.9164,107.12891 -0.077,10.20327 0.1102,11.32958 2.5915,15.55033 1.875,3.18933 4.2678,5.43256 8,7.5 4.9911,2.76474 6.0145,2.94967 16.3249,2.94967 9.8648,0 11.5954,-0.27899 16.7694,-2.70355 15.4473,-7.23865 33.1454,-23.1839 56.3805,-50.79645 16.9665,-20.16298 32.0831,-34.71105 40.3705,-38.85231 3.4645,-1.73123 7.0147,-3.15224 7.8893,-3.15781 4.019,-0.0256 14.3556,4.57392 16.2463,7.22916 1.5113,2.12245 1.6703,2.88776 0.665,3.20146 -19.7622,6.16714 -41.3934,24.04272 -68.4667,56.5795 -19.5124,23.45017 -33.8261,36.06393 -49.1767,43.3364 -6.3293,2.9986 -7.2774,3.16033 -18.1776,3.10099 -9.3862,-0.0511 -12.5278,-0.467 -17.0918,-2.26264 -7.2517,-2.85314 -14.2321,-7.86143 -17.8905,-12.83601 -3.8763,-5.27104 -7.8063,-17.62586 -9.2549,-29.09552 -1.0265,-8.12739 -0.9468,-10.45289 0.625,-18.22859 6.8469,-33.87276 22.5313,-66.48004 43.8374,-91.13609 l 7.0222,-8.12623 -3.8737,0.60189 c -16.0134,2.48813 -35.4183,1.41243 -46.1352,-2.55749 -6.6963,-2.48053 -14.0465,-9.56344 -17.4305,-16.79671 -3.3983,-7.26392 -6.808,-22.22571 -6.808,-29.87379 0,-5.49293 -0.2102,-6.12621 -2.0332,-6.12621 -1.1183,0 -4.1558,1.07214 -6.75,2.38254 -8.049,4.06571 -19.191,6.01317 -34.7168,6.06801 -9.7301,0.0344 -15.3455,-0.39688 -18.4117,-1.41396 l -4.4116,-1.46342 -3.5884,4.33853 c -14.2133,17.18487 -21.3317,22.06446 -35.3722,24.24728 l -7.5188,1.16893 6.1513,3.97306 c 42.0634,27.16804 74.4976,74.99159 86.0308,126.85075 4.9663,22.33121 6.0846,33.49279 6.0465,60.34828 -0.038,26.58892 -1.1101,37.40625 -6.0184,60.71577 -6.0864,28.90364 -20.8554,65.27632 -35.9209,88.46475 -13.6738,21.04631 -35.8547,36.83421 -58.2038,41.42812 -3.5578,0.73132 -6.4559,1.89999 -6.7752,2.73218 -0.3069,0.79982 -0.8301,4.67229 -1.1626,8.60549 -0.831,9.83172 0.697,12.66907 8.3908,15.58088 7.2362,2.73864 20.4064,3.73571 25.8526,1.95722 9.0276,-2.94801 19.8745,-12.09931 32.0825,-27.06746 18.0267,-22.10236 38.2388,-59.75823 46.3757,-86.39939 5.5707,-18.23915 12.1885,-49.90317 13.5248,-64.71155 0.4572,-5.06593 1.1613,-7.87319 2.0615,-8.21862 1.8138,-0.69604 1.7844,3.60175 -0.1306,19.06995 -6.5426,52.84731 -23.3365,95.76663 -54.8919,140.2847 -10.1859,14.3701 -22.3092,26.91685 -29.4942,30.52421 -4.8717,2.44595 -6.5224,2.71879 -17.3541,2.8684 L 1298.7488,590 l 3.854,2.97377 c 20.4807,15.80273 36.8755,42.17265 83.6383,134.52625 11.0003,21.725 23.9759,46.7858 28.8347,55.6907 23.9474,43.8891 56.1409,92.2719 82.4319,123.8847 34.8584,41.91432 85.1397,87.37552 132.1303,119.46408 l 11.8189,8.0708 0.2514,-359.72038 c 0.1382,-197.84629 0.064,-359.90757 -0.1644,-360.13622 z m -155.587,-133.76882 c 7.4903,-1.52105 9.0345,-2.22455 13,-5.92249 26.6641,-24.86524 56.8925,-42.67627 85.5982,-50.43582 15.9647,-4.31548 25.0927,-5.52338 42.1518,-5.57786 l 15.25,-0.0487 V 71.750007 24.50001 h -151.0222 -151.0222 l -7.8797,3.96185 c -15.4787,7.78253 -38.8154,22.774247 -53.0759,34.096387 -9.5635,7.59301 -21.7914,19.94308 -27.1702,27.44176 -11.6849,16.290013 -15.5926,33.930693 -10.7153,48.373103 1.7418,5.15758 2.9739,6.94071 6.989,10.11447 7.3163,5.78324 14.5477,9.61722 23.7187,12.57531 7.237,2.33431 9.507,2.61475 18.4768,2.28272 8.641,-0.31987 11.092,-0.8022 15.8124,-3.11167 6.2601,-3.06278 12.3718,-9.32218 20.2446,-20.73393 3.1257,-4.53064 5.9778,-7.61588 7.2041,-7.79268 1.1164,-0.16098 5.3846,1.18902 9.4849,3 7.0832,3.12846 8.0535,3.29234 19.455,3.28592 18.0891,-0.0102 30.5408,-4.19029 47.708,-16.01585 4.4299,-3.05157 8.3329,-5.26971 8.6732,-4.9292 0.3403,0.34052 0.6188,8.8161 0.6188,18.83463 v 18.21551 l 3.8159,7.72358 c 5.1584,10.44096 12.3592,17.74869 19.6841,19.97647 7.0834,2.15431 30.5736,1.7099 43,-0.8135 z"
     style="fill:#000000" />
</svg>
