<?xml version="1.0" encoding="UTF-8" standalone="no"?>
<svg
   xmlns:dc="http://purl.org/dc/elements/1.1/"
   xmlns:cc="http://creativecommons.org/ns#"
   xmlns:rdf="http://www.w3.org/1999/02/22-rdf-syntax-ns#"
   xmlns:svg="http://www.w3.org/2000/svg"
   xmlns="http://www.w3.org/2000/svg"
   viewBox="0 0 1666.9963 3766.8567"
   height="3766.8567"
   width="1666.9963"
   id="svg289"
   version="1.1">
  <metadata
     id="metadata295">
    <rdf:RDF>
      <cc:Work
         rdf:about="">
        <dc:format>image/svg+xml</dc:format>
        <dc:type
           rdf:resource="http://purl.org/dc/dcmitype/StillImage" />
        <dc:title></dc:title>
      </cc:Work>
    </rdf:RDF>
  </metadata>
  <defs
     id="defs293" />
  <path
     id="path392"
     d="m 5.2131464,3765.2961 c -1.2255,-0.8584 -2.9007,-2.861 -3.7225,-4.4503 C 0.16644639,3758.2851 -0.00325361,3544.5658 4.6392243e-5,1883.6565 4.6392243e-5,29.53079 0.02504639,9.32249 1.9465464,6.1706 c 1.0685,-1.7524 2.9793,-3.7774 4.2463,-4.5 1.8962,-1.08150002 147.3926136,-1.36567002 822.8034836,-1.60701002 451.27497,-0.16126 822.95087,-0.005 825.94647,0.34651 4.3595,0.51203 6.1058,1.29898002 8.75,3.94319002 l 3.3035,3.30349 V 1882.8065 c 0,1661.6585 -0.1701,1875.4786 -1.4943,1878.0393 -0.8218,1.5893 -2.497,3.5919 -3.7225,4.4503 -2.0148,1.4112 -81.3507,1.5607 -828.28317,1.5607 -746.932584,0 -826.2683836,-0.1495 -828.2831836,-1.5607 z M 195.20008,3741.1068 c 4.19866,-4.854 67.41042,-112.1206 91.48822,-155.25 30.47793,-54.5937 55.70091,-104.1632 62.8248,-123.4665 5.41577,-14.6749 7.73252,-33.4595 7.71244,-62.5335 -0.009,-12.375 -0.43816,-25.3054 -0.9547,-28.7341 -0.90325,-5.9959 -0.81489,-6.4547 2.3116,-12.0025 4.37995,-7.7721 10.94052,-14.2082 18.58278,-18.2303 3.48211,-1.8326 6.48011,-3.4512 6.66223,-3.597 0.18212,-0.1458 -2.01332,-4.6139 -4.87875,-9.9293 -2.86542,-5.3153 -5.76247,-11.5358 -6.43787,-13.8233 -1.08201,-3.6645 -1.68953,-4.2681 -5.10998,-5.077 -11.36208,-2.6871 -25.39652,-28.2911 -29.98592,-54.7053 -3.20545,-18.449 -0.77454,-51.3851 5.62847,-76.2596 4.20252,-16.326 5.06771,-17.3072 42.45293,-48.1459 6.6,-5.4442 14.9254,-12.8455 18.50089,-16.4472 11.7351,-11.8211 30.66594,-42.2565 46.68018,-75.0485 18.87566,-38.6513 33.939,-80.6333 52.20605,-145.5 14.54989,-51.667 17.64434,-63.8159 26.48988,-104 7.35008,-33.3905 10.1021,-48.9453 21.05384,-119 9.14644,-58.5067 25.36973,-160.7035 29.12984,-183.5 14.54917,-88.2078 41.78421,-289.16 54.48303,-402 1.64025,-14.575 3.86299,-33.475 4.93942,-42 2.88036,-22.8115 20.01687,-182.276 20.01687,-186.2678 0,-1.3103 1.2298,-1.4588 8.15134,-0.9844 7.1248,0.4884 8.31919,0.3292 9.4841,-1.2639 1.24975,-1.7091 1.44819,-1.7182 3.18634,-0.1452 1.74113,1.5757 1.96385,1.5557 3.67089,-0.3306 2.55601,-2.8244 4.45962,-2.4966 5.13578,0.8841 l 0.57844,2.8923 10.43096,-6.4861 c 10.08346,-6.2699 13.36215,-7.1918 13.36215,-3.7572 0,1.3534 0.41163,1.2802 2.63486,-0.4686 2.96593,-2.333 6.45563,-2.6575 9.32277,-0.867 1.57466,0.9834 2.2751,0.8938 3.80008,-0.4863 1.44218,-1.3052 2.14082,-1.4208 3.05594,-0.5056 0.65249,0.6524 1.18635,1.7713 1.18635,2.4863 0,1.737 0.96854,1.6384 3.13096,-0.3185 1.17916,-1.0671 2.65389,-1.4013 4.32875,-0.981 2.11177,0.5301 2.54029,1.2248 2.54029,4.1186 0,4.5614 1.39435,4.4006 4.5,-0.5191 2.63499,-4.1741 4.88892,-4.9326 8.66009,-2.9143 1.64697,0.8814 2.4716,0.6695 4.38338,-1.1265 2.69629,-2.5331 5.45653,-2.0224 5.45653,1.0094 0,1.1173 0.41859,2.0314 0.93019,2.0314 0.55808,0 0.58601,1.2001 0.0698,3 -0.74192,2.5869 -0.59726,3 1.05068,3 1.67384,0 1.83855,0.529 1.32693,4.2617 -0.46257,3.3748 -0.16258,4.7795 1.44145,6.75 l 2.02558,2.4883 1.02181,-2.6682 c 1.72132,-4.4947 8.26394,-12.3546 10.03705,-12.0579 0.94412,0.158 2.39307,-1.0059 3.42329,-2.75 2.25751,-3.8216 5.67321,-4.1251 5.67321,-0.504 0,1.3859 -1.09347,5.2109 -2.42994,8.5 -1.33647,3.289 -2.12397,5.9757 -1.75,5.9704 0.37397,-0.01 2.69684,-1.6128 5.16194,-3.5722 2.97856,-2.3675 5.22653,-3.4202 6.70153,-3.1383 1.64774,0.315 3.01698,-0.568 5.31512,-3.4277 1.70258,-2.1187 3.73783,-3.8521 4.52279,-3.8521 2.08387,0 4.47856,5.2889 4.47856,9.8913 0,2.1949 0.45,4.2688 1,4.6087 0.55,0.3399 1,-0.3415 1,-1.5143 0,-3.2236 3.21277,-2.1039 5,1.7427 1.0149,2.1843 2.20932,3.2353 3.6933,3.25 1.20631,0.012 2.84683,0.9546 3.64559,2.095 1.62925,2.3261 2.11382,1.8811 3.13519,-2.8791 1.00379,-4.6782 3.22891,-3.8118 7.21052,2.8076 4.00615,6.6602 3.99726,6.2896 0.86687,36.1455 -6.08957,58.0787 -16.52534,190.6707 -22.02605,279.8526 -9.04354,146.6209 -13.06428,304.7145 -10.60543,417 0.62027,28.325 1.55209,72.875 2.07071,99 1.09421,55.1195 2.33538,81.414 5.02707,106.5 1.93118,17.9981 4.98285,52.0709 6.94116,77.5 3.46859,45.0405 4.40761,55.4553 6.62687,73.5 3.34816,27.2235 6.89386,49.7275 11.02915,70 9.10795,44.6501 19.34195,76.8103 73.34968,230.5 10.53344,29.975 21.42222,61.7 24.19729,70.5 4.89524,15.5233 5.04538,16.3576 5.0388,28 -0.0162,28.6363 -5.93218,50.3791 -21.15666,77.7562 -15.57244,28.0028 -27.89927,42.4925 -43.54406,51.1841 -10.36397,5.7578 -15.6219,7.0358 -29,7.0484 -10.88583,0.01 -12.39356,-0.2141 -16.23881,-2.4166 -2.33135,-1.3353 -4.38569,-2.2353 -4.56521,-2 -0.17951,0.2354 -1.79612,3.8029 -3.59246,7.9279 -1.79634,4.125 -5.35448,11.0851 -7.90696,15.4668 -4.75608,8.1646 -15.21716,21.8857 -17.7788,23.3193 -1.23456,0.6909 -1.20868,1.5552 0.18736,6.2577 0.89086,3.0009 2.97141,8.1344 4.62345,11.4077 l 3.00369,5.9516 -2.45287,2.0484 c -1.34907,1.1267 -6.6437,5.5779 -11.76582,9.8915 -5.12213,4.3137 -19.0331,15.0773 -30.91327,23.9191 -11.88016,8.8419 -25.6503,19.5432 -30.6003,23.7806 -18.29129,15.6584 -42.83619,43.1813 -64.17152,71.9573 -12.71941,17.1553 -34.32847,48.6074 -34.32847,49.9653 0,0.7052 28.32187,1.0347 88.92742,1.0347 h 88.92742 l 2.08356,-2.6488 c 3.01945,-3.8386 45.91576,-90.4113 59.63336,-120.3512 32.86941,-71.7404 51.82934,-115.0606 67.61985,-154.5 51.12909,-127.7032 79.28766,-231.9879 89.51056,-331.5 1.595,-15.5256 1.7978,-28.2181 1.7978,-112.5 0,-110.717 -0.6497,-126.2659 -7.2075,-172.5 -1.7607,-12.4138 -2.6517,-23.1591 -2.7082,-32.6619 -0.078,-13.171 0.066,-14.3254 2.0693,-16.5 1.3361,-1.4506 3.927,-8.411 6.8259,-18.3381 4.69,-16.0602 11.5039,-38.6143 33.5345,-111 6.5284,-21.45 17.3321,-57 24.0083,-79 6.6762,-22 14.1891,-46.525 16.6952,-54.5 2.5062,-7.975 10.2819,-33.4 17.2793,-56.5 18.1466,-59.9053 35.5159,-116.7619 47.5042,-155.5 5.702,-18.425 13.7985,-44.975 17.9923,-59 10.5664,-35.3368 19.2301,-63.8371 29.0308,-95.5 13.8633,-44.788 28.242,-92.4417 36.5096,-121 20.8481,-72.0141 38.5012,-134.3077 54.835,-193.5 38.5007,-139.5226 60.5268,-215.4052 72.131,-248.5 3.28,-9.3545 30.807,-96.665 40.986,-130 11.5563,-37.8458 24.9153,-84.2988 29.5563,-102.7764 1.965,-7.823 3.7851,-14.8576 4.0449,-15.6324 0.354,-1.0561 1.186,-0.7249 3.3233,1.3228 3.9218,3.7573 8.2047,11.9338 9.7202,18.5569 0.9081,3.9683 2.0305,6.0937 3.9763,7.5291 24.4414,18.031 56.006,47.99 76.3857,72.5 26.6415,32.041 60.0601,80.4933 88.4566,128.25 3.1886,5.3625 5.967,9.75 6.1742,9.75 0.2072,0 0.3768,-123.942 0.3768,-275.4266 v -275.4266 l -5.75,-3.2545 c -25.9028,-14.6611 -54.6296,-37.0799 -76.0075,-59.31743 -23.8598,-24.8193 -79.2552,-98.4398 -105.3986,-140.0749 -11.0337,-17.5718 -39.0713,-64.7214 -63.6278,-107 -61.2151,-105.393 -81.6781,-137.2916 -99.977,-155.8479 -4.2565,-4.3163 -10.5388,-9.8592 -13.9607,-12.3175 -6.8339,-4.9095 -8.2625,-7.77669 -8.2728,-16.60364 -0.01,-4.72156 -0.033,-4.76139 -2.7556,-4 -1.5125,0.42298 -9.05,0.69868 -16.75,0.61267 -15.5908,-0.17416 -26.1377,-2.36322 -41.785,-8.67274 -4.5369,-1.82943 -8.8163,-3.13712 -9.5097,-2.90599 -4.2448,1.41494 -64.0785,71.8976 -87.211,102.7324 -33.5529,44.7249 -74.6757,110.5066 -112.21467,179.5027 -73.4516,135.0032 -144.2685,291.07213 -240.48962,530.00003 -37.48796,93.0868 -90.88798,231.2279 -123.95608,320.6632 l -1.5393,4.1632 -6.13455,-4.9433 -6.13454,-4.9433 -1.51276,4.4871 c -0.83201,2.468 -2.045,5.0163 -2.69553,5.6629 -2.00857,1.9966 -4.24986,0.1836 -4.91497,-3.9758 -0.4249,-2.6571 -1.05837,-3.7995 -1.92299,-3.4677 -0.82192,0.3154 -1.55457,-0.709 -2.02093,-2.8257 l -0.73157,-3.3206 -2.03107,5.3389 c -1.87548,4.9298 -2.24716,5.3072 -4.85152,4.9249 -3.16573,-0.4646 -2.86328,-1.0688 -5.37476,10.7362 -2.01384,9.4659 -4.85776,15.5273 -7.6247,16.2509 -1.09898,0.2874 -2.40249,1.586 -2.89668,2.8858 -0.58215,1.5312 -1.70177,2.3633 -3.17975,2.3633 -2.50367,0 -2.60993,0.5662 -16.79774,89.5 -2.72002,17.05 -6.5297,40.9 -8.46596,53 -4.25957,26.6189 -11.39432,77.98 -15.00265,108 -1.45438,12.1 -4.39913,36.4 -6.54388,54 -2.14475,17.6 -5.94981,51.35 -8.45569,75 -2.50588,23.65 -5.00223,47.05 -5.54745,52 -0.54521,4.95 -2.53088,24.975 -4.41258,44.5 -1.88171,19.525 -5.22819,53.05 -7.43663,74.5 -6.10685,59.3143 -10.86559,107.1831 -14.66329,147.5 -1.89099,20.075 -4.10992,42.8 -4.93096,50.5 -0.82104,7.7 -4.43092,48.425 -8.02195,90.5 -3.59103,42.075 -7.17194,83.475 -7.95758,92 -0.78564,8.525 -1.72109,19.775 -2.07877,25 -0.70614,10.3153 -2.65262,18.779 -5.40452,23.5 -0.9618,1.65 -7.60373,12.675 -14.75984,24.5 -14.35117,23.7144 -51.99081,88.8236 -68.50477,118.5 -54.79541,98.4699 -117.75178,227.8929 -169.03746,347.5 -33.91278,79.0905 -77.39664,194.857 -104.04584,277 -23.839204,73.4814 -28.893604,90.1532 -48.356404,159.5 -8.658,30.8491 -33.3443,128.3037 -33.3443,131.6341 0,1.8063 2.6628,1.8659 83.345004,1.8659 78.13287,0 83.43967,-0.1094 84.85873,-1.75 z m 126.11962,-0.5 c 0.75321,-1.2375 15.67754,-29.25 33.16517,-62.25 45.04474,-85.0015 52.7254,-99.2292 71.79876,-133 28.23641,-49.9946 32.53119,-57.1255 35.97428,-59.7298 1.78113,-1.3472 9.98842,-6.4276 18.23842,-11.2896 19.79099,-11.6636 26.36928,-18.0031 29.63171,-28.5563 4.7701,-15.43 2.59549,-32.7438 -5.87136,-46.7465 -4.64163,-7.6764 -20.3032,-23.6688 -29.76035,-30.389 -17.31214,-12.3019 -44.42993,-22.083 -65,-23.4449 -7.57914,-0.5017 -10.18405,-0.2422 -16.5,1.6437 -13.07078,3.903 -20.55653,8.8891 -22.48968,14.9799 -0.7571,2.3854 2.0723,8.9491 6.37482,14.7883 3.96333,5.3789 16.55518,15.4079 30.11486,23.9855 12.5773,7.9562 11.45052,7.1415 10.7906,7.8014 -0.82496,0.825 -16.55964,-7.5392 -26.00281,-13.8225 -4.61131,-3.0683 -12.075,-8.768 -16.58599,-12.6661 l -8.2018,-7.0874 v 26.6096 c 0,22.8396 -0.29004,28.0485 -2.04718,36.7666 -7.45939,37.0099 -38.5337,101.1078 -97.76226,201.6571 -6.31755,10.725 -21.13851,36.6 -32.93546,57.5 -11.79695,20.9 -22.268,39.4249 -23.26899,41.1664 -1.001,1.7415 -1.55737,3.429 -1.23639,3.75 0.32099,0.321 25.24824,0.5836 55.39389,0.5836 h 54.81028 z m 114.44717,-24.25 c 38.16562,-57.4566 47.87074,-74.5699 67.48601,-119 10.72473,-24.2924 16.28869,-41.6692 21.29295,-66.5 1.4826,-7.3565 1.62014,-12.0947 1.02243,-35.2216 -0.65006,-25.1525 -0.5763,-26.9801 1.25605,-31.1224 2.64839,-5.9871 8.27324,-11.9787 15.34104,-16.3412 l 5.89322,-3.6375 -5.28112,-2.8266 c -2.90462,-1.5546 -7.796,-5.5145 -10.86975,-8.7997 l -5.58863,-5.9732 -1.62376,9.892 c -2.90637,17.7057 -6.43916,22.0825 -30.9718,38.3705 -21.88769,14.532 -30.20681,24.3372 -41.26838,48.6405 -10.59809,23.2849 -20.25696,41.4316 -40.23191,75.5864 -5.48984,9.387 -13.00282,22.6058 -16.69552,29.3753 -7.07221,12.9648 -55.53137,111.7767 -55.53137,113.2327 0,0.4664 17.6625,0.7303 39.25,0.5864 l 39.25,-0.2616 z m 193.32119,10.7642 c 18.81304,-28.5217 34.29892,-48.8694 53.47564,-70.2642 19.5458,-21.8066 50.91357,-51.2817 80.68568,-75.8173 7.01417,-5.7805 12.63917,-10.6127 12.5,-10.7383 -0.13918,-0.1257 -2.50305,0.1462 -5.25305,0.604 -16.22023,2.7003 -34.59126,0.1692 -47.30048,-6.5169 -20.37044,-10.7167 -31.73921,-26.8928 -44.17465,-62.8544 -14.72873,-42.5934 -23.0504,-54.6247 -39.56735,-57.2055 -3.32848,-0.52 -17.13709,1.0547 -26.45752,3.0173 -1.375,0.2896 0.65,-1.0271 4.5,-2.9258 12.18297,-6.0083 23.42055,-7.2323 31.31505,-3.4106 5.88984,2.8512 13.79656,10.9529 18.45396,18.909 4.26498,7.2858 6.70428,13.3542 17.82189,44.3373 9.20368,25.6491 13.37019,33.2703 23.90272,43.7218 8.33983,8.2757 18.94351,14.3531 30.50638,17.4844 8.06227,2.1833 28.82939,2.9838 36.7908,1.418 6.51331,-1.2809 16.23267,-7.216 15.39467,-9.4007 -0.23676,-0.6173 -1.01422,-3.8223 -1.72769,-7.1223 -0.71347,-3.3 -1.37667,-6.1183 -1.47379,-6.263 -0.0971,-0.1446 -2.65161,0.8317 -5.67666,2.1695 -8.29337,3.6677 -16.61812,4.9774 -26.96824,4.2427 -16.38064,-1.1627 -27.01304,-5.0744 -34.56254,-12.7155 -5.86843,-5.9397 -14.91839,-24.8125 -21.307,-44.4337 -5.87061,-18.0302 -9.6796,-26.2463 -17.80504,-38.4057 -17.21245,-25.7579 -33.65031,-33.4039 -57.24944,-26.6294 -19.89477,5.7111 -30.35016,13.9412 -38.36908,30.2029 -7.3209,14.8461 -12.10586,30.8729 -16.62217,55.6745 -7.57798,41.6149 -12.06268,57.6593 -22.12591,79.1577 -8.2872,17.7042 -15.30204,29.9318 -23.83335,41.5441 -7.11575,9.6855 -9.1833,11.9916 -6.23643,6.9559 26.79372,-45.7855 30.23748,-55.2523 43.75517,-120.2823 8.40208,-40.4201 14.25752,-57.2944 25.84046,-74.4677 1.94754,-2.8875 3.45892,-5.2447 3.35862,-5.2381 -0.10031,0.01 -2.65738,0.689 -5.68238,1.5166 -3.025,0.8277 -11.575,1.7818 -19,2.1202 -15.16305,0.6912 -15.30668,0.7532 -20.49713,8.8513 -6.67076,10.4076 -9.4954,23.5911 -9.5202,44.4337 -0.01,8.0114 -0.45981,18.767 -1.00061,23.9011 -3.1681,30.0764 -14.64259,64.1617 -37.00992,109.9388 -16.39078,33.5455 -32.51602,61.7579 -54.60041,95.5279 -4.60445,7.0408 -8.37173,13.2283 -8.37173,13.75 0,0.5911 34.60736,0.9485 91.85615,0.9485 h 91.85615 z m 1012.89104,-1007.0142 -0.017,-1022.75 -24.5954,-37.5 c -41.8105,-63.7474 -82.3913,-124.4731 -98.9031,-148 -20.0791,-28.6096 -49.364,-68 -50.5549,-68 -0.5017,0 -0.9122,1.2163 -0.9122,2.7028 0,4.5129 -6.6652,35.7206 -13.5676,63.5261 -16.1288,64.9725 -68.2092,250.7029 -98.9201,352.7711 -4.0544,13.475 -11.4871,38.45 -16.517,55.5 -5.03,17.05 -12.9012,43.375 -17.4915,58.5 -4.5904,15.125 -13.8183,45.95 -20.5065,68.5 -6.6881,22.55 -16.1432,53.825 -21.0114,69.5 -4.8681,15.675 -15.4333,50.1 -23.4782,76.5 -8.0449,26.4 -22.4467,73.2 -32.004,104 -9.5572,30.8 -21.8608,70.625 -27.3413,88.5 -5.4805,17.875 -16.1199,52.525 -23.643,77 -7.5231,24.475 -19.7603,64.3 -27.1939,88.5 -19.3337,62.9418 -40.3821,129.5065 -64.0046,202.4131 l -20.5466,63.4131 2.6186,35.0869 c 6.8391,91.6393 8.8665,172.2666 5.7227,227.5869 -2.4463,43.0468 -9.6813,119.527 -13.7168,145 -12.1571,76.7368 -40.4338,165.7314 -89.91927,283 -23.27931,55.1663 -76.44281,165.5413 -103.93143,215.7765 -5.80144,10.602 -10.54807,19.7145 -10.54807,20.25 0,0.6297 139.6669,0.9735 395.49997,0.9735 h 395.5 l -0.017,-1022.75 z m -1603.844654,813.25 c 22.8258,-75.8382 59.683,-181.2075 92.344704,-264 60.39159,-153.0833 111.75072,-266.7833 177.52113,-393 44.65549,-85.6962 72.72614,-140.307 96.89127,-188.5 l 24.8205,-49.5 0.60765,-24 c 0.92507,-36.5369 6.83173,-109.6766 17.68614,-219 1.63823,-16.5 4.5442,-46.425 6.45769,-66.5 1.91349,-20.075 6.84923,-70.925 10.9683,-113 7.61897,-77.8253 10.52171,-108.7492 15.06569,-160.5 1.4005,-15.95 3.43569,-37.325 4.52267,-47.5 1.08697,-10.175 2.88833,-28.4 4.00302,-40.5 1.11469,-12.1 4.69246,-48.1 7.95059,-80 3.25814,-31.9 7.73937,-76.675 9.95831,-99.5 3.84597,-39.5615 9.81059,-89.8517 14.11388,-119 2.94984,-19.9807 1.87958,-17.996 9.71939,-18.0244 3.70202,-0.014 8.75595,-0.4909 11.23095,-1.061 4.54257,-1.0463 9,-4.249 9,-6.4665 0,-1.8006 -2.61024,-3.6213 -6.25616,-4.3638 -2.74563,-0.5591 -3.32063,-1.1817 -3.74384,-4.0535 l -0.5,-3.3929 -2.80089,3.681 c -5.90402,7.7594 -12.34415,2.9231 -11.01802,-8.274 0.32862,-2.7747 0.35258,-5.0449 0.0532,-5.0449 -0.59933,0 -8.8234,13.7881 -12.13824,20.3504 -1.15285,2.2823 -3.54399,5.0496 -5.31364,6.1496 -1.76965,1.1 -3.48748,2.7875 -3.81739,3.75 -0.34931,1.0191 -1.61021,1.75 -3.01903,1.75 -1.81957,0 -2.78166,-0.8675 -3.88158,-3.5 -0.80432,-1.925 -2.16036,-3.5 -3.01342,-3.5 -1.21786,0 -1.55786,-1.2352 -1.58283,-5.75 -0.0299,-5.3961 -0.12759,-5.6269 -1.58809,-3.75 -0.85595,1.1 -2.66462,4.4705 -4.01927,7.4899 -1.35464,3.0195 -3.41781,6.5063 -4.58482,7.7485 -1.96377,2.0904 -2.25442,2.1386 -3.90151,0.648 -1.29248,-1.1696 -1.61305,-2.4437 -1.171,-4.654 0.85772,-4.2885 -0.89963,-2.8809 -4.70351,3.7676 -3.67282,6.4194 -4.69456,7.234 -6.63706,5.2915 -1.12644,-1.1264 -1.21426,-2.0898 -0.3982,-4.3683 1.14491,-3.1968 0.96944,-3.0389 -3.97502,3.5768 -1.59915,2.1397 -2.15246,2.3267 -3.83889,1.2979 -1.67197,-1.0201 -2.19329,-0.8686 -3.44167,1 -1.44248,2.1591 -1.51193,2.1655 -3.55295,0.3308 -1.14495,-1.0292 -2.74672,-1.6161 -3.5595,-1.3042 -0.81278,0.3119 -4.31704,4.3976 -7.78725,9.0793 -8.70901,11.7495 -12.82139,11.6081 -7.3007,-0.2509 1.36907,-2.9409 2.25002,-5.7342 1.95766,-6.2072 -0.29237,-0.4731 9.09961,-23.0419 20.87106,-50.1529 58.48617,-134.7006 103.50825,-241.1073 135.57457,-320.4217 8.10161,-20.0389 11.14873,-29.0527 15.04331,-44.5 10.59978,-42.0426 48.86462,-173.2108 63.22474,-216.7284 l 6.0576,-18.3573 -2.13635,-11.64273 c -13.79417,-75.1757 -19.894,-191.6072 -15.59342,-297.6427 2.49068,-61.4104 8.32611,-137.6046 13.09626,-170.99999 4.65391,-32.58166 17.48037,-81.30528 31.85315,-121 27.66776,-76.41279 69.26269,-164.10401 119.1549,-251.20464 30.55479,-53.34181 62.17374,-89.09386 115.4122,-130.4984 l 3.4756,-2.70305 -458.25,-0.047 -458.249984,-0.047 0.093,1775.75001 c 0.093,1765.5451 0.1048,1775.7126 2.0544,1769.25 1.0785,-3.575 6.0241,-20 10.9902,-36.5 z m 738.324944,0.6641 c 28.04143,-13.1222 50.45462,-63.5577 50.51152,-113.6641 0.0459,-40.3877 -16.45392,-75.8895 -42.67251,-91.8165 -16.159,-9.8161 -43.129,-13.6904 -56.9133,-8.1758 -3.542,1.417 -9.44757,2.7741 -13.57846,3.1204 -8.86736,0.7433 -25.91738,-0.9848 -36.51391,-3.7007 -8.45241,-2.1665 -23.72813,-9.0643 -30.70724,-13.8661 -15.4832,-10.6527 -29.5043,-29.7737 -36.70907,-50.0613 l -2.66348,-7.5 -3.85831,0.306 c -13.03373,1.0338 -25.95619,7.8328 -35.45992,18.657 l -3.39327,3.8647 -0.0921,20.5861 c -0.0737,16.4786 -0.52337,22.9518 -2.25364,32.4419 -5.38058,29.5111 -18.98711,55.3579 -31.69743,60.212 l -4.46198,1.704 v 6.6343 c 0,7.046 2.82653,18.9024 5.94711,24.9463 2.25742,4.372 8.23228,10.2255 13.05289,12.7875 3.00845,1.599 5.74707,1.8518 19.5,1.8003 14.54912,-0.054 16.72544,-0.3006 24,-2.715 4.4,-1.4603 10.15578,-4.0225 12.79063,-5.6939 16.38441,-10.3927 38.85584,-16.6667 50.64168,-14.1391 14.28248,3.063 26.25251,13.5955 41.03616,36.1079 9.56442,14.5646 13.46239,22.7703 21.57878,45.4257 6.30837,17.6087 12.2361,31.3973 15.23695,35.443 3.08567,4.1601 12.70215,8.8224 20.79587,10.0823 10.21532,1.5902 18.41622,0.7072 25.88299,-2.7869 z m 91.02259,-63.5596 c 13.59525,-6.7191 27.02505,-21.949 39.77329,-45.1045 6.34384,-11.5227 9.93973,-20.9945 12.86563,-33.8887 4.87548,-21.4859 0.30475,-48.2513 -17.69371,-103.6113 -3.66569,-11.275 -11.37517,-33.325 -17.13217,-49 -31.0845,-84.636 -48.33795,-140.98 -60.78389,-198.5 -9.91434,-45.82 -22.60957,-128.0535 -28.48315,-184.5 -8.84009,-84.9554 -16.28864,-182.7064 -16.15422,-212 0.0806,-17.5678 3.66375,-104.0203 9.1182,-220 1.09931,-23.375 2.67338,-57.35 3.49793,-75.5 3.21358,-70.7376 6.48742,-138.2989 7.00207,-144.5 0.29671,-3.575 1.44689,-25.625 2.55597,-49 1.90666,-40.1851 4.86882,-95.2676 8.44296,-157 0.87569,-15.125 2.92266,-46.4032 4.54881,-69.5072 3.32786,-47.2816 3.24334,-45.4928 2.1495,-45.4928 -0.44392,0 -2.94894,2.917 -5.5667,6.4822 -5.6917,7.7517 -6.37065,8.2495 -8.07411,5.9199 -1.32514,-1.8123 -1.28248,-2.049 3.18063,-17.6521 0.40575,-1.4185 -0.13714,-1.7512 -2.86606,-1.7562 -1.85165,0 -4.53598,-0.6163 -5.96519,-1.3621 l -2.59855,-1.356 -6.33393,11.1122 c -6.39058,11.2115 -17.92118,30.738 -18.63214,31.5526 -0.21144,0.2422 -1.12487,-0.3 -2.02985,-1.205 -1.46044,-1.4604 -1.50032,-2.2968 -0.35481,-7.4404 0.70982,-3.1873 2.58597,-10.0129 4.16921,-15.1681 3.45961,-11.2647 3.48683,-11.6664 0.65612,-9.6837 -1.22237,0.8562 -3.86612,1.5567 -5.875,1.5567 -3.29079,0 -3.71438,-0.3095 -4.27749,-3.125 -0.34375,-1.7188 -0.65378,-4.7563 -0.68895,-6.75 l -0.064,-3.625 -1.65367,3.5 c -0.90951,1.925 -1.75978,3.6665 -1.88947,3.8701 -0.1297,0.2035 -1.27345,0.1097 -2.54167,-0.2086 -2.2027,-0.5529 -2.28994,-0.9295 -1.94989,-8.4175 0.47419,-10.4419 -0.87544,-11.7587 -6.39887,-6.2429 -4.21967,4.2139 -6.68738,4.8929 -9.08138,2.4989 -0.87008,-0.8701 -3.31303,-1.5 -5.81728,-1.5 -4.1423,0 -4.34389,-0.1419 -4.97388,-3.5 -0.36113,-1.925 -0.75507,-3.5 -0.87541,-3.5 -1.40796,0 -11.36221,4.2978 -12.64679,5.4604 -2.92814,2.6499 -5.03966,1.9386 -5.07731,-1.7104 l -0.0335,-3.25 -3.18322,4 c -1.75077,2.2 -5.10174,5.9628 -7.44661,8.3617 -3.72292,3.8088 -4.70598,4.3101 -7.7546,3.9542 -2.25362,-0.2631 -3.66748,0.052 -3.98847,0.8882 -0.61259,1.5964 -3.76098,1.695 -5.29029,0.1656 -1.59376,-1.5937 -1.75758,-0.044 -4.77226,45.1303 -11.18169,167.5572 -28.13408,298.85 -67.01275,519 -12.5442,71.0314 -19.80479,111.6066 -22.99397,128.5 -1.86896,9.9 -5.46464,29.025 -7.99041,42.5 -4.60646,24.5755 -16.27199,85.0108 -27.40956,142 -21.73852,111.2326 -74.93042,277.3775 -106.25816,331.8975 -13.46011,23.4248 -29.71163,41.7672 -48.83264,55.1154 -29.97689,20.9265 -42.27044,43.4171 -46.07219,84.2875 -1.8404,19.785 0.97149,39.1727 8.11667,55.9636 3.11198,7.3131 8.67326,16.2656 11.9414,19.2232 1.97483,1.7872 2.01431,1.7661 2.02389,-1.0822 0.0241,-7.1669 8.89832,-20.3565 23.31184,-34.6479 17.38578,-17.2386 46.76521,-41.6198 57.54744,-47.7571 5.08548,-2.8947 6.03967,-3.8459 5.51743,-5.5 -0.3473,-1.1 -0.84709,-5.7023 -1.11066,-10.2274 -0.92479,-15.8777 3.94721,-23.6708 32.67946,-52.2726 21.52462,-21.4269 31.41503,-33.409 37.97011,-46 4.52079,-8.6836 10.94674,-26.7185 15.14298,-42.5 3.10997,-11.6962 3.06241,-8.4977 -0.12077,8.1228 -6.97013,36.3936 -17.36998,54.0975 -51.93015,88.4019 -16.93341,16.808 -20.1466,20.4922 -23.09385,26.4789 -3.05416,6.2039 -3.4236,7.839 -3.4236,15.152 0,11.577 1.45063,13.3698 12.07894,14.9281 8.66246,1.2701 9.20216,1.409 40.37255,10.3915 22.81004,6.5733 25.37463,7.5871 31.36114,12.3969 4.75353,3.8193 11.41523,13.6604 12.2465,18.0914 l 0.6257,3.3353 6.65758,-6.7497 c 7.83279,-7.941 13.76116,-10.6045 27.49009,-12.3507 l 8.8325,-1.1234 -0.61175,-3.0375 c -1.59958,-7.9424 -2.55466,-22.9609 -2.00557,-31.5375 1.95731,-30.5731 6.5246,-52.134 22.98377,-108.5 15.94124,-54.5923 21.14732,-74.0606 27.94463,-104.5 8.4555,-37.865 13.20099,-69.5945 15.06826,-100.75 0.58819,-9.8141 0.89877,-11.25 2.43329,-11.25 2.12743,0 2.72105,3.3496 3.63305,20.5 1.63535,30.7531 -7.34809,84.1653 -30.10614,179 -20.97705,87.4131 -28.51381,127.2812 -27.03305,143 2.91856,30.9817 22.27641,65.6465 43.73652,78.3208 10.82587,6.3937 18.76064,8.4964 33.79199,8.9547 14.99114,0.4571 23.43139,-0.9179 31.75893,-5.1739 9.52326,-4.8671 13.34907,-10.9693 17.65367,-28.1582 8.2185,-32.8175 7.42041,-57.5847 -3.32012,-103.0335 -5.87257,-24.85 -7.42874,-36.9466 -7.5141,-58.4099 -0.0405,-10.175 0.29692,-21.9416 0.74977,-26.1479 0.75603,-7.0225 1.02282,-7.686 3.26263,-8.1142 2.92037,-0.5583 2.40985,-2.4766 6.45692,24.2621 4.05365,26.7821 9.18821,53.9234 13.51327,71.4311 10.67464,43.2108 11.24863,82.5931 1.61156,110.5734 -2.379,6.9072 -7.69716,17.5043 -10.87734,21.6745 l -2.42433,3.1791 4.31457,0.5248 c 2.37301,0.2887 8.13957,0.753 12.81457,1.0318 11.06644,0.6599 18.58343,2.6668 28.88943,7.7128 14.99976,7.3441 24.76231,19.0798 36.51074,43.8901 14.97796,31.6304 18.14899,62.7596 10.04608,98.6198 -3.26218,14.4371 -2.2888,15.549 13.18897,15.0655 8.27056,-0.2583 9.86548,-0.6462 16.85043,-4.0984 z M 534.99633,3202.3417 c 0,-0.2834 2.74097,-3.9644 6.09104,-8.1801 26.51856,-33.3708 47.24297,-79.3709 69.29366,-153.8048 3.58457,-12.1 6.53409,-21.325 6.55449,-20.5 0.0204,0.825 -1.49197,8.0266 -3.36083,16.0036 -16.38428,69.9343 -38.96956,121.1478 -70.88952,160.7464 -2.77093,3.4375 -5.63448,6.25 -6.36345,6.25 -0.72896,0 -1.32539,-0.2318 -1.32539,-0.5151 z m 82.07895,-186.0682 c 0.048,-1.165 0.28494,-1.4019 0.60416,-0.6042 0.28887,0.7219 0.25335,1.5844 -0.0789,1.9167 -0.33229,0.3323 -0.56864,-0.2584 -0.52522,-1.3125 z m -95.20086,357.0269 c 10.69791,-3.177 15.7061,-10.4712 23.99214,-34.9436 5.97616,-17.6503 7.56065,-27.7928 7.57678,-48.5 0.0133,-17.0858 -0.0601,-17.7048 -3.10131,-26.153 -1.71321,-4.7591 -4.40436,-11.0429 -5.98032,-13.9639 -3.934,-7.2917 -10.25904,-10.8985 -26.02968,-14.8433 -17.52258,-4.3831 -46.6574,-10.0398 -51.70952,-10.0398 -12.14316,0 -23.88585,8.3787 -56.01092,39.9653 -24.16897,23.7639 -25.58978,25.8824 -25.60549,38.1794 -0.0109,8.5601 2.60101,18.6031 6.72436,25.8553 1.40721,2.475 2.66792,4.6377 2.80159,4.806 0.13367,0.1684 3.10531,-0.4448 6.60366,-1.3627 18.43823,-4.8373 47.61781,3.5653 77.86062,22.4211 11.27035,7.0268 26.6496,17.7596 27.56088,19.2341 0.87971,1.4234 9.56989,1.0518 15.31721,-0.6549 z M 681.92604,1866.6068 c 0.0387,-0.4125 -0.37971,-0.75 -0.92971,-0.75 -0.55,0 -0.96837,1.2375 -0.92971,2.75 0.0623,2.4368 0.16815,2.5223 0.92971,0.75 0.47269,-1.1 0.89106,-2.3375 0.92971,-2.75 z m -84.92971,-225.1429 c 3.31985,-8.4824 5.96206,-11.9607 6.0318,-7.9404 0.0308,1.775 0.0759,1.7751 1.41691,0.01 1.31424,-1.734 1.51845,-1.7401 3.99137,-0.1198 1.43344,0.9392 3.02556,2.4366 3.53805,3.3275 0.75433,1.3113 1.0594,1.0008 1.60183,-1.6302 0.56854,-2.7577 1.10556,-3.25 3.54504,-3.25 2.52778,0 2.875,0.3623 2.875,3 0,1.65 0.38101,3 0.84668,3 0.46567,0 4.70628,-10.2375 9.42357,-22.75 64.62678,-171.4209 87.46607,-229.04 137.44616,-346.75 79.92915,-188.2441 163.33198,-365.47333 219.06109,-465.50003 46.20337,-82.9293 75.31247,-127.7707 132.06297,-203.4379 28.2995,-37.7325 36.2245,-47.59919 48.0805,-59.8602 l 9.4745,-9.7981 -6.9478,0.66505 c -6.8685,0.65748 -7.1683,0.81289 -26.287,13.62553 -10.6365,7.12825 -19.6017,12.69799 -19.9225,12.3772 -1.2207,-1.22078 9.094,-14.50043 19.2405,-24.77092 8.1082,-8.20733 12.1311,-11.46812 17.272,-14 6.3255,-3.11528 7.3071,-3.30065 17.4761,-3.30065 h 10.7742 l 0.6587,-3.5 c 1.2161,-6.46099 -1.2089,-15.49913 -7.9972,-29.80554 -11.4549,-24.14155 -12.4367,-31.34642 -8.1768,-60.00738 1.497,-10.07211 2.48,-18.55467 2.1846,-18.85014 -1.0352,-1.03517 -2.6774,0.83967 -11.3454,12.95278 -5.9112,8.26056 -14.1424,17.70935 -25.4461,29.21028 -17.9923,18.30614 -23.5648,24.63101 -37.5289,42.59609 -24.2523,31.20088 -38.2568,55.55479 -38.3288,66.65391 -0.025,3.78953 -1.2709,4.15916 -3.4644,1.02749 -4.7237,-6.74401 2.8441,-34.31493 15.2065,-55.39984 7.5026,-12.79623 21.1132,-30.00749 43.6629,-55.21381 26.3102,-29.40976 36.5485,-43.37242 49.269,-67.19121 15.2474,-28.55048 19.5919,-45.33346 19.5367,-75.47263 -0.022,-11.92954 -0.451,-16.59286 -2.0968,-22.78153 -3.6331,-13.66194 -8.7238,-22.80551 -18.1995,-32.68848 l -5.106,-5.32539 5.8353,0.64795 c 8.5412,0.94843 17.8556,5.94956 22.4735,12.06662 8.6122,11.40803 12.181,29.11017 12.2133,60.58083 0.019,18.54809 -0.2813,22.87298 -2.1872,31.5 -2.8359,12.83669 -6.4181,24.57022 -11.1431,36.5 -2.8888,7.29356 -4.6056,14.38873 -7.392,30.54879 -1.9961,11.57683 -3.6293,23.79007 -3.6293,27.14052 0,7.86494 3.6693,21.83064 9.5401,36.31069 6.08,14.99591 8.4599,24.54653 8.4599,33.94972 v 7.62979 l 8.75,3.14306 c 32.3245,11.61119 54.7036,14.0661 69.769,7.65341 10.0899,-4.29488 18.5318,-10.36417 30.353,-21.82243 18.7536,-18.17772 35.2842,-39.82579 42.4694,-55.61669 6.4561,-14.18873 14.2705,-42.53326 17.0755,-61.93686 8.787,-60.78409 4.8778,-109.95052 -12.0435,-151.47142 -13.5503,-33.24937 -37.8557,-59.60224 -68.7059,-74.49378 -24.4774,-11.81536 -59.5981,-19.04212 -92.4687,-19.02725 -18.1211,0.008 -25.8957,0.88727 -36.6988,4.1495 -7.9578,2.40304 -7.6068,2.71705 5.2708,4.71543 37.379,5.80054 65.3552,46.44006 61.7514,89.70296 -0.3924,4.71159 -0.9175,8.36263 -1.1667,8.11342 -0.2492,-0.24922 -1.5405,-5.79366 -2.8696,-12.32099 -4.1483,-20.37243 -8.8416,-31.69351 -19.765,-47.67682 -8.9844,-13.14626 -18.6548,-23.04473 -26.0454,-26.6598 -7.7479,-3.78982 -14.347,-5.0357 -26.562,-5.0148 -11.0087,0.0188 -15.1724,1.68816 -20.3986,8.17826 l -2.9751,3.6947 7.1346,14.27804 7.1347,14.27803 -2.5354,2.52726 c -1.5449,1.53988 -2.8164,2.1309 -3.2546,1.51276 -7.8207,-11.03278 -19.2443,-25.21794 -22.8998,-28.43568 -2.5915,-2.28108 -8.3359,-5.91737 -12.7655,-8.08065 -17.7358,-8.66166 -36.3319,-11.65061 -47.0538,-7.56296 -14.7715,5.63152 -29.5727,19.77418 -45.3476,43.32982 -12.15777,18.15459 -61.46343,108.45537 -82.45705,151.01604 -11.02164,22.34433 -12.00149,24.79479 -12.45631,31.1515 -0.75238,10.51552 2.05805,18.41186 10.49193,29.47873 17.88708,23.47127 21.25299,29.33629 23.84014,41.54081 2.12611,10.02961 1.72766,18.67444 -1.58242,34.33223 -5.23777,24.77646 -6.69579,27.52653 -13.53354,25.5265 -2.17531,-0.63628 -4.09901,-1.25388 -4.27488,-1.37245 -0.17587,-0.11857 0.56493,-1.94973 1.64623,-4.06924 2.99126,-5.86336 6.13613,-16.10174 7.16584,-23.32898 0.95753,-6.72066 -0.53729,-21.94133 -1.99655,-20.32945 -0.40744,0.45005 -8.73189,22.41828 -18.49877,48.81828 -9.76688,26.4 -20.80147,55.64999 -24.5213,64.99999 -3.71984,9.35 -8.89124,22.625 -11.49201,29.5 -2.60077,6.875 -14.84399,38.375 -27.20717,70 -12.36317,31.625 -31.00136,79.55 -41.41819,106.5 -10.41684,26.95 -34.86547,90.175 -54.3303,140.5 l -35.39059,91.50003 1.02709,13.1621 1.02709,13.162 -32.50404,75.838 c -17.87723,41.7108 -35.69837,83.8384 -39.60254,93.6167 -7.77361,19.4697 -14.72026,33.8106 -26.74886,55.2212 -8.16527,14.534 -10.74435,20.3824 -32.85366,74.5 -7.30268,17.875 -17.18519,41.725 -21.96112,53 -4.77593,11.275 -12.29036,29.275 -16.69873,40 -7.49231,18.2279 -21.12628,50.4679 -64.88681,153.437 -9.80248,23.0654 -17.61055,42.2803 -17.35126,42.6999 0.25929,0.4195 2.88072,-1.7247 5.82539,-4.7649 4.39188,-4.5343 5.86221,-5.4687 8.18244,-5.1998 2.05889,0.2386 2.98722,1.0066 3.41188,2.8225 0.80987,3.4633 3.7414,3.8044 4.96804,0.5781 1.16233,-3.0572 3.07111,-3.2873 5.4514,-0.6571 1.69211,1.8698 1.81862,1.8218 5.27135,-2 3.98163,-4.4072 5.25738,-4.8135 6.01516,-1.9157 0.28766,1.1 0.73705,2 0.99865,2 0.2616,0 1.61981,-0.9 3.01823,-2 1.39842,-1.1 3.78914,-2 5.31271,-2 2.22263,0 3.2874,-0.8827 5.38743,-4.4661 2.47528,-4.2237 8.15526,-9.5339 10.19788,-9.5339 0.51501,0 1.49431,-1.4625 2.17623,-3.25 1.79889,-4.7154 3.14313,-1.9414 3.27091,6.75 0.0566,3.85 0.401,9.25 0.76532,12 l 0.66239,5 2.18759,-3.5171 c 1.20318,-1.9343 3.36438,-4.6225 4.80267,-5.9738 2.20132,-2.068 2.76255,-2.2235 3.5471,-0.9829 0.51261,0.8106 0.95313,2.1488 0.97893,2.9738 0.0314,1.0032 0.86492,0.5702 2.51674,-1.3074 2.09671,-2.3833 3.11168,-2.761 6.7184,-2.5 l 4.24857,0.3074 0.29853,6.8746 0.29853,6.8745 3.21164,-5.3745 c 3.81243,-6.38 6.1913,-7.0573 6.1913,-1.7629 v 3.6118 l 3.24779,-2.4788 c 2.16671,-1.6536 4.08068,-2.3195 5.75,-2.0004 1.45291,0.2778 2.50618,0.012 2.51167,-0.633 0.005,-0.6112 1.13054,0.759 2.50074,3.0449 1.91795,3.1997 2.95137,4.0359 4.49054,3.6334 2.55828,-0.669 2.56515,0.9063 0.0642,14.706 -3.1032,17.1229 1.16325,16.914 7.93504,-0.3885 z M 1015.6056,535.35678 c 5.0296,-11.54423 21.214,-52.17692 28.7944,-72.29132 20.7457,-55.04834 25.739,-75.89974 27.5942,-115.2298 1.8135,-38.4476 5.9268,-52.27156 23.589,-79.2794 12.4282,-19.00443 26.1705,-29.38896 40.2905,-30.44602 7.6748,-0.57456 8.0403,-1.21964 -5.3869,9.50557 -5.5051,4.39738 -14.3164,12.48247 -19.5804,17.96689 -7.9058,8.2367 -10.3719,11.60736 -14.1737,19.37287 -10.602,21.65524 -12.8836,34.62436 -12.5132,71.12821 0.3273,32.24698 1.0734,28.37494 -13.4444,69.773 -15.5044,44.21146 -22.6377,61.2206 -33.871,80.76435 -6.5735,11.43661 -15.9757,25.48124 -20.9109,31.23565 l -3.0016,3.5 z m 626.3907,132.37799 c 0,-343.74892 -0.049,-353.08552 -1.855,-351.74996 -1.0203,0.75458 -5.6328,4.42776 -10.25,8.16261 -4.6173,3.73486 -13.9634,10.70986 -20.7692,15.5 -47.7617,33.61625 -72.0155,54.85145 -94.3583,82.61469 -29.4696,36.61906 -42.8965,69.71053 -45.6856,112.59467 -3.3896,52.11849 10.8028,111.50939 42.0302,175.88369 5.4383,11.211 9.8879,20.5531 9.8879,20.7602 0,0.2071 -2.4851,-1.2735 -5.5224,-3.2901 l -5.5224,-3.6667 -13.2709,-26.5935 c -15.9502,-31.9626 -31.7063,-66.9206 -35.7778,-79.3796 -7.3987,-22.6411 -10.8801,-49.9141 -10.8958,-85.35804 -0.012,-27.85116 1.0643,-40.56563 4.5864,-54.1608 11.7145,-45.21834 51.0986,-91.87245 115.0008,-136.22911 29.7715,-20.66546 45.3383,-32.97339 61.1521,-48.35021 l 11.25,-10.93912 v -70.8193 -70.81931 l -2.5864,-0.64915 c -7.1797,-1.80198 -26.2917,1.73938 -46.6222,8.63888 -46.5012,15.78099 -72.7266,33.81362 -106.6029,73.30015 -22.3462,26.047 -32.7373,43.77061 -38.7937,66.16888 -2.9633,10.95925 -4.0983,25.30787 -2.4733,31.26627 1.4195,5.20479 6.0056,10.61436 11.4838,13.54578 3.5018,1.87383 5.6875,2.19109 15.0947,2.19109 9.8648,0 11.5954,-0.27899 16.7694,-2.70355 15.1036,-7.07758 35.8998,-25.64368 55.2177,-49.29645 5.3905,-6.6 15.4856,-17.65987 22.4337,-24.57749 9.9677,-9.924 14.0708,-13.28534 19.4484,-15.93271 6.5173,-3.20848 7.0191,-3.30128 11.4731,-2.12158 6.5512,1.73518 11.2521,4.24531 12.9864,6.93437 1.3825,2.14349 1.3294,2.3433 -0.7678,2.89173 -5.3289,1.39355 -18.1752,8.46858 -25.7384,14.17527 -11.1482,8.41178 -26.2518,23.59695 -41.9092,42.13556 -20.5612,24.34488 -33.8933,36.07551 -49.2357,43.32135 -15.8827,7.50103 -38.7151,3.35895 -50.4113,-9.14523 -5.1404,-5.49557 -8.1044,-12.50545 -10.8587,-25.68127 -2.3923,-11.4445 -2.3805,-16.42603 0.065,-27.26059 7.7269,-34.23517 22.4236,-64.2568 43.2604,-88.36981 l 7.0299,-8.13517 -3.3814,0.61973 c -9.3159,1.70739 -22.8037,1.81599 -33.1333,0.26679 -11.4455,-1.71654 -17.143,-3.84924 -22.8495,-8.55301 -7.2225,-5.95342 -13.4974,-22.62252 -14.6125,-38.81794 -0.6687,-9.71168 -0.7986,-9.77694 -10.4605,-5.25556 -8.7212,4.08115 -23.8731,6.34241 -38.3256,5.7197 -6.05,-0.26067 -12.2191,-1.04182 -13.709,-1.73589 -3.4811,-1.62157 -6.3852,0.12678 -10.3128,6.20836 -1.5321,2.37237 -5.6202,6.78839 -9.0847,9.81339 l -6.299,5.5 3.2027,2.5 c 7.0086,5.47073 23.0955,22.51549 29.9576,31.74132 19.2087,25.82553 31.8737,55.86004 38.2712,90.75868 2.2223,12.12255 3.0927,47.61429 1.566,63.85226 -4.3253,46.0039 -22.7126,94.91019 -50.4354,134.14774 -13.1879,18.66544 -28.9618,35.80147 -39.8476,43.28849 -4.7761,3.28497 -18.3215,10.1487 -23.7904,12.05519 -2.6494,0.92359 -3.0186,1.52061 -3.0186,4.88179 0,7.2876 4.6585,10.27315 16,10.25417 17.0992,-0.0286 30.9477,-7.62154 51.1568,-28.04845 31.5357,-31.87558 49.3628,-65.91359 61.7656,-117.93119 2.1638,-9.075 4.474,-19.96143 5.1337,-24.19207 0.7924,-5.08119 1.7099,-7.8879 2.7031,-8.26901 2.0616,-0.79113 1.1876,6.82985 -3.3787,29.46108 -6.2061,30.75798 -18.1848,62.27306 -32.3079,85 -15.7542,25.35165 -42.3668,56.64932 -54.3326,63.8978 -5.174,3.13419 -22.8957,8.09249 -29.1191,8.14709 l -5.1209,0.045 4.5,3.6626 c 13.4797,10.9712 24.9161,25.5638 51.5277,65.7476 20.6896,31.2417 33.5395,51.4288 54.7426,86 49.875,81.3205 92.4071,143.7698 136.1491,199.9058 36.75,47.1631 53.4256,64.2012 80.5806,82.33253 8.3596,5.5817 24.9825,15.2617 26.208,15.2617 0.4356,0 0.792,-158.90493 0.792,-353.12203 z m -915.49968,276.122 c 6.97569,-17.875 17.18791,-44.2 22.69384,-58.5 16.38948,-42.5668 67.59788,-174.0317 91.148,-234 24.85202,-63.2835 33.1829,-84.8981 55.24984,-143.34711 12.32331,-32.64091 22.24577,-59.64091 22.04991,-60 -0.19587,-0.35908 -5.41592,-8.9327 -11.60012,-19.05247 -12.28042,-20.09558 -15.62947,-27.61992 -16.62695,-37.35584 -1.16508,-11.37191 1.20361,-18.5676 16.53961,-50.24457 9.11754,-18.83255 63.85264,-124.24019 75.81298,-145.99903 7.6137,-13.85101 12.3198,-20.53357 20.60607,-29.25994 13.6379,-14.36214 26.8093,-22.33978 44.3583,-26.86691 8.4157,-2.171 11.435,-2.46988 21.8064,-2.15864 11.4942,0.34494 12.3959,0.53117 19.9565,4.1217 7.9578,3.77912 13.0766,7.43407 19.7309,14.08841 l 3.5916,3.59164 6.3414,-6.62578 c 18.0397,-18.84868 46.994,-29.39145 80.7197,-29.39145 h 11.1217 v -2.84004 c 0,-5.34207 3.854,-17.91394 8.0592,-26.28953 5.6457,-11.24455 8.9582,-15.89052 18.1776,-25.49552 13.0859,-13.63305 29.0789,-24.79535 52.3492,-36.53701 l 12.5608,-6.3379 -112.3234,-0.26495 -112.3234,-0.26495 -11,4.67448 c -43.5503,18.5068 -82.70437,42.54838 -115.52785,70.937 -13.73156,11.87624 -37.1346,36.17858 -48.15163,50.00194 -16.8489,21.14076 -22.50204,29.88359 -46.74973,72.30059 -65.1065,113.89215 -107.25723,203.73541 -121.56642,259.11589 -2.27885,8.81976 -10.20077,52.71281 -13.53618,75 -7.30467,48.80979 -13.89974,107.37289 -15.93498,141.49999 -1.29529,21.7194 -1.31476,96.1018 -0.0342,130.5 1.13157,30.3953 2.00756,46.6028 5.56698,103 2.42543,38.4297 3.05772,45.7202 3.89129,44.868 0.19797,-0.2024 6.06733,-14.993 13.04301,-32.868 z M 1485.9963,181.31116 c 7.9157,-1.63584 8.9048,-2.12945 14.3887,-7.18114 25.4141,-23.41087 56.2372,-41.38664 84.164,-49.08374 15.8166,-4.35933 24.9918,-5.58584 42.1973,-5.64079 l 15.25,-0.0487 v -47.25 -47.25 h -151.0222 -151.0222 l -7.8797,3.96185 c -15.4787,7.78253 -38.8154,22.77425 -53.0759,34.09639 -9.5635,7.59301 -21.7914,19.94308 -27.1702,27.44176 -7.4917,10.44419 -12.8298,24.26225 -12.8298,33.21078 v 3.92209 l 15.25,4.23451 c 24.6478,6.84404 32.3474,9.92593 38.7022,15.49114 3.0513,2.67219 7.9546,6.40743 10.8962,8.30053 4.8616,3.12873 5.5442,3.31331 7.5,2.02796 3.0664,-2.01525 8.9752,-8.98534 14.9941,-17.68701 3.3476,-4.83972 5.9596,-7.61062 7.364,-7.81187 1.197,-0.17153 5.4652,1.17847 9.4849,3 7.026,3.1838 7.792,3.31172 19.8086,3.30793 10.2922,-0.003 13.8247,-0.41708 20,-2.34304 9.1421,-2.85123 21.2403,-9.01958 29.2382,-14.90731 3.2759,-2.41157 6.2499,-4.09076 6.609,-3.73153 0.359,0.35922 0.6528,8.82798 0.6528,18.81947 v 18.16635 l 3.9465,7.90655 c 5.2909,10.59991 12.2376,17.66678 19.5535,19.89183 7.1451,2.17308 30.6312,1.71209 43,-0.844 z"
     style="fill:#000000" />
</svg>
