<?xml version="1.0" encoding="UTF-8" standalone="no"?>
<svg
   xmlns:dc="http://purl.org/dc/elements/1.1/"
   xmlns:cc="http://creativecommons.org/ns#"
   xmlns:rdf="http://www.w3.org/1999/02/22-rdf-syntax-ns#"
   xmlns:svg="http://www.w3.org/2000/svg"
   xmlns="http://www.w3.org/2000/svg"
   version="1.1"
   id="svg7809"
   width="2099.9756"
   height="1943.9255"
   viewBox="0 0 2099.9756 1943.9255">
  <metadata
     id="metadata7815">
    <rdf:RDF>
      <cc:Work
         rdf:about="">
        <dc:format>image/svg+xml</dc:format>
        <dc:type
           rdf:resource="http://purl.org/dc/dcmitype/StillImage" />
        <dc:title></dc:title>
      </cc:Work>
    </rdf:RDF>
  </metadata>
  <defs
     id="defs7813" />
  <path
     style="fill:#000000"
     d="m 1848.4677,1942.2047 c -4.9513,-3.1462 -5.8413,-4.3179 -8.5157,-11.2106 -3.0403,-7.8357 -4.4306,-22.1405 -3.1074,-31.9726 1.4606,-10.8532 3.8275,-17.3722 13.7555,-37.8854 4.6961,-9.7031 9.4021,-19.8017 10.4578,-22.4414 2.9857,-7.4652 5.9139,-12.8432 9.3652,-17.2006 9.3643,-11.8227 27.1427,-47.3408 36.5398,-73 2.8873,-7.8839 6.9964,-17.5528 9.7737,-22.9982 2.331,-4.5703 6.4292,-14.5766 12.8581,-31.3948 1.3441,-3.5162 4.856,-12.0662 7.8041,-19 2.9482,-6.9339 7.8678,-20.032 10.9325,-29.107 7.675,-22.7269 15.7661,-41.6695 28.7475,-67.3031 8.0228,-15.842 12.3554,-25.8214 15.8465,-36.5 6.8994,-21.1035 10.8659,-32.0447 19.9658,-55.0745 10.4818,-26.5267 15.7778,-43.7647 21.5439,-70.1224 7.4374,-33.9972 21.4723,-87.1903 26.4811,-100.3644 0.5338,-1.4039 2.9922,-12.1337 5.4631,-23.8441 2.471,-11.7103 5.3864,-25.1165 6.4787,-29.7915 2.1586,-9.2389 4.3932,-36.9615 6.2469,-77.5 1.3759,-30.0901 0.5743,-83.8282 -1.5662,-105 -0.8341,-8.25 -1.9882,-23.55 -2.5648,-34 -0.5766,-10.45 -1.9287,-24.625 -3.0047,-31.5 -1.076,-6.875 -2.4407,-19.92503 -3.0326,-29.00003 -1.3112,-20.1005 -5.4077,-53.254 -7.4533,-60.3208 -0.8246,-2.8486 -3.2806,-14.0363 -5.4577,-24.8616 -2.1771,-10.8253 -5.0751,-23.8753 -6.4402,-29 -1.365,-5.1247 -2.9862,-12.0176 -3.6027,-15.3176 -0.6165,-3.3 -2.2138,-10.95 -3.5496,-17 -1.3358,-6.05 -3.3543,-15.87804 -4.4857,-21.84009 -1.2328,-6.49616 -3.6855,-14.71108 -6.1205,-20.5 -2.2349,-5.31295 -5.9913,-15.05991 -8.3476,-21.65991 -6.0681,-16.99669 -8.1584,-22.04952 -12.4111,-30 -8.4579,-15.81212 -19.7355,-34.51082 -25.6327,-42.5 -3.4509,-4.675 -9.8549,-14.125 -14.2312,-21 -12.177,-19.12946 -33.0417,-49.98291 -37.1042,-54.86715 -1.9977,-2.40193 -6.3323,-8.08286 -9.6323,-12.6243 -5.7922,-7.97118 -12.383,-16.06807 -32.9735,-40.50855 -5.3286,-6.325 -12.2103,-15.1 -15.2926,-19.5 -7.1578,-10.21787 -25.383,-28.98024 -35.8237,-36.87943 -4.4494,-3.36631 -10.8243,-9.31494 -14.1665,-13.21916 -6.6659,-7.78682 -20.8566,-21.05516 -27.7942,-25.9876 -2.4296,-1.72745 -8.6022,-7.36474 -13.7167,-12.52731 -8.7915,-8.87421 -13.8366,-13.08716 -35.2328,-29.42198 -22.6738,-17.31016 -33.3425,-25.91662 -43.4645,-35.06286 -2.4945,-2.25408 -9.2605,-8.32676 -15.0355,-13.49483 -5.775,-5.16807 -11.4,-10.22837 -12.5,-11.2451 -6.5634,-6.06659 -23.3415,-19.26949 -31.0266,-24.41532 -4.9354,-3.30463 -13.8506,-9.65348 -19.8116,-14.10856 -5.9609,-4.45508 -13.3859,-9.69562 -16.5,-11.64565 -3.114,-1.95003 -10.6118,-7.16375 -16.6618,-11.58606 -17.6184,-12.87837 -25.791,-16.33824 -83.5,-35.34998 -35.855,-11.81213 -75.7136,-26.84921 -89.1572,-33.63553 -3.1721,-1.60125 -9.0469,-4.22463 -13.0551,-5.82974 -4.0082,-1.60511 -12.4627,-5.24502 -18.7877,-8.08868 -21.9298,-9.85944 -40.5261,-16.77398 -52.017,-19.34113 -6.3343,-1.41514 -17.1343,-4.21984 -24,-6.23268 -20.0882,-5.88934 -50.8221,-13.18867 -68.8008,-16.34023 -9.1752,-1.60837 -21.3439,-4.10648 -27.0415,-5.55137 -5.6976,-1.44488 -14.6703,-3.51409 -19.9393,-4.59824 -5.2691,-1.08415 -13.0367,-3.06313 -17.2615,-4.39774 -23.3901,-7.38892 -72.6762,-18.02534 -92.9399,-20.05732 -3.575,-0.35849 -10.775,-1.49683 -16,-2.52965 -5.225,-1.03282 -15.095,-2.58536 -21.9333,-3.4501 -6.8383,-0.86473 -15.7719,-2.4467 -19.8524,-3.51548 -4.0804,-1.06877 -14.2354,-2.41064 -22.5667,-2.98193 -8.33113,-0.57128 -19.64757,-1.47551 -25.14757,-2.00939 -5.5,-0.53388 -20.575,-1.89771 -33.5,-3.03072 -12.925,-1.13302 -28.9,-2.96399 -35.5,-4.06882 -28.08656,-4.70164 -54.10762,-7.89744 -64.30122,-7.89721 -9.45612,2.2e-4 -42.15368,2.38924 -54.19878,3.96 -4.125,0.53793 -10.75526,0.99194 -14.73391,1.00892 -7.35667,0.0314 -35.22014,3.12742 -67.79195,7.53263 -9.91423,1.34086 -26.78923,3.16152 -37.5,4.0459 -13.65129,1.12718 -24.10871,2.63861 -34.97414,5.05488 -8.525,1.8958 -21.8,4.80034 -29.5,6.45453 -26.47616,5.68788 -32.08623,7.24968 -63.5,17.67789 -41.52896,13.78609 -75.82156,28.48054 -130.83756,56.06418 -12.83565,6.43548 -23.54643,12.19858 -23.80173,12.80689 -0.2553,0.60831 4.94349,10.17041 11.55287,21.24911 18.94617,31.75777 38.00521,66.88401 41.99346,77.39487 0.5739,1.5125 1.66489,2.75 2.42441,2.75 1.36429,0 8.16383,-4.78126 14.35911,-10.09695 1.75481,-1.50566 5.9204,-4.33749 9.25688,-6.29294 4.99817,-2.92935 6.50531,-3.38847 8.55944,-2.60749 1.37122,0.52133 2.49312,1.49902 2.49312,2.17263 0,0.95258 0.26667,0.95808 1.2,0.0247 1.68136,-1.68136 3.12759,-1.49606 2.43383,0.31185 -0.31909,0.83152 -0.0562,2.66179 0.58418,4.06728 0.96445,2.11675 0.8311,3.17411 -0.77684,6.15939 -1.79866,3.33936 -1.94117,5.8122 -1.94117,33.68271 0,26.09508 0.25197,31.13831 1.90252,38.07877 1.04638,4.4 1.94638,10.925 2,14.5 0.081,5.40152 -0.30885,7.04154 -2.3069,9.70445 -1.32242,1.76245 -3.66044,3.48033 -5.19562,3.81751 -2.56909,0.56427 -13.79752,-1.92541 -21.4,-4.74502 -3.67619,-1.36342 -19.66076,-12.22277 -28.56017,-19.40276 l -6.56017,-5.29271 -4.81101,1.44791 c -6.97364,2.09875 -10.19924,1.00183 -9.6433,-3.27938 0.0893,-0.6875 -0.30327,-1.25 -0.87233,-1.25 -0.61948,0 -0.83835,-1.56238 -0.54544,-3.89363 0.3719,-2.96 0.10504,-4.04104 -1.11294,-4.50843 -0.8988,-0.3449 -1.35533,-1.25799 -1.03993,-2.07992 0.30922,-0.80582 -0.20659,-1.91334 -1.14624,-2.46116 -1.54523,-0.90087 -1.51738,-1.00185 0.29153,-1.05686 1.84751,-0.0562 1.86576,-0.13898 0.23946,-1.086 -1.59614,-0.92945 -1.43354,-1.37014 1.74133,-4.71959 1.92602,-2.03192 3.50577,-4.09916 3.51054,-4.59385 0.005,-0.4947 4.80692,-5.76868 10.67146,-11.71996 l 10.66278,-10.82052 -2.83217,-6.78004 c -9.64994,-23.1014 -51.94047,-98.32532 -55.69773,-99.07189 -0.80785,-0.16052 -8.62985,3.48222 -17.38224,8.09497 -30.40173,16.02257 -35.94368,18.96821 -41.41343,22.01199 -7.74485,4.30982 -31.04842,16.67152 -47,24.9318 -7.425,3.84493 -18.9,10.01621 -25.5,13.71397 -6.6,3.69776 -16.95,9.32631 -23,12.50789 -6.05,3.18158 -18.51767,10.45266 -27.70594,16.15796 -9.18827,5.70535 -17.00399,10.37332 -17.36828,10.37332 -0.36429,0 -10.39662,6.45621 -22.29406,14.34714 -11.89745,7.89092 -25.71714,16.84622 -30.71044,19.90066 -4.9933,3.05444 -13.38086,8.47037 -18.63902,12.0354 -7.413988,5.02669 -10.146468,6.36983 -12.171277,5.98277 -3.051395,-0.58331 -3.005672,-0.41361 -1.225348,-4.54809 4.133079,-9.59833 28.601315,-28.83275 69.895275,-54.94447 6.7205,-4.24963 18.15114,-11.56074 25.40143,-16.24691 7.25029,-4.68618 18.72529,-11.50391 25.5,-15.15051 6.77471,-3.6466 17.04266,-9.42482 22.81766,-12.84048 5.775,-3.41566 15.675,-8.83996 22,-12.05401 6.325,-3.21404 13.3,-6.9745 15.5,-8.35659 2.2,-1.38209 9.625,-5.49966 16.5,-9.15016 6.875,-3.65051 21.05,-11.26596 31.5,-16.92324 10.45,-5.65727 24.625,-13.22214 31.5,-16.81083 6.875,-3.58868 13.12699,-7.10399 13.89331,-7.8118 1.1752,-1.08547 0.1389,-3.45045 -6.62011,-15.1079 -6.79769,-11.72417 -23.38076,-41.12686 -41.02053,-72.73161 -2.42837,-4.35085 -10.61431,-18.75085 -18.19098,-32 C 261.75582,52.15262 254.21921,38.74013 249.37398,28.99407 240.2366,10.61443 239.34904,5.2875704 244.76328,1.3220104 c 4.85626,-3.55688 12.14747,0.42979 13.87134,7.58454 0.89925,3.7322196 7.38177,16.4426296 14.98381,29.3790396 11.55613,19.66508 16.86898,28.80289 26.86627,46.20848 5.37038,9.35 13.82761,23.975 18.79385,32.5 4.96624,8.525 18.10958,31.475 29.20742,51 23.99004,42.20692 32.28741,56.26185 33.74682,57.16382 0.59472,0.36755 14.84087,-6.23434 31.65812,-14.67087 29.81794,-14.95845 59.51822,-28.93127 76.27277,-35.88335 4.56723,-1.89511 11.19208,-4.65594 14.72191,-6.13517 3.52982,-1.47924 20.85482,-7.55246 38.5,-13.49604 24.13158,-8.12845 37.65806,-12.06044 54.58214,-15.86639 12.375,-2.78293 28.95368,-6.62289 36.8415,-8.53325 10.28437,-2.49077 19.47845,-3.91639 32.5,-5.0394 9.98718,-0.86131 29.6335,-3.10435 43.6585,-4.98453 43.78119,-5.86926 58.28193,-7.55657 65,-7.56339 3.575,-0.004 10.325,-0.46501 15,-1.02527 17.57867,-2.10667 43.9483,-3.95322 56.5,-3.95645 12.74419,-0.003 43.29249,3.29114 59.5,6.41665 10.86303,2.09487 20.81562,3.39952 35,4.58801 6.875,0.57605 20.15,1.71702 29.5,2.53548 9.35,0.81847 23.3,1.93036 30.99997,2.47087 17.8662,1.25413 22.191,1.79929 32.0586,4.04111 4.4322,1.00696 13.7539,2.53286 20.715,3.39089 6.961,0.85803 15.8406,2.22988 19.7325,3.04855 3.8918,0.81868 11.22,1.94791 16.285,2.50942 16.504,1.82967 46.727,7.85583 70.2089,13.99896 48.2584,12.62494 71.4518,18.10171 90.7773,21.43574 16.8894,2.91373 46.684,9.96026 63.9791,15.13126 6.4797,1.93734 17.7353,4.88343 25.0124,6.54686 13.4231,3.06827 33.6848,10.41809 54.7312,19.85344 6.325,2.83557 14.65,6.42877 18.5,7.98489 3.85,1.55612 11.5,4.94536 17,7.53164 5.5,2.58629 13.15,5.95433 17,7.48454 3.85,1.5302 12.625,5.03392 19.5,7.78602 6.875,2.75211 29.375,10.49069 50,17.19686 20.625,6.70617 40.65,13.3488 44.5,14.7614 15.4324,5.6623 33.0446,14.93355 46.237,24.33974 7.2803,5.19088 15.8303,11.12224 19,13.18081 3.1696,2.05857 9.363,6.46769 13.763,9.79805 4.4,3.33036 11.825,8.61736 16.5,11.7489 10.0531,6.73403 27.9074,20.88452 35.8524,28.4149 3.1062,2.94408 9.2476,8.45576 13.6476,12.24819 4.4,3.79243 11.8925,10.45737 16.65,14.81098 4.7574,4.35361 10.3824,9.0912 12.5,10.52797 2.1175,1.43678 8.8,6.62053 14.85,11.51946 6.05,4.89893 12.125,9.41731 13.5,10.04086 1.375,0.62354 2.95,1.47502 3.5,1.89217 0.55,0.41715 3.8478,2.8079 7.3285,5.31277 3.4806,2.50488 7.0806,5.96959 8,7.69937 2.215,4.16763 21.4747,23.51464 27.1524,27.27545 2.4645,1.63244 11.6895,10.04339 20.5,18.69099 8.8105,8.6476 18.7191,17.70211 22.0191,20.12114 8.2577,6.05321 33.1917,31.73374 38.5032,39.65595 3.9513,5.89352 8.9033,12.07354 17.6023,21.96779 14.0102,15.93499 20.8261,24.21241 30.9052,37.53221 15.1667,20.0431 19.0989,25.45171 24.8227,34.14262 3.2083,4.87156 9.5083,14.36433 14,21.09505 4.4916,6.73071 10.3808,15.73071 13.0871,20 2.7062,4.26928 6.5695,9.78733 8.585,12.26233 3.3677,4.13557 8.4876,12.37678 21.7438,35 2.7393,4.675 5.9246,10.36162 7.0783,12.63694 2.2396,4.41681 10.5102,25.19789 11.6861,29.36306 0.3882,1.375 3.4207,9.025 6.739,17 6.1985,14.89739 6.3194,15.37434 16.3494,64.5 1.3475,6.6 3.3245,15.15 4.3933,19 1.0689,3.85 3.3312,13.75 5.0275,22 1.6963,8.25 4.3808,20.625 5.9656,27.5 3.2964,14.3002 7.4944,46.3074 9.0422,68.942 0.5807,8.493 1.9214,21.31803 2.9792,28.50003 1.0578,7.1819 2.4095,21.833 3.0039,32.558 0.5943,10.725 1.2857,20.4 1.5365,21.5 1.5521,6.8087 3.4387,45.2813 3.4573,70.5 0.036,49.356 -3.5939,114.5853 -7.1513,128.5 -1.1249,4.4 -2.8571,12.05 -3.8492,17 -4.2614,21.2605 -7.3631,34.5786 -10.0144,43 -9.5532,30.3448 -19.4995,69.2631 -27.4737,107.5 -2.9529,14.1597 -10.9798,38.6674 -20.8397,63.6283 -7.6917,19.4718 -15.6121,41.5251 -20.2459,56.3717 -2.533,8.1159 -11.6038,27.6734 -19.651,42.3695 -5.7729,10.5428 -16.2487,36.0849 -23.3751,56.9935 -3.5361,10.3746 -8.0476,22.5246 -10.0256,27 -1.978,4.4753 -5.6076,13.312 -8.0658,19.637 -7.809,20.093 -9.9579,25.3372 -13.2065,32.2293 -1.7446,3.7011 -5.2281,11.8011 -7.7411,18 -2.5131,6.1989 -6.5455,16.1437 -8.9609,22.0996 -8.0577,19.8687 -26.0693,53.268 -32.4605,60.1923 -1.0261,1.1116 -3.4725,5.6116 -5.4364,10 -4.7939,10.7118 -5.3188,11.7744 -14.0683,28.4788 -12.2359,23.3608 -14.6429,33.6532 -12.3939,52.9977 0.9893,8.5096 0.9408,10.5214 -0.3196,13.2665 -0.8171,1.7797 -1.6529,3.7426 -1.8572,4.3619 -0.2323,0.7041 -1.8704,0.1737 -4.3715,-1.4155 z m -389.274,-16.8809 c -2.3323,-0.938 -17.0393,-18.3262 -22.7145,-26.8556 -6.5017,-9.7715 -12.0224,-21.4036 -14.2088,-29.9379 -1.878,-7.3304 -1.3331,-17.6357 1.1921,-22.5442 2.435,-4.7332 9.025,-13.143 16.4494,-20.992 6.0713,-6.4185 14.4441,-17.476 27.2594,-36 9.7114,-14.0375 13.6136,-18.0125 28.6539,-29.1882 7.5034,-5.5754 17.0175,-12.8956 21.1425,-16.2669 11.2819,-9.2207 22.3244,-17.4197 34,-25.2445 5.8266,-3.905 13.8381,-10.4625 18,-14.7333 7.2525,-7.4424 20.2855,-17.5926 27.1589,-21.1515 2.0808,-1.0774 5.4158,-1.6944 8.8411,-1.6357 6.1566,0.1056 20.0789,3.914 25.1632,6.8834 4.5311,2.6463 12.4963,12.7162 19.991,25.2735 10.0881,16.9024 11.0266,19.942 11.9072,38.5632 0.8192,17.326 2.351,24.1152 7.9173,35.092 3.4125,6.7293 3.6948,8.408 1.4143,8.408 -1.0669,0 -1.3992,0.5415 -0.9886,1.6113 0.4489,1.1701 0.1902,1.4471 -0.945,1.0115 -0.8598,-0.3299 -1.3076,-0.1861 -0.995,0.3196 1.1033,1.7852 -1.6755,2.2584 -6.0573,1.0316 -11.1519,-3.1224 -17.1407,-18.0101 -18.2944,-45.4785 l -0.6721,-16.0046 -5.076,-9.4954 c -6.6044,-12.3544 -13.7751,-23.3866 -16.6925,-25.6814 -1.277,-1.0045 -5.7241,-2.6736 -9.8826,-3.7091 l -7.5608,-1.8828 -7.3643,5.1073 c -4.0504,2.809 -11.5639,9.1749 -16.6966,14.1465 -5.1328,4.9715 -14.3578,12.4033 -20.5,16.5151 -6.1423,4.1117 -16.1178,11.3202 -22.1678,16.0188 -6.05,4.6986 -16.5616,12.6935 -23.3591,17.7665 -19.2852,14.3925 -24.2213,18.7923 -29.619,26.4009 -2.762,3.8934 -8.9381,12.6463 -13.7246,19.4508 -4.7864,6.8046 -13.0172,17.0761 -18.2907,22.8257 -5.2734,5.7495 -10.9602,12.4995 -12.6373,15 -2.7979,4.1714 -3.0128,5.0857 -2.6075,11.0909 0.7278,10.7818 8.1906,25.415 21.8222,42.7891 6.4256,8.1897 9.916,14.2183 9.916,17.1269 0,0.3642 -0.9175,1.647 -2.039,2.8507 -1.9305,2.0723 -4.9057,2.6562 -7.735,1.5183 z M 258.32592,1839.0402 c -8.41613,-2.007 -14.73321,-8.4638 -28.90665,-29.5461 -12.34962,-18.3694 -18.20469,-26.3386 -23.51083,-32 -2.06196,-2.2 -4.9403,-5.8 -6.39631,-8 -2.77458,-4.1923 -15.09962,-12.3704 -31.0444,-20.599 -4.4,-2.2707 -10.025,-5.5593 -12.5,-7.3081 -2.475,-1.7488 -9.31086,-6.0351 -15.1908,-9.5253 -22.72905,-13.4911 -21.18478,-10.7218 -41.302961,-74.0676 -6.224164,-19.5979 -15.790694,-38.77 -29.723133,-59.5674 -8.902005,-13.2883 -11.692237,-18.2703 -12.601487,-22.5 -0.642309,-2.9879 -1.713276,-7.3428 -2.379928,-9.6774 -1.679739,-5.8825 -0.213418,-7.0433 4.24988,-3.3642 3.990917,3.2896 30.842863,38.6349 36.168727,47.609 9.687292,16.3231 17.659412,35.247 23.650252,56.1401 5.41461,18.8834 11.47685,35.7811 14.42074,40.1958 1.56611,2.3486 5.45299,5.4309 10.82603,8.5852 4.61047,2.7067 11.98268,7.2631 16.38268,10.1254 4.4,2.8623 10.7,6.6516 14,8.4206 3.3,1.7691 7.50047,4.8426 9.33439,6.83 3.96659,4.2985 7.33825,10.5671 6.66693,12.3951 -0.8063,2.1954 0.7653,3.3568 6.19648,4.5789 15.4706,3.4811 25.04824,13.205 51.8118,52.6031 4.89598,7.2072 9.19987,11.5148 12.2766,12.287 3.69422,0.9272 17.94169,-3.5127 18.53343,-5.7754 0.70745,-2.7054 4.8583,-2.3898 7.64971,0.5816 1.53834,1.6374 2.47353,4.0862 2.78047,7.2806 0.41236,4.2915 0.13653,5.1622 -2.54487,8.0326 -2.14568,2.297 -3.9024,3.2194 -6.13113,3.2194 -1.71808,0 -5.68444,0.9 -8.81413,2 -5.94678,2.0901 -8.66538,2.2947 -13.90149,1.0461 z m 22.17646,-30.4205 c -2.61953,-2.6196 -2.84606,-3.8789 -4.42967,-24.6256 -1.40933,-18.4635 -3.74802,-26.706 -12.768,-45 -4.20331,-8.525 -9.83533,-20.1842 -12.5156,-25.9093 -5.30676,-11.3354 -11.93484,-21.3255 -16.94676,-25.5427 -1.75449,-1.4764 -6.60653,-4.4177 -10.7823,-6.5363 -4.2495,-2.156 -12.31836,-7.8071 -18.32625,-12.8349 -5.90366,-4.9406 -12.87866,-10.5578 -15.5,-12.4828 -8.21066,-6.0294 -16.62862,-15.7915 -23.25619,-26.9696 -18.57615,-31.3306 -50.14883,-64.3323 -71.820475,-75.0712 -2.920828,-1.4473 -5.990471,-3.3114 -6.821428,-4.1424 -1.694025,-1.694 -7.915237,-2.0524 -8.867974,-0.5108 -0.996108,1.6117 -5.218618,1.1547 -9.238815,-1 -2.052362,-1.1 -5.583245,-2 -7.846408,-2 -3.809569,0 -4.512192,0.4637 -9.470811,6.25 -12.95388,15.1162 -19.822708,19.75 -29.275864,19.75 -6.522601,0 -9.698814,-2.1202 -12.075883,-8.0611 -1.1780193,-2.9442 -1.4529927,-5.5077 -0.9762566,-9.1015 0.3965512,-2.9894 0.9750196,-4.4992 1.4372506,-3.7513 0.468865,0.7586 1.052305,-0.6069 1.48116,-3.4668 0.639314,-4.2632 2.490427,-7.5669 4.287056,-7.6511 2.384355,-0.1118 4.768488,-4.1175 8.107297,-13.6217 5.082419,-14.4675 8.855404,-22.5222 14.215071,-30.3465 7.327914,-10.6977 11.232095,-17.594 20.663653,-36.5 13.211017,-26.4821 13.169606,-26.3654 24.651911,-69.5 3.707348,-13.9271 13.037465,-57.4102 15.663536,-73 3.96835,-23.5584 2.67122,-49.8091 -3.251316,-65.7987 -1.161479,-3.1357 -2.983775,-8.2464 -4.049548,-11.3572 -2.326861,-6.7915 -7.88832,-12.6538 -18.005536,-18.9796 -25.249479,-15.7873 -30.692042,-19.6973 -47.834441,-34.3645 -5.785344,-4.95 -14.208206,-11.7 -18.7174697,-15 l -8.19866133,-6 -0.0329626783,-8.75 c -0.0181294717,-4.8125 0.32052881829,-8.75 0.75257398829,-8.75 1.24320612,0 25.32528972,18.3501 41.33969172,31.5 8.037681,6.6 18.968917,14.7 24.291636,18 19.450148,12.0588 24.184897,15.2746 29.282716,19.8886 8.408517,7.6105 12.337967,13.7632 14.988227,23.4686 8.32427,30.4839 10.00026,49.9534 6.42543,74.6428 -2.03466,14.0523 -10.93502,58.7314 -15.04006,75.5 -3.426035,13.995 -12.111348,45.4782 -13.793536,50 -3.469689,9.3266 -23.667988,48.7123 -30.707862,59.8787 -8.799697,13.9579 -9.72347,15.7355 -14.27587,27.4712 -6.102091,15.7306 -6.113904,15.6446 1.207999,8.7953 5.722947,-5.3535 6.976071,-6.0613 11.798926,-6.6638 3.653052,-0.4565 7.463338,-0.1593 11.796553,0.9199 5.378785,1.3395 7.086152,2.336 10.694747,6.2419 l 4.294133,4.6478 3.894701,-1.2854 c 8.292431,-2.7367 18.867829,1.3764 34.883539,13.5673 19.35756,14.7348 40.0273,37.3704 54.26593,59.4271 10.91616,16.91 14.01294,20.9361 18.82374,24.4727 2.4991,1.8372 10.39382,8.1268 17.54382,13.9768 7.8515,6.424 16.45867,12.4382 21.73318,15.186 6.89583,3.5924 10.28758,6.2019 16.12141,12.4033 7.00791,7.4495 8.12118,9.3364 21.62752,36.6575 7.83161,15.842 14.89687,30.6037 15.70058,32.8037 3.6293,9.9346 5.44258,21.2967 6.01055,37.6623 0.55476,15.9851 0.48815,16.8081 -1.63905,20.25 -2.32839,3.7674 -3.55216,4.4188 -4.39191,2.3377 -0.40351,-1 -0.52017,-1 -0.58333,0 -0.13099,2.074 -4.0129,1.407 -6.5443,-1.1244 z m 448.46535,-67.3031 c -3.84473,-0.3927 -20.19155,-3.7936 -40.79928,-8.4881 -7.31461,-1.6663 -20.58961,-5.2533 -29.5,-7.9711 -8.9104,-2.7178 -22.68819,-6.0646 -30.61733,-7.4372 -19.91705,-3.4481 -27.33988,-6.5416 -58.58339,-24.4152 -9.35,-5.349 -21.5,-12.1005 -27,-15.0034 -18.89112,-9.9708 -25.75163,-14.5383 -43.12315,-28.7097 -9.5751,-7.8111 -21.65051,-17.4039 -26.83425,-21.3173 -5.18374,-3.9133 -12.92709,-10.2424 -17.20745,-14.0646 -8.1823,-7.3065 -18.49417,-13.9034 -72.83515,-46.5951 -23.58263,-14.1873 -34.4647,-28.0345 -32.06864,-40.8066 0.35966,-1.9172 1.08552,-3.3797 1.61301,-3.25 0.52749,0.1297 1.52079,-0.849 2.20735,-2.175 1.4247,-2.7515 3.94417,-3.4127 7.25518,-1.9041 1.92132,0.8754 2.39499,2.0954 2.98094,7.6778 1.13189,10.7837 4.87905,15.0683 22.01216,25.1693 4.95,2.9183 13.67671,8.2105 19.3927,11.7605 5.71598,3.5499 15.16598,9.1554 21,12.4567 19.64525,11.1167 29.56167,17.6028 38.6073,25.2521 4.95,4.1859 13.34821,10.7278 18.6627,14.5376 5.31448,3.8098 13.41448,9.9894 18,13.7326 18.87909,15.411 28.97398,22.337 44.8373,30.7626 9.075,4.82 22.575,12.27 30,16.5556 20.73503,11.9677 37.57248,19.7678 46.12516,21.3677 4.05616,0.7588 11.19984,2.0802 15.87484,2.9366 4.675,0.8563 16.825,4.0114 27,7.0113 10.175,2.9999 24.125,6.6456 31,8.1016 6.875,1.456 16.38695,3.5139 21.13766,4.5733 15.84929,3.5342 21.76961,3.5375 35.85077,0.019 6.86864,-1.716 18.90797,-4.0418 26.75407,-5.1684 16.75979,-2.4064 23.36225,-4.8382 38.16803,-14.0577 24.60204,-15.3197 42.58328,-33.3091 69.84233,-69.8738 5.53534,-7.425 11.95652,-15.975 14.26929,-19 7.53159,-9.851 17.96273,-33.8384 15.12613,-34.7839 -1.41988,-0.4733 -1.5156,-3.871 -0.13313,-4.7255 2.05894,-1.2725 3.98485,-7.9033 3.98485,-13.7198 0,-8.1386 -3.20835,-14.4625 -17.13313,-33.7708 -12.56042,-17.4165 -19.79655,-25.4313 -27.69189,-30.672 -7.35454,-4.8816 -11.99846,-9.086 -13.72606,-12.4268 -2.22601,-4.3046 -1.77676,-4.4301 2.38837,-0.6672 2.11051,1.9068 6.94801,4.6603 10.75,6.119 8.51527,3.2671 11.31857,5.0904 18.20837,11.8428 6.05224,5.9315 25.12066,30.6134 28.96532,37.4922 3.84734,6.8837 4.61257,4.6061 4.67993,-13.9289 0.0659,-18.1432 -0.33041,-19.794 -9.42589,-39.2591 -2.31299,-4.95 -4.63856,-10.125 -5.16794,-11.5 -1.84053,-4.7806 1.71203,0.037 6.63706,9 10.69673,19.4674 14.20817,32.1413 13.14378,47.4402 -0.54074,7.7724 -0.43613,8.8101 0.73616,7.3029 1.66613,-2.1421 3.15001,-7.0349 9.17222,-30.2431 9.7739,-37.6664 9.8612,-38.2392 9.82967,-64.5 -0.0215,-17.9431 -0.44027,-25.7464 -1.77078,-33 -4.99941,-27.2555 -15.3246,-55.5811 -26.08251,-71.5536 -1.13116,-1.6794 -5.92807,-8.2044 -10.6598,-14.5 -4.73173,-6.2955 -9.31112,-12.7964 -10.17641,-14.4464 -0.86529,-1.65 -4.40898,-6.1755 -7.87487,-10.0566 -3.46588,-3.8811 -8.26562,-9.3892 -10.66609,-12.2402 -4.71612,-5.6013 -12.91176,-12.0014 -28.03182,-21.8908 -8.96696,-5.8648 -16.11893,-10.0537 -38.60369,-22.6102 -4.95,-2.7643 -13.94059,-7.9437 -19.97908,-11.5098 -14.50608,-8.5668 -16.22311,-9.5404 -28.52092,-16.1725 -5.775,-3.1144 -16.125,-8.8342 -23,-12.7108 -26.73822,-15.0766 -28.96516,-15.9628 -62,-24.6741 -31.16606,-8.2184 -30.92834,-8.1721 -67.39361,-13.1397 -5.99148,-0.8162 -16.11648,-2.8059 -22.5,-4.4215 -6.38351,-1.6156 -18.93167,-4.3461 -27.8848,-6.0679 -8.95312,-1.7218 -18.40312,-3.7607 -21,-4.5308 -5.60942,-1.6636 -20.37374,-3.4554 -28.56683,-3.4669 -4.74718,-0.01 -7.27255,0.6963 -13.44327,3.7418 -11.54028,5.6957 -15.30499,9.9501 -51.02399,57.6611 -1.27188,1.6989 -4.12059,6.1544 -6.33048,9.9012 -2.20988,3.7467 -4.76926,7.0824 -5.6875,7.4127 -0.91823,0.3302 -2.8632,1.4267 -4.32213,2.4365 l -2.65261,1.836 -1.09739,-3.148 c -0.60357,-1.7309 -1.09739,-3.9428 -1.09739,-4.9149 0,-0.9721 -0.51655,-1.9396 -1.14789,-2.1501 -1.76812,-0.5893 0.60631,-9.0288 4.94564,-17.5783 3.51578,-6.9269 22.91715,-35.729 30.02428,-44.5722 1.82711,-2.2734 6.77711,-7.6546 11,-11.9582 6.46755,-6.5912 9.4121,-8.6986 18.67797,-13.3677 l 11,-5.5431 15,0.628 c 10.60811,0.4441 18.22072,1.3688 26,3.1582 6.05,1.3916 16.85,3.6285 24,4.9707 7.15,1.3423 18.37831,3.8194 24.95179,5.5047 6.57349,1.6852 22.77349,4.6409 36,6.5682 27.37974,3.9896 28.83151,4.2928 59.83748,12.4957 31.85391,8.4273 37.48707,10.6967 65.71073,26.4721 8.525,4.7649 18.875,10.4967 23,12.7373 4.125,2.2406 13.575,7.6529 21,12.0274 12.46837,7.3458 18.794,10.9132 42,23.6864 25.3517,13.9542 46.70579,29.5942 57.32692,41.9868 4.4781,5.225 8.38555,9.725 8.68322,10 5.43636,5.0223 20.45817,24.783 26.98656,35.5 7.24652,11.8958 10.0869,15.3077 19.18736,23.0477 13.40641,11.4022 34.43865,32.0789 41.03164,40.338 7.05337,8.8358 11.96177,18.2511 15.02597,28.8228 2.0254,6.9878 2.2583,9.9575 2.2583,28.7915 0,19.1086 -0.177,21.2927 -1.9656,24.25 -1.0811,1.7875 -2.3439,3.25 -2.8062,3.25 -0.4624,0 -1.8057,2.1375 -2.9851,4.75 l -2.1445,4.75 -0.6945,-4.597 c -0.382,-2.5284 -1.456,-6.0696 -2.3867,-7.8693 -1.322,-2.5565 -1.7929,-6.91 -2.1528,-19.903 -0.2534,-9.1469 -0.91092,-19.4931 -1.4612,-22.9915 -1.25613,-7.9859 -5.01116,-17.4487 -9.96631,-25.1153 -4.20368,-6.5039 -26.1873,-29.7732 -26.6935,-28.2546 -0.17358,0.5208 1.24957,6.9732 3.16256,14.3388 5.84029,22.4867 7.03264,32.442 7.05351,58.8919 0.0202,25.6108 -1.06261,33.8878 -7.45686,57 -1.59772,5.775 -4.52805,16.8 -6.51186,24.5 -1.9838,7.7 -5.5496,18.275 -7.92399,23.5 -2.37439,5.225 -6.87842,17.375 -10.00897,27 -10.01416,30.789 -14.45044,39.8751 -27.65112,56.6335 -3.52376,4.4735 -8.61782,11.1732 -11.32015,14.8884 -14.55018,20.0037 -37.85949,45.4876 -51.67986,56.5014 -16.45638,13.1144 -38.0107,25.5552 -49.02632,28.2972 -1.44073,0.3587 -8.64073,1.5243 -16,2.5903 -7.35928,1.066 -19.0055,3.3207 -25.8805,5.0105 -12.00673,2.9511 -19.07581,3.5169 -30,2.4012 z m 575.49997,-15.4037 c -14.0454,-1.6521 -24.2834,-3.4596 -54.2855,-9.5838 -6.9893,-1.4267 -29.1625,-11.4895 -38.9973,-17.6979 -2.171,-1.3705 -10.3893,-5.7491 -18.2628,-9.7302 -7.8736,-3.9811 -16.05,-8.8054 -18.1699,-10.7206 -8.1191,-7.3351 -18.934,-26.672 -31.9837,-57.1863 -5.7821,-13.5204 -6.4001,-15.2201 -8.3314,-22.9158 -5.1596,-20.5596 -7.9,-61.9743 -5.5673,-84.1363 2.9742,-28.2558 6.2824,-50.4264 9.1017,-60.9953 6.1525,-23.065 6.228,-23.6867 5.7053,-46.9526 -0.4461,-19.8556 -0.7609,-22.8213 -4.1166,-38.7764 -3.7491,-17.8258 -10.6633,-41.2487 -17.3347,-58.7236 -4.5135,-11.8226 -10.9082,-23.6048 -19.5387,-36 -3.4466,-4.95 -8.4758,-12.6 -11.1759,-17 -5.157,-8.4034 -14.2085,-22.4182 -28.2831,-43.7917 -9.6399,-14.6392 -11.4766,-18.4629 -20.7545,-43.2083 -7.7955,-20.7917 -11.836,-29.7091 -20.3895,-45 -13.1813,-23.5637 -18.4163,-43.9911 -21.0443,-82.1173 -1.91416,-27.7712 2.0796,-74.20773 7.5017,-87.22383 2.4155,-5.7985 8.2195,-11.1589 12.0824,-11.1589 5.2652,0 10.0793,2.8096 7.5221,4.39 -1.1704,0.7233 -5.9131,13.231 -7.1382,18.8249 -2.0262,9.252 -4.0398,36.40483 -4.0398,54.47423 0,40.3993 5.3084,67.5893 17.5341,89.8109 9.8839,17.965 17.1253,33.6877 23.9497,52 7.2777,19.5286 12.6596,30.5646 19.5782,40.1464 2.4409,3.3805 9.838,14.5502 16.438,24.8215 6.6,10.2713 17.1202,26.4054 23.3783,35.8536 14.0421,21.2002 19.0821,31.7036 27.9889,58.3296 9.1375,27.3158 14.7853,53.6132 16.2803,75.8053 1.2482,18.5282 0.5734,36.4341 -1.6974,45.0436 -7.1555,27.1287 -8.3474,34.1128 -12.5326,73.4323 -2.3924,22.4764 0.2067,60.0443 5.5617,80.388 3.317,12.6017 23.1684,54.2029 30.0281,62.928 3.9106,4.9741 5.9862,6.484 15.4093,11.2099 5.9895,3.0038 14.421,7.5533 18.7367,10.11 12.6547,7.4968 28.7864,15.276 35.0405,16.8977 11.4776,2.9761 43.0841,8.5292 57.013,10.0168 16.1671,1.7267 33.9804,1.9523 42.7932,0.5421 3.3,-0.5281 12.75,-1.6564 21,-2.5074 8.3454,-0.8608 18.7709,-2.634 23.5,-3.9969 4.675,-1.3473 13,-3.3521 18.5,-4.4551 24.1275,-4.8386 36.4073,-10.7886 65,-31.4947 4.4,-3.1863 14.525,-9.6153 22.5,-14.2866 7.975,-4.6712 16.8443,-10.0634 19.7096,-11.9826 9.7112,-6.5046 36.7279,-29.7523 49.7904,-42.8442 15.8431,-15.8789 22.609,-21.7461 37.5,-32.5191 6.325,-4.5759 15.5603,-11.5475 20.5229,-15.4926 13.1638,-10.4645 22.3065,-16.3397 27.9771,-17.9782 8.4464,-2.4406 23.7877,-5.4352 27.929,-5.4517 5.0226,-0.02 10.768,2.0286 10.1567,3.6216 -0.2568,0.669 0.198,1.7683 1.0107,2.4427 3.7192,3.0867 -1.2756,9.8211 -9.0964,12.2646 -2.75,0.8592 -9.275,2.5292 -14.5,3.711 -11.4966,2.6004 -14.0884,4.0363 -31.1473,17.2559 -7.344,5.6911 -16.7277,12.7457 -20.8527,15.6768 -12.7755,9.078 -21.2975,16.4686 -34.6427,30.0433 -22.7894,23.1813 -50.4383,44.6544 -78.5033,60.9684 -6.1501,3.575 -14.5957,8.9956 -18.768,12.0457 -15.4704,11.3096 -21.1959,14.9909 -30.7737,19.7869 -12.9969,6.5079 -21.6561,9.5317 -35.9586,12.5566 -6.5195,1.3788 -16.12,3.6506 -21.3344,5.0485 -5.2144,1.3978 -16.2394,3.2391 -24.5,4.0916 -8.2606,0.8526 -17.7193,1.9788 -21.0193,2.5028 -9.3813,1.4897 -34.4304,0.9534 -52,-1.1133 z M 165.96773,1578.6165 c 0,-0.2076 0.7875,-0.9951 1.75,-1.75 1.58606,-1.2438 1.62143,-1.2085 0.37756,0.3776 -1.30637,1.6657 -2.12756,2.1955 -2.12756,1.3724 z m 421.25067,-20.1082 c -9.70649,-2.7234 -16.39282,-7.181 -19.51515,-13.0101 -0.86408,-1.6132 -0.36346,-1.4577 2.6106,0.8107 9.66931,7.3752 22.35772,10.1539 33.29822,7.2923 3.37939,-0.8839 6.64189,-1.6071 7.25,-1.6071 2.22851,0 1.00901,2.0356 -2.68339,4.4791 -4.87947,3.2291 -13.6647,4.0821 -20.96028,2.0351 z m -349.94512,-58.139 c 0.2859,-1.0313 1.0669,-4.3502 1.73554,-7.3752 1.71364,-7.7526 7.85517,-28.7872 7.91186,-27.0979 0.0259,0.7711 -1.51009,7.0711 -3.41325,14 -1.90317,6.9288 -3.76228,14.5204 -4.13136,16.8701 -0.36907,2.3497 -1.11015,4.5435 -1.64683,4.8752 -0.55965,0.3459 -0.7541,-0.1966 -0.45596,-1.2722 z m 313.29221,-30.0423 c -0.87463,-2.5669 -2.2306,-5.3794 -3.01326,-6.25 -1.57894,-1.7563 -5.96163,-10.4178 -21.08602,-41.6719 -10.16156,-20.9986 -13.71603,-26.9926 -24.54894,-41.3978 -10.11375,-13.4488 -18.30888,-20.7149 -25.82571,-22.8981 -4.74177,-1.3772 -13.30658,-8.634 -15.73683,-13.3336 -1.98095,-3.8307 -0.58834,-3.6216 8.2746,1.2427 5.60204,3.0745 9.1001,4.2483 14.82429,4.974 12.89558,1.635 17.15222,5.0282 32.70846,26.0738 9.81089,13.2728 14.66413,21.1164 18.94316,30.6151 1.68801,3.7471 6.59556,14.2379 10.90566,23.3129 4.3101,9.075 8.81179,20.0637 10.00377,24.4192 2.12146,7.752 2.12995,8.0424 0.40182,13.75 -0.97098,3.207 -2.32687,5.8308 -3.01308,5.8308 -0.68622,0 -1.96328,-2.1002 -2.83792,-4.6671 z m -303.37977,-8.3329 c 0.0103,-1.375 0.36216,-3.85 0.78201,-5.5 l 0.76337,-3 0.0186,3 c 0.0102,1.65 -0.34166,4.125 -0.78201,5.5 l -0.80064,2.5 0.0186,-2.5 z m 126.28876,-50.6178 c -3.19504,-10.1579 -0.40214,-21.2973 9.70345,-38.7022 7.62736,-13.1367 28.7898,-38.8238 28.7898,-34.9454 0,0.6377 -2.3411,4.2208 -5.20245,7.9624 -15.55969,20.3466 -18.82612,25.0321 -23.03206,33.0379 -7.38124,14.05 -9.10531,20.231 -8.37208,30.0151 0.34004,4.5375 0.45223,8.25 0.24931,8.25 -0.20291,0 -1.1641,-2.528 -2.13597,-5.6178 z m 511.49325,-11.2189 c 0,-0.4329 1.34257,-1.7798 2.98349,-2.993 4.88414,-3.611 6.35835,-7.5528 5.71127,-15.2712 -0.69603,-8.3022 -3.51872,-14.0417 -11.50772,-23.3991 -13.31387,-15.5943 -22.6413,-19.5964 -33.21178,-14.25 -6.17904,3.1253 -10.17798,9.1493 -10.76391,16.2149 -0.30702,3.7023 -0.0869,5.5351 0.66482,5.5351 0.61811,0 1.12383,-0.6199 1.12383,-1.3776 0,-0.7576 0.74818,-1.9951 1.66262,-2.75 0.91444,-0.7548 1.4747,-0.9224 1.24501,-0.3724 -0.22968,0.55 -1.06826,2.6875 -1.86351,4.75 -2.57282,6.6727 -6.04412,4.1544 -6.04412,-4.3849 0,-7.3104 0.9898,-9.8138 6.05123,-15.3048 5.26083,-5.7074 10.97048,-7.9559 18.66428,-7.3504 8.17424,0.6434 13.90033,3.7701 23.70695,12.9453 6.81697,6.378 9.29255,9.5126 12.26906,15.5351 3.22804,6.5315 3.73425,8.503 3.76869,14.6773 0.0559,10.012 -2.69848,14.1111 -11.80922,17.575 -1.45805,0.5543 -2.65099,0.6537 -2.65099,0.2207 z m 672.49997,-2.5712 c -17.2345,-6.9873 -22.387,-10.5097 -39.5,-27.0036 -29.5963,-28.5255 -40.0811,-40.3634 -53.0602,-59.9071 -19.3824,-29.1858 -29.5807,-60.8312 -33.8964,-105.1814 -1.1456,-11.7725 -3.1285,-44.8373 -5.5474,-92.5 -0.8234,-16.225 -2.1525,-38.95 -2.9534,-50.5 -0.801,-11.55 -1.7314,-27.75 -2.0677,-36 -1.1781,-28.90503 -4.5202,-43.87123 -16.5248,-74.00003 -8.6603,-21.7354 -11.3139,-29.2354 -14.4848,-40.9384 -4.4512,-16.4283 -1.7399,-12.0367 10.4578,16.9384 28.0444,66.6188 27.1724,62.1825 26.8567,136.63463 -0.2028,47.8293 0.014,55.8736 2.4972,92.8654 3.1366,46.7169 4.8244,63.1311 8.274,80.4647 4.7609,23.923 12.3537,42.2528 26.9155,64.9771 9.7056,15.1459 14.0663,20.7008 34.5867,44.0582 25.8761,29.4535 36.8151,38.6046 56.9468,47.6395 6.325,2.8386 11.6875,5.3184 11.9167,5.5108 1.4082,1.182 -3.544,-0.2719 -10.4167,-3.0582 z M 256.00038,1383.2441 c 0.15091,-12.713 20.49777,-41.3593 29.25394,-41.1866 2.8296,0.056 2.95592,0.1672 1.05759,0.9329 -1.1857,0.4783 -3.50817,2.8123 -5.16105,5.1866 -1.65288,2.3744 -6.01606,7.2349 -9.69594,10.8011 -7.12421,6.9042 -10.29856,12.1194 -12.96995,21.3087 -1.82884,6.291 -2.53413,7.1305 -2.48459,2.9573 z m 469.57285,-45.8913 c -3.79197,-0.8131 -12.56697,-3.9702 -19.5,-7.016 -29.81168,-13.0965 -40.35746,-16.6156 -53.3555,-17.8045 -4.2625,-0.3899 -7.75,-1.1204 -7.75,-1.6235 0,-1.4894 16.46227,-1.0428 24.79216,0.6726 8.8848,1.8297 19.14681,5.6915 38.20784,14.3785 7.425,3.3839 16.425,7.318 20,8.7424 11.13701,4.4373 10.29357,5.371 -2.3945,2.6505 z m -432.33099,-35.9637 c -9.9672,-2.5587 -17.06178,-7.0364 -26.69054,-16.8456 -6.72479,-6.8508 -10.45711,-9.8233 -14.3712,-11.4456 -7.20155,-2.9849 -21.05794,-13.0598 -27.19135,-19.7707 -2.77486,-3.0362 -6.96536,-9.3981 -9.31222,-14.1375 -6.12966,-12.3789 -5.49259,-12.134 -32.82337,-12.6149 -12.31221,-0.2167 -24.33133,-0.4359 -26.70915,-0.4873 -5.62543,-0.1215 -5.27929,-1.8546 1.25129,-6.2652 5.22673,-3.53 9.95,-8.8945 11.02099,-12.5173 0.80069,-2.7084 -1.03181,-3.8101 -9.68363,-5.8214 l -6.26533,-1.4565 5.82378,0.5009 c 3.20308,0.2755 7.36558,1.1451 9.25,1.9325 2.85227,1.1917 3.42622,1.9485 3.42622,4.5178 0,3.792 -2.15457,7.3606 -7.40557,12.2658 l -4.01438,3.75 13.45997,0.036 c 19.01839,0.05 32.27833,1.3805 36.09932,3.6211 2.07318,1.2157 4.87993,4.9071 8.24458,10.8432 5.90927,10.4254 10.59094,15.4645 20.3263,21.8782 7.25062,4.7767 11.9881,6.8131 18.75522,8.0616 6.14465,1.1337 9.39558,3.2263 18.03456,11.6088 4.4,4.2693 11.02701,9.783 14.72669,12.2525 7.56801,5.0516 12.51389,10.2034 10.52245,10.9605 -0.68702,0.2611 -3.60061,-0.1288 -6.47463,-0.8666 z M 161.96773,1171.5014 c 0,-0.2148 4.28867,-2.9146 9.53037,-5.9996 11.67221,-6.8694 15.46963,-11.4262 15.46963,-18.5631 0,-3.9773 -0.57727,-5.4463 -3.52794,-8.978 -4.76985,-5.7092 -7.26321,-7.5439 -15.05027,-11.0747 -7.51367,-3.4069 -8.02991,-4.5812 -1.09665,-2.4946 9.25789,2.7863 19.24105,10.7013 21.71949,17.2201 1.08167,2.845 1.1538,9.0321 0.13508,11.5879 -1.36801,3.4322 -8.59596,9.9759 -14.06522,12.7338 -6.75039,3.4038 -13.11449,6.1059 -13.11449,5.5682 z m 3.10472,-130.0073 c 0.61402,-1.65 2.84248,-8.4 4.95214,-15 2.10966,-6.6 3.85991,-11.0618 3.88944,-9.9151 0.078,3.0267 -6.5846,23.5603 -8.40872,25.9151 -1.45285,1.8756 -1.47978,1.8134 -0.43286,-1 z m 542.28481,-63.26533 c -2.39554,-1.5849 -4.1613,-7.1088 -4.84268,-15.1497 -1.48102,-17.4773 -7.02551,-31.6129 -16.6236,-42.3818 -4.55971,-5.1158 -6.818,-6.489 -26.50991,-16.1196 -11.83909,-5.79 -22.85465,-11.4737 -24.47902,-12.6304 -2.57124,-1.8309 -11.8673,-13.1909 -26.70687,-32.6364 -5.50355,-7.2117 -16.23323,-26.1747 -19.66762,-34.75934 -3.98739,-9.9669 -6.22477,-19.71878 -8.55057,-37.26864 -2.5442,-19.19783 -9.37599,-40.79841 -14.53547,-45.95788 -0.71194,-0.71195 -2.04018,-3.44016 -2.95164,-6.06269 -2.70486,-7.78264 -5.3482,-12.49979 -9.67658,-17.26825 -43.74359,-48.19119 -50.47777,-54.30923 -70.55683,-64.10135 -10.33458,-5.03994 -14.90381,-7.83849 -16.75,-10.25898 -2.66811,-3.49807 -3.38612,-7.63967 -1.32445,-7.63967 0.79079,0 0.65529,-0.55899 -0.3885,-1.60278 -1.04766,-1.04766 -2.35799,-1.36308 -3.7833,-0.91071 -2.03195,0.64492 -2.06159,0.77904 -0.43504,1.9684 1.22482,0.89561 1.87749,3.10121 2.188,7.39396 0.39371,5.44295 0.0477,6.94904 -3.13765,13.65643 -1.96909,4.14634 -5.10801,9.89137 -6.97539,12.76675 -1.86738,2.87537 -6.46178,10.40295 -10.20978,16.72795 -3.74801,6.325 -8.02862,13.3 -9.51246,15.5 -5.6759,8.41527 -12.95962,22.62145 -12.94727,25.25238 0.007,1.51119 0.93466,5.67262 2.06125,9.24762 1.4212,4.50989 2.05146,9.23587 2.05853,15.43576 0.01,8.44714 -0.21036,9.37673 -4.02286,17 -2.60879,5.2164 -6.73565,11.06596 -11.68605,16.56424 -9.80558,10.89078 -12.58293,14.97475 -18.2404,26.82179 -4.22411,8.84548 -4.62184,10.32352 -4.62253,17.17821 -5.6e-4,5.4807 0.90731,10.7308 3.37203,19.5 l 3.3728,12 0.59716,37 c 0.32845,20.35 0.25967,37.15 -0.15283,37.3333 -0.4125,0.1834 -0.75,0.7649 -0.75,1.2922 0,4.1155 -8.79924,4.2165 -12.00746,0.1379 -3.8214,-4.8581 -4.28491,-9.5249 -4.39633,-44.2634 l -0.10746,-33.5 -3.24437,-11.6963 c -4.27152,-15.3991 -4.25441,-21.26351 0.10333,-35.42475 4.58899,-14.91268 10.08066,-25.07884 18.30112,-33.87895 16.0437,-17.17499 18.76135,-24.18159 14.35117,-37 -1.36844,-3.97745 -2,-8.41747 -2,-14.06055 0,-7.88591 0.20439,-8.63521 4.66267,-17.09345 4.71401,-8.94339 17.55372,-29.68727 30.85288,-49.846 8.53663,-12.93975 9.01176,-13.83978 9.89814,-18.75 0.416,-2.30452 1.23766,-3.75 2.13162,-3.75 0.80008,0 1.45469,-0.52707 1.45469,-1.17126 0,-0.64419 0.73435,-1.98271 1.63189,-2.97448 1.37867,-1.52341 1.44111,-2.2638 0.40242,-4.77143 -1.66725,-4.02509 -0.48279,-10.27007 2.61106,-13.76655 12.19787,-13.78534 13.8395,-17.08746 23.39685,-47.06258 3.15031,-9.88045 5.59716,-20.08683 6.95238,-29 3.93201,-25.86056 7.91048,-33.63534 16.93907,-33.10262 2.79999,0.16522 4.50762,-0.23564 5.1187,-1.20158 1.36709,-2.16095 1.13755,-3.23636 -0.55237,-2.58787 -2.94115,1.12862 -1.55442,-4.11319 2.41749,-9.13803 2.15462,-2.7258 10.35581,-10.52871 18.22486,-17.3398 7.86905,-6.81109 19.26868,-17.11981 25.33251,-22.90827 15.60736,-14.89859 20.3786,-18.66707 44.02945,-34.77589 27.10179,-18.45928 52.43202,-36.38532 60.61654,-42.89794 3.56014,-2.83289 16.41475,-15.27075 28.56579,-27.63967 21.77366,-22.16409 22.24327,-22.73216 32.50962,-39.32549 5.72925,-9.2601 12.37066,-20.30049 14.75867,-24.5342 5.7013,-10.10782 9.47788,-13.74457 14.60024,-14.05967 l 3.94483,-0.24267 0.30486,4.75157 c 0.42915,6.6889 -5.75985,20.81663 -18.59971,42.45791 -8.67175,14.61602 -11.98072,19.13702 -21.95741,30 -20.12668,21.9147 -39.37714,40.49464 -49.76633,48.03291 -27.78988,20.16402 -35.31905,25.49778 -50.98141,36.11589 -23.67024,16.04695 -31.48869,22.0902 -43,33.23673 -5.5,5.32571 -16.65634,15.47053 -24.79187,22.54405 -8.13553,7.07352 -16.77813,14.60522 -19.20578,16.73713 -4.71884,4.14397 -11.52062,6.21958 -14.73835,4.49751 -1.5278,-0.81766 -1.764,-0.47945 -1.764,2.52574 0,1.90839 -0.64088,6.53673 -1.42419,10.28518 -0.7833,3.74846 -2.34259,14.03273 -3.46508,22.85394 -1.26794,9.96424 -3.35842,20.56874 -5.51968,28 -8.75966,30.11922 -14.45558,42.22763 -25.61923,54.46144 -6.08543,6.66878 -7.42953,8.9273 -4.06083,6.82352 1.48356,-0.92651 2.8236,-0.92001 5.99126,0.029 7.16054,2.14535 29.26394,13.09047 35.67578,17.66586 7.61874,5.43662 23.66753,21.12461 41.92408,40.98157 21.17741,23.03387 24.30393,27.18803 25.67929,34.11964 0.64172,3.2342 2.61769,8.58036 4.39104,11.88036 5.32968,9.91791 11.18158,28.74197 13.523,43.5 4.45754,28.09601 7.88691,38.03841 20.10377,58.28475 5.13968,8.5176 20.68223,29.0712 27.80079,36.7639 3.33055,3.5992 12.3579,8.5467 38.27407,20.9766 7.33736,3.5191 9.90667,5.4374 15.69094,11.7148 6.55918,7.1185 12.26668,16.262 16.39159,26.26 2.97682,7.2152 5.61606,21.8007 5.63026,31.115 0.0111,7.2998 -0.31346,9.0305 -2.12575,11.3343 -1.6429,2.0887 -2.33502,2.4098 -2.98468,1.3849 -0.63308,-0.9987 -0.84966,-1.0199 -0.86112,-0.084 -0.0166,1.3523 -3.81926,1.68 -5.62578,0.4847 z m 368.68884,-5.2189 c 4.3884,-8.7728 24.2401,-34.2787 35.3791,-45.4557 17.2084,-17.2672 30.7415,-25.8561 82.0425,-52.0689 8.8,-4.4964 19.6,-9.3614 24,-10.811 9.0423,-2.979 24.4685,-4.6614 34.5,-3.7626 l 6.5,0.5824 -11.371,1.3472 c -22.0598,2.6137 -33.6305,6.9146 -65.629,24.3949 -41.3981,22.6151 -41.4387,22.6395 -53.1124,31.9012 -10.1977,8.0907 -19.8375,17.8848 -30.9586,31.4543 -10.2518,12.5088 -23.1885,26.0924 -21.3506,22.4182 z m 832.439,-3.2658 c -0.3937,-1.2375 -0.9427,-9.225 -1.2199,-17.75 -0.4138,-12.7272 -0.1024,-18.2728 1.7412,-31 3.1587,-21.8061 3.0204,-37.0095 -0.473,-52 -1.474,-6.325 -3.7865,-17.35 -5.1389,-24.5 -2.4628,-13.0208 -4.8176,-22.30822 -10.3957,-41 -1.6414,-5.5 -3.1764,-11.125 -3.4112,-12.5 -0.7562,-4.42721 -8.6278,-28.21015 -12.5772,-38 -2.1079,-5.225 -6.7325,-15.575 -10.277,-23 -6.3247,-13.24884 -10.1272,-21.40176 -24.9704,-53.53865 -9.0784,-19.65567 -13.1682,-25.93951 -21.655,-33.27238 -6.9004,-5.96216 -10.2188,-9.32757 -20.1289,-20.41375 -5.7067,-6.38395 -7.1053,-8.77522 -5.1322,-8.77522 1.5538,0 12.4103,5.1744 19.6208,9.35159 20.4407,11.84177 28.509,22.14887 42.8663,54.76065 3.4838,7.91327 8.9174,20.23776 12.0748,27.38776 23.5941,53.43069 25.7267,59.08524 32.4337,86 4.2678,17.12609 6.0282,27.23042 7.2295,41.4957 0.5792,6.8774 2.4024,19.7043 4.0516,28.5043 4.4195,23.5818 4.6984,35.2366 1.3162,55 -2.1157,12.3627 -2.8482,20.4898 -3.2219,35.75 -0.4575,18.6796 -1.083,22.6853 -2.7328,17.5 z"
     id="path8362" />
</svg>
