<?xml version="1.0" encoding="UTF-8" standalone="no"?>
<svg
   xmlns:dc="http://purl.org/dc/elements/1.1/"
   xmlns:cc="http://creativecommons.org/ns#"
   xmlns:rdf="http://www.w3.org/1999/02/22-rdf-syntax-ns#"
   xmlns:svg="http://www.w3.org/2000/svg"
   xmlns="http://www.w3.org/2000/svg"
   version="1.1"
   id="svg201"
   width="2267.1331"
   height="920.95923"
   viewBox="0 0 2267.1331 920.95923">
  <metadata
     id="metadata207">
    <rdf:RDF>
      <cc:Work
         rdf:about="">
        <dc:format>image/svg+xml</dc:format>
        <dc:type
           rdf:resource="http://purl.org/dc/dcmitype/StillImage" />
        <dc:title></dc:title>
      </cc:Work>
    </rdf:RDF>
  </metadata>
  <defs
     id="defs205" />
  <path
     d="m 47.535351,0.00778814 c -2.582798,-0.0682656 -5.323923,0.31549375 -8.390625,1.02343746 -3.82931,0.884 -9.099017,1.5258812 -11.710937,1.4257812 -6.36555,-0.2440997 -15.073207,2.1388751 -19.8105467,5.421875 -4.74933,3.2913002 -8.43912686,10.3247752 -7.46679686,14.2343752 0.37259,1.4981 4.46813246,9.593635 9.10156246,17.990235 4.6334201,8.3965 8.4257811,16.124375 8.4257811,17.171875 0,1.0476 0.888499,5.651522 1.974609,10.232421 1.08612,4.580901 4.009244,20.255078 6.496094,34.830082 2.48685,14.575 5.18691,28.67062 6,31.32422 1.37966,4.5026 1.348724,5.0034 -0.447266,7.5 -2.19303,3.0485 -5.025437,16.88206 -5.023437,24.53516 0.0029,11.6054 8.01595,37.6543 19.8125,64.4082 6.56989,14.9002 7.953283,18.89643 7.501953,21.67773 -0.6427,3.9604 1.962785,13.21624 7.890625,28.02344 2.20856,5.5168 6.394744,16.78125 9.302734,25.03125 12.60164,35.751 18.067351,46.25182 31.929689,61.35742 4.44675,4.8455 6.5625,7.96044 6.5625,9.66407 0,2.99909 8.70693,20.68021 14.08594,28.60351 12.13963,17.8816 38.87477,44.41802 74.91406,74.35742 5.22501,4.3407 24.575,23.02167 43,41.51367 35.83534,35.9657 45.0644,44.25882 60,53.91602 35.36266,22.865 76.13398,34.59762 137.54297,39.57812 44.64864,3.62122 105.48771,1.36508 188.45703,-6.98632 7.975,-0.8028 35.2,-2.89615 60.5,-4.65235 56.60765,-3.9293 109.8236,-4.48455 147,-1.53515 33.92773,2.6917 69.3457,6.31701 99,10.13281 14.85,1.9109 38.7,4.86049 53,6.55469 31.59051,3.7426 52.46631,6.89782 79.50001,12.01562 11.275,2.1346 40.975,7.52311 66,11.97461 53.5454,9.5249 119.73,21.89798 139.5,26.08008 28.2395,5.9736 79.1119,19.97699 116,31.92969 40.752,13.2047 98.0459,28.88288 184.5,50.48828 34.7604,8.6869 91.901,24.80857 117.0664,33.0293 11.0305,3.6032 32.9058,10.14024 48.6113,14.52734 15.7054,4.387 28.9353,8.2125 29.4004,8.5 0.4652,0.2875 0.3695,1.5673 -0.2129,2.8457 -0.8951,1.9644 -0.4135,3.46915 3.1074,9.71485 9.6694,17.1522 21.3248,23.53602 56.2305,30.79492 32.8328,6.8279 57.0701,9.1117 62.0547,5.8457 1.4687,-0.9623 3.1272,-1.75 3.6856,-1.75 0.5584,0 3.958,2.66648 7.5546,5.92578 7.0791,6.4154 11.326,8.28046 22.9844,10.09766 8.687,1.354 12.098,2.86001 30.7383,13.57031 22.496,12.9257 45.6003,22.39666 59.4043,24.35156 12.1701,1.7235 22.407,-0.65288 54.875,-12.74218 5.862,-2.1827 8.7071,-2.61249 17.5,-2.64649 6.9877,-0.027 12.6743,0.54559 17,1.71289 7.6817,2.073 22.7461,9.24633 36,17.14063 17.6229,10.4966 27.8772,12.20872 49.5,8.26562 7.7,-1.4042 17.3275,-3.08377 21.3945,-3.73047 4.0669,-0.6467 11.399,-2.47364 16.2949,-4.06054 9.6212,-3.11852 15.2238,-3.82774 39.3438,-1.59571 0.3522,-3.57853 0.9922,-7.1413 1.916,-10.66797 -2.2137,-0.24217 -4.2061,-0.47242 -5.4492,-0.65039 -11.588,-1.6589 -25.8035,-1.19158 -33.5234,1.10352 -15.1443,4.5022 -48.9855,10.92578 -57.5625,10.92578 -7.2659,0 -15.8582,-2.7391 -24.4122,-7.7832 -14.292,-8.4277 -32.1815,-16.90905 -40.6855,-19.28907 -6.5004,-1.81919 -10.8286,-2.32907 -19.8164,-2.33007 -12.4973,-0.002 -9.7141,-0.71634 -39.5,10.16406 -14.6341,5.3456 -24.1167,6.85681 -33.1484,5.28711 -12.9544,-2.2515 -35.6169,-12.18857 -60.3145,-26.44727 -13.4749,-7.7795 -18.9855,-9.98348 -28.7187,-11.48828 -9.8546,-1.5237 -11.3898,-2.24177 -18.2481,-8.54687 -3.2949,-3.0291 -7.0215,-5.76769 -8.2812,-6.08399 -2.2304,-0.56 -2.2918,-0.90859 -2.3848,-13.27929 -0.053,-6.9873 -1.3011,-23.21546 -2.7734,-36.06446 -9.4849,-82.7769 -2.7479,-164.10777 23.33,-281.63867 8.4174,-37.9368 24.5368,-88.1249 39.002,-121.4375 3.2391,-7.4594 6.1952,-14.8 6.5703,-16.3125 0.6512,-2.6256 0.9603,-2.75072 6.8242,-2.76172 7.9793,-0.0155 13.7078,-1.60278 27.1426,-7.52148 8.8771,-3.9108 12.0626,-4.84036 16.5117,-4.81836 6.4158,0.0321 8.0753,0.78278 17.4883,7.92578 10.5035,7.9706 17.27,10.73542 27.5,11.23242 11.0589,0.5373 20.2468,-2.43859 35.4082,-11.46289 15.1461,-9.0152 18.8866,-10.34375 29.1055,-10.34375 7.1977,0 10.2022,0.58961 20.3906,4.00781 9.1503,3.0699 14.6007,4.24865 23.2715,5.02735 41.3085,3.7101 53.8993,1.95225 85.5371,-11.93555 1.0703,-0.46982 1.9712,-0.84971 2.9726,-1.2832 -0.074,-2.49128 -0.1151,-5.01615 -0.1152,-7.58203 0,-0.64037 -3e-4,-2.12532 0,-2.2461 0,-0.62499 0,-1.25 0,-1.875 -2.8975,1.19869 -5.885,2.47164 -9.0703,3.89063 -7.7,3.4302 -18.275,7.38601 -23.5,8.79101 -8.5836,2.308 -11.3328,2.55789 -28.5,2.58789 -23.5082,0.041 -35.0144,-1.40318 -48,-6.02148 -8.2547,-2.9359 -11.8326,-3.64571 -20.5,-4.06641 -13.2127,-0.6413 -18.6975,1.02477 -35.1016,10.66797 -16.0857,9.4561 -21.8145,11.41863 -31.6367,10.83203 -8.84,-0.5278 -12.6459,-2.15174 -21.7617,-9.27734 -14.8784,-11.6302 -24.1761,-12.72478 -41.7852,-4.92578 -14.2969,6.332 -17.8765,7.26687 -27.9199,7.29687 -14.3803,0.0427 -15.1891,-0.0432 -16.4492,-1.76953 -2.5561,-3.5018 -59.7041,-2.24686 -83.5859,1.83594 -16.8211,2.8757 -28.6163,7.63889 -37.0508,14.96289 l -3.209,2.78711 -31,0.67578 c -17.05,0.3716 -36.175,1.09246 -42.5,1.60156 -71.428,5.7489 -117.7181,5.92318 -262,0.98828 -28.7823,-0.9844 -75.6048,-3.96478 -125,-7.95898 -37.0781,-2.9983 -51.0848,-3.8852 -79.5,-5.0332 -30.3921,-1.2279 -53.287,-2.89972 -96,-7.00782 -78.4236,-7.5427 -104.2957,-10.92894 -141.7852,-18.55664 -49.59972,-10.0918 -86.75164,-21.38692 -111.98434,-34.04492 -16.3491,-8.2015 -46.04917,-27.74796 -97.73047,-64.31836 -26.63963,-18.8506 -32.40509,-23.32986 -53.5,-41.57226 -17.98669,-15.5544 -26.79665,-22.50191 -43.46875,-34.28321 -7.44219,-5.259 -19.83125,-14.36763 -27.53125,-20.24023 -25.58651,-19.5141 -39.65876,-28.01236 -78.91406,-47.66016 -31.36332,-15.697798 -54.07595,-24.354695 -96.58594,-36.808595 -41.8059,-12.2477 -70.52565,-18.2675 -114.5,-24 -14.85,-1.9359 -34.35273,-4.622856 -43.33789,-5.972657 -26.06329,-3.9156 -40.01157,-4.816546 -62.93945,-4.060546 -28.81902,0.9502 -29.16125,0.93799 -40.89844,-1.53711 -10.08713,-2.127 -10.62333,-2.144562 -14.12109,-0.476562 -8.69732,4.1474 -14.68413,11.04414 -16.4336,18.93164 -2.76983,12.488 -3.09018,16.628185 -1.83593,23.646485 3.49543,19.5592 19.54674,35.614275 41.5664,41.576175 3.936,1.0657 12.88,1.88687 26,2.38477 l 20,0.75781 26,7.56836 c 27.72366,8.0703 40.85328,12.66116 46.5,16.25586 4.77419,3.0392 9.15575,7.85033 19.94336,21.89453 8.0071,10.4244 8.94258,12.04254 7.30469,12.64844 -1.03307,0.3821 -16.92522,1.20176 -35.31445,1.82226 -72.18031,2.4357 -79.40883,2.91701 -112.70703,7.50391 -4.25882,0.5867 -14.02428,-1.01052 -21.66211,-3.54492 -3.33596,-1.107 -17.98946,-7.81365 -32.56446,-14.90235 -21.2927,-10.356 -74.17089,-32.56185 -86.70117,-36.41015 -2.66981,-0.8199 -3.41003,-2.0246 -16.21094,-26.375 C 113.43576,79.069306 103.73367,63.106867 85.843945,36.837867 66.949907,9.09424 58.727476,0.30360574 47.535351,0.00778814 Z M 45.511914,10.554664 c 1.490424,0.02227 3.334409,0.454018 5.298828,1.339843 5.96346,2.6891 11.775401,9.740544 28.457031,34.527344 18.38736,27.3213 25.155377,38.569609 38.726567,64.357429 5.77206,10.968 11.63653,21.37264 13.0332,23.12304 1.87712,2.3525 5.09789,4.16572 12.34766,6.94922 36.05459,13.8431 58.12769,23.20348 81.30859,34.48438 14.575,7.0929 30.1,14.09083 34.5,15.54883 11.4068,3.7798 22.37366,4.21623 40.5,1.61523 14.76952,-2.1193 35.83451,-3.30681 92,-5.19141 33.79813,-1.1341 53.23782,-2.46534 59.25196,-4.05664 4.948,-1.3092 7.48389,-5.00287 5.86914,-8.54687 -1.05277,-2.3106 -1.62372,-2.51759 -6.08594,-2.20899 l -4.92187,0.3418 -11.17969,-14.5 c -12.56045,-16.2928 -18.5018,-22.82936 -24.63477,-27.10156 -6.40255,-4.4601 -19.94487,-9.25613 -52.21094,-18.48633 l -29.41015,-8.41211 -15.58985,-0.0176 c -24.55016,-0.0274 -36.83172,-3.76917 -47.54687,-14.484376 -7.14568,-7.145601 -10.53034,-14.295966 -11.24609,-23.759766 -0.31978,-4.2282 -0.15665,-7.706656 0.375,-8.035156 0.5156,-0.3187 7.14974,0.98669 14.74414,2.90039 12.83787,3.235 13.97689,3.368963 16.19726,1.914063 3.10657,-2.0355 3.14063,-5.978535 0.0703,-7.990235 -1.27412,-0.8349 -8.02412,-2.939834 -15,-4.677734 -6.97587,-1.7379 -12.68164,-3.449334 -12.68164,-3.802734 0,-0.3533 1.75864,-2.358032 3.90821,-4.457032 l 3.9082,-3.816406 10.8418,2.080078 c 5.96293,1.144 17.59179,3.271816 25.84179,4.728516 15.85258,2.799 18.5,3.6384 18.5,5.875 0,2.4895 -4.77888,7.142612 -9.1875,8.945312 -8.41601,3.4412 -9.30327,4.080951 -9.63476,6.939454 -0.66345,5.721198 3.47334,7.046762 12.21289,3.914062 9.20266,-3.2987 17.52684,-13.029841 17.58594,-20.556641 0.0121,-1.5398 -0.66479,-4.1273 -1.50391,-5.75 l -1.52539,-2.949218 7.27539,0.0098 c 9.27087,0.0137 29.64396,2.180822 50.94727,5.419922 9.16879,1.3941 27.16879,3.876072 40,5.513672 29.73562,3.7951 45.85425,6.797344 73.29101,13.652344 26.79354,6.6943 46.32426,12.387209 69.8125,20.349609 23.86241,8.0892 35.79008,13.075193 58.81836,24.591806 39.52453,19.7663 50.90754,26.67614 80.35938,48.77734 8.93098,6.702 22.94464,17.00985 31.14257,22.90625 8.19793,5.8963 23.48653,18.0463 33.97461,27 22.79298,19.4583 30.17796,25.41584 41.43164,33.42774 32.33947,23.0238 41.77932,29.62669 60.00391,41.96679 40.4577,27.39389 58.75778,37.75221 80.23438,45.41211 5.35649,1.91039 9.73997,3.73829 9.75,4.0625 0.006,0.3242 -1.02552,1.06011 -2.29102,1.63672 -1.2655,0.5766 -3.77161,3.81085 -5.57031,7.18555 -3.6289,6.80849 -5.52773,8.40165 -12.51953,10.50585 -6.8509,2.0619 -11.3303,5.45029 -13.7461,10.4004 -2.8414,5.8222 -2.08557,10.5355 3.04883,19.0332 6.2499,10.3439 5.64666,13.89843 -4.71484,27.82813 -8.0704,10.8496 -10.19532,15.21785 -10.19532,20.94336 0,6.8068 3.58039,12.28406 11.77149,18.00976 10.2625,7.1736 14.00184,11.14628 16.31054,17.32618 2.72303,7.2889 6.1072,11.58735 11.1504,14.16015 4.8756,2.4874 11.16433,2.18239 15.02343,-0.72851 6.8694,-5.1816 9.48956,-13.86515 10.78516,-35.74805 0.5164,-8.7218 1.43105,-17.7218 2.03125,-20 1.6396,-6.2238 5.2237,-11.65694 10.8418,-16.43164 6.36245,-5.4073 9.42005,-10.65556 11.90625,-20.43945 1.0802,-4.25061 3.1503,-9.65062 4.6016,-12 4.0065,-6.48582 11.1691,-16.86832 14.2363,-20.63672 2.6196,-3.2186 2.9563,-3.33691 7.7891,-2.75391 2.7784,0.3351 6.6651,1.06182 8.6367,1.61523 l 3.584,1.00585 -0.4532,8.25 c -0.7085,12.8852 -3.6918,17.89297 -14.5234,24.38477 -14.9186,8.9411 -18.2524,13.84006 -17.4766,25.68946 0.3594,5.48989 1.3281,9.02496 4.127,15.06446 5.7645,12.4382 5.0179,20.06047 -3.877,39.60937 -2.3774,5.225 -4.6211,11.14992 -4.9882,13.16602 -0.8835,4.8525 1.4598,12.63842 6.2421,20.73632 5.2218,8.84219 8.6455,12.09765 12.7227,12.09765 4.3227,0 7.6591,-2.75896 12.0234,-9.94336 4.7549,-7.82729 8.7105,-11.11012 18.0918,-15.01562 14.7915,-6.1577 19.432,-10.47532 25.7461,-23.94922 2.176,-4.6435 7.8995,-14.39758 12.7168,-21.67578 4.8174,-7.2782 9.4986,-15.46044 10.4024,-18.18164 2.0981,-6.3168 4.281,-8.30243 14.0019,-12.73243 4.3504,-1.9825 9.1823,-4.51124 10.7383,-5.61914 4.674,-3.3283 7.6156,-9.56338 9.2363,-19.58398 0.8157,-5.0432 2.1936,-10.54431 3.0625,-12.22461 3.2417,-6.2688 2.514,-6.22245 40.0391,-2.53125 31.3724,3.0859 71.0791,6.45508 76.125,6.45508 1.5939,9e-4 2.2854,0.80811 2.7695,3.22851 0.8072,4.0362 11.06,14.27945 18.6074,18.58985 2.9402,1.6793 8.3162,3.78207 11.9473,4.67187 7.925,1.9421 13.6176,5.00466 16.4551,8.85156 1.948,2.641 2.0735,3.90985 1.7851,18.21875 -0.2704,13.4129 -0.065,15.9364 1.6055,19.7129 2.564,5.79619 7.3375,11.06669 14.3203,15.80859 5.9384,4.0328 8.6229,6.92868 16.3535,17.64648 10.6018,14.6984 24.1824,19.40614 45.7676,15.86914 5.3553,-0.8775 13.9053,-2.92071 19,-4.54101 5.0948,-1.6203 13.3137,-3.64846 18.2637,-4.50586 4.95,-0.8573 11.2083,-2.23024 13.9082,-3.05274 8.6524,-2.6359 8.8428,-2.58532 24.8965,6.76368 4.293,2.5 7.8105,4.87991 7.8105,5.28711 0,0.4073 -4.0818,2.44991 -9.0761,4.54101 -4.9943,2.0911 -12.7844,6.01922 -17.3106,8.72852 -4.5262,2.7092 -11.1535,6.19947 -14.7285,7.75586 -8.3797,3.648 -13.3143,6.70863 -19.4844,12.08593 -2.7406,2.3885 -5.9678,4.3418 -7.1719,4.3418 -1.2948,0 -3.5492,-1.56989 -5.5175,-3.8418 -5.2085,-6.0121 -8.1024,-7.48276 -13.6758,-6.94726 -5.8498,0.5621 -12.3594,4.77087 -16.6504,10.76367 -9.1157,12.7309 -8.8935,12.5085 -12.9766,12.8457 -3.6812,0.304 -4.2166,-0.0405 -9.957,-6.42968 -3.3368,-3.714 -9.9453,-10.60957 -14.6855,-15.32227 -7.4976,-7.4541 -9.2774,-9.93406 -13.6817,-19.06836 -3.3677,-6.9846 -7.3176,-13.1784 -11.7988,-18.5 -8.3584,-9.9259 -12.1984,-17.9518 -17.459,-36.5 -7.1903,-25.3521 -12.4964,-33.31613 -28.5352,-42.83203 -13.4548,-7.9828 -23.06,-9.75621 -37.9765,-7.00781 -8.7164,1.6061 -13.163,-0.24815 -24.7949,-10.33985 -13.8479,-12.0143 -20.1059,-14.6303 -30.8086,-12.8789 -7.2592,1.188 -12.9055,4.9468 -16.9903,11.3125 -4.5978,7.165 -4.96,13.90648 -1.3203,24.61718 l 2.7442,8.07227 -2.1309,8.96289 c -4.4693,18.8047 -2.8156,23.29339 15.5293,42.18359 8.5515,8.8057 14.1141,15.40415 15.3574,18.21485 2.2624,5.1145 4.3233,18.04884 3.3594,21.08594 -0.3635,1.1452 -4.3284,5.6884 -8.8106,10.0957 -8.8905,8.7418 -12.6688,14.85528 -15.1367,24.48828 -3.5652,13.9164 0.9692,20.94811 19.0723,29.57031 6.5354,3.1127 14.758,8.11367 20.2617,12.32227 14.9207,11.4097 20.0335,12.36394 50.9902,9.52734 10.1084,-0.9262 14.3145,0.87883 25.1114,10.76953 5.9081,5.4123 11.2527,9.21939 16.9219,12.05469 7.261,3.6319 9.316,4.19834 16.6269,4.58203 7.3994,0.38841 9.7588,0.0248 20.8691,-3.21678 14.9412,-4.35952 21.1983,-5.24031 25.9922,-3.65822 5.8007,1.9144 5.7306,3.98321 -0.2734,8.02931 -13.3439,8.9926 -18.6404,20.28873 -14.209,30.30664 3.6713,8.2995 9.3325,9.98046 24.4434,7.25977 8.8644,-1.59632 10.3667,-1.60138 22.9863,-0.0742 18.6504,2.25699 29.5135,0.45746 39.1934,-6.49414 5.3657,-3.8533 7.3122,-6.46715 12.4961,-16.77735 5.1331,-10.2094 9.3014,-13.44789 23.9648,-18.61719 5.8428,-2.05971 12.7484,-5.09178 15.3457,-6.73829 15.0147,-9.5179 19.1348,-25.50966 9.4219,-36.57226 -4.1695,-4.7489 -9.5189,-6.97412 -19.7188,-8.19922 -27.7923,-3.3379 -31.8028,-4.77233 -30.459,-10.89063 0.9551,-4.34849 6.1123,-8.4483 14.67,-11.6621 4.0506,-1.52121 11.4696,-4.48986 16.4863,-6.59766 15.2909,-6.4245 21.9145,-7.044 29.0859,-2.72071 4.3146,2.601 12.7187,13.32606 15.9199,20.31836 2.4641,5.3823 2.5637,6.2363 1.92,16.3418 -1.7095,26.839 -2.5094,29.90686 -9.8828,37.91406 -9.8323,10.6775 -25.9963,21.37934 -40.9532,27.11524 -20.1569,7.7301 -26.3206,15.42118 -27.7109,34.58008 -0.5935,8.18033 -1.2669,11.11385 -3.6152,15.75 -1.5871,3.13265 -3.1099,5.68487 -3.3848,5.67187 -0.6698,-0.0325 -33.1442,-10.15097 -55.5,-17.29297 -31.9589,-10.21 -79.8672,-23.10754 -106.0684,-28.55664 -20.9432,-4.3556 -85.6486,-16.42108 -139.4316,-25.99804 -25.025,-4.45624 -54.95,-9.90272 -66.5,-12.10352 -24.1843,-4.6083 -55.5571,-9.13335 -100.75002,-14.53125 l -31.75,-3.79297 v -3.72461 c 0,-3.4664 -0.3996,-3.96626 -5.75,-7.19336 -13.8386,-8.3467 -27.23955,-8.96099 -33.88671,-1.55469 -1.17431,1.3084 -2.44111,3.39141 -2.81641,4.62891 -0.7926,2.6138 -1.64179,2.68414 -14.83789,1.24414 -22.82549,-2.4908 -63.57996,-5.07457 -89.41992,-5.66797 -16.21356,-0.3722 -27.97485,-1.02747 -27.65625,-1.54297 1.62077,-2.62249 -1.07868,-5.94791 -9.04493,-11.14062 -5.76293,-3.75649 -9.69486,-7.22662 -12.51562,-11.04492 -4.62696,-6.2633 -8.30755,-8.59766 -13.55469,-8.59766 -8.63703,0 -13.75417,4.55252 -21.89258,19.48242 -3.42742,6.2876 -7.10768,11.59288 -9.29101,13.39258 -4.0176,3.3116 -1.60221,2.95954 -38.33399,5.58984 -11.275,0.8074 -32.65,2.59391 -47.5,3.97071 -66.97771,6.2095 -105.75447,7.96573 -143.26367,6.48633 -82.6073,-3.2584 -134.20262,-18.73924 -174.23633,-52.27344 -4.675,-3.916 -23.35,-22.01716 -41.5,-40.22656 -18.35999,-18.4201 -40.54181,-39.5481 -50,-47.625 -34.39827,-29.3746 -53.84229,-48.76593 -64.5332,-64.36133 l -3.38281,-4.93555 5.30273,4.5 c 8.99066,7.6287 11.92519,9.73066 34.22461,24.53516 24.32653,16.1501 31.43963,21.64287 47.88867,36.98047 13.76405,12.834 24.76831,21.52497 35.23243,27.82617 7.97379,4.8015 12.56903,5.80549 14.7207,3.21289 2.46078,-2.965 0.75002,-5.92599 -5.8086,-10.05469 -11.78529,-7.419 -25.57521,-18.28654 -38.14453,-30.05664 -14.97101,-14.0191 -25.7271,-22.20537 -52.40625,-39.88867 -22.75168,-15.0801 -31.73365,-22.61955 -49.6582,-41.68946 C 97.73171,344.78905 95.216324,340.53901 82.136914,303.51951 l -4.351563,-12.31641 6.40625,5.99219 c 18.118829,16.9492 35.753609,28.97062 66.992189,45.66602 43.13061,23.0511 54.06478,30.6828 81.57813,56.9375 10.13188,9.6684 20.15085,18.78486 22.26562,20.25976 3.58786,2.5025 4.02259,2.58342 6.5,1.19922 1.54609,-0.8638 2.77617,-2.51562 2.94532,-3.95312 0.24104,-2.0484 -2.44229,-5.0194 -15.77539,-17.4668 -40.07804,-37.4157 -45.42415,-41.27155 -91.51368,-66.00195 -26.92532,-14.4473 -40.47192,-23.17217 -55.61914,-35.82227 -19.439292,-16.2347 -24.687033,-24.50568 -44.207033,-69.67578 -16.38094,-37.9061 -21.502527,-57.5629 -18.865234,-72.4043 l 0.693359,-3.90429 5.140625,8.40429 c 10.76012,17.5919 25.824847,34.95058 46.498047,53.58008 26.906066,24.2461 34.037596,29.48992 71.335946,52.44922 13.73711,8.4559 33.90127,21.50615 44.81054,29.00195 19.30991,13.268 20.04843,13.9033 27.87696,24 13.84043,17.8504 16.12846,19.72544 19.90625,16.30664 2.82159,-2.5535 2.36268,-5.36849 -1.70118,-10.43359 -1.98576,-2.475 -6.91592,-8.84766 -10.95703,-14.16016 -7.10439,-9.3395 -8.02226,-10.12409 -27.73242,-23.71679 -11.21152,-7.7317 -28.66443,-19.15627 -38.7832,-25.38867 -32.56863,-20.06 -38.88374,-24.12112 -47.24219,-30.38282 -20.39022,-15.2754 -54.916226,-48.50366 -65.826176,-63.35156 -10.48152,-14.2648 -17.537852,-28.07572 -20.794922,-40.69922 -0.59586,-2.3094 -2.64948,-13.5594 -4.5625,-25 -1.91301,-11.4406 -4.188041,-24.326115 -5.056641,-28.632815 -1.84117,-9.129 -2.261357,-8.294593 8.720703,-17.279297 4.46002,-3.648899 6.940923,-6.460378 7.351563,-8.330078 0.5133,-2.337 -3.627625,-26.021272 -6.078125,-34.763672 -0.565181,-2.01631 0.935881,-3.115235 3.419922,-3.078124 z m -16.580078,2.208984 c 2.38078,0.102055 2.822805,2.78145 6.292968,19.664062 l 2.550782,12.410157 -4.175782,3.75 c -2.29617,2.0625 -4.453151,3.744375 -4.794921,3.734375 -0.341761,-0.0085 -4.593766,-7.255569 -9.447266,-16.105469 l -8.824219,-16.091797 2.146485,-2.283203 c 2.119498,-2.2562 6.975851,-3.920906 14.232421,-4.878906 0.816902,-0.107869 1.470121,-0.22277 2.019532,-0.199219 z M 511.74825,113.04295 c -4.46621,0.23006 -8.40279,3.0806 -11.12891,8.42187 -1.01805,1.9947 -2.54339,3.8925 -3.38867,4.2168 -2.7047,1.0379 -5.54092,6.92111 -5.54492,11.50391 -0.003,3.4929 0.55807,4.87271 2.84375,7.00781 4.34844,4.0621 12.275,8.00888 19.30859,9.61328 13.68758,3.1223 23.9652,-0.11336 27.90234,-8.78516 3.34258,-7.3623 2.05857,-16.65343 -2.91211,-21.08203 -1.17173,-1.044 -4.37422,-2.25194 -7.11718,-2.68554 -3.26268,-0.5158 -6.34047,-1.8764 -8.90039,-3.9336 -3.79491,-3.04968 -7.58878,-4.45628 -11.0625,-4.27734 z m 0.65039,11.3418 c 1.26116,-0.0744 3.32936,1.04589 6.55859,3.34179 2.82613,2.0093 6.59079,3.6643 9.24609,4.0625 4.38943,0.6582 4.48047,0.74557 4.48047,4.41797 0,2.0612 -0.59936,4.56831 -1.33203,5.57031 -1.72901,2.3645 -9.43212,2.93413 -16.27539,1.20313 -9.68283,-2.4492 -15.4397,-7.65178 -9.39258,-8.48828 3.80493,-0.5263 5,-2.02725 5,-6.27735 0,-2.48635 0.45369,-3.75569 1.71485,-3.83007 z m 124.17187,38.38867 c -2.97951,-0.0919 -6.14828,1.65862 -12.02343,5.51562 -11.13667,7.3111 -16.255,15.83082 -13.4668,22.41602 1.6225,3.8321 4.46099,6.45916 8.24609,7.63476 3.66611,1.1387 7.82883,0.53237 18.35742,-2.67773 9.90255,-3.0193 14.40447,-6.84101 15.4668,-13.12891 1.09308,-6.4699 -1.66645,-11.59907 -8.7832,-16.32617 -3.27556,-2.17569 -5.47948,-3.36209 -7.79688,-3.43359 z m -0.14258,11.79492 c 0.85413,-0.007 1.55741,0.39331 2.77539,1.19141 6.04472,3.9606 3.70756,7.20318 -7.51953,10.42968 -8.94707,2.5713 -8.90236,2.56813 -9.66601,0.57813 -0.79726,-2.0776 5.65839,-8.67269 10.72851,-10.95899 1.82158,-0.82165 2.82751,-1.23362 3.68164,-1.24023 z m 45.78907,18.76953 c -5.54459,0 -15.97983,5.5444 -23.52735,12.5 -3.5808,3.3 -7.40877,6.48282 -8.50781,7.07422 -2.84516,1.5311 -8.27374,9.87711 -9.58008,14.72851 -1.52747,5.6726 0.10123,10.57742 4.97266,14.97852 3.50348,3.1651 10.46077,5.71875 15.58594,5.71875 2.08926,0 4.52343,2.86939 4.52343,5.33399 0,1.20559 -1.58155,4.5392 -3.51367,7.4082 -4.85984,7.2165 -6.163,13.42386 -4.61914,22.00976 1.60322,8.916 5.53063,16.91013 9.4961,19.32813 3.7653,2.296 9.3867,2.48276 12.3457,0.41015 1.18492,-0.8299 3.48087,-4.3174 5.10351,-7.75 2.12065,-4.48599 4.65144,-7.7196 9,-11.5 12.21067,-10.61549 16.25182,-28.07651 10.06836,-43.50781 -1.57978,-3.9425 -2.26665,-8.57819 -2.78906,-18.80469 -0.6282,-12.29749 -0.95008,-14.00825 -3.41992,-18.22265 -3.28415,-5.604 -9.68126,-9.70508 -15.13867,-9.70508 z m 0.10742,11 c 2.36755,0 5.79711,3.4658 6.92773,7 0.43987,1.375 0.84976,7.225 0.91016,13 0.0919,8.7847 0.57141,11.807 2.93359,18.5 2.35902,6.6842 2.72826,9.01426 2.25,14.16406 -0.80314,8.648 -3.65423,14.00354 -10.81054,20.30274 -4.12451,3.6306 -6.92538,7.13259 -8.56446,10.71289 -1.33948,2.9258 -2.61589,5.32031 -2.83789,5.32031 -1.03927,0 -3.43953,-4.9445 -4.36914,-9 -1.84828,-8.0632 -1.36249,-10.91557 3.13281,-18.35547 3.50691,-5.8042 4.21126,-7.82699 4.18946,-12.05859 -0.0496,-9.6366 -5.1967,-15.14442 -15.51953,-16.60352 -6.16665,-0.8717 -9.88282,-3.05298 -9.88282,-5.80078 0,-2.1446 4.87036,-10.18164 6.16993,-10.18164 0.59743,0 4.10901,-2.85144 7.80273,-6.33594 6.71756,-6.337 13.88659,-10.66406 17.66797,-10.66406 z m -0.75586,6.04492 c -0.91572,-0.0357 -1.84717,0.31592 -2.68555,1.1543 -1.68708,1.6871 -1.49196,5.93865 0.39649,8.63477 1.11596,1.59327 2.39557,2.18735 4.25,1.97265 2.19791,-0.2544 2.7087,-0.87615 2.97265,-3.62695 0.42505,-4.4298 -2.18643,-8.02774 -4.93359,-8.13477 z m 60.86133,23.01563 c -2.64888,0.0203 -5.30717,0.50436 -7.11133,1.44531 -1.57537,0.8216 -3.47024,1.49414 -4.21094,1.49414 -2.52582,0 -5.34205,4.25425 -5.88867,8.89649 -0.29815,2.532 -1.00131,7.15569 -1.5625,10.27539 -1.23261,6.852 0.52497,12.40077 4.79687,15.14257 3.5327,2.2673 11.34878,1.73251 15.05469,-1.02929 3.60298,-2.6852 11.9322,-14.92795 13.15821,-19.33985 1.72301,-6.2003 -1.15455,-12.43212 -7.18164,-15.54882 -1.76667,-0.91363 -4.40582,-1.35623 -7.05469,-1.33594 z m -0.44531,11.08594 c 5.50954,-0.11743 5.41297,2.04489 0.1914,9.9707 -3.20437,4.8639 -5.14819,6.88281 -6.62305,6.88281 -1.78707,0 -1.98199,-0.3954 -1.35742,-2.75 0.40119,-1.5125 1.01345,-5.225 1.35938,-8.25 l 0.6289,-5.5 4.62305,-0.30078 c 0.41728,-0.027 0.81041,-0.0449 1.17774,-0.0527 z m -262.87891,22.27148 c -4.46163,-0.004 -8.77861,0.61658 -10.5,1.86523 -1.33252,0.9666 -4.53979,3.12473 -7.12695,4.79493 -8.38489,5.413 -10.94702,12.87981 -6.77149,19.72851 1.10878,1.8186 3.46947,3.93864 5.24609,4.71094 4.91213,2.1354 9.90981,1.76699 19.05665,-1.40235 11.38914,-3.94628 14.13826,-5.51438 16.57617,-9.45898 3.98137,-6.442 1.69596,-14.64901 -5.10938,-18.34961 -2.30356,-1.2528 -6.90947,-1.88421 -11.37109,-1.88867 z m 0.57226,10.58398 c 2.62051,0.0278 5.20586,0.5341 6.00586,1.49805 1.9609,2.3628 -0.21753,4.07516 -8.83007,6.94336 -4.22311,1.4064 -8.66208,2.55664 -9.86524,2.55664 -4.80272,0 -3.64578,-3.73841 2.07227,-6.69531 1.66317,-0.86 3.64085,-2.18195 4.39453,-2.93555 0.94544,-0.94545 3.60215,-1.39496 6.22265,-1.36719 z m 416.85743,31.50391 c -0.67792,0.009 -1.35791,0.11355 -2.03516,0.31836 -1.8241,0.5516 -4.65858,1.38657 -6.29688,1.85547 -6.50399,1.8613 -6.96071,10.29241 -1.29101,23.82031 4.6123,11.0048 5.43768,12.32553 9.08398,14.54883 4.7669,2.9066 8.32974,2.50634 12.20703,-1.3711 4.1613,-4.1612 5.13448,-8.94425 3.58008,-17.59374 -2.3142,-12.87818 -8.69488,-21.66907 -15.24804,-21.57813 z m -396.17969,1.82617 c -4.25631,0.11363 -8.98517,2.38706 -13.37305,6.92188 -7.21728,7.459 -9.29883,11.37257 -9.29883,17.48047 0,6.5546 1.94419,10.25759 6.89844,13.13085 5.23539,3.0363 9.86087,2.72845 15.54297,-1.03515 9.64452,-6.3883 15.22093,-18.1237 12.5625,-26.43359 -2.17073,-6.7854 -6.85964,-10.21055 -12.33203,-10.06446 z m 304.9668,2.83203 c -0.90696,0.01 -1.8276,0.0401 -2.75977,0.0918 -15.1433,0.8396 -21.71344,5.22227 -33.37891,22.26367 -5.7419,8.3879 -6,9.03197 -6,14.95117 0,5.2377 0.42884,6.74784 2.80664,9.86524 7.17921,9.4124 21.37072,11.0267 31.62891,3.5957 3.58342,-2.5958 4.12417,-2.72738 5.51758,-1.33398 0.84978,0.8498 1.54687,1.92773 1.54687,2.39453 0,0.4669 2.44423,4.37143 5.4336,8.67773 5.348,7.7041 13.25684,15.41979 17.76758,17.33399 3.02792,1.2849 10.27996,0.41933 14.73437,-1.75977 7.67309,-3.7536 10.69165,-17.51513 6.11328,-27.86523 -1.18267,-2.6737 -3.48302,-6.93711 -5.11133,-9.47461 -1.85,-2.883 -3.63791,-7.80032 -4.76562,-13.10742 -0.99257,-4.6711 -3.02457,-10.57289 -4.51563,-13.11719 -4.74486,-8.09653 -15.41317,-12.65855 -29.01757,-12.51563 z m 88.36132,4.48633 2.41407,2.26953 c 1.409,1.3237 3.11285,4.85254 4.09375,8.47657 0.9245,3.41539 1.49944,7.31074 1.27734,8.65624 -0.4009,2.42801 -0.41275,2.42487 -1.75195,-0.55273 -4.7455,-10.5513 -6.03321,-14.02972 -6.03321,-16.29492 z m -393.55468,3.49219 c 1.00193,-0.0839 1.64036,0.55501 2.06054,1.87891 1.12741,3.5522 -0.53026,7.76658 -4.69336,11.92968 -4.34336,4.3433 -7.2056,5.10583 -8.63086,2.29883 -1.50998,-2.9738 0.58969,-7.78539 5.28907,-12.11719 2.79755,-2.57867 4.68641,-3.88242 5.97461,-3.99023 z m 303.23632,2.96094 c 0.73281,-0.0147 1.49142,-0.0138 2.2793,0.002 0.84041,0.0166 1.71553,0.0503 2.625,0.0977 13.39887,0.6981 17.4704,4.30208 20.22266,17.89648 1.26999,6.2729 2.84173,10.35615 5.98633,15.56055 2.34492,3.881 4.69861,8.5801 5.23242,10.4414 1.29023,4.4987 0.23277,9.60078 -2.36719,11.42188 -3.26688,2.2882 -5.81189,1.71273 -10.22461,-2.31445 -3.92736,-3.58421 -11.2886,-13.61258 -14.41602,-19.63868 -3.96564,-7.6413 -11.88401,-9.16167 -19.4414,-3.73437 -5.36229,3.851 -10.33045,4.9235 -14.60156,3.15429 -6.51919,-2.7003 -6.47064,-6.45556 0.20898,-16.38476 8.40203,-12.48943 13.50408,-16.28153 24.49609,-16.50195 z m 12.70899,6.39648 c -2.25737,0 -2.96361,0.50479 -3.21875,2.30469 -0.17972,1.2678 0.23052,2.97763 0.91211,3.79883 1.56398,1.8845 4.87286,1.43688 6.30859,-0.85352 1.60856,-2.566 -0.43745,-5.25 -4.00195,-5.25 z m 154.71484,4.7793 11.69727,3.38867 c 6.4334,1.8646 17.09341,4.7619 23.68947,6.4375 6.596,1.6756 12.1284,3.18311 12.2949,3.34961 0.4807,0.4807 -5.4115,10.12748 -9.6719,15.83398 -5.3261,7.1341 -7.8566,12.46246 -9.7031,20.43946 -1.9257,8.3193 -3.85295,11.46569 -10.64258,17.37109 -9.62809,8.3743 -13.25567,18.07025 -14.26367,38.12305 -0.8066,16.047 -2.18738,24.72448 -4.55468,28.61718 -3.435,5.6484 -8.35181,3.35346 -11.44141,-5.33984 -3.0485,-8.5778 -7.0078,-13.17035 -17.75,-20.59375 -11.1225,-7.6864 -12.25191,-11.20097 -6.28711,-19.54687 10.3015,-14.4134 13.37447,-19.56047 14.50977,-24.29297 1.7106,-7.1302 0.60955,-12.71044 -4.02735,-20.39844 -2.1756,-3.6073 -3.95508,-7.45082 -3.95508,-8.54102 0,-2.4831 4.08588,-5.77113 8.29688,-6.67773 7.322,-1.5763 13.53178,-6.31617 16.92578,-12.91797 1.1223,-2.1831 2.9435,-5.19109 4.04687,-6.68359 1.40972,-1.9061 1.83123,-3.58393 1.41993,-5.64063 z m -344.60547,15.85156 c -2.05135,-0.0441 -4.34026,0.58489 -7.76757,1.86719 -7.21838,2.7008 -10.14321,5.0194 -21.17383,16.7832 -10.54029,11.2409 -12.30651,14.94081 -10.64844,22.32031 1.20826,5.3776 3.80663,8.92659 8.16016,11.14649 4.70363,2.3984 5.8128,2.25475 13.30273,-1.71875 l 6.54102,-3.46875 4.29296,1.94726 c 7.62529,3.4608 15.07106,1.97751 21.62891,-4.30859 8.52317,-8.17 9.66687,-17.09052 3.61328,-28.19922 -5.1165,-9.389 -6.83235,-11.49022 -11.60156,-14.19922 -2.48115,-1.4093 -4.2963,-2.12582 -6.34766,-2.16992 z m 381.43161,0.34375 c -0.5847,-0.0125 -1.2186,0.14211 -1.8691,0.49023 -2.2935,1.2275 -2.7027,3.99469 -0.8633,5.83399 2.2593,2.2593 5.8008,0.866 5.8008,-2.2832 0,-2.44785 -1.3142,-4.00344 -3.0684,-4.04102 z m 54.127,6.04883 c 1.3094,0.0346 3.3317,0.34486 6.5078,0.94336 11.8159,2.2266 33.0131,5.20532 49.9336,7.01562 8.25,0.8827 15.9859,1.81096 17.1914,2.06446 l 2.1914,0.46093 -1.9023,4.30274 c -1.0465,2.3655 -2.4128,7.64964 -3.0371,11.74414 -1.9553,12.8255 -3.298,14.32834 -18.1348,20.30664 -6.3021,2.5394 -12.5208,9.14166 -14.9902,15.91406 -1.2114,3.3225 -5.9642,11.62081 -10.5625,18.44141 -4.5984,6.8208 -9.8956,15.77032 -11.7715,19.88672 -5.974,13.1091 -8.6086,15.57489 -22.3555,20.93359 -8.5317,3.3257 -15.7806,9.31343 -20.8301,17.20703 -1.8491,2.8906 -3.55,5.25586 -3.7812,5.25586 -0.2312,0 -2.0423,-2.89851 -4.0235,-6.44141 -5.4786,-9.7966 -5.4959,-11.66507 -0.2109,-23.20507 10.1511,-22.1654 11.1488,-33.08617 4.3379,-47.53907 -2.7735,-5.8853 -3.6211,-8.95518 -3.6211,-13.11328 0,-6.3331 1.8708,-8.76454 10.5742,-13.74414 12.9751,-7.4236 20.4997,-17.59915 20.961,-28.34375 0.4183,-9.7445 0.4536,-10.04875 1.2968,-11.37695 0.3212,-0.50595 0.9172,-0.74753 2.2266,-0.71289 z m -435.6465,4.51953 c 2.69865,0.15371 4.38208,2.96082 8.16407,10.28516 3.18601,6.1701 3.41901,7.15399 2.4082,10.21679 -1.3249,4.0144 -6.23478,8.45508 -9.34961,8.45508 -1.21651,0 -3.97718,-0.9 -6.13477,-2 -5.36999,-2.7377 -7.31047,-2.5447 -15.07031,1.5 -3.69315,1.925 -6.88723,3.5 -7.09766,3.5 -0.60509,0 -2.33203,-4.96608 -2.33203,-6.70508 0,-2.4137 18.96611,-21.29795 23.5,-23.39843 2.30948,-1.06994 3.97668,-1.75661 5.35743,-1.84961 0.18985,-0.0128 0.37477,-0.014 0.55468,-0.004 z m 342.62891,0.20117 c -1.39007,0.0119 -3.40753,0.70432 -6.29297,2.04102 -2.8873,1.3376 -6.4734,2.92996 -7.9707,3.53906 -3.1392,1.2769 -4.63678,5.4354 -2.76758,7.6875 1.6349,1.97 2.73797,1.88704 9.10547,-0.69336 8.7366,-3.5403 11.04495,-5.51967 10.68945,-9.16797 -0.22522,-2.31199 -0.97644,-3.42151 -2.76367,-3.40625 z m 966.50389,5.625 c 8.4219,-0.0343 14.3358,0.14952 14.6895,0.63086 1.5234,2.0735 0.5979,5.36209 -5.1973,18.49219 -10.85,24.5827 -27.2128,72.9612 -34.6269,102.375 -8.672,34.4027 -17.4973,79.48711 -23.8086,121.63281 -6.6857,44.6456 -8.7136,70.9085 -8.7286,113 -0.011,30.8762 0.7849,44.6502 4.2989,74.5 2.1766,18.4892 2.9214,39.877 1.5586,44.75 -0.6457,2.309 -1.2871,2.73163 -4,2.64063 -6.3219,-0.2122 -24.4471,-2.69505 -38.7305,-5.30664 -29.4738,-5.38901 -46.7774,-11.13833 -53.8398,-17.89063 -2.8427,-2.7177 -8.1602,-11.3333 -8.1602,-13.2207 0,-0.3274 1.9376,-0.30458 4.3066,0.0508 3.2763,0.4913 4.6198,0.26912 5.6114,-0.92578 1.4512,-1.7486 1.2726,-3.52176 -1.7637,-17.59766 -2.8265,-13.103 -3.9547,-28.4447 -4.6719,-63.5 -0.6188,-30.242 0.5165,-72.8367 2.5332,-95 2.1316,-23.4252 9.3672,-70.9643 14.6113,-96 9.2273,-44.052 24.845,-93.2335 42.0762,-132.5 7.654,-17.4417 8.1639,-19.38545 5.7695,-22.03125 -1.2288,-1.3577 -2.7351,-1.96074 -4.1953,-1.68164 -3.2615,0.6235 -2.8308,0.0352 1.6485,-2.25 5.9864,-3.054 17.2459,-5.81248 31.0742,-7.61328 10.3456,-1.3475 41.0169,-2.47923 59.5449,-2.55469 z m -659.9199,12.13086 9.4375,0.01 c 11.8022,0.0121 35.9313,1.42857 68.9375,4.04687 14.025,1.1126 40.4735,3.11783 58.7754,4.45703 l 33.2754,2.43555 2.4687,2.77539 c 1.3572,1.5265 3.6509,6.60039 5.0977,11.27539 6.6989,21.6458 12.8226,26.26282 29.8144,22.48242 16.7434,-3.725 29.8917,1.43158 36.4551,14.29688 1.045,2.0484 3.3565,8.44885 5.1367,14.22265 5.3874,17.4732 7.8335,21.93672 17.1465,31.29102 5.2548,5.2781 10.1581,11.46813 13.2852,16.76953 9.2385,15.6626 15.9651,20.22959 35.1543,23.86719 5.9593,1.1296 13.3235,3.26263 16.3632,4.74023 7.6288,3.7081 15.3661,11.95239 25.3633,27.02539 15.9335,24.0233 19.5324,32.81721 22.0645,53.90821 1.8992,15.8193 4.3764,24.24258 9.084,30.89648 11.8057,16.6865 11.0156,14.89821 11.0156,24.91211 0,11.8858 -1.9278,15.89039 -9.5977,19.93359 -4.6826,2.4688 -6.2115,2.78496 -11.4648,2.38086 -8.8564,-0.6813 -14.5556,-3.67363 -23.9707,-12.58593 -15.2051,-14.3929 -26.2806,-20.0336 -36.8711,-18.7793 -5.9273,0.702 -9.3918,2.94488 -11.9063,7.70898 -1.5406,2.9187 -1.7147,4.87989 -1.1699,13.17969 0.7447,11.3445 0.4924,11.67189 -7.5351,9.74609 -7.6573,-1.8369 -11.4473,-0.67088 -17.8965,5.51172 -3.0741,2.9469 -7.6814,7.30986 -10.2383,9.69336 -5.4592,5.0891 -7.3587,10.4688 -6.332,17.9336 0.5936,4.3164 0.4605,4.85699 -1.1758,4.79296 -3.3156,-0.12949 -89.8511,-23.10298 -90.8731,-24.125 -0.1935,-0.19348 1.002,-3.08643 2.6582,-6.42773 2.512,-5.0683 3.1372,-7.82951 3.7676,-16.66211 0.6455,-9.0441 1.1428,-11.1725 3.4082,-14.5957 2.985,-4.5106 8.1463,-7.83766 17.709,-11.41406 15.0409,-5.6253 28.1456,-14.05715 41.1367,-26.46875 12.0518,-11.5143 13.558,-15.25973 15.541,-38.64063 1.4814,-17.4605 1.4751,-19.18101 -0.094,-24.82031 -1.8279,-6.5745 -7.8269,-16.48812 -14.5508,-24.04102 -10.7135,-12.0344 -23.48,-14.09771 -41.5957,-6.72461 -4.3723,1.7796 -13.0043,5.17683 -19.1816,7.54883 -12.7004,4.8768 -17.3093,7.95131 -20.7657,13.84961 -3.5741,6.0991 -4.123,11.40353 -1.7363,16.79883 3.6509,8.2535 7.8578,9.63376 43.6465,14.32226 13.031,1.7072 14.316,15.07232 2.2461,23.35352 -2.2879,1.5697 -8.8392,4.53564 -14.5606,6.58984 -17.7907,6.3879 -23.8588,11.36241 -30.3789,24.90821 -7.3954,15.3643 -16.8661,19.09019 -41.2968,16.24609 -9.6374,-1.122 -14.7669,-1.26904 -19.5,-0.55664 -17.5257,2.6378 -18.9219,2.41453 -18.9219,-3.04297 0,-4.0865 3.8201,-8.98194 10.8262,-13.86914 7.617,-5.3133 9.5058,-8.01546 9.5058,-13.59766 0,-5.2558 -3.0098,-9.84282 -8.1914,-12.48632 -8.0902,-4.1273 -16.9437,-3.6166 -35.2578,2.0332 -19.1222,5.8991 -28.8111,3.55138 -44.0137,-10.66602 -5.3874,-5.0382 -10.5447,-8.80586 -14.8164,-10.82226 -7.3333,-3.4616 -12.2076,-3.77421 -33.7441,-2.16211 -14.8107,1.1087 -18.1302,0.13454 -29.7578,-8.72266 -5.0848,-3.8733 -13.8712,-9.21741 -20.0508,-12.19531 -14.8439,-7.1531 -16.6692,-9.4964 -14.4863,-18.5957 1.7095,-7.1261 7.9329,-16.12829 14.8828,-21.52539 7.6728,-5.9584 9.3884,-9.54304 9.25,-19.33594 -0.1287,-9.1032 -2.2807,-17.89328 -5.9473,-24.30078 -1.4855,-2.5961 -8.2563,-10.40808 -15.0469,-17.35938 -6.7906,-6.9514 -12.9781,-14.15064 -13.75,-15.99804 -1.9081,-4.5666 -1.7667,-8.73353 0.6387,-18.86133 2.2011,-9.268 2.0087,-12.65556 -1.1797,-20.84766 -4.4471,-11.4262 -0.026,-20.71832 10.502,-22.07812 6.6058,-0.8531 11.1316,1.35897 21.1367,10.33007 13.95,12.5084 21.212,15.07905 35.6523,12.61915 8.4221,-1.43431 9.9655,-1.4432 15.1621,-0.0899 6.7363,1.7546 10.0828,3.37185 17.8399,8.62305 10.5755,7.1592 13.0117,11.63914 20.8574,38.33984 4.9099,16.7093 9.878,26.62917 18.0508,36.04297 4.0338,4.6464 7.8976,10.72695 11.4922,18.08399 4.6055,9.4256 6.5023,12.13371 12.6797,18.10351 3.9952,3.8609 10.6117,10.74483 14.7031,15.29883 8.1253,9.0437 12.9466,11.95523 19.8516,11.99023 6.8511,0.0351 11.6475,-3.07872 16.5722,-10.76172 4.6985,-7.33 10.696,-13.21484 13.4688,-13.21484 0.9693,0 3.5426,1.83673 5.7168,4.08203 9.5567,9.8698 16.3108,9.43488 28.8691,-1.85742 2.1544,-1.9372 8.5693,-5.71604 14.2559,-8.39844 5.6866,-2.6823 13.6001,-6.85242 17.584,-9.26562 3.984,-2.4133 11.8686,-6.2948 17.5214,-8.625 14.507,-5.9799 18.9707,-11.50179 14.5176,-17.96289 -2.2203,-3.2215 -3.8458,-4.47083 -9.2949,-7.14063 -2.475,-1.2127 -7.6139,-4.13243 -11.4199,-6.48633 -9.643,-5.9638 -15.5559,-7.15529 -24.2989,-4.90039 -3.7305,0.9622 -11.4533,2.62115 -17.1621,3.68555 -5.7088,1.0645 -12.9088,2.78216 -16,3.81836 -9.9659,3.3404 -17.9837,5.10231 -26.0527,5.72461 -14.6592,1.1304 -21.7812,-2.3328 -31.0352,-15.0918 -6.5306,-9.0041 -11.217,-13.74076 -18.3144,-18.50976 -5.6689,-3.8092 -9.486,-9.22887 -9.9102,-14.07227 -0.1685,-1.925 0.07,-7.86065 0.5313,-13.18945 0.6786,-7.8453 0.5297,-10.75452 -0.7891,-15.29102 -2.9634,-10.1935 -10.6557,-16.32607 -25.7109,-20.49804 -7.4884,-2.0752 -15.1366,-6.59336 -20.3184,-12.00196 z m -506.66407,8.08984 c -0.89436,2e-5 -1.75287,0.39244 -3.25391,1.17774 -1.76463,0.9232 -4.42252,2.12016 -5.90624,2.66015 -4.01901,1.46281 -5.68361,4.82281 -7.02149,14.15821 -2.23212,15.5753 -0.89113,21.56509 5.82422,25.99219 v 0.002 c 6.38803,4.2113 16.0309,1.19457 19.63477,-6.14453 2.61405,-5.3235 5.19008,-18.83796 4.39648,-23.06446 -0.92095,-4.9048 -5.90979,-11.55521 -10.20508,-13.60351 -1.64402,-0.78535 -2.57439,-1.17775 -3.46875,-1.17774 z m 343.56057,0.94727 c -1.9624,-0.0707 -4.3594,0.79561 -6.4453,2.55078 -3.2354,2.7225 -3.8821,5.20594 -1.877,7.21094 1.7374,1.7374 4.2105,1.4813 8.1543,-0.8457 4.0405,-2.3839 5.0448,-4.3396 3.6074,-7.0254 -0.6492,-1.21318 -1.9131,-1.83567 -3.4394,-1.89062 z m 723.2187,0.96289 -5.7324,13.75 c -24.8469,59.5921 -39.147,111.3411 -49.3926,178.75 -7.5887,49.9283 -8.9198,68.9004 -8.8828,126.5 0.029,44.3049 1.0266,65.17179 3.8281,79.92969 0.7757,4.0867 1.3058,7.50189 1.1758,7.58789 -0.13,0.0863 -2.2613,-0.46396 -4.7363,-1.22266 -2.475,-0.7587 -16.5279,-4.74798 -31.2285,-8.86328 -14.7006,-4.1152 -36.3006,-10.56955 -48,-14.34375 -28.236,-9.1089 -71.9605,-21.5118 -111.2715,-31.5625 l -32,-8.18164 -0.793,-6.49609 c -1.0294,-8.4494 -0.041,-10.79989 6.6094,-15.71289 2.9811,-2.2023 6.3349,-5.25862 7.4512,-6.79102 2.0272,-2.783 2.0346,-2.78405 7.9394,-1.56445 3.2513,0.6716 6.9206,1.2207 8.1524,1.2207 4.0595,0 7.8755,-2.82491 10.1406,-7.50391 1.9876,-4.1058 2.1364,-5.45778 1.4883,-13.64648 -0.8073,-10.1996 -0.4954,-10.80798 5.5644,-10.83398 5.8221,-0.0251 13.5744,4.68177 24.1094,14.63867 5.4295,5.1314 12.0335,10.42477 14.6758,11.76367 7.3545,3.7269 16.8127,5.87453 23.0781,5.24023 7.046,-0.7133 17.1705,-5.73242 21.084,-10.45312 4.6171,-5.5695 7.3497,-15.64232 6.793,-25.04102 -0.5485,-9.2607 -2.6185,-14.24459 -9.7989,-23.59179 -7.0174,-9.135 -8.5624,-13.58416 -10.9082,-31.41016 -3.0877,-23.4644 -7.1252,-33.40091 -23.8281,-58.66211 -10.3786,-15.6965 -20.2136,-25.87635 -29.3476,-30.37305 -3.7664,-1.8541 -11.1803,-4.15534 -17.918,-5.56054 -6.3212,-1.3184 -12.8422,-2.91132 -14.4922,-3.54102 -4.6215,-1.7637 -10.1709,-7.73497 -15.3184,-16.48437 -2.8014,-4.7617 -8.0066,-11.32751 -12.957,-16.34571 -4.5506,-4.613 -8.8856,-9.58121 -9.6348,-11.04101 -0.7492,-1.4597 -3.2768,-8.5043 -5.6152,-15.6543 -2.3383,-7.15 -5.3517,-15.19731 -6.6973,-17.88281 -5.6904,-11.3571 -16.2135,-18.65093 -30.0097,-20.79883 -5.3868,-0.8387 -8.3523,-0.70941 -15.5,0.67187 -4.8617,0.93951 -9.9444,1.4302 -11.293,1.0918 -2.9494,-0.7403 -5.6466,-5.66447 -8.3437,-15.23047 -1.0626,-3.7687 -2.2761,-7.70409 -2.6954,-8.74609 -0.7324,-1.8203 -0.2746,-1.86767 11.6504,-1.19727 6.8269,0.3838 29.5141,1.10181 50.4141,1.59571 20.9,0.4938 57.5496,1.43223 81.4434,2.08593 45.7152,1.2507 76.0646,0.60097 123.5566,-2.64453 34.4371,-2.3534 60.0809,-3.38897 84.6191,-3.41797 z m -1067.64841,9.06641 c 0.47955,0.0626 0.96488,0.68614 1.92969,1.93359 2.30912,2.9856 2.33682,6.3129 0.1289,15 -1.34519,5.2927 -2.05698,6.55755 -3.83398,6.81055 -1.4026,0.1997 -2.57982,-0.43364 -3.29688,-1.77344 -1.63166,-3.0488 0.66123,-17.88531 3.17383,-20.53711 0.9456,-0.99795 1.41889,-1.49622 1.89844,-1.43359 z m 668.03511,2.93359 c -3.8486,0 -5.3879,4.66924 -2.8105,8.52734 0.7248,1.0849 2.1302,4.15773 3.123,6.82813 2.1622,5.8156 6.544,11.04553 11.459,13.67773 2.0144,1.0788 5.1431,1.82657 7.1016,1.69727 3.1643,-0.2089 3.5,-0.51633 3.5,-3.20703 0,-2.5414 -0.7108,-3.35283 -4.8652,-5.54883 -5.5162,-2.916 -7.5712,-5.40253 -10.1563,-12.29883 -2.2256,-5.9374 -5.0656,-9.67578 -7.3516,-9.67578 z m 229.0997,0.0352 c -7.8508,0.026 -14.4288,0.41993 -16.4414,1.26757 -4.4222,1.86231 -5.9625,5.73961 -3.4043,8.56641 0.8902,0.9836 1.6191,2.79449 1.6191,4.02539 0,3.3307 4.9252,9.16628 9.4863,11.23828 5.1856,2.3558 10.6286,2.32328 23.2989,-0.13672 5.6567,-1.0983 12.4067,-2.01701 15,-2.04101 9.6158,-0.0895 16.2148,-4.04019 16.2148,-9.70899 0,-4.4762 -3.9851,-8.27709 -11.1641,-10.65039 -4.9058,-1.62175 -21.5247,-2.60385 -34.6093,-2.56054 z m -489.2461,3.11523 c -3.2027,0.0822 -4.3611,3.85189 -3.0254,10.08008 0.5743,2.6776 1.0449,7.45614 1.0449,10.61914 0,3.1629 0.5392,6.28922 1.1992,6.94922 1.6309,1.6309 4.2976,1.51133 5.7676,-0.25977 1.964,-2.3666 2.407,-9.2062 1.0937,-16.8789 -1.5311,-8.9447 -2.1198,-10.08337 -5.4121,-10.47657 -0.2315,-0.0276 -0.4544,-0.0387 -0.6679,-0.0332 z m 395.0761,2.88281 c -3.255,-0.0766 -6.6088,0.61532 -8.8672,1.99219 -4.7625,2.9036 -6.1526,7.05846 -5.7734,17.25586 0.3511,9.4448 2.2904,14.25057 6.6387,16.45117 3.8848,1.966 8.3298,1.49112 16.5332,-1.76758 4.2022,-1.6693 9.9508,-3.52454 12.7754,-4.12304 13.66,-2.8942 20.463,-10.92608 15.7129,-18.55078 -2.9631,-4.7563 -8.5843,-7.15079 -19.4297,-8.27539 -5.1783,-0.537 -10.6209,-1.4354 -12.0957,-1.9961 -1.624,-0.61744 -3.5412,-0.94034 -5.4942,-0.98633 z m 105.5371,5.10157 c 12.3374,-0.0489 14.5658,0.82704 5.9063,2.47265 -3.85,0.7316 -10.1914,1.62964 -14.0898,1.99414 -6.6116,0.6183 -7.2364,0.5013 -9.3086,-1.7207 l -2.2207,-2.38086 13.8085,-0.28711 c 2.1729,-0.0452 4.1419,-0.0711 5.9043,-0.0781 z m -707.31636,6.35156 c -5.48624,-0.36228 -10.15314,11.35038 -8.33203,22.6582 0.5362,3.3298 1.49765,6.68508 2.13671,7.45508 1.4575,1.7562 4.33501,1.80656 5.75,0.10156 0.63,-0.7591 0.9908,-5.0138 0.8711,-10.25 -0.1634,-7.1499 0.14917,-9.44913 1.54687,-11.42383 2.323,-3.282 2.2163,-6.70744 -0.25,-8.02734 -0.57882,-0.30977 -1.15511,-0.47619 -1.72265,-0.51367 z m 601.86716,0.17383 c 2.4871,0.0505 6.6252,0.68044 13.5371,1.61914 16.3711,2.2233 16.7925,3.13146 3.0957,6.66406 -4.0034,1.0326 -9.4532,2.8178 -12.1113,3.9668 -8.1894,3.54 -8.7153,3.13864 -8.3789,-6.41016 0.1549,-4.39681 -0.2876,-5.92402 3.8574,-5.83984 z m 178.4688,8.35547 c -3.0924,0.003 -3.6385,0.81263 -14.1465,11.98437 -6.8447,7.277 -9.4136,17.37293 -6.0566,23.79883 1.8139,3.4721 6.3954,7.80998 9.5898,9.08008 1.375,0.5466 2.8057,1.02164 3.1816,1.05664 2.1114,0.1958 22.402,-8.13494 24.4121,-10.02344 3.457,-3.2476 6.4587,-10.04057 7.3536,-16.63477 1.3826,-10.189 -2.0995,-16.2495 -9.3731,-16.3125 -2.2416,-0.0195 -5.1992,-0.67874 -6.5742,-1.46484 -1.375,-0.786 -4.4669,-1.44584 -6.8691,-1.46484 -0.5822,-0.005 -1.0759,-0.0199 -1.5176,-0.0195 z m -406.6973,0.20312 c -0.4089,-0.006 -0.8298,0.0449 -1.2656,0.1543 -3.1912,0.8009 -4.001,3.17769 -2.2031,6.46679 0.7997,1.4629 2.1892,5.34069 3.0898,8.61719 5.3042,19.296 17.0473,30.41063 32.3711,30.64063 3.6247,0.0544 9.0668,0.45231 12.0918,0.88281 8.3719,1.1917 13.1296,0.78493 14.3926,-1.23047 1.4846,-2.3689 -0.1963,-4.90328 -3.9707,-5.98828 -1.6079,-0.4622 -8.7172,-1.27629 -15.7989,-1.80859 -15.6298,-1.1749 -18.9371,-2.67573 -24.6093,-11.16993 -3.8397,-5.75 -4.4633,-7.25172 -7.4161,-17.85742 -1.6092,-5.78016 -3.819,-8.66271 -6.6816,-8.70703 z m 334.1543,2.32617 c -7.1338,0.0467 -8.6064,0.49372 -13.0703,2.81641 -3.025,1.574 -6.9643,3.95918 -8.752,5.30078 -8.3956,6.3008 -18.6182,7.66574 -31.791,4.24414 -17.7645,-4.6143 -29.7669,-2.35501 -35.0078,6.58789 -4.7827,8.161 -4.2064,19.78616 1.3867,28.00586 1.4971,2.2 6.5325,6.86368 11.1914,10.36328 5.0581,3.7994 9.0021,7.58599 9.7871,9.40039 4.595,10.6204 9.9307,13.32821 30.0723,15.25782 8.3056,0.79569 16.6264,2.08368 18.4922,2.86328 1.8658,0.7796 6.0309,4.26188 9.2559,7.73828 12.2052,13.1563 17.2829,17.80279 20.5234,18.77929 7.6578,2.3078 15.3544,-1.19871 18.9551,-8.63671 3.2616,-6.7376 2.9758,-16.35324 -0.9766,-32.89454 -4.0966,-17.1446 -4.2896,-28.58759 -0.6543,-38.87109 2.9469,-8.3364 3.1233,-13.5848 0.6367,-19 -2.2717,-4.947 -4.3176,-6.80284 -10.6562,-9.66601 -4.1462,-1.87282 -6.7743,-2.25007 -15.9629,-2.28907 -1.2754,-0.005 -2.4106,-0.007 -3.4297,0 z m -837.06835,1.01172 c -1.04508,0.0331 -2.15842,0.31683 -3.41016,0.83985 -4.30822,1.80009 -7.13941,5.91872 -10.14844,14.76562 -1.34853,3.9648 -4.30337,10.05199 -6.5664,13.52539 -7.38831,11.34 -8.54503,18.2437 -4.49414,26.8125 2.51311,5.3159 6.22016,9.2647 11.11718,11.8418 3.86272,2.0327 10.77368,2.08387 14.5918,0.10937 1.6464,-0.8514 4.55962,-3.99387 6.47266,-6.98437 1.91304,-2.9906 4.81254,-6.12731 6.44336,-6.97071 7.12087,-3.6823 12.62839,-10.51577 14.39648,-17.85937 0.84209,-3.4975 -0.9845,-12.85368 -3.46289,-17.73438 -2.30466,-4.5386 -12.2482,-13.70256 -15.77539,-14.53906 -1.4672,-0.348 -3.34102,-1.1782 -4.16602,-1.8457 -1.70141,-1.37663 -3.25625,-2.01615 -4.99804,-1.96094 z m 910.59565,7.62695 c 0.6088,-0.0762 2.4262,0.40934 4.3809,1.19141 2.234,0.8939 5.1492,1.625 6.4785,1.625 2.2232,0 2.3734,0.3004 1.8711,3.75 -1.0903,7.4869 -3.4545,10.55294 -9.916,12.86523 -3.2521,1.16382 -7.1061,2.59801 -8.5645,3.1875 -2.1829,0.88241 -2.9422,0.7495 -4.3027,-0.7539 -2.0978,-2.3181 -2.2844,-4.85059 -0.6465,-8.80469 0.7898,-1.9068 2.1383,-3.2506 3.4492,-3.4375 1.385,-0.1974 2.9379,-1.86589 4.3575,-4.67969 1.2133,-2.405 2.4326,-4.5987 2.709,-4.875 0.034,-0.0345 0.097,-0.0575 0.1835,-0.0684 z m -70.5976,1.84375 c 12.0876,-0.0304 18,3.04192 18,9.35352 0,1.8596 -1.1717,6.4721 -2.6016,10.25 -2.4094,6.3659 -2.565,7.74824 -2.1289,18.86914 0.3365,8.582 1.2653,15.1332 3.2617,23 3.4638,13.6493 3.8765,24.28363 1.0625,27.39453 -3.6488,4.0337 -7.1033,2.10073 -16.2324,-9.07617 -6.898,-8.4455 -15.4087,-15.03775 -21.5039,-16.65625 -2.3966,-0.6364 -10.8336,-1.80807 -18.748,-2.60547 -13.2829,-1.3383 -14.606,-1.65813 -17.2012,-4.14453 -1.5464,-1.4815 -3.0965,-3.98681 -3.4434,-5.56641 -0.6488,-2.9536 -3.3847,-5.52119 -14.1816,-13.30859 -7.8034,-5.6284 -10.7103,-10.75901 -10.041,-17.72461 0.9182,-9.5557 6.8137,-11.561 22.5859,-7.6875 16.8665,4.1423 30.5772,2.56804 41.1817,-4.72656 8.3172,-5.7212 12.7434,-7.3531 19.9902,-7.3711 z m -838.22852,0.53516 5.74219,4.90625 c 6.81826,5.825 9.06405,9.22948 9.9414,15.08008 0.88331,5.8903 -1.24088,9.69416 -7.7539,13.88476 -5.75287,3.7014 -8.48497,6.44371 -11.27344,11.31641 -3.01232,5.2639 -9.49999,3.87808 -12.9336,-2.76172 -2.53106,-4.8946 -1.87111,-9.09585 2.49024,-15.84375 5.2286,-8.0896 7.56034,-12.74304 8.92383,-17.80664 0.61457,-2.2823 1.95997,-5.19059 2.99023,-6.46289 z m 227.56642,2.46484 c -1.6913,0.0816 -3.6741,2.0925 -5.627,5.88282 -1.5334,2.9762 -4.1209,6.92975 -5.75,8.78515 -3.5125,4.0006 -3.6971,5.67663 -0.8457,7.67383 3.1436,2.2018 6.2551,0.32374 10.8379,-6.53906 4.4562,-6.6732 5.6648,-10.80533 4.0449,-13.83203 -0.7351,-1.37374 -1.6453,-2.01968 -2.6601,-1.97071 z m 301.914,2.40235 c -0.7186,-0.0164 -1.4873,0.16109 -2.2519,0.57031 -1.9461,1.0415 -2.7322,4.93586 -1.2871,6.38086 0.3927,0.3927 2.0802,0.57962 3.75,0.41602 2.4579,-0.2408 3.0948,-0.80857 3.3457,-2.98047 0.2937,-2.54183 -1.4007,-4.33762 -3.5567,-4.38672 z m 142.42,3.05273 c -1.4616,0.0254 -2.6668,0.92136 -3.1895,2.56836 -0.513,1.6161 1.5515,9.57898 3.1563,12.17578 0.8625,1.3954 5.5509,0.44594 6.6757,-1.35156 1.4775,-2.361 -1.0714,-10.66961 -3.8261,-12.47461 -0.9702,-0.6357 -1.9395,-0.93322 -2.8164,-0.91797 z m 169.9941,9.78907 c -1.9842,-0.12694 -4.4284,1.64349 -5.0664,4.18554 -0.8572,3.4155 1.0041,10.22265 3.1191,11.40625 1.8053,1.0104 4.3575,0.41109 5.5039,-1.29101 1.0925,-1.622 -0.2808,-11.8729 -1.8085,-13.5 -0.475,-0.5058 -1.0867,-0.75848 -1.7481,-0.80078 z m -565.793,3.72851 c -8.94,0 -13.1016,5.32951 -14.8125,18.97461 -1.6461,13.1276 -3.6615,15.29907 -18.5605,19.98047 -11.9794,3.764 -20.5564,10.55091 -24.6113,19.47851 -3.0612,6.7398 -2.5122,9.63768 3.2636,17.26368 2.8339,3.7417 7.486,10.40273 10.3399,14.80273 8.0186,12.3631 16.6815,19.50616 28.0078,23.09766 11.6459,3.6927 20.6011,-0.89335 27.1543,-13.90625 2.7243,-5.4097 5.9419,-9.36234 14.3183,-17.58594 11.3872,-11.1793 14.7355,-16.29168 17.0196,-25.98438 1.946,-8.2576 0.2237,-14.23893 -6.5508,-22.74023 -3.0084,-3.7752 -7.2622,-10.30617 -9.4512,-14.51367 -4.4191,-8.4941 -9.7,-13.86719 -13.6308,-13.86719 -1.414,0 -3.9089,-1.125 -5.543,-2.5 -2.0781,-1.7486 -4.1645,-2.5 -6.9434,-2.5 z m -0.6074,11.36328 c 0.9196,-0.0638 2.1464,0.002 3.5723,0.20508 6.0457,0.8621 9.1763,3.84306 14.4726,13.78516 2.3041,4.3253 6.377,10.58124 9.0528,13.90234 6.0114,7.4613 6.6639,10.98024 3.5644,19.24414 -1.9265,5.1364 -3.8661,7.5832 -13.4707,17 -8.9359,8.7612 -11.9512,12.46028 -14.8144,18.17578 -1.9772,3.9468 -4.6059,7.8843 -5.8418,8.75 -3.3745,2.3636 -7.8031,1.91283 -14.6016,-1.48437 -6.8165,-3.4063 -13.3715,-10.04187 -17.9766,-18.19727 -1.6286,-2.8846 -5.0447,-7.80223 -7.5917,-10.92773 -2.5471,-3.1254 -4.6309,-6.22116 -4.6309,-6.88086 0,-2.4659 4.3195,-8.05993 8.3398,-10.79883 2.2879,-1.5587 8.3725,-4.23597 13.5215,-5.95117 15.7033,-5.2311 20.3642,-10.61786 22.6953,-26.22266 0.7391,-4.9475 1.6316,-9.45964 1.9825,-10.02734 0.1951,-0.31575 0.8069,-0.50849 1.7265,-0.57227 z m -179.46482,15.82809 c -4.22628,-0.0113 -6.6162,2.75707 -11.31836,12.01562 -8.8136,17.3538 -8.23925,21.94999 4.38086,35.08789 5.68997,5.9234 10.34261,9.79159 13.63671,11.33789 8.0338,3.771 15.1592,2.69987 20.5,-3.08203 2.3243,-2.5162 2.52148,-3.53833 2.83008,-14.54883 0.3858,-13.7639 -0.49223,-16.59419 -8.48633,-27.33789 -2.6647,-3.5814 -5.61378,-7.62041 -6.55468,-8.97461 -1.6562,-2.3837 -2.93244,-2.80668 -13.05274,-4.33398 -0.69082,-0.10425 -1.33179,-0.16245 -1.93554,-0.16406 z m 3.68164,10.93359 c 1.88705,-0.1508 4.00384,2.28441 7.71679,7.19336 7.9127,10.4614 7.90834,10.45049 7.58594,21.43359 l -0.28516,9.74805 -3,0.24414 c -1.65,0.1347 -3.9,-0.25765 -5,-0.87305 -4.1449,-2.3187 -15.52899,-14.42793 -16.59179,-17.64843 -1.0067,-3.0503 -0.72422,-4.07595 3.23828,-11.78125 2.79175,-5.42875 4.44889,-8.16561 6.33594,-8.31641 z m 800.82418,0.20703 c -6.3492,0.0915 -8.9432,4.31543 -10.3672,15.67188 -0.5676,4.5266 -2.7558,12.99393 -4.9394,19.11523 -4.9885,13.9843 -6.1378,20.10203 -4.8828,25.98633 1.1952,5.604 5.9449,11.56272 10.1953,12.79102 1.7531,0.50229 3.7851,0.73651 4.5176,0.51171 0.7325,-0.2248 1.9359,-0.4082 2.6738,-0.4082 2.993,0 7.4149,-5.24474 9.9258,-11.77344 2.0705,-5.3839 3.6879,-7.69229 8.0996,-11.55859 12.5883,-11.0321 13.4547,-23.50743 2.623,-37.73633 -8.0671,-10.5971 -9.3045,-11.62673 -14.8867,-12.39453 -1.0678,-0.14686 -2.0519,-0.21815 -2.959,-0.20508 z m -610.7871,0.002 c -3.3612,-0.004 -5.7593,3.64043 -3.1113,6.5664 1.878,2.0752 2.029,5.90247 0.4414,11.20117 -0.9075,3.0292 -0.8718,4.16587 0.1641,5.41407 3.4815,4.1949 9.0635,-1.41635 9.7597,-9.81055 0.4956,-5.9768 -1.3606,-10.87787 -4.8222,-12.73047 -0.8281,-0.44317 -1.656,-0.63965 -2.4317,-0.64062 z m -353.00974,1.6289 c -6.00686,0.0415 -13.06321,2.64078 -18.2793,7.63867 -4.5137,4.3249 -4.51774,4.33652 -3.94531,9.88282 0.91459,8.8615 5.48935,14.35927 15.16797,18.23437 5.74748,2.3011 12.69381,0.0367 16.17187,-5.27148 2.38776,-3.6442 4.0049,-20.51162 2.34961,-24.50782 -1.68119,-4.05876 -6.16467,-6.01321 -11.46484,-5.97656 z m -58.2168,0.98438 c -1.45555,-0.0234 -2.90461,0.30815 -4.22656,1.01562 -1.19607,0.6401 -2.83428,0.57328 -4.88086,-0.19922 -7.2485,-2.736 -19.93986,4.89422 -22.21875,13.35742 -1.92539,7.1503 0.9286,10.71995 14.0332,17.56055 2.94501,1.5373 8.8364,1.71088 12.38086,0.36328 3.76278,-1.4306 10.50805,-7.9078 12.69141,-12.1875 1.16001,-2.2739 1.92773,-5.81523 1.92773,-8.89453 0,-4.322 -0.45475,-5.57201 -2.92382,-8.04101 -1.91152,-1.91157 -4.35728,-2.93565 -6.78321,-2.97461 z m 1023.81834,8.05273 c 1.4413,0 10.7649,12.33545 11.9531,15.81445 2.0726,6.069 0.4678,9.88456 -7.416,17.62696 -5.9538,5.847 -7.4925,8.04579 -8.9687,12.80859 -1.346,4.343 -2.2444,5.75 -3.6719,5.75 -4.848,0 -4.4249,-7.8805 1.3457,-25 2.5028,-7.425 4.8594,-16.5375 5.2363,-20.25 0.3768,-3.7125 1.0612,-6.75 1.5215,-6.75 z m -1029.28904,1.38277 c 1.81837,-0.10939 4.17773,1.74849 4.17773,3.75196 0,1.1356 -1.53039,3.59484 -3.40039,5.46484 -1.99781,1.9978 -4.36916,3.38147 -5.75,3.35547 -3.1588,-0.0594 -9.84961,-3.67602 -9.84961,-5.32422 0,-2.3432 3.73058,-4.78676 8.17188,-5.35156 2.38019,-0.3027 4.86132,-0.97058 5.51367,-1.48438 0.32646,-0.25717 0.71709,-0.38686 1.13672,-0.41211 z m 65.17383,0.35352 -0.58203,6.38281 c -0.32057,3.5098 -0.75746,6.94336 -0.96875,7.63086 -1.23935,4.0325 -11.44532,-2.89583 -11.44532,-7.76953 0,-2.3411 4.38319,-5.08896 9.13672,-5.72656 z m -248.75196,3.48633 c -2.85761,-0.0129 -7.2695,0.37263 -15.63476,1.14453 -10.29974,0.9503 -18.36005,10.85115 -15.79688,19.40625 2.1383,7.137 13.39814,17.92391 21.17969,20.29101 7.37942,2.2447 14.72423,0.21502 21.22656,-5.86718 6.38148,-5.9691 8.10352,-9.41067 8.10352,-16.19727 0,-8.9384 -3.75121,-14.09026 -12.77148,-17.53516 -2.14567,-0.8193 -3.44904,-1.22928 -6.30665,-1.24218 z m 412.73633,1.82422 c -1.18329,0.0467 -2.30727,0.69453 -2.94531,1.88671 -1.3388,2.5015 -1.32394,2.63505 0.53516,4.49414 1.8591,1.85911 1.99264,1.87591 4.49414,0.53711 2.18,-1.1667 2.53627,-3.96372 0.73437,-5.76562 -0.67571,-0.67571 -1.4916,-1.04839 -2.30859,-1.13477 -0.17021,-0.018 -0.34073,-0.0242 -0.50977,-0.0176 z m -416.35937,8.54687 c 1.72935,-0.0361 3.31733,0.10223 4.60937,0.45898 5.66274,1.5636 7.22266,3.28026 7.22266,7.94336 0,3.6315 -0.55746,4.70961 -4.1875,8.09571 -4.85653,4.5301 -9.66441,5.18157 -14.85938,2.01367 -3.24518,-1.9789 -10.40625,-10.10269 -10.40625,-11.80469 0,-3.11951 10.12725,-6.5505 17.6211,-6.70703 z m 994.79101,6.7207 c -0.625,0.009 -1.2394,0.19676 -1.9863,0.53711 -3.5605,1.6222 -2.9894,4.5524 1.7246,8.85743 2.8663,2.61769 5.6943,7.00488 9.1426,14.17968 5.6184,11.6899 6.7961,18.91527 4.8144,29.53906 -0.923,4.94813 -0.8544,6.31112 0.416,8.25 3.5562,5.42751 6.9541,1.52907 8.6016,-9.86523 1.6405,-11.3469 0.3665,-18.2751 -5.6699,-30.8125 -5.7803,-12.0057 -8.8469,-16.46026 -13.168,-19.13086 -1.762,-1.089 -2.8333,-1.56975 -3.875,-1.55469 z m -131.998,14.33985 c -0.2059,-0.009 -0.4109,-0.003 -0.6153,0.0156 -3.5427,0.32785 -6.7332,4.71628 -4.8672,8.20313 1.4306,2.6732 4.4674,2.72795 7.0684,0.12695 2.4669,-2.4669 2.5991,-6.61666 0.25,-7.84766 -0.598,-0.31333 -1.2184,-0.47092 -1.8359,-0.49804 z m -280.1075,2.45117 c -3.793,-0.0892 -5.5465,3.51195 -2.7363,6.32226 2.1118,2.11181 3.7511,1.97908 5.9824,-0.48632 2.2252,-2.4588 1.0341,-5.24908 -2.4609,-5.76758 -0.2703,-0.0401 -0.5323,-0.0624 -0.7852,-0.0684 z m 85.4883,0.11523 c -1.132,0.0254 -2.2529,0.59467 -3.0566,1.74219 -2.0785,2.9675 -1.0325,6.57176 2.9121,10.03516 3.8675,3.3957 3.7882,3.37209 6.414,1.96679 2.3734,-1.2702 2.5041,-4.67777 0.2735,-7.14257 -0.9137,-1.0096 -2.1628,-2.84638 -2.7754,-4.08008 -0.8389,-1.68953 -2.3121,-2.55418 -3.7676,-2.52149 z m -162.4531,8.9336 c -1.0481,0.039 -2.3689,0.24157 -4.2207,0.58593 -3.1522,0.58624 -7.7307,1.97424 -10.1758,3.08594 -2.4451,1.1118 -5.8464,2.30309 -7.5566,2.64649 -4.0959,0.8223 -8.3378,5.37059 -8.9746,9.62109 -0.9647,6.4396 4.3657,11.45388 17.5566,16.51758 1.9408,0.745 5.8187,1.21923 8.6191,1.05273 9.362,-0.5566 14.6094,-6.86556 14.6094,-17.56836 0,-6.8807 -2.115,-12.33964 -5.6894,-14.68164 -1.4307,-0.93737 -2.4212,-1.32478 -4.168,-1.25976 z m -309.51954,5.77148 c 1.98135,0.0106 3.92872,1.30389 5.52344,3.83008 2.85409,4.5211 8.46353,9.69851 14.90234,13.75391 2.61152,1.6448 4.74902,3.25949 4.75,3.58789 9.9e-4,0.3285 -7.76055,0.90721 -17.24805,1.28711 -9.4875,0.3799 -18.9375,0.95675 -21,1.28125 -2.0625,0.3245 -3.75,0.21787 -3.75,-0.23633 0,-1.391 10.08931,-18.78509 12.28516,-21.17969 1.43462,-1.5645 2.99606,-2.33245 4.53711,-2.32422 z m 831.20504,1.02539 c -1.0066,0.0383 -2.0193,0.43925 -2.8281,1.24805 -1.5678,1.5675 -1.5421,7.05717 0.039,8.63867 3.448,3.448 8.7239,-2.17689 6.7969,-7.24609 -0.6687,-1.75882 -2.3301,-2.70452 -4.0079,-2.64063 z m -524.375,4.42774 c 1.1431,-0.0595 1.5241,0.48138 1.9141,2.03515 0.6486,2.5844 -0.1499,6.25784 -1.8125,8.33594 -1.5665,1.9579 -5.7672,1.46248 -11.7539,-1.38672 -5.1656,-2.4584 -5.348,-2.66513 -3,-3.39453 1.375,-0.4272 4.3,-1.65893 6.5,-2.73633 2.2,-1.0775 5.2264,-2.25157 6.7266,-2.60937 0.5786,-0.138 1.0447,-0.2243 1.4257,-0.24414 z m 661.5391,0.48242 c -0.8436,0.0157 -1.6288,0.066 -2.332,0.15625 -5.9297,0.7607 -9.3633,3.81743 -10.3789,9.23633 -0.7884,4.2065 2.953,21.47009 5.3632,24.74609 1.0116,1.375 3.3737,3.54542 5.2481,4.82422 3.21,2.1898 4.0185,2.28916 13.9082,1.69336 14.2594,-0.8592 15.5483,-1.19391 18.5898,-4.80859 2.3109,-2.74622 2.579,-3.77759 2.125,-8.17579 -0.9683,-9.3809 -7.5018,-20.82011 -13.7304,-24.04101 -4.0871,-2.11356 -12.8878,-3.74041 -18.793,-3.63086 z m 0.4727,10.1289 c 1.4011,-0.0406 3.489,0.41818 6.4492,1.16993 3.9349,0.9993 7.7582,2.31924 8.4961,2.93164 1.6747,1.3898 6.3906,11.2376 6.3906,13.3457 0,1.1054 -0.9804,1.5625 -3.3535,1.5625 -1.8443,0 -6.0205,0.27854 -9.2793,0.61914 -7.2974,0.7627 -7.7326,0.33156 -9.9805,-9.89844 -1.5673,-7.13274 -1.8052,-9.64117 1.2774,-9.73047 z m -784.92192,11.03321 c 3.29341,0.0227 7.33713,0.91262 10.25781,2.47656 4.9525,2.6519 4.5608,2.71522 -7.5,1.23242 -8.7937,-1.0812 -9.64725,-1.39618 -7.47265,-2.77148 1.03125,-0.6522 2.7388,-0.9511 4.71484,-0.9375 z m 727.85742,1.97656 c -0.8418,0 -2.0328,0.93974 -2.6484,2.08984 -0.8894,1.6619 -0.6915,3.08555 0.9648,6.93555 1.4901,3.4639 2.084,6.96194 2.084,12.27344 0,11.0389 1.5042,17.09017 6.5547,26.35547 4.1018,7.5248 4.8378,8.3457 7.4785,8.3457 4.9139,0 4.8951,-3.56913 -0.062,-12.55273 -4.1403,-7.5003 -4.237,-7.89483 -4.9629,-20.29883 -0.9782,-16.7148 -3.5938,-23.14844 -9.4082,-23.14844 z m -328.3184,3.47852 c -3.3071,0.13877 -4.2812,1.3428 -4.2812,4.26953 0,1.6929 0.907,2.74146 3.25,3.75976 7.0655,3.071 14.75,1.22428 14.75,-3.54492 0,-2.5353 -2.3103,-3.56957 -9.584,-4.29297 -1.6708,-0.16617 -3.0324,-0.23766 -4.1348,-0.1914 z m 431.7071,19.11328 c -0.4036,-0.01 -0.8421,-0.008 -1.3262,0.002 -6.0174,0.1256 -13.2995,4.84439 -18.0234,11.67969 -1.9868,2.8747 -4.3542,6.24863 -5.2618,7.49805 -2.1441,2.9514 -2.1095,9.45909 0.064,12.77929 0.9429,1.439 3.5901,3.46797 5.8848,4.50977 8.1041,3.6796 11.8361,2.13298 19.6914,-8.16602 6.9519,-9.1145 7.9804,-11.36186 7.9804,-17.44336 0,-3.4701 -0.6282,-5.12114 -2.9199,-7.68554 -2.2001,-2.46199 -3.2603,-3.10544 -6.0879,-3.17383 z m -2.4766,11.42578 c 1.4399,0.15462 -0.012,3.55062 -4.2617,9.35351 -4.614,6.3006 -6.4888,7.6689 -7.7363,5.6504 -0.7956,-1.2873 5.6649,-11.33315 8.6191,-13.40235 1.3864,-0.97105 2.4035,-1.48979 3.0527,-1.58984 0.1218,-0.0188 0.2302,-0.022 0.3262,-0.0117 z m -169.0098,34.09375 c -2.6214,-0.0509 -4.5019,2.36925 -4.5019,5.92969 0,1.4628 -0.4957,4.07824 -1.0996,5.81054 -0.9384,2.6918 -1.9199,3.38352 -6.75,4.76172 -3.1086,0.887 -6.6629,2.54023 -7.9004,3.67383 -2.1312,1.9522 -3.0438,6.58522 -1.584,8.04492 1.1334,1.1335 4.5953,0.73856 6.2539,-0.71484 0.8683,-0.7609 4.1273,-2.11321 7.2422,-3.00391 7.1132,-2.0339 10.2727,-5.57596 11.8809,-13.32226 1.4472,-6.9713 0.4548,-10.64382 -3.0078,-11.13672 -0.1812,-0.0258 -0.3585,-0.0396 -0.5333,-0.043 z m 160.6934,12.02148 c -4.8377,0.0757 -10.2852,2.26137 -15.418,6.73828 -1.8028,1.5724 -4.2788,3.17104 -5.5019,3.55274 -3.3778,1.0541 -6.0376,5.10851 -7.2813,11.09961 -0.9811,4.7257 -0.8782,5.93915 0.8164,9.68945 2.4344,5.3876 7.8001,10.54509 12.7364,12.24219 5.1439,1.7683 9.2304,0.49424 12.9531,-4.03906 1.65,-2.0093 5.7791,-6.46334 9.1777,-9.89844 6.5626,-6.6332 8.1288,-10.42238 6.9297,-16.76758 -1.5746,-8.33192 -7.3416,-12.72783 -14.4121,-12.61719 z m -77.7578,0.22852 c -0.6865,0.0401 -1.3791,0.20173 -2.0508,0.50781 -2.6043,1.1866 -3.2376,4.87959 -1.1875,6.92969 1.6661,1.6661 7.3025,1.50405 8.7598,-0.25195 2.4874,-2.99715 -0.913,-6.96869 -4.8379,-7.18555 -0.2265,-0.0125 -0.4548,-0.0134 -0.6836,0 z m -183.3438,2.24805 c -2.7477,0.12953 -5.0937,4.28444 -5.0937,10.25585 0,2.05422 0.5392,4.2736 1.1992,4.9336 2.9945,2.9945 5.7203,0.67216 7.3281,-6.24414 1.2334,-5.306 1.1895,-5.83589 -0.625,-7.65039 -0.9328,-0.93285 -1.8927,-1.3381 -2.8086,-1.29492 z m 260.9395,8.45507 c 1.1083,0.0182 2.0276,0.39677 2.7656,1.13477 2.5761,2.5761 1.2165,5.70605 -5.2988,12.18945 -3.575,3.5574 -6.5,6.94986 -6.5,7.53906 0,2.2094 -3.9181,0.95735 -6.4609,-2.06445 -2.1115,-2.5094 -2.5075,-3.7578 -1.9786,-6.25 0.7136,-3.3623 3.0807,-6.60186 4.8438,-6.63086 0.6022,-0.01 3.0758,-1.36 5.4961,-3 2.9166,-1.97637 5.2857,-2.94836 7.1328,-2.91797 z m -110.9063,22.02344 c -2.4474,0.0517 -3.4031,0.92462 -6.664,4.18555 -3.9283,3.9283 -4.461,4.98725 -4.461,8.84375 0,5.3675 2.3227,9.37652 8.2129,14.20312 7.2908,5.9743 10.8188,6.99548 21.7696,6.29688 5.2327,-0.3338 11.0906,-0.18063 13.0156,0.3418 9.9699,2.70578 21.1679,-1.54565 25.0176,-9.49805 3.5792,-7.3936 1.3338,-13.6897 -6.2832,-17.6211 -3.6874,-1.9032 -5.9163,-2.19667 -17.2344,-2.26367 -9.8462,-0.0582 -14.4556,-0.53867 -19,-1.98047 -3.3,-1.047 -8.3793,-2.10115 -11.2871,-2.34375 -1.2876,-0.10742 -2.2701,-0.1813 -3.086,-0.16406 z m 4.0372,10.94727 c 0.8107,0.0405 1.587,0.31553 2.1503,0.8789 0.5966,0.5966 2.1626,1.08594 3.4805,1.08594 1.3178,0 4.9246,0.73471 8.0137,1.63281 4.2656,1.24 8.0949,1.50507 15.9238,1.10547 9.0023,-0.4594 10.5905,-0.29356 12.5371,1.30664 l 2.2305,1.83203 -2.1387,2.17188 c -2.4715,2.5099 -8.9701,3.36552 -14.3613,1.89062 -1.925,-0.5267 -7.775,-0.68872 -13,-0.36132 l -9.5,0.59375 -4.8086,-3.67579 c -3.5336,-2.7021 -4.7262,-4.24833 -4.5,-5.83593 0.2366,-1.66004 2.1891,-2.71401 3.9727,-2.625 z"
     style="fill:#000000"
     id="path312" />
</svg>
