<?xml version="1.0" encoding="UTF-8" standalone="no"?>
<svg
   xmlns:dc="http://purl.org/dc/elements/1.1/"
   xmlns:cc="http://creativecommons.org/ns#"
   xmlns:rdf="http://www.w3.org/1999/02/22-rdf-syntax-ns#"
   xmlns:svg="http://www.w3.org/2000/svg"
   xmlns="http://www.w3.org/2000/svg"
   viewBox="0 0 1616.2306 2078.6912"
   height="2078.6912"
   width="1616.2306"
   id="svg2818"
   version="1.1">
  <metadata
     id="metadata2824">
    <rdf:RDF>
      <cc:Work
         rdf:about="">
        <dc:format>image/svg+xml</dc:format>
        <dc:type
           rdf:resource="http://purl.org/dc/dcmitype/StillImage" />
        <dc:title></dc:title>
      </cc:Work>
    </rdf:RDF>
  </metadata>
  <defs
     id="defs2822" />
  <path
     id="path3990"
     d="m 882.24787,2077.7699 c -59.9454,-2.9907 -73.4841,-5.4277 -81.6177,-14.6914 l -3.0639,-3.4896 0.3601,-14.1117 c 0.537,-21.039 2.0685,-23.0095 19.3743,-24.926 l 10.708,-1.1858 -3.8804,-2.5 c -5.6534,-3.6423 -7.6039,-8.0754 -6.8197,-15.5 0.9173,-8.6847 3.2011,-19.1387 4.8978,-22.4198 2.1494,-4.1565 6.7706,-7.6744 16.4522,-12.5242 11.4935,-5.7575 20.8223,-9.0195 37.5893,-13.144 13.3547,-3.2851 59.24,-11.412 64.4332,-11.412 6.0384,0 -0.9592,-2.1105 -21.4332,-6.4643 -12.1,-2.573 -38.65,-8.2785 -59,-12.6788 -20.35,-4.4002 -56.35,-11.8234 -80,-16.4958 -39.0156,-7.7082 -61.2608,-12.4379 -161.5,-34.338 -34.5238,-7.5427 -52.4591,-11.1338 -97.1109,-19.4439 -16.286,-3.0311 -37.8709,-7.3006 -47.9665,-9.4878 -11.5302,-2.4981 -18.7678,-3.6349 -19.4639,-3.0571 -1.4345,1.1905 -44.1701,9.6897 -77.6081,15.4347 -14.3796,2.4705 -26.3158,4.6628 -26.5247,4.8718 -0.209,0.209 1.7481,0.6716 4.349,1.0281 6.4551,0.8848 12.5217,4.0011 14.5834,7.4912 1.355,2.2938 1.7697,5.811 1.9773,16.7712 0.326,17.2077 -0.5139,19.1801 -10.2848,24.1497 -23.0282,11.7126 -125.86334,22.1383 -180.36109,18.2854 -17.98678,-1.2716 -46.15574,-5.0887 -56.08971,-7.6005 -8.79897,-2.2248 -16.36102,-6.2096 -18.65641,-9.8308 -1.73852,-2.7428 -1.93035,-4.394 -1.53284,-13.1947 0.49836,-11.0336 2.64422,-17.0543 7.12456,-19.99 1.32528,-0.8683 7.41817,-2.8103 13.53976,-4.3154 l 11.13018,-2.7366 -5.47143,-1.7247 c -3.67388,-1.1581 -6.4837,-2.8776 -8.55262,-5.234 -2.64348,-3.0108 -3.0812,-4.2913 -3.0812,-9.0143 0,-6.7184 2.35407,-11.7057 7.88287,-16.7006 6.6923,-6.0461 16.10041,-8.5151 92.61713,-24.3062 51.34916,-10.5971 56.3981,-11.7332 56.4769,-12.7093 0.035,-0.4349 -4.08966,-2.8699 -9.16616,-5.4112 -12.09417,-6.0544 -21.8579,-15.5308 -27.14329,-26.3444 -7.29032,-14.9157 -13.12779,-46.2951 -14.37905,-77.2947 -0.37708,-9.3422 -1.00463,-14.9811 -1.69372,-15.2192 -0.60207,-0.2081 -13.01968,-0.5929 -27.59468,-0.8551 -45.81026,-0.8242 -71.06688,-5.5607 -80.6263,-15.1201 -2.98836,-2.9883 -3.05801,-6.8966 -0.3583,-20.1045 2.83199,-13.8551 6.72314,-24.9927 10.05917,-28.7922 1.56601,-1.7836 9.90035,-7.2312 18.52076,-12.1058 12.43144,-7.0297 15.28369,-9.0242 13.78907,-9.6424 -1.03642,-0.4287 -13.74957,-3.0683 -28.25143,-5.8659 -37.867204,-7.305 -49.846974,-11.2011 -63.754864,-20.7346 -12.43256,-8.5222 -18.28013,-16.9436 -33.87471,-48.7849 -20.41291,-41.6795 -27.4378497,-62.0794 -30.59430966,-88.8434 -0.88398,-7.4954 -0.87723,-12.3332 0.0285,-20.4541 1.19879996,-10.7484 15.45348966,-102.0586 25.60180966,-163.9957 8.11357,-49.5187 8.68051,-53.3526 17.39609,-117.6411 9.02398,-66.5634 17.05604,-130.13768 23.05727,-182.49998 7.20111,-62.83158 8.30086,-71.21274 17.91117,-136.5 2.75264,-18.7 7.92432,-54.925 11.49262,-80.5 3.5683,-25.575 9.409694,-66.075 12.980874,-90 3.57118,-23.925 9.67263,-66.30991 13.55877,-94.1887 10.10569,-72.49705 13.81752,-90.99831 22.23162,-110.8113 5.36415,-12.63116 10.01436,-19.3643 26.93515,-39 31.49993,-36.55403 85.42237,-85.66838 96.89701,-88.257 1.375,-0.3102 5.71103,-1.69727 9.63563,-3.08239 3.9466,-1.39286 11.7677,-3.02168 17.5,-3.6445 20.4399,-2.22081 19.0076,-1.88 17.7531,-4.22414 -0.6137,-1.14665 -0.897,-4.02603 -0.6296,-6.39863 0.3863,-3.42693 0.08,-4.68128 -1.4888,-6.10121 -3.0146,-2.72816 -4.7703,-6.78663 -4.7703,-11.02686 0,-3.20104 -0.4962,-4.12714 -3.0051,-5.60922 -4.4708,-2.64098 -6.3432,-6.99259 -5.6981,-13.24315 0.482,-4.66985 0.2708,-5.46574 -2.0079,-7.56587 -3.5125,-3.23717 -5.5469,-8.39596 -4.7471,-12.03746 0.5175,-2.35596 0.2128,-3.29315 -1.449,-4.45711 -3.4824,-2.43915 -5.3218,-7.03752 -4.5775,-11.44315 0.4361,-2.58139 0.286,-3.90931 -0.4421,-3.90931 -2.0557,0 -5.0656,-6.40258 -5.0695,-10.78333 0,-3.54356 -0.5968,-4.87639 -3.4375,-7.71713 -3.538,-3.53805 -5.45918,-10.11074 -4.15567,-14.21773 0.41002,-1.29187 -0.21279,-2.68684 -1.9125,-4.28364 -2.75492,-2.5881 -4.9371,-9.0395 -4.02727,-11.90615 0.32911,-1.03693 -0.10393,-2.37259 -1.01415,-3.128 -2.67432,-2.21952 -4.45661,-6.65286 -4.45661,-11.08562 0,-2.61692 -0.66502,-4.95544 -1.75,-6.1538 -1.2676,-1.40007 -1.77943,-3.76486 -1.85678,-8.57874 -0.0787,-4.89682 -0.67006,-7.56698 -2.24709,-10.14586 -2.7403,-4.48115 -3.5468,-8.81595 -2.26667,-12.18294 0.79886,-2.10119 0.67409,-2.94185 -0.59214,-3.9896 -4.08903,-3.38347 -6.65218,-14.408678 -4.34986,-18.710598 0.67739,-1.26572 0.23045,-3.18027 -1.61111,-6.90138 -2.08335,-4.20968 -2.54372,-6.57042 -2.522,-12.9326 0.0207,-6.05996 -0.42537,-8.55769 -2.01495,-11.28288 -4.35192,-7.46101 -3.00193,-22.84251 2.88672,-32.89075 5.97563,-10.19663 14.74397,-16.3102003 29.00368,-20.2222923 6.06,-1.66254098 9.4359,-2.01562198 15.1442,-1.58390398 18.9498,1.43316398 37.298,17.51353628 40.1785,35.21246628 0.4968,3.052 1.7983,6.68703 2.8923,8.07784 2.7715,3.52348 4.4349,11.88711 3.9327,19.77407 l -0.4243,6.66405 3.5484,0.91587 c 1.9516,0.50373 12.5484,3.20795 23.5484,6.00939 37.2297,9.48149 49.2754,13.10578 52.0236,15.65267 1.4187,1.31482 2.8938,2.39024 3.2779,2.38981 0.3842,-4.3e-4 2.4677,-1.57543 4.6302,-3.5 2.1624,-1.92457 4.9263,-3.49922 6.142,-3.49922 4.23,0 76.3451,20.079458 111.845,31.141688 10.5615,3.29112 13.3526,3.82791 15.297,2.94197 1.3081,-0.59601 3.6749,-1.08366 5.2595,-1.08366 4.339,0 27.7809,7.47253 30.1838,9.62163 1.1551,1.0331 2.9058,3.74407 3.8905,6.02438 1.3959,3.23269 2.5964,4.41204 5.4495,5.35366 3.2998,1.08903 3.8517,1.00102 5.6191,-0.89601 2.8413,-3.04984 7.5035,-2.66954 18.1696,1.48214 5.0668,1.97219 14.9199,5.58373 21.8959,8.02564 11.8881,4.16137 12.9333,4.36191 16.6645,3.19739 l 3.9809,-1.24243 -9.2368,-9.6235 c -15.2036,-15.83996 -30.8514,-37.61863 -36.4013,-50.663328 -7.8407,-18.42922 0.057,-28.58276 23.3091,-29.9663 4.4,-0.26181 10.3443,-0.70661 13.2096,-0.98843 8.5394,-0.83993 18.8268,3.32092 38.1357,15.42448 9.2308,5.78614 10.6095,6.36447 12.7971,5.36775 1.3484,-0.61439 4.0368,-1.11707 5.9742,-1.11707 4.0714,0 15.9776,4.72261 22.7766,9.03439 3.9339,2.4948 5.6966,2.96561 11.1033,2.96561 5.5888,0 8.3558,0.7972 21.2153,6.11237 8.1335,3.361798 18.8804,7.802758 23.882,9.868798 8.1367,3.36111 9.3469,3.61611 11.5,2.42307 3.5145,-1.94749 10.0663,-1.69215 16.8539,0.65683 4.2643,1.47578 6.4736,1.78385 7.7796,1.08486 5.3896,-2.88442 75.748,-12.1393 97.7889,-12.86305 26.6492,-0.875068 27.9148,-0.497728 89.10593,26.56688 14.7828,6.53841 32.9529,14.47755 40.3779,17.64254 7.425,3.16498 22.95,10.25081 34.5,15.74629 11.55,5.49547 36.075,16.74321 54.5,24.99498 33.296,14.91185 33.526,14.9964 37.7644,13.88482 8.9959,-2.35934 19.1996,-0.51597 34.7356,6.27526 4.4,1.92336 8.3251,3.17399 8.7225,2.77916 0.3974,-0.39482 3.9348,-6.33273 7.8609,-13.19534 19.5192,-34.11866 29.062,-44.64423 58.1371,-64.12468 8.0408,-5.38731 12.6482,-7.85279 14.6752,-7.85279 8.2943,0 57.43,40.58159 67.601,55.83225 2.2109,3.31506 2.65,4.72383 1.8699,6 -0.5607,0.91726 -5.348,3.91775 -10.6386,6.66775 -11.9918,6.23326 -18.8737,11.43749 -23.7303,17.94532 -4.5831,6.14127 -21.0608,34.73129 -28.0885,48.73566 -5.8758,11.70879 -6.4828,10.07615 6.2727,16.87086 10.136,5.39936 19.1561,13.89115 20.7018,19.48931 3.3643,12.18431 -9.8579,116.81394 -18.3243,145.00409 -3.0106,10.02416 -13.0815,21.35074 -27.8238,31.29293 -10.0047,6.74714 -16.1871,9.72185 -26.29,12.64956 -12.4216,3.59963 -16.4038,3.34214 -29.457,-1.90469 -6.0437,-2.42933 -10.9886,-4.26922 -10.9886,-4.08865 0,0.18057 2.7487,6.71169 6.1081,14.5136 3.3595,7.80191 6.3584,16.05126 6.6643,18.33189 0.4153,3.09656 1.5908,5.18678 4.6419,8.25423 7.291,7.33014 35.4505,47.15874 47.3878,67.02505 9.0714,15.09685 18.5523,33.59893 23.103,45.08553 10.4972,26.49664 17.1965,60.10708 20.0909,100.79531 1.2859,18.07702 1.276,80.22784 -0.016,101.5 -0.9913,16.31989 -1.0585,16.65282 -6.1548,30.5 -5.3253,14.46954 -7.0636,24.31716 -4.9796,28.21104 0.9243,1.7271 2.5168,2.07075 12.3578,2.6667 16.7849,1.01645 17.1862,1.19507 31.0774,13.83109 6.7207,6.11338 16.4312,14.94847 21.5789,19.63347 11.6546,10.6071 15.7306,16.6449 19.0591,28.2329 l 2.5849,8.999 8.4983,3.4077 c 9.769,3.9172 13.3953,7.3736 18.1176,17.2683 4.2881,8.985 6.1631,18.91988 5.6145,29.74978 -0.5328,10.5184 -2.402,15.2297 -9.3234,23.5 -2.5316,3.025 -6.2184,7.9718 -8.1929,10.993 l -3.5899,5.493 0.031,47.007 c 0.029,43.4434 1.2596,80.2307 4.3496,130.007 0.5463,8.8 1.8983,32.875 3.0045,53.5 1.9394,36.16 3.173,56.838 8.4711,142 1.3516,21.725 3.1509,52.325 3.9986,68 3.7701,69.7157 9.5345,147.1021 13.557,182 5.9828,51.9056 6.4011,54.7237 8.4659,57.0301 1.097,1.2254 9.0817,7.6031 17.7439,14.1726 9.8296,7.4548 15.9303,12.7625 16.2305,14.1209 1.7197,7.7792 3.6285,32.1962 5.0758,64.9264 l 0.6522,14.75 12.1461,0.02 c 32.9014,0.054 59.6668,9.578 65.104,23.1669 0.9314,2.3278 1.9422,7.1987 2.2461,10.8242 0.6241,7.4444 -0.937,11.7851 -5.2561,14.6151 -1.3807,0.9047 -2.3427,1.8126 -2.1377,2.0176 0.205,0.205 4.1566,0.8247 8.7812,1.377 17.8674,2.1339 26.4996,5.4907 29.301,11.3942 2.7076,5.7057 0.073,23.596 -4.6194,31.3741 -5.4421,9.0201 -34.8859,17.4546 -79.2731,22.7087 -31.5234,3.7315 -53.2411,4.8177 -83,4.1511 -33.7597,-0.7561 -55.9992,-3.0787 -79.7225,-8.326 l -11.7226,-2.5928 -16.2774,3.7303 c -8.9526,2.0517 -32.2525,7.5383 -51.7775,12.1924 -44.2125,10.5388 -110.9282,25.4784 -146.5,32.8056 -14.85,3.0588 -42.075,8.8196 -60.5,12.8017 l -33.5,7.2401 10.098,0.6705 c 12.8985,0.8565 17.7444,2.1839 20.4571,5.6036 1.9719,2.4858 2.1239,3.6138 1.7253,12.8055 -0.4799,11.0687 -2.6968,17.3945 -7.2479,20.6816 -7.4614,5.3892 -52.5704,13.1522 -91.36213,15.7229 -17.4704,1.1578 -75.8023,1.1112 -99.6704,-0.08 z m 83.5418,-6.9038 c 12.948,-0.5231 30.2043,-1.6507 38.34743,-2.5058 25.6655,-2.6953 57.0781,-8.6167 63.5988,-11.9887 3.7415,-1.9348 5.2018,-7.0206 4.8054,-16.7365 l -0.2934,-7.1939 -3.5,-0.7245 c -1.925,-0.3985 -9.35,-1.0038 -16.5,-1.3453 -15.7676,-0.7529 -17.2107,-1.0191 -17.9372,-3.3081 -0.5384,-1.6964 -1.5973,-1.6162 -18.8166,1.4244 -49.55053,8.7498 -49.97923,8.7976 -79.24623,8.8393 -32.8701,0.047 -45.068,-1.5556 -80.8285,-10.618 -14.7694,-3.7429 -15.9126,-3.8962 -17.0864,-2.2909 -0.9839,1.3455 -4.2891,2.0298 -15.1715,3.141 -8.7698,0.8955 -14.4306,1.9298 -15.3122,2.7978 -1.794,1.7664 -2.9663,8.9615 -3.0418,18.6696 -0.057,7.3422 0.067,7.7678 2.9862,10.224 3.7768,3.178 13.47,6.2411 23.8811,7.5465 8.6776,1.0881 61.5043,3.9565 80.5731,4.375 6.6,0.1448 16.05,0.3492 21,0.4542 4.95,0.105 19.5938,-0.2371 32.5418,-0.7601 z m -38.0418,-12.596 c -1.925,-0.2249 -11.375,-1.115 -21,-1.9779 -28.786,-2.5808 -62.8075,-7.6543 -83.9114,-12.5134 -9.3022,-2.1418 -11.8013,-3.8926 -10.478,-7.341 0.8311,-2.1659 3.0147,-2.0082 18.9814,1.3715 27.8954,5.9047 75.4164,11.7035 110.908,13.5338 13.0243,0.6716 36.9673,-0.5647 58.77673,-3.035 7.5772,-0.8583 14.6647,-1.2787 15.75,-0.9342 2.2045,0.6996 2.7403,4.8994 0.7797,6.1111 -3.2441,2.005 -33.79723,4.4959 -59.30643,4.8351 -14.85,0.1974 -28.575,0.1749 -30.5,-0.05 z m 41.3356,-29.9714 c 29.4837,-4.0491 65.31653,-10.7011 110.16443,-20.4508 14.85,-3.2284 39.375,-8.4033 54.5,-11.5 32.2208,-6.5967 102.672,-22.2353 135.5,-30.078 35.3179,-8.4376 74.5826,-17.5257 112,-25.9233 73.5614,-16.5093 118.2066,-28.1143 156.5,-40.68 25.8134,-8.4706 35.6126,-12.3848 37.8669,-15.1258 2.08,-2.529 1.0937,-13.9074 -1.5094,-17.4146 -6.9983,-9.429 -27.7277,-15.7106 -55.9056,-16.9412 l -14.0481,-0.6135 -1.7849,8.3062 c -2.0032,9.3218 -5.423,17.7311 -9.2527,22.752 -1.4125,1.8519 -2.3524,3.5828 -2.0887,3.8466 0.2638,0.2637 9.4217,-1.9477 20.351,-4.9142 40.7756,-11.0675 41.3715,-11.1569 41.3715,-6.2033 0,3.1775 -0.168,3.2438 -24.5,9.667 -49.8933,13.171 -61.3232,15.5528 -62.8421,13.0951 -0.4004,-0.6479 -4.6439,-0.1336 -11.8903,1.441 -6.1972,1.3466 -28.8176,6.0381 -50.2676,10.4254 -47.0896,9.6315 -78.8365,16.8584 -111.5,25.382 -55.3235,14.4367 -112.9629,27.9624 -134.5,31.5619 -5.3365,0.8919 -7.4753,1.7491 -9,3.607 -1.6833,2.0512 -6.0383,3.4544 -27.5,8.8606 -31.1204,7.8393 -55.7265,12.7968 -98.6856,19.8825 -48.66933,8.0277 -57.69043,9.0261 -81.31443,8.9998 -23.1208,-0.026 -38.7869,-1.5966 -69.5251,-6.9711 -34.0269,-5.9496 -41.8562,-8.8057 -38.1254,-13.9079 1.301,-1.7792 1.5989,-1.77 9.2474,0.2845 10.3754,2.787 42.2728,8.5652 59.9031,10.8514 21.2989,2.762 58.8903,2.5215 79.5,-0.5086 51.34793,-7.5494 108.29263,-18.2603 131.00003,-24.6404 l 12.5,-3.512 -8,0.5143 c -23.3485,1.5011 -62.0609,-3.7977 -125.69623,-17.205 l -26.6962,-5.6245 -33.3038,5.2066 c -49.9011,7.8015 -70.8511,13.0533 -89.3727,22.4039 -13.6055,6.8687 -14.194,7.7288 -16.6041,24.2664 -1.3245,9.0885 -1.0169,10.601 2.644,12.9996 5.2722,3.4545 44.2698,13.3269 66.9733,16.9546 22.7709,3.6385 51.4346,3.9898 73.8913,0.9058 z m 160.03473,-68.9236 c 16.4916,-3.494 26.7077,-15.7389 30.0431,-36.0097 0.8145,-4.95 1.9547,-15.8717 2.5337,-24.2704 1.1974,-17.3659 1.3967,-60.1933 0.2876,-61.7818 -0.4041,-0.5787 -9.5097,-2.5354 -20.2347,-4.3481 -10.725,-1.8127 -56.175,-10.6844 -101,-19.7148 -44.82503,-9.0304 -97.70003,-19.1133 -117.50003,-22.4063 -19.8,-3.293 -49.275,-8.315 -65.5,-11.1599 l -29.5,-5.1726 -34.5,-0.1771 c -35.5184,-0.1823 -51.9021,-1.2874 -82,-5.5309 -34.8917,-4.9193 -46.0611,-9.4896 -46.3959,-18.9845 -0.087,-2.4678 -0.5962,-3.0359 -3.1041,-3.4634 -1.65,-0.2812 -8.85,-1.414 -16,-2.5172 -46.8478,-7.2287 -79.2796,-16.773 -86.4813,-25.4505 -0.7986,-0.9622 -1.692,-3.8218 -1.9853,-6.3547 l -0.5334,-4.6053 -14.721,-2.6784 c -33.9694,-6.1806 -86.692,-18.7198 -126.1104,-29.9933 -11.6427,-3.3298 -23.8686,-6.3022 -27.1686,-6.6054 -3.3,-0.3032 -6.5112,-0.954 -7.136,-1.4461 -0.6763,-0.5329 -7.3517,-0.2854 -16.5,0.6117 -8.4502,0.8286 -22.0723,1.9703 -30.2713,2.5371 -68.25251,4.7183 -88.76132,6.0119 -95.31426,6.0119 h -7.56522 l 0.58088,17.75 c 0.91654,28.0062 6.06324,56.7237 12.74165,71.0957 3.67452,7.9076 14.00816,18.4201 22.46425,22.8531 13.2983,6.9715 25.2838,10.4102 51.5,14.7754 21.3234,3.5505 52.8029,9.8579 75.4678,15.1211 10.4323,2.4226 20.2046,4.4047 21.7161,4.4047 1.5115,0 4.226,0.6717 6.0322,1.4928 5.6579,2.5718 70.6952,16.3845 115.2839,24.484 31.3984,5.7035 52.6628,10.1102 119,24.6613 36.3,7.9624 92.55,19.8255 125,26.3625 32.45,6.537 67.1,13.685 77,15.8845 9.9,2.1994 27.9,6.0765 40,8.6158 12.1,2.5392 39.2385,8.4288 60.3077,13.0879 59.78093,13.2196 103.74473,21.4006 125.19233,23.2964 15.8735,1.4031 36.8116,1.2259 44.3703,-0.3755 z m 397.1297,-3.9469 c 37.7458,-4.5164 56.8888,-8.6384 72.0558,-15.5154 5.218,-2.366 6.6803,-3.59 8.4623,-7.0829 2.2854,-4.4798 4.8179,-21.3436 3.6588,-24.3641 -1.5623,-4.0714 -15.8042,-7.6307 -36.3688,-9.0894 l -9.192,-0.6521 -24.308,7.9947 c -23.936,7.8724 -52.4808,16.0441 -77.5418,22.1985 -7.0215,1.7243 -12.9913,3.378 -13.2663,3.675 -0.9649,1.042 46.6469,-0.6704 60.3406,-2.1702 31.8367,-3.487 53.0316,-8.1235 73.2213,-16.0179 8.7338,-3.415 12.0256,-4.2963 13.0062,-3.4824 1.9719,1.6365 0.622,3.8305 -3.4394,5.59 -34.4402,14.9212 -76.9374,21.5938 -138.6287,21.7666 l -31,0.087 -25.5,5.9009 c -14.025,3.2455 -25.6875,6.058 -25.9167,6.25 -0.9127,0.7647 0.8062,1.2683 9.4278,2.762 39.3654,6.82 98.6163,7.6986 144.9889,2.1499 z m -350,-2.1363 c 30.4841,-6.3361 54.8167,-12.1262 100.5,-23.9143 49.9259,-12.8828 72.9579,-18.2135 121,-28.005 20.625,-4.2036 46.6015,-9.6274 57.7256,-12.053 11.1241,-2.4256 20.8484,-4.1712 21.6096,-3.8791 2.0874,0.801 10.5716,-9.1712 13.6765,-16.0751 3.7328,-8.3001 4.8297,-13.429 5.5784,-26.0817 0.9553,-16.1467 -2.2204,-70.5414 -4.4741,-76.6338 -0.3637,-0.9832 -8.0761,-7.3894 -17.1387,-14.236 -9.0625,-6.8465 -16.9777,-12.8805 -17.5893,-13.4088 -0.6116,-0.5284 -1.4285,-4.2635 -1.8155,-8.3002 -0.387,-4.0367 -2.0181,-17.9145 -3.6249,-30.8395 -5.8539,-47.0912 -11.629,-120.0526 -15.9492,-201.5 -0.9928,-18.7158 -2.2478,-39.5572 -8.4755,-140.75 -1.3625,-22.1375 -3.1682,-53.525 -4.0128,-69.75 -0.8446,-16.225 -1.9844,-36.475 -2.5328,-45 -2.8064,-43.6235 -4.1705,-78.9632 -4.69,-121.5 -0.6499,-53.215 -0.5598,-52.9273 -6.8307,-21.8258 -1.9045,9.4458 -4.3807,19.3158 -5.5027,21.9333 -5.0709,11.8299 -15.5737,22.3639 -25.3486,25.4239 -6.4824,2.0293 -15.4091,0.7229 -24.631,-3.6047 -10.5064,-4.9303 -14.1987,-4.9234 -28.4743,0.053 -17.7848,6.2001 -27.6139,6.0503 -67.8905,-1.035 -11.1103,-1.9544 -19.2422,-6.043 -26.3233,-13.2349 -7.337,-7.4519 -11.656,-15.4638 -13.7019,-25.4179 -2.3154,-11.265 -2.0819,-20.7747 0.6657,-27.1068 1.6832,-3.8792 2.2445,-7.0747 2.2281,-12.6854 -0.028,-9.5727 -1.4134,-13.4151 -7.6432,-21.1982 -10.1039,-12.6229 -13.387,-22.6345 -12.5602,-38.3018 0.6117,-11.58978 3.5159,-20.79018 9.1161,-28.87918 6.7444,-9.7417 14.1141,-13.9305 33.6686,-19.1366 17.7023,-4.713 20.005,-6.5003 27.0354,-20.9842 1.8688,-3.85 5.312,-8.9243 7.6515,-11.2763 2.3395,-2.352 4.2537,-4.4235 4.2537,-4.6033 0,-0.1798 -3.2451,-2.4848 -7.2113,-5.12218 l -7.2114,-4.79521 -16.5386,0.66919 c -9.0963,0.36806 -21.3668,1.24764 -27.2679,1.95463 -8.9494,1.07219 -11.1667,1.69083 -13.3667,3.72927 -2.7275,2.5273 -24.545,34.5524 -41.704,61.2158 l -9.7998,15.2281 0.5825,16.99998 c 0.3204,9.35 1.0081,26.225 1.5282,37.5 0.5201,11.275 1.4127,34 1.9836,50.5 0.5709,16.5 1.5558,42.825 2.1887,58.5 0.6329,15.675 1.1456,29.85 1.1394,31.5 -0.03,7.843 2.8906,68.4775 4.6958,97.5 2.7305,43.8985 4.4954,68.0619 7.998,109.5 3.2685,38.6678 5.8863,75.063 8.9909,125 2.4098,38.7612 4.9226,71.502 8.9794,117 4.0919,45.8903 4.7915,55.6818 6.5022,91 0.8259,17.05 1.7549,32.9033 2.0645,35.2296 0.5509,4.139 0.1635,4.8305 -18.0998,32.3134 -15.9421,23.9899 -18.5704,28.4754 -18.03,30.7704 1.3206,5.6087 1.7075,47.1744 0.6146,66.0341 -1.3372,23.0763 -3.1495,36.5773 -6.0761,45.2647 -2.3282,6.9113 -7.8322,15.8538 -11.5649,18.7899 -4.5631,3.5894 -5.5779,3.6936 24.1027,-2.4756 z m 123.5206,-655.4896 c -9.1748,-3.8566 -12.6107,-15.8323 -7.6184,-26.5539 2.6711,-5.7367 7.1367,-9.609 13.1174,-11.3748 3.6034,-1.0638 4.6059,-0.9275 9.6798,1.3165 5.9827,2.6458 8.0763,5.2884 9.2772,11.7099 1.4607,7.8107 -3.3457,18.8673 -9.9858,22.9711 -3.894,2.4066 -11.0632,3.3634 -14.4702,1.9312 z m 10.9099,-4.401 c 6.5363,-3.38 10.7959,-12.0837 9.7457,-19.9135 -0.6614,-4.9313 -3.4045,-7.7051 -9.0326,-9.1342 -5.1411,-1.3053 -7.9175,-0.5363 -11.9829,3.3191 -4.1269,3.9138 -5.8915,7.9008 -5.8915,13.3114 0,10.5562 8.653,16.8171 17.1613,12.4172 z M 256.74787,1919.3267 c 63.7007,-5.5595 100.3755,-12.4485 105.5423,-19.8251 1.5763,-2.2505 1.955,-16.6804 0.6334,-24.1362 -0.6262,-3.5328 -1.1613,-4.1483 -4.5818,-5.2699 -2.13,-0.6984 -8.1334,-1.9099 -13.3407,-2.6922 -5.6838,-0.8538 -10.1992,-2.0841 -11.2976,-3.0781 -1.0063,-0.9106 -2.2257,-1.4109 -2.7098,-1.1117 -2.3011,1.4221 -68.46295,11.6773 -81.2458,12.5932 -28.92415,2.0724 -71.40451,1.022 -94.23478,-2.3301 -8.1894,-1.2024 -8.77072,-1.1692 -9.31031,0.5309 -0.59519,1.8752 -1.09115,2.0422 -17.45491,5.876 -5.225,1.2242 -10.53427,2.618 -11.79837,3.0975 -3.27301,1.2413 -5.06507,6.3862 -5.35169,15.3641 -0.2256,7.0666 -0.0378,7.9497 2.04974,9.6401 4.96506,4.0205 26.8412,8.5672 54.60032,11.348 18.61312,1.8646 67.10206,1.861 88.5,-0.01 z m -55.5,-17.5169 c -17.77054,-0.826 -30.60484,-2.0971 -50,-4.952 -30.48609,-4.4874 -37.80176,-7.1574 -31.25,-11.405 2.00509,-1.2999 3.66505,-1.1905 15.25,1.0056 34.77894,6.5929 66.34325,8.8557 113.40547,8.1298 43.25563,-0.6672 61.81293,-3.301 90.15013,-12.7948 10.6516,-3.5686 13.3159,-3.5345 13.7468,0.1763 0.2626,2.2618 -0.3294,2.8739 -4.5,4.6535 -6.1834,2.6385 -23.6944,7.7752 -33.2646,9.7579 -28.3012,5.8635 -65.70505,7.6519 -113.5378,5.4287 z m 54.07632,-34.0271 c 12.07348,-1.1968 50.36798,-7.3343 74.42368,-11.928 8.525,-1.628 27.65,-5.0102 42.5,-7.516 30.0333,-5.068 62.0169,-11.126 64.8436,-12.282 1.2682,-0.5187 -1.7716,-1.5647 -9.7401,-3.3515 l -11.5836,-2.5974 -45.26,9.4076 c -75.8191,15.7596 -101.20607,19.2735 -145.05677,20.0775 -28.94526,0.5307 -43.89168,-0.1803 -69.70313,-3.3157 -16.77498,-2.0377 -19.20211,-2.8454 -18.80712,-6.2582 0.29237,-2.5262 0.57124,-2.649 5.80712,-2.5583 3.025,0.052 11.575,0.843 19,1.7569 44.81772,5.5164 87.50237,4.1944 142,-4.3979 17.0521,-2.6885 92,-18.1723 92,-19.0067 0,-0.3693 -2.3625,-1.168 -5.25,-1.7748 -34.0807,-7.1622 -50.7385,-10.4689 -63.75,-12.6546 -8.525,-1.432 -21.0536,-3.7392 -27.8414,-5.1271 -11.41,-2.333 -12.4328,-2.3983 -13.5534,-0.8658 -1.572,2.1498 -11.6885,4.5648 -62.83699,15.0006 -60.9334,12.4322 -81.8063,17.374 -88.91878,21.052 -3.26581,1.6888 -7.84943,9.0381 -7.84943,12.5856 0,3.6039 3.6794,6.5179 10.45972,8.284 5.76288,1.501 30.44214,5.1566 39.54028,5.8568 11.28714,0.8686 69.77791,0.5842 79.57632,-0.387 z m 906.42371,-43.8882 c 0,-3.3595 1.7179,-6.628 11.1571,-21.2273 6.1363,-9.4911 14.064,-21.455 17.617,-26.5866 l 6.46,-9.3302 -27.367,0.6 c -67.077,1.4706 -138.3214,2.5136 -172.86713,2.5306 -20.625,0.01 -47.4,0.4335 -59.5,0.9406 -12.1,0.5072 -33.025,1.255 -46.5,1.662 -15.5242,0.4689 -23.2177,1.0219 -21,1.5096 1.925,0.4234 17.45,3.0672 34.5,5.8753 44.8632,7.3887 61.1948,10.465 138.00003,25.9938 37.95,7.6729 78,15.5543 89,17.5142 11,1.9599 20.675,3.7195 21.5,3.9102 0.825,0.1907 3.1875,0.3989 5.25,0.4627 3.7232,0.1152 3.75,0.088 3.75,-3.8549 z m -385.55653,-59.6602 c 0.3632,-1.447 0.1518,-10.6058 -0.4697,-20.3527 -1.2601,-19.7589 -0.7423,-23.761 3.7677,-29.1208 3.717,-4.4174 10.9445,-8.8606 30.7585,-18.909 l 17,-8.6213 -3.7208,-3.7732 c -4.6856,-4.7516 -8.3432,-12.1734 -10.4743,-21.2541 l -1.6586,-7.0672 -7.9281,5.8783 c -14.3219,10.6191 -26.091,16.4525 -39.2182,19.4387 -5.4111,1.231 -11.3127,1.5211 -26,1.2782 l -19,-0.3143 -15,7.6965 c -19.6615,10.0883 -21.2016,11.0991 -22.8112,14.9714 -1.6595,3.9924 -4.542,15.8132 -5.1892,21.2806 -0.2604,2.2 -1.1436,8.5 -1.9627,14 -0.8191,5.5 -1.2803,10.5855 -1.0249,11.301 1.2105,3.3914 16.6121,7.5298 39.988,10.7446 15.9704,2.1964 47.3591,5.2126 55.6416,5.3468 6.3759,0.1033 6.668,0 7.3019,-2.5235 z m -41.9424,-49.4978 c -2.7494,-0.4271 -12.1994,-1.5128 -21,-2.4127 -11.265,-1.1518 -16.5191,-2.0996 -17.7511,-3.2022 -2.1725,-1.9442 -2.1861,-2.6772 -0.089,-4.7742 1.2414,-1.2414 2.6934,-1.5127 5.75,-1.0743 2.249,0.3226 10.8391,1.2798 19.0891,2.1271 17.1894,1.7653 22.046,2.8398 22.9004,5.0663 1.3648,3.5565 -2.2689,5.3001 -8.8993,4.27 z m 168.9989,49.5036 c 22,-0.8091 76.9,-1.8622 122.00003,-2.3402 96.5293,-1.0231 148.4633,-1.8783 161.2137,-2.6547 9.157,-0.5576 9.2051,-0.5743 7.8117,-2.7204 -0.7711,-1.1877 -8.1319,-17.4594 -16.3573,-36.1594 -8.2255,-18.7 -17.4782,-39.1291 -20.5617,-45.398 -3.0835,-6.2688 -5.6064,-12.1616 -5.6064,-13.095 0,-0.9334 0.9002,-2.5117 2.0004,-3.5074 1.9336,-1.7499 2.5926,-1.7233 19.7171,0.7946 9.7442,1.4327 17.7755,2.5151 17.8474,2.4054 0.2624,-0.4004 -3.761,-42.2101 -4.0949,-42.5533 -0.1893,-0.1946 -8.81,0.5966 -19.1571,1.7583 -22.4779,2.5235 -29.6036,2.6618 -31.6509,0.6145 -1.5886,-1.5886 -7.5319,-25.2492 -10.0523,-40.0191 -2.4871,-14.5742 -4.4029,-32.4744 -6.1005,-57 -0.8756,-12.65 -2.471,-29.075 -3.5452,-36.5 -2.4352,-16.8316 -2.4818,-22.683 -0.2087,-26.1981 1.5567,-2.4075 24.1402,-21.2656 26.3526,-22.0055 0.4874,-0.163 1.335,-4.1214 1.8837,-8.7964 0.5486,-4.675 1.2,-9.6688 1.4474,-11.0974 l 0.4499,-2.5973 -5.6661,1.8693 c -3.1164,1.0281 -6.2266,1.6542 -6.9116,1.3913 -0.6849,-0.2628 -2.5336,0.8104 -4.1082,2.3849 -3.5271,3.5272 -10.3734,4.6024 -23.7214,3.7256 l -9.1449,-0.6007 -2.3358,5.7121 c -5.3034,12.9696 -13.3522,21.6506 -26.0009,28.0434 -3.025,1.5288 -8.425,4.9491 -12,7.6005 -6.7203,4.9841 -46.7958,31.5944 -88.24913,58.5978 -13.062,8.5088 -29.487,19.6747 -36.5,24.8131 -7.013,5.1384 -18.6009,13.2261 -25.7509,17.9726 -7.15,4.7465 -16.7084,11.4549 -21.2409,14.9074 -4.5325,3.4526 -8.6655,6.2774 -9.1844,6.2774 -0.519,0 -4.6856,4.8346 -9.2592,10.7436 -4.5735,5.9089 -10.3167,12.9964 -12.7626,15.75 l -4.4471,5.0064 14.4471,0.5 c 12.7299,0.4406 14.877,0.7673 18.0636,2.749 7.8758,4.8979 12.0575,15.0572 12.2514,29.7647 0.1315,9.965 0.1097,10.0599 -4.464,19.5209 l -4.5962,9.5072 -13.4038,2.8894 c -7.3722,1.5892 -15.6371,3.6421 -18.3666,4.5619 l -4.9627,1.6724 -3.2802,13.9172 c -1.804,7.6545 -4.8965,22.2306 -6.872,32.3913 -1.9755,10.1608 -4.0196,19.2733 -4.5423,20.25 -1.1005,2.0564 -4.1776,2.3432 -5.6437,0.526 -0.5547,-0.6875 -4.276,-11.3326 -8.2696,-23.6558 -6.9098,-21.3215 -7.1722,-22.4709 -5.4228,-23.75 1.011,-0.7393 2.1696,-1.3442 2.5745,-1.3442 1.9957,0 4.8695,5.9757 8.3755,17.416 2.1275,6.942 4.1641,12.2758 4.5257,11.8529 0.3617,-0.4229 1.2031,-3.9189 1.8699,-7.7689 1.0883,-6.2838 7.4374,-34.5653 8.6701,-38.6198 0.3478,-1.1442 -0.3227,-1.7978 -2.2836,-2.2259 -1.5269,-0.3334 -3.7886,-0.8945 -5.0261,-1.2469 -1.8072,-0.5146 -2.25,-0.2394 -2.25,1.3985 0,1.6314 -3.598,3.9022 -17.9953,11.3572 -9.8974,5.125 -20.0081,10.7789 -22.4682,12.5642 -7.9087,5.7394 -7.8031,5.2878 -6.9769,29.8378 l 0.7289,21.6578 39.6058,-0.6886 c 21.7831,-0.3787 57.6057,-1.3505 79.6057,-2.1596 z m 292.32653,-37.1244 c -1.3612,-29.8097 -3.0804,-54.7897 -3.8713,-56.2503 -0.8992,-1.6605 -29.9552,-6.3097 -29.9552,-4.7931 0,0.4606 1.86,4.5368 4.1332,9.0581 3.3522,6.6672 13.9112,30.2779 27.944,62.485 1.0184,2.3375 1.9802,4.2501 2.1373,4.2503 0.157,10e-5 -0.018,-6.6374 -0.388,-14.75 z m -528.52243,7.5188 c 0.3122,-2.3269 0.3785,-4.4198 0.1475,-4.6508 -1.3365,-1.3365 -58.905,-13.333 -98.6628,-20.56 -6.5446,-1.1896 -3.8788,4.3609 3.9989,8.3264 13.2076,6.6485 38.1028,12.7113 80.2123,19.5345 13.7969,2.2355 13.6451,2.2636 14.3041,-2.6501 z m 3.3495,-19.7609 c 1.8543,-9.1232 4.351,-15.6119 7.3094,-18.9963 1.3953,-1.5964 8.1471,-5.8287 15.0039,-9.4053 6.8567,-3.5766 11.8067,-6.7051 11,-6.9521 -1.6567,-0.5073 -32.9942,-4.6776 -83.9669,-11.1742 -21.8599,-2.786 -46.957,-6.7883 -68.5,-10.9238 -22.8057,-4.3779 -55.0716,-9.4663 -98,-15.4549 -35.2,-4.9105 -64.1178,-8.8119 -64.2618,-8.6698 -0.1439,0.1421 0.034,6.0989 0.3951,13.2374 l 0.6569,12.979 29.1049,8.1478 c 52.6015,14.7257 89.4007,23.1802 144.5315,33.2056 40.3468,7.337 79.2255,15.1014 92.0734,18.3878 13.1716,3.3691 13.0723,3.3988 14.6536,-4.3812 z m 178.9831,-31.591 c 7.6301,-2.2181 10.6958,-6.8699 11.2077,-17.0062 0.3088,-6.1167 -0.028,-8.1321 -2.1238,-12.7102 -1.37,-2.9925 -4.2301,-7.3749 -6.3558,-9.7388 -3.9995,-4.4477 -11.7802,-9.962 -14.0564,-9.962 -0.715,0 -5.3223,3.4463 -10.2383,7.6584 l -8.9383,7.6584 0.5236,5.0916 c 1.5347,14.9215 8.2897,26.0451 17.8446,29.385 4.2223,1.476 5.9498,1.4224 12.1367,-0.3762 z m 24.6629,-5.3756 c 5.6891,-1.181 5.7812,-1.2568 8.9537,-7.3675 2.9051,-5.5953 3.2075,-7.0177 3.2262,-15.1741 0.025,-10.9964 -1.7712,-17.6065 -6.0041,-22.0947 l -3.2116,-3.4053 h -14.1889 -14.1889 l 6.0544,5.6053 c 12.6448,11.7068 17.0394,28.254 11.404,42.9396 -0.5074,1.3222 -0.3055,1.6542 0.7577,1.2462 0.7971,-0.3059 4.0359,-1.0932 7.1975,-1.7495 z m -109.7996,-5.213 c 6.9472,-1.4781 19.7039,-7.5556 28.9372,-13.7862 20.8296,-14.0557 52.2947,-42.4658 59.8536,-54.0424 1.9752,-3.025 7.8594,-10.9 13.0761,-17.5 11.1398,-14.0936 14.7274,-19.7587 18.7992,-29.6852 10.4074,-25.3722 22.3976,-82.9657 27.8584,-133.8148 3.1814,-29.6241 11.722,-87.833 20.9815,-143 1.6155,-9.625 6.0852,-40.9 9.9328,-69.5 9.2143,-68.4929 24.1927,-171.0782 32.0489,-219.49998 4.9285,-30.377 8.389,-57.0575 11.0246,-85 5.4765,-58.06186 10.7712,-105.88843 16.05243,-145 1.6709,-12.375 4.3479,-32.625 5.9488,-45 5.7877,-44.74042 13.0093,-91.45226 19.9222,-128.86325 6.5747,-35.58082 16.0643,-95.84454 16.0643,-102.01608 0,-2.7247 0.3784,-5.104 0.8408,-5.28734 1.3104,-0.51947 5.3107,-29.99019 5.882,-43.33333 0.9057,-21.15256 -2.7622,-33.52217 -17.6526,-59.53044 -15.6157,-27.27516 -28.5168,-45.21573 -44.20323,-61.46956 -16.3567,-16.94857 -32.0759,-23.67003 -65.4012,-27.96532 -15.2831,-1.96983 -34.6855,-2.10691 -182.9658,-1.29265 -116.3615,0.63899 -120.1308,0.72037 -170,3.67032 -84.2948,4.98637 -101.4831,5.69138 -172.5,7.07547 -90.4898,1.76361 -113.251,3.84787 -126.67807,11.59997 -2.29794,1.32672 -4.81833,2.41221 -5.60087,2.41221 -3.42384,0 -32.11332,24.49414 -55.57988,47.45227 -13.9747,13.67192 -44.39588,47.71944 -50.33002,56.32958 -12.90635,18.72646 -18.68848,41.65916 -28.79835,114.21815 -3.33354,23.925 -9.89214,69.492 -14.57466,101.26 -4.68253,31.76799 -12.07176,83.06799 -16.42052,114 -4.348754,30.932 -10.368174,73.115 -13.376484,93.74 -3.00831,20.625 -7.55861,55.5 -10.1118,77.5 -14.58579,125.68138 -30.56293,246.31848 -41.58609,313.99998 -16.97695,104.2375 -27.1751997,170.7719 -27.6666597,180.5 -1.30186,25.7695 6.7939297,52.6512 30.2471597,100.4343 12.06008,24.5709 17.1539,33.092 23.49225,39.2986 6.765,6.6244 18.9761,13.4219 30.88125,17.1906 12.228334,3.871 170.049244,35.4202 235.102744,46.9982 53.1399,9.4577 59.3999,10.4242 139.7425,21.5741 34.6478,4.8084 66.2566,9.8435 87.5,13.9382 21.7338,4.1892 45.7314,7.995 69.2575,10.9835 19.8,2.5151 47.7,6.1732 62,8.129 36.5839,5.0035 64.4069,6.1742 78,3.2821 z m -171.5,-64.5052 c -47.454,-1.1517 -94.5648,-5.3634 -155.5,-13.9019 -39.4396,-5.5265 -57.9675,-8.6896 -128.7444,-21.9793 -101.77432,-19.1102 -119.61974,-23.4784 -143.7556,-35.1887 -10.72672,-5.2044 -12.20604,-6.2939 -22,-16.2027 -8.45057,-8.5497 -12.19414,-13.3654 -19.17973,-24.6727 -22.13571,-35.8304 -48.693394,-88.6387 -61.041934,-121.3781 -10.50824,-27.8603 -17.87201,-70.0396 -16.32348,-93.5 0.78898,-11.9532 4.00477,-38.397 10.03272,-82.5 2.44313,-17.875 6.27625,-47.125 8.51803,-65 7.3854,-58.8878 13.76557,-100.3327 24.46337,-158.91128 8.50994,-46.5984 10.987904,-64.73986 29.037674,-212.5887 7.99427,-65.48246 10.98953,-85.64857 18.12057,-122 9.45548,-48.20059 11.39229,-54.36265 25.77358,-82 9.11668,-17.52005 21.26574,-37.99377 32.93358,-55.5 10.95531,-16.43716 17.51105,-25.13435 29.77485,-39.50093 5.16492,-6.05051 16.21593,-19.32551 24.5578,-29.5 8.34187,-10.17449 22.02883,-25.92407 30.41547,-34.99907 8.3867,-9.075 16.5532,-18.3 18.1479,-20.5 7.1967,-9.92848 16.1487,-18.67306 23.5535,-23.00765 14.7861,-8.65543 22.8358,-9.41643 110.7161,-10.46671 39.6,-0.47327 95.85,-1.61456 125,-2.5362 61.208,-1.93523 215.061,-1.65146 235,0.43344 25.5671,2.6734 49.8837,8.76372 59.6046,14.92849 6.9784,4.42557 23.9054,22.76956 37.545,40.688 6.9479,9.12745 35.107,51.38712 43.2857,64.96063 18.8477,31.28027 36.2139,73.33586 46.5015,112.61227 10.3458,39.49863 9.7393,56.15957 -4.965,136.38773 -17.6692,96.40468 -18.3478,100.70137 -24.9558,158 -1.9663,17.05 -5.6101,46.75 -8.0975,66 -5.6316,43.5841 -7.1898,56.2488 -12.9191,104.99998 -2.5208,21.45 -5.4454,45.075 -6.4993,52.5 -20.4651,144.1932 -25.7186,176.9454 -35.6042,221.9656 -1.8677,8.506 -3.3959,15.541 -3.3959,15.6333 0,0.092 0.8977,0.4026 1.995,0.6895 3.8901,1.0173 3.635,3.8279 -0.6936,7.642 -3.6263,3.1953 -4.3854,4.723 -7.2394,14.5696 -5.807,20.0341 -14.5984,39.7612 -24.5438,55.0741 -5.5654,8.5689 -40.4536,52.4889 -52.3688,65.9259 -12.066,13.6071 -81.35,81.0375 -102.5433,99.8 -21.6685,19.1832 -31.3456,26.3364 -40.0191,29.5816 -5.8504,2.1889 -31.2075,4.3105 -46.587,3.8978 -4.125,-0.1106 -12.225,-0.3159 -18,-0.456 z m 47.7615,-8.2495 c 17.6507,-1.2706 21.3904,-3.5383 55.3658,-33.5739 11.1986,-9.9 38.6266,-36.225 60.9511,-58.5 34.7644,-34.6873 42.946,-43.4339 57.0058,-60.9419 29.3487,-36.5467 33.3946,-42.2679 41.4106,-58.5581 6.4287,-13.0642 14.5052,-33.8588 14.5052,-37.3463 0,-0.6697 -2.2468,0.087 -5.25,1.769 -19.7314,11.049 -44.9055,15.8258 -77.75,14.7531 -30.0575,-0.9817 -50.965,-5.0542 -67.5,-13.148 -8.3042,-4.0649 -45.1148,-26.755 -72.5,-44.6892 -9.8328,-6.4394 -65.5893,-39.6903 -87.5,-52.1815 -12.135,-6.9181 -34.76,-17.5307 -41,-19.2317 -3.3,-0.8995 -10.95,-2.9438 -17,-4.5429 -6.2399,-1.6493 -15.111,-4.9575 -20.5,-7.6449 l -9.5,-4.7376 -7,-14.2265 c -4.5446,-9.2363 -7.686,-14.4568 -8.9558,-14.8827 -1.0756,-0.3609 -2.1044,-0.2103 -2.286,0.3347 -1.0475,3.1424 -3.0583,4.5415 -5.6075,3.9017 -2.9426,-0.7386 -7.3545,-6.6508 -21.9463,-29.409 -20.4342,-31.8704 -31.0271,-59.8221 -40.2537,-106.2182 -1.4766,-7.425 -2.9017,-14.4715 -3.1669,-15.6589 -0.3209,-1.4372 0.9181,-4.2206 3.7066,-8.327 4.3334,-6.3811 4.6328,-7.9532 1.161,-6.0951 -2.9078,1.5562 -6.6997,1.3302 -8.2098,-0.4894 -2.2214,-2.6766 -1.9322,-56.96338 0.3778,-70.92958 2.276,-13.76 6.8118,-33.6998 10.7964,-47.46125 3.3917,-11.71391 12.5362,-36.84422 14.1145,-38.78875 1.6007,-1.9721 5.5736,-1.48499 6.8155,0.83565 0.6139,1.1471 1.2716,1.9303 1.4614,1.74044 0.294,-0.294 -1.2537,-7.86856 -3.1636,-15.48229 -0.3261,-1.29994 1.3362,-6.85955 4.1859,-14 12.4854,-31.28405 25.8015,-51.54311 50.4141,-76.6999 18.8235,-19.23966 33.1956,-30.59202 58.7461,-46.40297 9.6601,-5.9778 11.9066,-6.8209 13.8583,-5.2011 2.1561,1.78943 1.767,4.31566 -1.0763,6.98679 -1.3906,1.30639 -5.2807,6.44733 -8.6446,11.42432 l -6.1162,9.04906 5.3728,-6 c 2.9551,-3.3 9.4326,-10.33228 14.3946,-15.62728 4.9619,-5.295 10.1467,-10.95504 11.5217,-12.57786 4.268,-5.03727 33.0179,-13.93599 57.5,-17.79754 5.5,-0.86751 22.825,-4.01934 38.5,-7.00406 46.4717,-8.84881 75.5276,-14.20849 92,-16.97044 18.7023,-3.13583 82.4791,-14.50386 104,-18.53769 34.4942,-6.46552 40.4594,-7.29988 52,-7.27336 23.0231,0.0529 48.1041,8.23189 70.1148,22.86452 3.8462,2.55699 7.1852,4.45704 7.4199,4.22232 1.1447,-1.1447 4.7033,-29.88182 5.1761,-41.79861 0.8078,-20.36225 -2.1317,-37.32248 -12.2189,-70.5 -9.2068,-30.28209 -24.324,-64.69854 -39.4259,-89.75863 -10.6942,-17.74597 -33.2036,-51.74327 -42.5008,-64.19157 -12.9081,-17.28307 -30.4881,-36.54792 -36.7014,-40.21879 -9.4803,-5.60104 -30.4667,-11.03014 -51.3638,-13.28761 -14.9161,-1.61135 -124.446,-3.29859 -168.5,-2.59563 -21.175,0.33789 -59.425,1.27193 -85,2.07564 -25.575,0.80372 -74.175,1.707 -108,2.0073 -62.6451,0.55617 -81.6557,1.37751 -95,4.10441 -13.1995,2.69733 -21.5826,8.69552 -33.8163,24.1961 -3.763,4.76783 -11.9112,14.06878 -18.107,20.66878 -6.1958,6.6 -18.53526,20.73649 -27.42093,31.41441 -8.88567,10.67793 -21.52362,25.75293 -28.08433,33.5 -20.41713,24.10913 -34.49955,44.42336 -52.2434,75.36242 -23.37567,40.75898 -25.81418,47.4388 -35.82926,98.14734 -8.57005,43.39205 -11.07586,61.10626 -24.48286,173.07583 -10.63656,88.83202 -14.84727,118.2791 -24.523184,171.5 -9.63647,53.00388 -16.7103,99.81348 -24.02796,158.99998 -1.42801,11.55 -5.01509,38.775 -7.97129,60.5 -8.91117,65.4878 -9.80925,74.4481 -9.17097,91.5 0.81625,21.8063 5.71863,47.7339 13.2356,70 9.8587,29.2026 39.859834,90.0938 61.637734,125.1018 14.35218,23.0712 24.02667,32.6551 41.2656,40.8791 21.77525,10.3881 44.12817,15.6657 150.03855,35.4246 74.8377,13.9619 96.2522,17.4253 151.6794,24.5314 57.4432,7.3647 132.6976,11.2202 168.5821,8.637 z m -439.09483,-83.7406 c -0.36667,-0.3666 -0.66667,-1.4831 -0.66667,-2.4809 0,-2.2001 0.0427,-2.2098 21.5,-4.8817 42.67032,-5.3134 97.4895,-13.5475 189.5,-28.4638 111.8228,-18.1281 190.155,-28.4473 281.422,-37.0733 37.9334,-3.5852 40.4082,-3.5628 37.9486,0.3439 -0.9208,1.4626 -6.1229,2.1933 -34.4775,4.8425 -82.269,7.6866 -170.0613,18.98 -259.3931,33.3678 -123.9968,19.971 -153.3251,24.4326 -207.354,31.5436 -29.59546,3.8952 -27.58394,3.6973 -28.47933,2.8019 z m -83.28889,-313.7912 c -0.35384,-0.9221 -0.24158,-2.0783 0.24947,-2.5693 0.49104,-0.4911 6.73829,-2.8963 13.88278,-5.345 24.03293,-8.2369 47.76661,-17.7749 87.98997,-35.3609 58.376,-25.5226 135.293,-56.1309 137.5495,-54.7363 0.5228,0.3231 0.9505,1.4267 0.9505,2.4524 0,1.4622 -2.6456,2.8819 -12.25,6.5738 -41.4534,15.9345 -84.30098,33.4169 -118.75,48.4516 -45.51212,19.8631 -54.15443,23.4122 -81.5,33.4695 -23.14694,8.5131 -27.1777,9.5256 -28.12222,7.0642 z M 385.24787,761.19862 c -14.85,-12.40406 -36.9,-30.95329 -49,-41.2205 -12.1,-10.26721 -29.2,-24.55379 -38,-31.74796 -8.8,-7.19416 -21.625,-18.16625 -28.5,-24.38243 -6.875,-6.21617 -20.15,-17.38673 -29.5,-24.82345 -17.05998,-13.56903 -44.42784,-39.87535 -43.7136,-42.01806 0.20915,-0.62744 1.48524,-1.1408 2.83576,-1.1408 1.82307,0 5.85807,3.43002 15.66667,13.31773 7.26614,7.32475 20.86117,19.43332 30.21117,26.90792 9.35,7.47461 22.625,18.64316 29.5,24.81899 6.875,6.17584 21.05,18.24184 31.5,26.81334 10.45,8.5715 26.9188,22.34748 36.5973,30.61328 9.6785,8.26581 30.2881,25.54766 45.7992,38.40412 27.6758,22.9394 30.887,26.30412 25.5933,26.81764 -1.2931,0.12544 -11.4436,-7.70363 -28.9898,-22.35982 z m 367,-186.41434 c -41.2293,-21.6955 -66.9925,-35.98328 -155,-85.96031 -25.85,-14.67949 -54.65,-30.86861 -64,-35.97583 -9.35,-5.10721 -29.1251,-16.01611 -43.9447,-24.242 -37.4979,-20.81385 -60.5279,-32.55131 -78.0553,-39.78159 -8.25,-3.40323 -22.0337,-9.51127 -30.6304,-13.57341 -8.5967,-4.06215 -16.0861,-7.38572 -16.643,-7.38572 -1.2605,0 -2.4297,-2.86233 -1.6708,-4.09024 1.2058,-1.95111 5.4113,-0.65097 19.4055,5.99929 7.9963,3.79998 21.1837,9.65053 29.3054,13.00123 20.9022,8.62343 51.8579,24.44173 89.2333,45.59802 6.05,3.42459 23.15,12.88089 38,21.014 14.85,8.1331 40.5,22.52169 57,31.97463 16.5,9.45294 48.675,27.66885 71.5,40.4798 36.0569,20.2376 52.2788,29.06317 102,55.49352 7.0917,3.76972 9.5,5.55091 9.5,7.02614 0,1.08692 -0.675,2.09979 -1.5,2.25082 -0.825,0.15103 -11.85,-5.17173 -24.5,-11.82835 z m 72.6506,783.12552 c 17.3465,-2.989 31.1006,-8.1481 43.3494,-16.26 l 5,-3.3113 3.2585,-13.9866 c 3.9684,-17.0338 11.2769,-54.6384 15.2424,-78.4269 6.7374,-40.4174 24.4632,-167.4912 30.4873,-218.5596 3.5684,-30.24998 7.382,-61.52498 8.4746,-69.49998 2.8697,-20.9452 8.4429,-65.86904 12.4679,-100.5 5.3339,-45.89339 9.1753,-69.72464 23.1434,-143.57751 2.4527,-12.96763 4.5643,-25.99435 4.6926,-28.94826 l 0.2333,-5.37075 -7.5,-5.25124 c -21.9428,-15.3636 -49.8979,-24.25052 -72.5,-23.04779 -5.6314,0.29967 -24.6347,3.2075 -43.5,6.65624 -51.0456,9.3316 -80.1325,14.53356 -106.5,19.04663 -13.2,2.25933 -37.0344,6.55695 -52.9653,9.55027 -15.9308,2.99333 -29.4308,5.48035 -30,5.52672 -0.5691,0.0464 2.5715,0.89979 6.9792,1.89649 8.8182,1.99409 21.8149,6.78153 27.8921,10.27429 7.121,4.09271 9.3714,9.72864 4.5016,11.27423 -1.3549,0.43002 -1.9036,1.52762 -1.8939,3.78807 0.035,8.22772 1.7188,9.14384 10.1434,5.51967 l 5.0279,-2.16295 5.578,2.73571 c 14.3545,7.04009 33.932,26.32287 46.7946,46.09018 6.8001,10.45041 14.4273,25.78376 18.3404,36.87049 3.3804,9.57761 10.4444,44.57376 9.496,47.04506 -0.3183,0.82957 -1.5287,1.80982 -2.6897,2.17831 -1.1611,0.3685 -2.7267,1.28563 -3.4791,2.03807 -0.7524,0.75244 -2.7984,1.37496 -4.5466,1.38338 -4.6354,0.0223 -5.8359,1.20096 -6.4098,6.29257 -0.3864,3.42755 0.034,5.68619 1.6981,9.12368 l 2.2115,4.56844 h 5.3878 c 4.4988,0 5.6226,0.37123 6.8113,2.25 2.2405,3.54094 3.6018,11.87012 4.7733,29.20391 3.2613,48.25759 -5.1596,103.47187 -22.7847,149.39447 -7.3864,19.2454 -9.8176,23.9758 -12.6937,24.6977 -1.2995,0.3261 -6.8243,-0.7607 -12.6218,-2.483 -5.6709,-1.6847 -10.9109,-3.0631 -11.6446,-3.0631 -0.7336,0 -2.4751,1.6795 -3.8699,3.7321 -3.0128,4.4337 -3.4876,11.4325 -0.9144,13.4785 0.8919,0.7092 2.8044,2.442 4.25,3.8508 1.4456,1.4087 3.4158,2.8571 4.3783,3.2186 3.1877,1.1972 1.8364,5.203 -5.3078,15.7345 -9.8517,14.5228 -16.4558,22.3425 -29.1094,34.4677 -21.4713,20.5746 -39.0124,33.0358 -66.3328,47.1225 -13.5717,6.9977 -25.1886,11.3953 -30.1025,11.3953 -1.3288,0 -4.1134,-1.5554 -6.2658,-3.5 -4.4843,-4.0513 -5.4097,-4.222 -8.1317,-1.5 -2.4396,2.4396 -2.554,5.8727 -0.3251,9.7563 1.6313,2.8424 1.6023,3.0137 -1.1126,6.5731 -2.2793,2.9883 -4.203,4.1019 -10.5502,6.107 -10.6129,3.3526 -21.704,5.4853 -33.0121,6.3479 l -9.5,0.7247 13.5,7.0638 c 7.425,3.8852 22.95,12.6923 34.5,19.5715 11.55,6.8792 28.875,17.1661 38.5,22.8597 9.625,5.6937 24.025,14.6161 32,19.8276 26.3572,17.2237 59.3889,37.4581 66.6163,40.8075 8.6619,4.0142 22.7916,7.7632 34.8837,9.2555 4.95,0.6109 10.125,1.2733 11.5,1.4719 1.375,0.1986 11.5678,0.4224 22.6506,0.4973 15.9377,0.1077 22.5235,-0.2727 31.5,-1.8194 z m -262.9855,-129.514 c 8.952,-1.5611 21.7593,-5.1709 23.1999,-6.539 0.4758,-0.4518 -2.6095,-5.4722 -6.8561,-11.1564 -14.0263,-18.7746 -31.3762,-50.9323 -39.8359,-73.835 -5.2115,-14.1091 -10.8041,-34.0877 -10.468,-37.3953 0.365,-3.5923 3.0521,-5.5458 5.545,-4.0312 0.9625,0.5847 7.4748,12.2303 14.4718,25.879 17.4161,33.9729 31.0016,53.698 52.6677,76.4699 3.3608,3.5323 6.1105,6.7948 6.1105,7.25 0,5.7541 41.1421,-14.1937 65,-31.5153 18.1004,-13.1415 41.7204,-36.8113 53.3713,-53.4839 4.3292,-6.1952 7.7042,-11.4282 7.5,-11.629 -0.2042,-0.2008 -6.0461,-2.6274 -12.982,-5.3925 -29.8371,-11.8951 -40.5532,-17.5761 -75.1998,-39.8662 -27.5293,-17.7112 -34.5365,-22.7914 -47.4813,-34.4239 -9.1508,-8.223 -10.5367,-10.5141 -7.7562,-12.8218 1.8008,-1.4945 5.1203,-0.5415 8.7857,2.5221 6.9207,5.7846 38.9064,20.9485 62.8149,29.7795 16.2334,5.9961 64.6669,21.6855 77.4474,25.0881 5.5,1.4643 11.35,3.1295 13,3.7004 5.6051,1.9395 5.7151,1.8418 10.2782,-9.1299 13.3445,-32.0853 21.2446,-65.0081 25.2873,-105.38218 2.1214,-21.1858 0.1734,-70.60835 -2.91,-73.83144 -0.9504,-0.99337 -59.7482,0.80115 -88.1555,2.69053 -24.0623,1.60039 -48.693,4.34233 -64.2683,7.15448 -6.9697,1.25839 -9.0722,1.33089 -10.25,0.35344 -1.8084,-1.50083 -1.9266,-4.40281 -0.2317,-5.68702 3.1196,-2.36368 40.0506,-16.01082 57.6707,-21.3111 27.5982,-8.3018 72.865,-16.79127 98.9653,-18.56027 2.9623,-0.20077 5.5605,-0.53957 5.7738,-0.75287 0.8342,-0.83417 -6.6768,-35.60311 -9.2193,-42.67661 -6.3024,-17.5346 -17.9793,-37.24963 -31.0276,-52.38645 -7.8534,-9.11037 -20.6878,-20.35374 -27.4113,-24.01308 l -4.6453,-2.5283 -7.9281,2.96182 c -4.3605,1.629 -8.5062,2.96345 -9.2126,2.96544 -2.7766,0.008 -25.3998,9.5465 -37.7156,15.90204 -17.7518,9.16077 -26.8093,15.14313 -45.5824,30.10636 -8.8226,7.03213 -17.1603,12.99964 -18.5283,13.26114 -1.4925,0.28532 -3.3538,-0.22634 -4.6544,-1.27951 l -2.1673,-1.75495 2.5818,-3.86573 c 1.42,-2.12614 4.1915,-6.56572 6.159,-9.86572 9.0822,-15.2332 24.7246,-31.46009 40.1916,-41.69335 11.236,-7.43398 33.9697,-18.80287 46.5,-23.25415 l 9.5,-3.3748 -6.7618,-3.0523 c -10.5408,-4.75819 -18.8122,-6.96505 -30.8161,-8.22193 -19.2279,-2.01328 -41.6575,0.0422 -64.9817,5.95505 -25.1272,6.36989 -25.9282,6.76725 -37.2678,18.48571 -13.6205,14.07561 -28.0178,30.82764 -33.6741,39.18169 -5.937,8.76872 -14.8908,26.52475 -18.4852,36.65782 -2.8606,8.06427 -4.3223,9.52405 -7.7172,7.70715 -1.8348,-0.98198 -1.9932,-1.73142 -1.4545,-6.88481 0.7707,-7.37398 7.2802,-27.24632 12.4842,-38.11195 2.2112,-4.61677 6.5401,-12.39643 9.6199,-17.28813 3.0798,-4.8917 5.4325,-9.06114 5.2282,-9.26543 -0.5169,-0.51685 -17.5954,11.65981 -26.6616,19.00918 -10.0449,8.14266 -27.9187,26.16955 -36.3404,36.65166 -13.9665,17.38322 -25.0796,36.6615 -33.6312,58.34115 l -3.0936,7.84255 2.1478,10.15745 c 1.1813,5.58659 2.7682,11.6749 3.5264,13.52956 0.7583,1.85467 1.3787,4.18653 1.3787,5.18191 0,1.79017 -4.8094,5.94597 -6.8811,5.94597 -0.5898,0 -2.8459,-2.24365 -5.0135,-4.98588 l -3.9411,-4.98588 -2.9865,7.82093 c -14.8694,38.93903 -23.1159,86.89863 -20.3817,118.53601 0.611,7.0703 1.283,13.0272 1.4933,13.2376 0.2104,0.2103 3.0017,-0.5188 6.2031,-1.6202 6.9374,-2.3868 10.3635,-2.5413 11.1459,-0.5026 0.7818,2.0373 0.79,2.0215 -8.3628,16 l -5.2383,8 3.9625,19.6045 c 6.6799,33.0488 13.1551,53.1347 23.9835,74.3955 5.8271,11.4411 23.8483,41.1286 24.4675,40.3069 0.1272,-0.1688 -0.5831,-6.3819 -1.5784,-13.8069 -0.9954,-7.425 -2.1022,-22.725 -2.4595,-34 -0.9518,-30.0316 0.9008,-39.5702 7.5349,-38.7973 2.4916,0.2902 2.5577,0.4992 2.7851,8.7973 0.5781,21.0977 3.8471,44.7144 9.2393,66.7484 5.2774,21.5649 15.072,43.7597 21.462,48.6336 6.8599,5.2323 19.3276,9.7508 33.4868,12.1361 10.7632,1.8133 38.8764,1.8203 49.2441,0.012 z m 39.8349,-107.6853 c -4.1081,-1.1678 -10.2899,-6.829 -12.4671,-11.4171 -1.796,-3.7848 -2.0143,-11.6224 -0.4107,-14.7437 1.6589,-3.2291 6.0038,-7.6675 9.0781,-9.2736 4.1086,-2.1464 11.6478,-1.7488 16.2247,0.8558 5.9538,3.388 8.8212,9.4959 8.3771,17.8439 -0.2852,5.3608 -0.8766,7.2985 -3.1286,10.251 -4.4946,5.8927 -11.1558,8.3364 -17.6735,6.4837 z m 9.5831,-4.4516 c 9.0412,-4.2903 10.5752,-17.4352 2.9273,-25.0831 -2.8389,-2.8389 -4.0013,-3.3099 -8.1604,-3.3067 -6.512,0.01 -10.9356,2.8051 -13.465,8.5233 -1.6011,3.6197 -1.7903,5.1565 -0.9909,8.0515 1.9414,7.0311 8.6693,13.2599 14.4548,13.3824 1.0168,0.022 3.3723,-0.6838 5.2342,-1.5674 z m -199.623,-13.4334 c -2.9597,-2.9597 -3.9601,-6.2968 -3.9601,-13.2095 0,-7.8659 2.852,-14.1547 7.0889,-15.6318 3.9164,-1.3652 6.2314,0.8532 8.356,8.0076 2.6845,9.0396 1.4598,17.2302 -3.1142,20.8281 -3.2936,2.5907 -5.7838,2.5924 -8.3706,0.01 z m 7.5142,-4.9104 c 2.5289,-4.8903 1.5806,-15.554 -1.7628,-19.8249 -2.7448,-3.5063 -7.6087,8.2416 -6.2025,14.9811 0.8892,4.2617 3.15,7.7941 4.9884,7.7941 0.7982,0 2.1378,-1.3277 2.9769,-2.9503 z m 221.1036,-258.5349 c -6.4485,-2.29758 -9.8309,-6.46108 -10.3143,-12.69604 -0.3578,-4.61518 -0.01,-5.94735 2.6413,-10.07086 4.2489,-6.61197 8.286,-8.95807 14.5951,-8.48167 10.3076,0.77831 15.8755,5.84927 15.7471,14.34166 -0.068,4.49777 -2.8735,10.84241 -6.0745,13.73721 -2.1306,1.92683 -8.5896,4.56713 -11.1726,4.56713 -0.825,0 -3.2649,-0.62884 -5.4221,-1.39743 z m 10.771,-4.01935 c 6.1973,-2.95905 10.1421,-12.25803 7.4218,-17.49543 -1.7091,-3.29042 -7.2719,-5.99651 -12.3309,-5.99845 -3.2274,-0.001 -4.7371,0.66034 -7.3612,3.22582 -7.4038,7.2386 -6.7918,16.8141 1.2997,20.33571 4.1054,1.78676 7.1257,1.76814 10.9706,-0.0676 z m -199.5775,-3.4606 c -5.5205,-4.34242 -4.4747,-13.33156 2.3444,-20.15058 3.1653,-3.16539 4.5958,-3.88425 7.7292,-3.88425 5.1565,0 7.155,2.33752 7.155,8.36858 0,11.59418 -10.3921,21.04386 -17.2286,15.66625 z m 9.2112,-4.86363 c 3.1578,-3.15774 5.2639,-9.34084 4.3806,-12.86027 -1.7028,-6.78439 -13.3632,1.98668 -13.3632,10.0519 0,2.78559 2.3514,5.63717 4.6484,5.63717 0.828,0 2.7784,-1.27296 4.3342,-2.8288 z m 119.9513,359.61588 c -12.1898,-14.5274 -20.039,-25.7603 -28.1021,-40.2162 -2.9019,-5.2029 -5.4118,-9.3242 -5.5774,-9.1586 -0.4776,0.4776 5.9858,15.1322 11.6267,26.3613 6.2107,12.3636 15.67,28.4374 21.7542,36.9664 l 4.4514,6.2399 3.4775,-3.4775 3.4775,-3.4775 z m -129.0762,-12.0371 c -2.7305,-9.9566 -2.9186,-10.1885 -2.2301,-2.75 0.6129,6.6216 1.7381,10 3.3305,10 0.4883,0 -0.01,-3.2625 -1.1004,-7.25 z m 269.518,-84.5 c 0.3483,-2.6125 1.5411,-6.2396 2.6507,-8.0601 2.3363,-3.8335 2.0159,-4.8021 -1.8709,-5.6557 -1.5518,-0.3409 -16.2842,-5.0571 -32.7385,-10.4804 -25.9557,-8.5551 -38.011,-12.9854 -55.917,-20.5496 -2.2,-0.9293 -3.55,-1.2503 -3,-0.7133 2.8896,2.8216 45.6075,29.4887 55.5,34.6466 10.4014,5.4231 32.5803,15.5334 34.1212,15.5541 0.3416,0 0.9061,-2.1291 1.2545,-4.7416 z m -26.8757,-206.21041 c 15.95,-1.08635 39.2375,-2.28484 51.75,-2.66332 12.5125,-0.37848 22.7451,-0.73047 22.7392,-0.7822 -0.01,-0.0517 -0.6922,-2.34043 -1.525,-5.08601 -0.9318,-3.07198 -1.2777,-6.56897 -0.8993,-9.09219 l 0.6149,-4.10022 -11.3399,1.35962 c -21.9559,2.63246 -49.0247,8.22358 -71.5485,14.77852 -14.9183,4.34156 -27.0958,8.74453 -22.2914,8.05981 1.925,-0.27435 16.55,-1.38765 32.5,-2.47401 z m -70,-121.18737 c 12.63,-8.99686 34.2246,-20.39888 53,-27.9841 l 12,-4.84798 -0.3302,-4.26006 c -0.1816,-2.34303 -0.6316,-4.5666 -1,-4.94126 -0.9794,-0.99611 -16.5461,5.26849 -29.2921,11.78823 -15.2898,7.8209 -27.3588,15.95586 -36.3668,24.5126 -7.1414,6.78367 -17.5109,18.82631 -17.5109,20.3364 0,0.36984 3.2625,-1.96334 7.25,-5.18484 3.9875,-3.22151 9.5,-7.46006 12.25,-9.41899 z m 157.7182,816.48468 c -5.5124,-2.7169 -7.7182,-6.8365 -7.7182,-14.4147 0,-5.7132 0.3801,-7.0762 2.8915,-10.3689 1.6032,-2.1018 4.8866,-4.6735 7.3691,-5.7716 4.2761,-1.8915 4.7121,-1.9068 9.6958,-0.3392 6.7983,2.1383 9.4433,4.0732 11.1492,8.1561 4.9461,11.8376 -2.8056,24.4331 -15.0035,24.3786 -2.8061,-0.013 -6.5789,-0.7506 -8.3839,-1.6403 z m 15.5179,-3.9248 c 3.4701,-2.2346 5.3817,-5.8653 5.4434,-10.3385 0.086,-6.2158 -1.7548,-9.5407 -6.6855,-12.0767 -5.9118,-3.0405 -10.1746,-2.1997 -14.799,2.919 -4.0533,4.4865 -5.2297,8.5476 -3.6667,12.6585 3.1653,8.3255 12.4143,11.5344 19.7078,6.8377 z M 50.748376,1462.7931 c -3.26099,-1.3671 -6.8374,-4.749 -8.59552,-8.128 -1.8525,-3.5605 -1.78838,-11.6379 0.1288,-16.2263 2.21847,-5.3096 8.42514,-11.5698 11.47281,-11.5718 17.62305,-0.012 24.42254,23.4818 9.90682,34.2297 -3.11115,2.3036 -9.47145,3.1392 -12.91291,1.6964 z m 10.03934,-4.4483 c 6.24743,-3.2307 8.95441,-14.6964 5.00063,-21.1809 -4.07001,-6.675 -11.34413,-7.7922 -16.27775,-2.4999 -3.78171,4.0566 -4.99085,7.0037 -5.07168,12.3615 -0.14666,9.7219 8.22682,15.5193 16.3488,11.3193 z M 210.86936,419.15551 c -9.245,-4.55441 -9.67445,-19.95032 -0.72014,-25.81741 3.65574,-2.39533 13.04476,-2.27672 16.37119,0.20682 4.9012,3.65927 6.72746,7.09825 6.72746,12.66828 0,3.92878 -0.57002,5.92902 -2.33015,8.17667 -4.82288,6.15869 -13.18547,8.14654 -20.04836,4.76564 z m 15.47851,-5.69009 c 7.90904,-7.90904 0.73095,-20.01435 -10.72067,-18.07961 -5.10521,0.86252 -8.37562,5.2782 -8.37778,11.31164 -10e-4,3.63038 0.5274,4.80465 3.26423,7.25 2.60177,2.32468 4.19785,2.91797 7.85,2.91797 3.88009,0 5.10645,-0.52223 7.98422,-3.4 z m 723.6409,-3.5946 c -6.8464,-4.17428 -8.9267,-11.7576 -5.3509,-19.5054 2.7845,-6.03303 5.7355,-8.14327 12.428,-8.88694 11.149,-1.2389 17.682,3.97174 17.682,14.10288 0,5.87856 -2.5542,10.99975 -6.9995,14.03406 -4.3742,2.98581 -13.0762,3.11095 -17.7596,0.2554 z m 12.444,-2.07201 c 6.9733,-2.64213 10.5583,-10.02214 7.9273,-16.31904 -2.2604,-5.40994 -5.4273,-6.94824 -12.5924,-6.11665 -5.1747,0.60059 -6.3278,1.12613 -8.1809,3.72848 -1.2079,1.69638 -2.3623,5.16511 -2.6234,7.88317 -0.4266,4.43968 -0.1966,5.10586 2.6954,7.80746 2.8115,2.62627 4.7088,3.47979 8.774,3.94701 0.6517,0.0749 2.4517,-0.3438 4,-0.93043 z M 199.80606,1650.8541 c 0.62485,-19.5771 1.22391,-21.6698 7.66171,-26.7643 4.93954,-3.9089 14.61891,-9.1165 25.64437,-13.797 l 8.86428,-3.7629 -35.36428,-7.1184 -35.36427,-7.1183 -4.5,2.6215 c -2.475,1.4419 -10.6805,6.0938 -18.23444,10.3376 -17.68789,9.9371 -19.13212,11.1996 -21.72523,18.9919 -2.75193,8.2696 -7.23392,29.4989 -6.48404,30.7123 2.3895,3.8663 19.69791,8.9845 36.94371,10.9245 9.49558,1.0682 37.29941,2.8414 40.5,2.583 1.24832,-0.1008 1.59366,-3.0555 2.05819,-17.6099 z m -25.05819,-24.5417 c -3.575,-0.7475 -11.675,-1.8953 -18,-2.5505 -14.245,-1.4757 -16,-2.0684 -16,-5.4031 0,-1.4059 0.62698,-2.7968 1.39329,-3.0908 2.05229,-0.7876 22.61679,1.3088 33.93571,3.4593 10.60086,2.0142 13.92415,3.9185 12.0532,6.9069 -1.37737,2.1999 -5.18264,2.3928 -13.3822,0.6782 z m 85.55151,41.0424 c 64.74989,-4.2621 114.08949,-8.0143 119.19849,-9.0649 2.1498,-0.442 2.25,-0.9013 2.25,-10.3186 0,-12.7402 -0.6651,-16.006 -3.3776,-16.5846 -1.1673,-0.2489 -20.3474,-3.6458 -42.6224,-7.5484 -22.275,-3.9027 -49.7109,-8.9149 -60.9687,-11.1383 -17.21433,-3.3998 -20.79173,-3.8405 -22.50003,-2.7718 -1.1172,0.6989 -8.33127,4.028 -16.03127,7.3981 -15.16177,6.6359 -24.52003,12.1138 -26.90009,15.7463 -1.16653,1.7803 -1.54098,5.9187 -1.65553,18.2968 l -0.14803,15.996 3.35182,0.6184 c 6.21544,1.1466 26.31646,0.8907 49.40334,-0.629 z m 904.72642,-53.8899 c 11.4279,-1.2771 20.9877,-2.5318 21.2441,-2.7881 0.2563,-0.2564 -0.6327,-14.6063 -1.9758,-31.8888 -1.343,-17.2824 -3.3798,-46.9476 -4.5261,-65.9226 -1.1464,-18.975 -2.1824,-35.1339 -2.3023,-35.9086 -0.2286,-1.4785 -8.7178,12.0679 -8.7178,13.9113 0,0.5851 1.125,3.2839 2.5,5.9973 5.6211,11.0928 1.1019,30.2475 -9.3566,39.6578 -3.4622,3.1152 -16.8775,9.6464 -25.3934,12.3626 -6.528,2.0822 -7.5922,3.1056 -5.9377,5.7102 0.5894,0.9277 2.2258,0.9956 6.6487,0.2757 4.9433,-0.8045 6.5273,-0.6627 10.0614,0.9006 7.2572,3.2102 12.4776,12.6563 12.4776,22.5777 0,5.6766 -2.7145,7.9919 -13.3977,11.4274 -4.7407,1.5246 -8.8853,3.0377 -9.2101,3.3625 -0.4896,0.4896 2.372,14.6925 4.2261,20.9755 0.6224,2.1088 -1.5707,2.1691 23.6596,-0.6505 z m -20.7227,-30.9365 c 6.9077,-2.3245 6.9463,-2.3579 7.2239,-6.25 0.3235,-4.5349 -2.2189,-9.9056 -6.0394,-12.758 -2.0156,-1.5049 -3.4772,-1.7704 -6.8986,-1.253 -7.1996,1.0886 -7.2683,1.2132 -5.9191,10.7381 1.4719,10.3909 1.8993,11.8599 3.4506,11.8599 0.6808,0 4.363,-1.0517 8.1826,-2.337 z m -239.74443,-21.9463 c 7.5291,-5.1058 19.5113,-13.5021 26.6271,-18.6584 7.1158,-5.1564 21.2908,-14.7762 31.5,-21.3774 34.633,-22.3935 83.32023,-54.7561 82.94033,-55.1307 -0.208,-0.2051 -6.943,-0.5132 -14.9667,-0.6847 l -14.5886,-0.3119 -24.41143,15.5652 c -13.4263,8.5608 -30.0365,19.0092 -36.9115,23.2186 -6.875,4.2094 -18.1169,11.1557 -24.982,15.4362 l -12.4819,7.7828 -4.3853,7.9718 c -2.4119,4.3845 -8.5878,14.1593 -13.7242,21.7218 -5.1365,7.5625 -9.1064,13.75 -8.822,13.75 0.2844,0 6.6772,-4.1775 14.2062,-9.2833 z m -0.8992,-25.4667 c 2.2005,-3.7125 6.4272,-12.6 9.3927,-19.75 2.9654,-7.15 6.3672,-14.9084 7.5594,-17.241 2.5726,-5.033 11.4199,-12.5909 26.3863,-22.5409 5.9125,-3.9308 10.75,-7.4126 10.75,-7.7373 0,-0.3248 -2.475,-6.5757 -5.5,-13.8908 -3.025,-7.3152 -5.5,-13.928 -5.5,-14.6952 0,-2.614 -1.5575,-1.3987 -7.9525,6.205 -7.073,8.41 -10.0895,10.4402 -12.5179,8.4248 -0.8413,-0.6982 -1.5296,-1.8678 -1.5296,-2.599 0,-1.5854 20.2729,-24.9791 22.7663,-26.2709 2.1311,-1.104 64.57543,-1.5294 83.52473,-0.5689 12.1685,0.6168 13.9121,0.9251 14.8194,2.6206 0.7303,1.3645 0.683,2.3377 -0.1635,3.3575 -1.0049,1.2109 -8.568,1.4361 -48.22433,1.4361 -44.6839,0 -46.9595,0.087 -45.5689,1.75 0.805,0.9625 2.9304,5.7009 4.7232,10.5297 4.5522,12.2619 7.9445,19.7203 8.9692,19.7203 0.4792,0 6.1561,-2.9818 12.6153,-6.6262 11.3136,-6.3834 11.8776,-6.5842 15.3913,-5.4814 9.93743,3.1188 18.81493,4.295 36.23973,4.8013 27.7543,0.8064 35.1009,-1.0166 47.2119,-11.7152 5.3782,-4.751 11.6194,-15.9381 12.0677,-21.6307 0.1522,-1.9319 0.7854,-3.827 1.4071,-4.2113 4.0023,-2.4735 13.2189,-57.2993 13.4716,-80.1365 0.1569,-14.1842 -0.7575,-16.4644 -9.9425,-24.7926 -6.2971,-5.7096 -7.4409,-7.2141 -6.8647,-9.0293 0.486,-1.5313 1.4957,-2.1781 3.4003,-2.1781 2.0156,0 4.782,1.9837 10.8081,7.75 7.2828,6.9689 8.2124,8.2841 9.2236,13.0492 0.6185,2.9146 1.1245,9.4992 1.1245,14.6325 v 9.3333 l 7.75,0.724 c 8.503,0.7943 12.4468,2.3555 14.722,5.8279 1.0492,1.6013 3.2037,2.6291 7.2732,3.4696 7.243,1.496 9.5914,3.1376 13.7188,9.5898 2.7281,4.2647 4.1679,5.4558 8.4605,6.9994 2.8451,1.0231 5.3274,1.6946 5.5163,1.4922 0.1888,-0.2023 -0.4824,-10.9429 -1.4916,-23.8679 -2.218,-28.4079 -6.6305,-98.4927 -7.5708,-120.25 l -0.6807,-15.75 -13.5988,-0.01 c -24.014,-0.01 -41.6917,-3.7197 -59.5989,-12.5054 -10.9471,-5.371 -24.5,-15.2664 -24.5,-17.8882 0,-3.1845 2.4212,-3.6245 13.5996,-2.4716 10.2259,1.0546 81.1185,0.4863 82.2644,-0.6595 0.4602,-0.4603 -2.2339,-84.2565 -3.8893,-120.9694 -2.5738,-57.0798 -3.0092,-72.61588 -2.0815,-74.27368 0.5313,-0.9495 2.1506,-3.0763 3.5985,-4.7263 1.4479,-1.65 12.326,-17.625 24.1737,-35.5 21.7071,-32.75028 26.0034,-38.47852 30.0427,-40.0562 4.1582,-1.62409 31.784,-4.1985 46.3703,-4.32118 l 14.5783,-0.12262 6.2833,4.30505 c 3.4558,2.36778 6.4609,4.12737 6.6781,3.91019 0.8853,-0.8853 -12.8836,-15.71206 -21.0946,-22.71524 -4.8364,-4.125 -10.4202,-8.90237 -12.4085,-10.61638 -10.0794,-8.68913 -39.83,-28.31649 -54.6949,-36.08383 l -10.0799,-5.26705 -17.4201,-2.01521 c -9.5811,-1.10836 -25.7451,-2.71459 -35.9201,-3.56939 -10.175,-0.85481 -18.8756,-1.92843 -19.3347,-2.38583 -0.459,-0.4574 -0.684,-1.89604 -0.5,-3.19697 0.3303,-2.33442 0.4785,-2.36333 11.3347,-2.21163 6.05,0.0845 22.925,1.40081 37.5,2.92505 l 26.5,2.77135 12,6.47973 c 11.5802,6.25302 33.7703,20.36648 45.8284,29.14793 l 5.8284,4.24462 -0.6355,-8.3612 c -2.5503,-33.5508 -8.884,-61.95732 -20.3704,-91.36119 -5.5481,-14.20255 -19.419,-45.00651 -23.6799,-52.58732 -5.7674,-10.26128 -5.9721,-10.29377 -7.9137,-1.25586 -0.9267,4.31375 -2.3518,10.23357 -3.167,13.15517 -1.364,4.88848 -1.6978,5.28711 -4.1863,5 -2.1069,-0.2431 -2.7736,-0.91599 -3.019,-3.04724 -0.3324,-2.88665 3.876,-22.55398 8.9149,-41.66204 1.653,-6.2685 2.6443,-11.71333 2.2028,-12.09961 -0.4415,-0.38629 -2.7577,-1.45837 -5.1472,-2.38242 -6.4373,-2.48942 -14.5786,-7.99203 -17.4332,-11.78285 -1.3824,-1.83581 -7.1143,-11.66283 -12.7374,-21.83783 -5.6232,-10.175 -12.1973,-21.91814 -14.6091,-26.09587 l -4.3852,-7.59586 -13.2453,-3.7172 c -7.2849,-2.04445 -14.0098,-3.93683 -14.9441,-4.20528 -0.9344,-0.26845 -2.0058,-1.47758 -2.3808,-2.68694 -0.8245,-2.65836 -10.9577,-17.90037 -25.3956,-38.19885 -11.021,-15.49467 -13.6493,-19.62524 -28.6333,-45 -7.1015,-12.02599 -8.9246,-14.50433 -9.1952,-12.5 -1.8702,13.85134 -10.2826,64.80288 -14.7029,89.05163 -7.6321,41.86763 -14.0296,84.2776 -22.9214,151.94837 -10.2149,77.74026 -11.7436,91.06769 -18.52493,161.5 -3.7465,38.9125 -5.8255,55.1517 -12.0344,94 -8.8592,55.43108 -23.4476,155.49608 -32.008,219.55038 -3.3407,24.9973 -7.1694,51.9746 -8.5084,59.9496 -9.4727,56.4224 -18.5973,118.3888 -22.0141,149.5 -4.036,36.7496 -11.6543,79.8271 -18.5224,104.7336 -4.0558,14.7082 -3.9516,14.9761 1.9518,5.0164 z m 106.96183,-200.788 c -26.61863,-5.2695 -59.59193,-14.4494 -64.62343,-17.9915 -1.6644,-1.1717 -2.25,-2.5784 -2.25,-5.4048 0,-2.1014 0.5625,-4.2804 1.25,-4.8421 1.49,-1.2175 21.2456,-5.2329 42.75,-8.6892 20.85353,-3.3516 54.48073,-7.0514 82.74283,-9.1036 24.9293,-1.8102 26.711,-1.6063 26.0555,2.9817 -0.4,2.799 -2.6634,3.1824 -30.1063,5.1 -23.3117,1.6289 -57.2295,5.2609 -74.52653,7.9804 -19.0757,2.9992 -37.2965,6.7757 -36.4886,7.5627 2.2092,2.1521 41.8418,12.3573 63.81383,16.4318 9.6238,1.7847 11.5093,2.7021 11.5093,5.5999 0,3.7181 -2.9595,3.7732 -20.1266,0.3747 z m 192.1266,-452.33712 c -14.025,-4.76002 -32.8624,-10.86614 -41.8608,-13.56916 -8.9985,-2.70301 -17.2681,-5.64926 -18.377,-6.54721 -2.7844,-2.25466 -1.5988,-6.00849 1.8977,-6.00849 4.9693,0 84.693,26.16825 87.5901,28.75029 3.1441,2.80218 1.5757,6.53189 -2.5818,6.13943 -0.6425,-0.0607 -12.6432,-4.00484 -26.6682,-8.76486 z m -60.1245,656.42682 c 13.4908,-5.6048 18.8652,-10.8317 22.2198,-21.6102 2.4955,-8.0181 2.3973,-10.3566 -0.7114,-16.9415 -3.7088,-7.8559 -3.445,-11.3502 1.4721,-19.5029 2.2709,-3.7651 4.0197,-6.9448 3.8864,-7.0661 -0.1333,-0.1212 -3.768,-0.3803 -8.0771,-0.5757 l -7.8348,-0.3553 -2.3751,5.5 c -3.2659,7.5629 -3.0708,11.2723 1.0446,19.8597 7.1312,14.8802 3.1714,25.6991 -12,32.7864 -2.75,1.2846 -6.4625,2.6149 -8.25,2.9561 -3.0031,0.5733 -3.25,0.9158 -3.25,4.5091 0,3.5883 0.2153,3.8887 2.7877,3.8887 1.5333,0 6.5228,-1.5517 11.0878,-3.4483 z m -5.3346,-14.9186 c 5.7127,-2.6602 9.9792,-7.1714 10.9462,-11.5743 0.4961,-2.2587 -0.2407,-4.9761 -3.0153,-11.1213 -4.5477,-10.0722 -4.8671,-16.5225 -1.2606,-25.4613 l 2.4112,-5.9762 -2.3222,-3.4142 c -2.0626,-3.0326 -2.2481,-4.1377 -1.6593,-9.8847 0.779,-7.6037 1.5039,-7.7463 -10.8923,2.1432 -4.7185,3.7643 -8.8312,7.8486 -9.1393,9.0761 -0.3081,1.2275 0.3038,8.0476 1.3597,15.1557 1.0559,7.1082 2.4719,19.7864 3.1467,28.1739 1.4044,17.4581 1.1844,17.1862 10.4252,12.8831 z m -193.50063,-22.4514 c 10.7029,-6.6231 28.8622,-18.0359 40.3542,-25.3618 l 20.89453,-13.3199 -4.8945,-1.154 c -8.83533,-2.0831 -10.47103,-1.7263 -21.98093,4.7951 -5.9612,3.3776 -11.4501,6.7526 -12.1975,7.5 -0.7474,0.7474 -1.94,1.3589 -2.6502,1.3589 -1.8346,0 -24.1326,14.9394 -29.8577,20.0043 -4.642,4.1067 -6.726,7.2778 -10.0879,15.3498 -1.1912,2.8599 -1.2743,3.7271 -0.3224,3.3618 0.7055,-0.2707 10.0396,-5.9111 20.7424,-12.5342 z m 229.00943,-37.7074 c 2.6964,-1.3944 2.9501,-1.9753 2.9483,-6.75 0,-2.8734 -1.1261,-19.3321 -2.5,-36.575 -1.3739,-17.243 -2.498,-31.9713 -2.498,-32.7297 0,-1.126 -6.6569,-5.4196 -8.4027,-5.4196 -0.2653,0 -0.6207,1.9125 -0.7898,4.25 -0.2885,3.9872 -0.493,4.25 -3.3075,4.25 -2.9753,0 -3.0009,-0.048 -3.1069,-5.7851 -0.071,-3.8386 -0.6129,-6.1939 -1.6108,-7 -0.8272,-0.6682 -2.9562,-3.3786 -4.7312,-6.0232 -2.6981,-4.0197 -7.4846,-7.5915 -8.6336,-6.4426 -0.1678,0.1678 0.1897,2.3179 0.7945,4.778 0.6047,2.4601 1.0994,9.6479 1.0994,15.9729 -10e-5,9.6248 -0.4044,12.6822 -2.4795,18.75 -2.3316,6.8181 -2.3694,7.25 -0.6342,7.25 1.0149,0 4.3601,-2.475 7.4338,-5.5 3.0737,-3.025 6.3388,-5.5 7.2557,-5.5 2.3808,0 8.1128,5.5259 8.1128,7.8212 0,2.5935 -2.1363,4.2174 -4.6748,3.5536 -1.9018,-0.4974 -2.1608,0.097 -3.1754,7.2918 -1.3291,9.4251 -4.1498,36.6213 -4.1498,40.011 0,1.7726 0.8683,2.7964 3.25,3.8315 4.4164,1.9196 16.0599,1.8991 19.7997,-0.035 z m -46.0243,-49.1755 c 5.9686,-9.4114 7.3251,-14.5966 7.4033,-28.2988 0.078,-13.7229 -1.5458,-21.2628 -5.657,-26.2628 -1.9332,-2.3511 -3.3865,-2.9003 -9.753,-3.6854 -4.1147,-0.5075 -7.5713,-0.8325 -7.6814,-0.7224 -0.1101,0.1101 -0.7141,4.2435 -1.3421,9.1854 -1.8346,14.436 -4.9321,32.1935 -7.557,43.3239 -1.341,5.6862 -2.4382,10.5237 -2.4382,10.75 0,0.2262 5.4099,0.4113 12.022,0.4113 h 12.022 z m 31.9746,-214.7988 v -8.5 h -39.7225 c -44.6622,0 -42.9513,-0.4429 -26.9923,6.9875 7.3332,3.4142 24.1084,8.2689 32.2148,9.3228 1.65,0.2145 10.0875,0.4575 18.75,0.5399 l 15.75,0.1498 z m 164.9749,-63.4916 c 16.0149,-5.3919 20.3675,-5.3784 32.2606,0.1001 8.1825,3.7692 9.4752,4.077 15.6548,3.7279 5.7701,-0.3261 7.4297,-0.8793 11.5754,-3.8585 5.9958,-4.3088 11.8464,-12.5771 14.49,-20.4779 1.1042,-3.3 3.1295,-12.1121 4.5007,-19.5824 2.683,-14.6177 6.8989,-28.7385 10.9912,-36.8142 1.4038,-2.7703 2.5524,-5.4792 2.5524,-6.0197 0,-1.1689 5.6206,-9.0416 12.3134,-17.2471 7.213,-8.8433 8.6431,-12.7061 8.6402,-23.3366 0,-10.874 -1.0976,-16.01368 -5.1741,-24.29538 -3.5853,-7.2838 -6.7979,-10.3192 -13.49,-12.7456 -16.0159,-5.8072 -26.7297,-13.7468 -36.4287,-26.9962 -13.3127,-18.186 -15.4362,-20.8673 -18.0418,-22.7811 -3.855,-2.8314 -14.1359,-4.575 -31.319,-5.3114 -23.6182,-1.0122 -42.1212,2.3659 -49.0059,8.9471 -1.8311,1.7505 -5.4217,7.2326 -7.979,12.1826 -7.7046,14.9131 -11.1125,17.3931 -30.8019,22.4154 -14.5964,3.7232 -22.7425,7.9154 -27.7907,14.3019 -7.6259,9.6475 -11.212,25.72628 -8.5669,38.41188 1.7561,8.4224 4.853,14.5852 11.6347,23.1532 6.6549,8.4077 8.4067,14.5266 7.7951,27.2276 -0.296,6.1463 -1.066,10.8462 -2.1248,12.9685 -1.9646,3.9383 -2.226,15.2582 -0.5362,23.2223 2.4896,11.7334 10.8677,22.7115 21.1908,27.7668 4.947,2.4226 10.3876,3.7245 27.1848,6.5052 26.9455,4.4607 33.4359,4.2724 50.4749,-1.4644 z m -32.4749,0.2094 c -15.3524,-6.5932 -23.4456,-13.2051 -28.5565,-23.3298 -4.4428,-8.8012 -4.7604,-14.6943 -1.5392,-28.5658 4.7779,-20.5749 3.2308,-28.8271 -8.6226,-45.9939 -4.1123,-5.9556 -8.0525,-12.583 -8.7561,-14.7277 -3.7504,-11.4315 4.5168,-33.83758 17.1328,-46.43388 6.8972,-6.8865 10.1061,-8.4437 22.8416,-11.0847 19.7366,-4.0927 29.6456,-11.1798 36.9195,-26.4054 5.7363,-12.0072 7.1387,-13.0313 18.9073,-13.8076 10.1332,-0.6685 13.1732,0.016 13.1732,2.9662 0,2.9056 -2.1347,4.1648 -7.0604,4.1648 -2.5633,0 -6.7176,0.282 -9.232,0.6266 l -4.5715,0.6266 -4.5674,9.264 c -8.4729,17.1857 -19.7611,25.3447 -41.3767,29.907 -12.577,2.6546 -16.9008,4.9192 -22.4533,11.76 -8.1312,10.0176 -13.2308,23.33528 -12.5484,32.76958 0.3675,5.0809 1.0671,6.5914 6.6065,14.2648 14.4134,19.9656 16.6617,30.493 11.2725,52.7814 -2.9346,12.1365 -2.7239,17.3706 0.999,24.8209 3.9852,7.975 8.6987,11.8782 21.5209,17.821 9.5297,4.4169 10.4558,5.0852 10.1963,7.3581 -0.3642,3.1895 -4.5426,3.6842 -10.2855,1.2178 z m 109.3757,-183.83628 c -1.7758,-4.759 -3.8398,-7.5037 -10.8148,-14.3815 -12.5433,-12.3683 -33.1582,-31.38664 -36.0895,-33.29428 -5.5281,-3.59766 -50.2728,-4.19026 -54.4528,-0.72118 -0.8352,0.69319 -1.5186,2.51772 -1.5186,4.0545 0,1.89541 -0.8839,3.43806 -2.7482,4.79605 -1.5115,1.10105 -2.4936,2.25651 -2.1824,2.56761 0.3112,0.3112 3.9103,-0.1723 7.9982,-1.07444 10.0596,-2.21999 37.7574,-2.18742 51.2456,0.0603 15.5133,2.58514 18.1778,4.53524 30.2116,22.11144 6.2801,9.1726 19.038,23.2705 20.0987,22.2098 0.2458,-0.2457 -0.5408,-3.0935 -1.7478,-6.3283 z m -119.0376,-64.1315 c -8.7859,-39.53007 -22.9024,-80.42529 -38.9199,-112.75 -3.8155,-7.7 -6.6453,-13.1 -6.2884,-12 0.3569,1.1 2.6524,7.83131 5.1012,14.95847 9.5358,27.75427 14.4492,52.2343 16.2414,80.91905 l 0.9295,14.87751 7.7991,7.07023 c 4.2894,3.88862 9.599,8.99242 11.799,11.34178 2.2,2.34936 4.2886,4.28538 4.6414,4.30226 0.3528,0.0169 -0.2337,-3.9068 -1.3033,-8.7193 z m 27.8418,6.11466 8.1799,-0.64894 -0.5249,-6.60786 c -0.3848,-4.84361 0.1444,-9.81178 1.982,-18.60786 3.3344,-15.96047 4.9908,-30.54126 4.1866,-36.85391 -2.1169,-16.61793 -8.1846,-32.73274 -17.1281,-45.48961 -2.5667,-3.66106 -17.8063,-19.70648 -33.866,-35.65648 -29.2379,-29.03842 -40.1871,-41.53915 -53.5374,-61.12411 -7.2167,-10.58696 -10.4164,-13.02324 -11.8816,-9.04662 -0.4398,1.1939 -1.5726,5.3681 -2.5173,9.27599 l -1.7176,7.10526 5.5076,8.08836 c 3.0291,4.4486 7.1893,11.58491 9.2448,15.85846 5.1082,10.62037 16.5444,22.28936 36.8921,37.64291 20.814,15.70542 27.3277,21.44429 34.5999,30.48414 15.7949,19.63425 18.496,34.93392 11.9546,67.71561 -1.9031,9.53724 -3.4291,20.80951 -3.778,27.907 l -0.5852,11.907 2.4043,-0.6502 c 1.3224,-0.3576 6.0854,-0.94222 10.5843,-1.29914 z m -19.3546,-18.68512 c 0.3404,-4.02625 1.5194,-11.96599 2.62,-17.64386 2.2766,-11.7442 2.7579,-8.86562 -5.9413,-35.53568 -4.9913,-15.3024 -12.1129,-32.59732 -16.5178,-40.11384 -1.6138,-2.75361 -6.2994,-7.11178 -13.6899,-12.73299 -6.18,-4.70054 -11.3647,-8.41811 -11.5215,-8.26127 -0.1569,0.15684 2.4422,6.02982 5.7757,13.05108 13.0723,27.53355 27.6156,67.95841 34.108,94.80702 1.8288,7.5625 3.6002,13.75 3.9365,13.75 0.3363,0 0.89,-3.29421 1.2303,-7.32046 z m 5.6769,-57.16913 c -1.0354,-4.98755 -7.7254,-20.12058 -8.5363,-19.30963 -0.1819,0.18191 1.6464,5.72365 4.063,12.31498 2.4165,6.59133 4.4466,12.65924 4.5113,13.48424 0.079,1.00234 0.2825,1.09291 0.6144,0.27299 0.2732,-0.67486 -0.02,-3.71802 -0.6524,-6.76258 z m 34.8807,-36.51041 c 0.1881,-34.33479 -2.3984,-70.24656 -6.9854,-96.99002 -8.4217,-49.1005 -26.6198,-86.18516 -72.8236,-148.40204 l -9.5739,-12.89206 -1.8256,6.10468 -1.8257,6.10467 4.9778,6.15201 c 9.5477,11.79985 25.011,39.89239 40.4148,73.42276 13.4698,29.32053 23.9971,68.74752 28.7031,107.5 3.0684,25.26722 5.3235,52.87 4.7766,58.46622 -0.4387,4.48846 0.032,6.1171 4.3403,15.03378 2.6577,5.5 5.6437,13.13099 6.6355,16.95775 l 1.8032,6.95774 0.6381,-9.45774 c 0.3509,-5.20176 0.6861,-18.23275 0.7448,-28.95775 z m -23.3264,-28.32895 c -0.8818,-9.99408 -2.5144,-25.14605 -3.628,-33.67105 -2.2247,-17.03075 -8.121,-46.65382 -9.5342,-47.89995 -0.4919,-0.43371 -12.1443,-5.12069 -25.8943,-10.4155 -38.7667,-14.92817 -42.9579,-16.47659 -43.5941,-16.10563 -0.3267,0.19052 -0.8662,6.36645 -1.1988,13.72428 -0.3326,7.35784 -1.148,14.57046 -1.8122,16.02806 -1.112,2.4406 -0.7674,3.31146 4.3577,11.01268 11.0359,16.5833 22.5666,29.66224 52.1531,59.15606 22.0224,21.95344 30.1828,29.50944 30.4242,28.17105 0.1814,-1.00592 -0.3916,-10.00592 -1.2734,-20 z m -94.3269,-84.11304 c 0.9513,-0.10116 1.9644,-0.41867 2.2513,-0.70558 0.2869,-0.2869 0.9769,-16.00857 1.5332,-34.93703 0.5564,-18.92847 1.4907,-38.4654 2.0762,-43.4154 1.9273,-16.29312 6.7213,-39.1201 13.4256,-63.92734 1.8927,-7.00305 2.4963,-11.09473 2.0493,-13.89035 -0.6154,-3.84817 -10.2131,-27.47244 -13.3468,-32.85253 l -1.5554,-2.67021 -7.7783,11.89333 c -9.4958,14.51943 -15.2399,20.54462 -20.5465,21.55202 -4.0024,0.75981 -3.8275,0.79866 -33.3382,-7.40151 -7.975,-2.21602 -18.2584,-5.03002 -22.852,-6.25334 -10.3859,-2.76587 -14.8045,-6.57871 -17.6769,-15.25345 -2.1649,-6.53819 -2.7739,-4.72645 5.9758,-17.77705 4.1477,-6.18651 11.7138,-22.6984 13.9797,-30.50864 0.5241,-1.80686 -2.0642,-3.91599 -19.1603,-15.61287 -10.8715,-7.43809 -28.9759,-19.47231 -40.2321,-26.74271 -11.2562,-7.2704 -25.7485,-17.00711 -32.2053,-21.63713 -6.4567,-4.63002 -11.9555,-8.41822 -12.2194,-8.41822 -0.264,0 2.9393,5.9402 7.1184,13.20045 16.6167,28.86747 21.0458,45.99748 18.3533,70.98301 l -1.1512,10.68346 6.3614,8.81654 c 27.8239,38.5621 42.6722,61.33771 63.4446,97.31654 7.1447,12.375 16.127,27.68388 19.9608,34.01973 3.8337,6.33585 12.9496,22.31085 20.2575,35.5 7.308,13.18915 14.0204,24.83356 14.9165,25.87647 4.377,5.09426 23.6307,14.26479 27.1292,12.92164 0.825,-0.31675 2.2783,-0.65867 3.2296,-0.75983 z m 78.7704,-8.35485 c 0,-1.33243 -7.5505,-23.185 -10.9541,-31.70316 -11.3252,-28.34384 -42.8582,-86.02105 -45.5547,-83.32454 -0.8303,0.83033 -6.0161,26.13178 -7.9574,38.82454 -0.8833,5.775 -1.8844,19.86142 -2.2246,31.30316 -0.5915,19.89069 -0.5351,20.82542 1.2861,21.31065 1.0476,0.27912 15.6297,5.83807 32.4047,12.35323 30.6373,11.89907 33,12.70355 33,11.23612 z m -154,-65.70895 c 0,-1.15805 -33.8654,-58.90665 -40.7533,-69.49421 -12.0682,-18.55022 -40.6476,-59.30559 -40.9277,-58.36458 -0.1415,0.47552 -0.8816,4.88705 -1.6447,9.8034 l -1.3874,8.93882 4.6834,7.17422 c 2.5759,3.94583 9.0917,14.81726 14.4796,24.15873 5.3879,9.34147 13.7573,22.5656 18.5988,29.38695 4.8414,6.82135 13.7911,19.68452 19.8883,28.58481 l 11.0858,16.18235 5.7386,1.61857 c 3.1562,0.89021 6.1886,1.78512 6.7386,1.9887 1.545,0.57186 3.5,0.58429 3.5,0.0222 z m 60.294,-100.05009 c 10.1258,-13.19544 29.4392,-48.84684 38.6389,-71.32503 2.7869,-6.8095 5.0671,-12.48261 5.0671,-12.60692 0,-0.12431 -3.7125,-1.62538 -8.25,-3.33571 -34.3242,-12.93791 -52.1488,-19.79802 -64.0977,-24.66917 -7.6163,-3.10485 -14.0973,-5.3956 -14.4024,-5.09054 -0.305,0.30505 -1.8453,9.44858 -3.4227,20.31895 -1.5774,10.87036 -3.9609,24.17513 -5.2966,29.56613 -3.3813,13.64718 -10.1693,29.80307 -16.7888,39.95834 -5.3412,8.19406 -5.5498,8.75557 -4.5104,12.14214 1.8308,5.96535 4.0714,7.15305 22.7686,12.06924 9.625,2.53078 21.775,5.89943 27,7.4859 5.225,1.58647 10.4,3.0745 11.5,3.30674 3.0672,0.64756 7.605,-2.36125 11.794,-7.82007 z m 72.5257,-20.45436 c 4.5759,-1.53976 11.9546,-4.97986 16.3971,-7.64466 9.32,-5.59047 22.7598,-17.74264 26.2958,-23.77646 6.5474,-11.17218 18.0948,-84.73134 21.0578,-134.14169 0.9602,-16.01252 -0.5363,-18.36642 -17.8573,-28.08798 -5.42,-3.04201 -9.9904,-5.37523 -10.1566,-5.18494 -1.8682,2.13929 -10.5565,23.77503 -10.5565,26.28795 0,0.83455 1.7617,2.41611 3.9148,3.51456 7.1982,3.67226 7.4342,10.93354 0.9813,30.19422 -5.1683,15.42622 -21.2729,49.61715 -28.4258,60.34924 -6.5794,9.87169 -8.4345,11.49914 -16.0161,14.05057 l -6.7067,2.25703 -5.7067,13.8462 c -3.1387,7.61541 -8.7101,19.8087 -12.3809,27.0962 -3.8876,7.71789 -6.1493,13.244 -5.4171,13.23562 2.6113,-0.0299 21.557,-9.94584 28.7572,-15.0512 9.5965,-6.80446 22.7474,-19.92898 27.796,-27.74004 4.6826,-7.24502 5.6175,-10.79654 11.7645,-44.69438 2.5932,-14.3 5.158,-26.5625 5.6996,-27.25 1.316,-1.67043 4.217,-1.58498 5.671,0.16704 0.9179,1.10596 -0.035,7.85636 -4.3416,30.75 -3.0347,16.13313 -6.197,31.58296 -7.0273,34.33296 -4.6852,15.51755 -28.4727,38.80765 -51.8875,50.80251 l -6.7331,3.44916 7.7792,3.04463 c 4.2786,1.67455 8.4542,3.26283 9.2792,3.52953 2.5433,0.82216 9.1229,-0.40961 17.8197,-3.33607 z m -126.4384,-78.28486 c 3.2315,-22.19614 3.2686,-22.82187 1.4152,-23.81383 -2.8468,-1.52353 -5.7885,-6.95529 -5.7928,-10.69588 0,-3.94706 2.506,-9.97051 15.7102,-37.69519 16.6557,-34.97183 29.0197,-76.35109 30.9534,-103.59426 l 0.6215,-8.75489 -6.8944,-3.15 c -3.7919,-1.73251 -18.5944,-8.34793 -32.8944,-14.70095 -14.3,-6.35302 -35.45,-16.03166 -47,-21.50807 -11.55,-5.47642 -30.225,-14.01225 -41.5,-18.9685 -11.275,-4.95625 -31.525,-13.86812 -45,-19.80415 -32.84803,-14.47027 -49.38133,-21.46066 -56.00003,-23.67725 -8.3498,-2.79633 -43.5181,-2.52669 -66,0.50602 -27.043,3.64799 -50.3707,7.22254 -52.4345,8.03467 -1.5366,0.60468 0.8417,2.22644 11.5651,7.88605 l 13.4996,7.12481 4.4349,-1.54006 c 3.2101,-1.11473 7.1967,-1.43655 14.4349,-1.16526 8.765,0.32852 10.6569,0.73482 15.3189,3.28973 16.1428,8.84682 21.7675,29.26936 15.1681,55.07279 -5.437,21.2586 -22.6438,41.48199 -43.9372,51.63994 -3.8155,1.82016 -6.9626,3.61599 -6.9935,3.99073 -0.054,0.6592 10.6384,7.52242 32.1481,20.63423 5.6983,3.47357 12.1848,8 14.4144,10.05875 3.9216,3.62101 4.4245,3.78549 15.4106,5.03989 6.2462,0.7132 11.9268,1.51546 12.6235,1.78281 1.4684,0.56348 19.862,-16.94659 23.8563,-22.71034 2.2093,-3.18803 4.1411,-10.31676 10.6201,-39.19176 4.3558,-19.41221 9.3046,-41.81993 10.9975,-49.79493 3.8284,-18.03563 6.1042,-22.04142 9.9141,-17.45066 1.0615,1.27899 0.7386,4.11453 -1.8506,16.25 -9.6061,45.02286 -19.3928,87.20437 -21.0489,90.72191 -1.0412,2.21169 -6.206,8.55711 -11.4772,14.10094 l -9.5841,10.07967 9.7099,3.18522 c 12.6635,4.15407 23.6125,10.60114 32.7591,19.28953 l 7.3806,7.01089 5.78763,-3.51575 c 8.0943,-4.91706 9.6887,-6.93289 13.7017,-17.32393 3.4694,-8.98341 8.0692,-24.318 7.4145,-24.71785 -8.7069,-5.31717 -12.7083,-9.97147 -15.4235,-17.94017 -1.2448,-3.65309 -1.5258,-7.5367 -1.2276,-16.96376 0.35,-11.06298 0.6618,-12.77566 3.2779,-18.0036 5.678,-11.34657 18.0794,-19.78925 29.4524,-20.0507 l 5.8075,-0.13351 1.767,-9.51911 c 1.8858,-10.15868 2.7392,-12.01912 5.5128,-12.01912 3.9332,0 4.3285,2.39233 2.103,12.72717 -1.1574,5.3748 -1.7073,9.90474 -1.2219,10.06652 2.3382,0.77942 12.9459,7.64698 15.4823,10.02345 15.4551,14.48092 15.3955,45.28953 -0.1124,58.14505 -9.137,7.57427 -20.9411,10.55676 -32.2136,8.13926 -2.9311,-0.62861 -5.4995,-0.97269 -5.7076,-0.76462 -0.208,0.20808 -1.2991,3.70491 -2.4247,7.77074 -1.1255,4.06584 -3.8357,11.97164 -6.0226,17.56844 -4.2874,10.97203 -6.9116,14.13077 -16.2763,19.59167 l -4.7463,2.76768 3.3201,4.06763 c 1.826,2.2372 5.795,7.38456 8.82,11.43858 4.8045,6.4389 11.1231,11.85417 20.8351,17.85649 1.2227,0.75571 18.2225,-12.71063 29.2862,-23.19906 6.0468,-5.73245 9.254,-9.64398 10.7404,-13.09909 1.3107,-3.04695 4.4212,-18.40601 8.1539,-40.26301 3.3191,-19.43529 6.2293,-36.0119 6.4671,-36.8369 0.2378,-0.825 1.5912,-9.34659 3.0075,-18.93686 1.4163,-9.59027 3.0655,-18.02777 3.6649,-18.75 1.4858,-1.79032 4.5544,-1.6546 5.6195,0.24855 1.0597,1.89361 -0.8856,15.68291 -8.3148,58.93831 -7.4713,43.50089 -9.854,55.40842 -12.0154,60.04844 -2.2676,4.86783 -16.6518,19.20689 -29.6891,29.59594 l -9.7447,7.76528 9.2447,6.40372 c 24.4377,16.92777 29.0708,19.69602 30.6962,18.34076 22.9441,-19.13095 41.3305,-36.53124 44.538,-42.14934 2.7229,-4.76936 3.9301,-9.97662 6.0288,-26.0048 0.8642,-6.6 3.7601,-25.275 6.4352,-41.5 2.6752,-16.225 5.4151,-34.57884 6.0888,-40.7863 1.0174,-9.37454 1.5518,-11.4613 3.1552,-12.3194 3.035,-1.62427 4.8025,0.59933 4.8025,6.04172 0,6.39838 -2.1317,22.03286 -6.8943,50.56398 -2.2035,13.2 -4.9383,30.75 -6.0775,39 -2.7354,19.80977 -4.3597,25.82139 -8.5011,31.46312 -4.1539,5.6587 -14.8552,15.9642 -31.0271,29.87956 -6.6,5.67906 -12,10.71342 -12,11.18747 0,0.47404 11.025,8.31057 24.5,17.41451 20.9278,14.13919 24.6139,16.29766 25.2813,14.80398 0.4297,-0.96175 2.2747,-12.00644 4.1,-24.54374 z M 935.92957,246.73919 c -8.4982,-3.04945 -8.2059,-3.02299 -27.6817,-2.5064 -4.6646,0.12373 -5.02,-0.0396 -5.2988,-2.43463 -0.3787,-3.25421 2.397,-4.63096 11.1431,-5.52704 l 6.3807,-0.65372 4.7928,-17.62599 c 12.2948,-45.21613 14.6328,-54.29818 19.4925,-75.72081 2.8578,-12.59785 5.6547,-23.46768 6.2153,-24.15518 1.3348,-1.63689 4.2423,-1.59602 5.6326,0.0792 1.6825,2.0273 -8.109,44.23882 -21.4325,92.39627 -3.5341,12.77399 -6.4211,23.79899 -6.4155,24.5 0.01,0.71738 4.0021,2.58606 9.1417,4.27457 9.6152,3.15889 12.1535,5.20477 10.2358,8.25 -1.5981,2.53772 -2.9656,2.43955 -12.206,-0.87623 z m 320.75983,155.35993 c 4.5605,-2.2408 10.4407,-10.64122 17.6633,-25.2337 14.075,-28.43695 21.7902,-48.00138 23.0049,-58.33637 l 0.616,-5.24141 -22.3628,-10.84461 c -55.3097,-26.82178 -74.6105,-35.0805 -80.4154,-34.40926 -4.1115,0.47543 -6.7148,4.71568 -19.5434,31.83165 -6.1148,12.925 -14.9204,31.52617 -19.5679,41.33593 -9.5454,20.1479 -10.0181,22.79756 -4.6262,25.93415 5.8498,3.40293 44.7417,19.03376 74.29,29.85744 22.6935,8.31274 23.9825,8.52546 30.9415,5.10618 z m -19.9415,-12.80499 c -9.625,-3.52715 -22.9,-8.51513 -29.5,-11.08442 -13.9184,-5.41821 -44.0516,-19.62848 -46.6944,-22.02025 -2.3249,-2.104 -2.287,-4.17992 0.1234,-6.75959 2.7596,-2.95326 24.1646,-49.76265 32.1535,-70.31445 0.5376,-1.38302 1.7193,-2.25 3.0666,-2.25 2.8893,0 58.9258,23.22668 84.6009,35.06641 8.2076,3.78483 8.25,3.82379 8.25,7.58488 0,4.94506 -7.0972,27.35843 -12.0745,38.13159 -2.1551,4.66483 -6.845,13.75967 -10.422,20.21075 -3.5769,6.45107 -6.5035,12.43444 -6.5035,13.29637 0,1.8788 -2.6716,4.74165 -4.3214,4.63085 -0.6482,-0.0435 -9.0536,-2.96499 -18.6786,-6.49214 z m 22.4294,-14.30143 c 3.6207,-6.53 8.2003,-15.37287 10.1768,-19.65083 3.7509,-8.11836 11.3938,-30.56604 11.3938,-33.46441 0,-1.22863 -6.32,-4.42213 -23.75,-12.00087 -34.7045,-15.08989 -57.4804,-24.18731 -58.3194,-23.29459 -0.4049,0.43088 -2.754,5.50842 -5.2201,11.28342 -2.4661,5.775 -9.0375,20.35987 -14.603,32.41082 -5.5656,12.05095 -9.9835,22.04655 -9.8176,22.21245 0.5785,0.57847 28.2486,13.58387 33.2101,15.60926 3.8074,1.55428 49.2991,18.53589 50.1732,18.72918 0.095,0.0211 3.1355,-5.30443 6.7562,-11.83443 z m 32.4268,-84.39292 c 7.228,-19.88712 32.525,-68.16612 44.7387,-85.38345 4.8406,-6.82357 12.6334,-13.12877 23.9404,-19.37039 l 7.4909,-4.13505 -1.9425,-2.72798 c -7.2338,-10.15882 -53.0169,-48.11749 -58.036,-48.11749 -2.1326,0 -27.4755,17.74076 -34.3775,24.06515 -3.7262,3.4144 -9.6649,9.90909 -13.1972,14.43263 -6.9097,8.84891 -19.7498,29.76677 -25.0434,40.79829 -1.7937,3.73784 -3.6937,7.33784 -4.2224,8 -1.7832,2.23358 -23.4748,43.7697 -23.0696,44.1749 0.2208,0.22078 3.9927,1.93491 8.3819,3.80919 8.7972,3.75654 42.7589,19.69867 59.9805,28.15578 6.05,2.97101 11.225,5.43129 11.5,5.4673 0.275,0.036 2.0103,-4.08999 3.8562,-9.16888 z m -958.35623,0.24565 c 0.55,-0.40621 3.5479,-1.46896 6.6621,-2.36166 7.5682,-2.16952 17.8198,-6.83546 23.6139,-10.74776 13.829,-9.33765 24.224,-19.69184 24.224,-24.12904 0,-3.40861 -4.2929,-1.2619 -11.1518,5.57653 -10.5866,10.55502 -29.7539,19.60079 -46.691,22.03524 -8.4302,1.21171 -8.6659,1.31905 -8.9879,4.09359 -0.6284,5.41376 7.5335,9.07618 12.3307,5.5331 z m 46.6247,-3.74064 c 5.0033,-4.04545 9.9011,-9.44231 11.7286,-12.92363 1.4524,-2.76664 1.4946,-8.31574 0.063,-8.31574 -0.5959,0 -5.0428,3.38626 -9.8821,7.52503 -4.8392,4.13877 -12.5235,9.76377 -17.0761,12.5 l -8.2776,4.97497 9.4096,-0.0106 c 9.3711,-0.0106 9.4285,-0.0259 14.0343,-3.75 z m 19.9996,0.38712 c 1.2137,-2.6638 -0.2743,-6.69786 -2.4095,-6.5323 -0.6681,0.0518 -2.9608,2.07681 -5.0948,4.5 l -3.8799,4.40581 h 5.1514 c 4.4512,0 5.2984,-0.32262 6.2328,-2.37351 z m 29.861,2.12351 c -0.1101,-1.86893 -3.9811,-11.93617 -5.4051,-14.05684 -3.3459,-4.98289 -3.2386,-11.61754 0.3498,-21.64936 3.1679,-8.85612 3.1769,-8.93527 1.3793,-12.22881 -1.3869,-2.54111 -1.8093,-5.53766 -1.8093,-12.83602 0,-8.73901 0.2695,-10.06836 3.2806,-16.18482 6.432,-13.06522 17.6037,-19.91334 32.9901,-20.22244 8.2467,-0.16567 8.2795,-0.17687 11.3236,-3.86992 3.4871,-4.2305 10.1654,-8.41996 17.2393,-10.81472 l 4.8597,-1.64516 -19.3467,-11.48361 c -10.6406,-6.31599 -26.7716,-15.66156 -35.8466,-20.76794 -9.075,-5.10638 -19.3664,-11.09255 -22.8697,-13.3026 l -6.3697,-4.01826 0.5666,-4.78422 c 0.4939,-4.17013 0.3113,-4.86524 -1.4225,-5.41552 -1.094,-0.34722 -3.6576,-0.37562 -5.6969,-0.0631 -2.4848,0.38078 -12.1731,-1.18605 -29.3721,-4.75016 l -25.6644,-5.31834 -0.049,6.42064 c -0.038,5.0009 0.4137,7.04689 2.0446,9.25282 1.7347,2.34627 2.0111,3.83042 1.6114,8.65068 -0.3969,4.78573 -0.1191,6.3101 1.5651,8.58809 1.8314,2.47708 1.9352,3.31865 0.9827,7.96833 -1.0138,4.94936 -0.9459,5.29237 1.4164,7.15055 2.175,1.71088 2.4244,2.54358 2.0206,6.74613 -0.4374,4.55293 -0.3155,4.84495 2.4225,5.79941 4.1856,1.45911 6.3245,7.00331 4.8937,12.68527 -1.3617,5.4078 -1.3622,5.39994 0.3483,5.39994 2.1749,0 5.5726,4.92033 5.5726,8.06976 0,1.54002 -0.4198,3.90425 -0.9329,5.25383 -0.765,2.01198 -0.4949,2.86534 1.5,4.73942 1.9865,1.86629 2.4329,3.26269 2.4329,7.6113 0,3.83058 0.3828,5.32569 1.3636,5.32569 0.75,0 2.5969,1.23322 4.1042,2.74049 2.4284,2.42848 2.6865,3.30216 2.2664,7.674 -0.4308,4.48382 -0.2125,5.15365 2.3959,7.34841 2.3612,1.98681 2.8699,3.19682 2.8699,6.82599 0,3.77712 0.294,4.41111 2.0455,4.41111 1.125,0 3.2062,1.1608 4.625,2.57956 2.2342,2.23422 2.5002,3.15869 1.9866,6.90534 -0.4562,3.32873 -0.2442,4.45959 0.9202,4.90637 1.9594,0.75193 4.4227,6.67998 4.4227,10.64376 0,2.24661 0.9629,4.00741 3.5,6.4002 3.1165,2.93926 3.5,3.86321 3.5,8.43285 v 5.13192 h 11 c 6.05,0 10.9934,-0.1125 10.9853,-0.25 z m 55.5147,-1.78992 c 33.9416,-1.4674 89.6434,-4.77014 90.2229,-5.34962 0.8923,-0.8923 -26.0666,-13.46343 -36.7229,-17.12417 -43.4046,-14.91066 -74.3495,-17.34624 -93.1403,-7.33081 -11.0439,5.8863 -14.446,15.03809 -9.4138,25.32342 l 2.7012,5.5211 11.1764,-10e-4 c 6.1471,-6.4e-4 21.9765,-0.46808 35.1765,-1.03875 z m 243.7474,-7.7685 c 69.1611,-0.46919 125.9827,-1.08839 126.2703,-1.37599 0.7998,-0.7998 -5.5243,-4.70726 -23.5598,-14.55672 -9.0518,-4.94337 -25.4579,-14.14284 -36.4579,-20.44326 -31.5478,-18.06947 -37.6434,-21.23326 -38.9626,-20.22257 -14.0505,10.76493 -17.3597,10.70768 -41.4489,-0.71705 -6.8263,-3.23751 -12.4906,-5.77154 -12.5874,-5.63119 -0.097,0.14036 -0.9573,2.2802 -1.9124,4.7552 -7.2755,18.85366 -27.9081,37.9191 -44.341,40.973 -8.1476,1.51417 -10.9832,0.48331 -17.5851,-6.39299 -3.2106,-3.34401 -6.4606,-7.27094 -7.2222,-8.72652 -2.05,-3.91797 -14.4631,-7.96094 -13.0377,-4.2464 1.278,3.33032 -1.3926,9.09713 -6.6455,14.34996 -6.739,6.73906 -9.971,8.39167 -15.2481,7.79686 -7.5633,-0.85249 -20.3759,-10.65223 -24.5023,-18.74063 -3.8128,-7.47365 -2.2335,-20.94968 3.1233,-26.65177 3.4673,-3.69074 2.1559,-6.41473 -4.1106,-8.53879 -4.238,-1.43647 -6.1423,-1.62696 -8.3993,-0.84018 -4.6484,1.62046 -8.9803,1.20529 -16.78,-1.60823 -6.7959,-2.45142 -7.3475,-2.51046 -8.3096,-0.88956 -4.2612,7.17843 -6.7109,9.62918 -9.3229,9.32677 -3.8091,-0.44102 -3.8969,-3.05552 -0.2857,-8.50742 1.6929,-2.55585 3.078,-5.00828 3.078,-5.44986 0,-0.44159 -1.2942,-1.47215 -2.876,-2.29014 -1.7039,-0.88112 -3.5031,-3.05433 -4.4146,-5.3323 -0.8461,-2.11477 -2.2322,-4.4208 -3.0801,-5.12451 -1.7616,-1.46199 -3.6293,-0.6944 -3.6293,1.49157 0,2.33501 -3.5015,8.52569 -7.3367,12.9713 -6.3238,7.3303 -23.4672,14.43961 -31.2838,12.97321 -7.3364,-1.37631 -1.9481,5.41469 6.001,7.56331 6.0437,1.63357 18.1884,0.64671 24.0322,-1.95283 5.1214,-2.27819 7.9959,-2.1375 8.9848,0.43975 1.5714,4.09489 -9.0443,9.10803 -21.4139,10.11253 -11.8833,0.96501 -24.3936,-3.88183 -27.2545,-10.55919 -0.6237,-1.45582 -1.2646,-2.83111 -1.4242,-3.05621 -0.1596,-0.2251 -2.8809,2.04865 -6.0475,5.05277 -12.0353,11.41792 -20.4204,14.95565 -20.9915,8.8565 -0.1914,-2.04424 0.7534,-3.12147 5.1829,-5.90897 2.9794,-1.87493 8.684,-6.69788 12.677,-10.71766 7.2249,-7.27341 7.2602,-7.33539 7.317,-12.83991 l 0.057,-5.53123 -4.5685,-0.001 c -11.5897,-0.003 -22.5233,6.98639 -26.9371,17.21945 -3.1504,7.30409 -3.2385,17.00575 -0.201,22.15388 2.7898,4.72836 2.764,5.90888 -0.2934,13.43327 -1.375,3.3839 -2.5,6.47781 -2.5,6.87536 0,0.39755 1.6875,-0.91316 3.75,-2.91268 10.2507,-9.93772 30.9236,-14.55751 52.8724,-11.81546 12.1682,1.52016 37.4415,7.7739 53.1354,13.14804 12.7357,4.36119 29.0834,11.92045 41.7422,19.30186 7.7766,4.53459 8.1815,4.65052 14.5,4.15233 3.575,-0.28188 63.0863,-0.89639 132.2474,-1.36559 z m 170.2526,-2.78451 c -1.1,-0.84112 -7.3054,-4.67598 -13.7899,-8.52189 -6.4844,-3.84592 -22.4594,-13.86731 -35.5,-22.26975 -13.0405,-8.40245 -32.2601,-20.59465 -42.7101,-27.09378 -68.1029,-42.35498 -82.4374,-52.65046 -118,-84.75089 -29.4624,-26.59415 -44.5,-44.159888 -44.5,-51.981468 0,-1.04019 1.6209,-3.37621 3.602,-5.19116 2.3048,-2.1114 3.4652,-3.98389 3.2219,-5.19902 -0.3378,-1.68767 -1.28,-1.88815 -8.4631,-1.80064 -6.5472,0.0798 -8.917,0.55738 -12.4719,2.51359 -4.0946,2.25318 -4.409,2.72408 -4.6884,7.02315 -0.6896,10.60805 17.0763,36.994518 42.1203,62.558238 15.9454,16.27635 44.6632,41.40467 59.2447,51.83966 12.4771,8.92901 70.5103,42.71512 112.4345,65.4577 12.6218,6.84694 25.9328,15.6705 26.7149,17.70871 0.3834,0.99909 4.4721,1.29311 17.6421,1.26868 15.5932,-0.0289 16.9622,-0.17006 15.143,-1.56113 z m -556.5,-6.90931 c 16.499,-5.97253 29.7436,-15.1546 34.0578,-23.61112 4.2751,-8.37992 1.0681,-10.54506 -5.5578,-3.75217 -12.9369,13.26293 -34.5584,22.79665 -51.8174,22.84817 -5.5662,0.0166 -5.7878,0.11452 -5.1317,2.26736 0.3771,1.2375 1.4199,3.09078 2.3174,4.11839 2.4099,2.7595 16.0356,1.78411 26.1317,-1.87063 z m 715.56543,-6.38817 c 9.479,-4.30534 14.8018,-11.5838 16.3221,-22.31881 2.868,-20.25211 -9.8735,-36.97645 -29.3625,-38.54084 -8.0282,-0.64443 -14.7834,2.18073 -20.9322,8.75426 -6.7212,7.18553 -7.888,10.616 -7.9984,23.51566 -0.085,9.93469 0.1559,11.51026 2.4475,16 2.88,5.64262 9.3597,10.61564 16.8283,12.91527 6.7576,2.08075 17.7443,1.92316 22.6952,-0.32554 z m 138.6525,-4.12929 c 3.2307,-0.0194 3.4172,-0.28182 11.907,-16.75 4.7437,-9.20166 9.1529,-18.37801 9.7983,-20.39187 0.6455,-2.01387 1.8268,-3.91224 2.6252,-4.21862 0.7984,-0.30637 1.4457,-1.13366 1.4385,-1.83843 -0.02,-1.99859 -22.0578,-10.78138 -27.0522,-10.78138 -1.2159,0 -1.5984,0.56999 -1.2574,1.8739 1.2903,4.93406 -3.0593,36.69903 -7.171,52.3697 l -0.7199,2.7436 3.5747,-1.4936 c 1.9661,-0.82148 5.0516,-1.50246 6.8568,-1.5133 z m -594.49943,-3.89138 c 7.3689,-5.33797 10.289,-12.11557 7.0315,-16.32002 -0.6875,-0.88734 -4.7375,-2.95021 -9,-4.58415 -6.8995,-2.64476 -7.75,-2.77951 -7.75,-1.22781 0,0.95864 1.3767,3.64341 3.0592,5.96614 3.2524,4.48981 3.4625,6.71917 0.7918,8.40092 -4.0212,2.53208 -11.851,-8.55416 -11.851,-16.7798 0,-2.96621 -0.5344,-4.39687 -1.9797,-5.29945 -1.7044,-1.06439 -2.1903,-0.91495 -3.4938,1.07441 -4.6222,7.0544 -2.1531,17.60479 5.5888,23.88057 3.9129,3.17182 11.3909,7.63867 12.9847,7.75607 0.3299,0.0243 2.4083,-1.26578 4.6185,-2.86688 z m -269.1786,0.35957 c 18.3588,-4.77907 40.4601,-21.86925 40.4601,-31.28635 0,-3.73439 -3.521,-2.50244 -10.4649,3.66149 -8.3932,7.45052 -17.1959,12.66627 -26.0351,15.42624 -5.5535,1.73402 -9.5217,2.19235 -19.2028,2.21791 -11.9709,0.0316 -12.2141,0.077 -12.7957,2.38811 -0.8137,3.23389 1.8043,6.88615 5.7537,8.02668 5.0976,1.47211 15.7599,1.26443 22.2847,-0.43408 z m 329.6352,-3.76012 c 7.0584,-3.47242 15.7242,-10.82209 21.3175,-18.07988 4.5014,-5.84104 10.5109,-17.14157 10.5036,-19.75146 0,-0.74637 -2.4399,-3.23836 -5.4173,-5.53777 -2.9774,-2.2994 -6.6713,-6.32715 -8.2087,-8.95055 -2.3819,-4.06445 -2.8547,-6.12852 -3.1972,-13.95762 -0.2514,-5.74931 0.067,-10.60828 0.8508,-12.98335 1.2022,-3.64267 1.1364,-3.89182 -1.6356,-6.18601 -5.092,-4.2145 -10.4108,-7.55247 -11.0367,-6.92653 -0.3344,0.33433 0.2955,2.53769 1.3997,4.89634 6.2331,13.31465 5.2337,31.40939 -1.5012,27.179 -1.3696,-0.86026 -1.8771,-3.0331 -2.3345,-9.99488 -0.6075,-9.24658 -2.6975,-15.08231 -6.6968,-18.69904 -1.0968,-0.99185 -9.3572,-4.45162 -18.3564,-7.68837 -8.9993,-3.23675 -18.7248,-6.8109 -21.6123,-7.94255 -5.4817,-2.14835 -6.182,-1.88257 -3.6977,1.4034 2.0034,2.65003 3.6899,9.19228 2.9614,11.48768 -0.3244,1.02215 -1.3128,2.13588 -2.1964,2.47495 -2.0166,0.77387 -5.3173,-2.11409 -5.3173,-4.65246 0,-3.44211 -2.0666,-5.8789 -6.6532,-7.84496 -2.482,-1.06387 -4.7003,-1.93431 -4.9297,-1.93431 -0.2294,0 -0.4237,1.4625 -0.4318,3.25 -0.022,4.84357 -2.0926,8.25 -5.0148,8.25 -2.4426,0 -2.4761,-0.12089 -2.9705,-10.72331 -0.4201,-9.0098 -0.8196,-11.03132 -2.5,-12.65092 -1.1,-1.06018 -7.3033,-3.53236 -13.7852,-5.49373 -11.4109,-3.45287 -11.8933,-3.51454 -15.1909,-1.94206 -3.3379,1.59176 -3.7401,1.52202 -20.2148,-3.5053 -40.4564,-12.34542 -104.0098,-30.184678 -107.5347,-30.184678 -1.0543,0 -2.749,1.53747 -3.9634,3.59582 -2.1055,3.568558 -2.161,3.590888 -7.3226,2.945998 -5.1035,-0.63764 -5.225,-0.59195 -6.4793,2.43624 -1.5261,3.6844 -1.2279,4.06263 4.8116,6.10201 3.8793,1.30992 4.7346,2.04928 5.0029,4.32437 0.2462,2.08825 -0.1721,2.87394 -1.75,3.28656 -3.3096,0.8655 -2.47,4.03366 1.78,6.7166 2.1195,1.33798 10.107,5.91213 17.75,10.16477 7.643,4.25264 21.9964,12.55134 31.8964,18.44155 9.9,5.8902 26.55,15.55682 37,21.48137 10.45,5.92454 19.7875,11.45652 20.75,12.29329 0.9625,0.83677 1.75,2.73903 1.75,4.22725 0,2.40663 0.857,3.09375 7.75,6.21361 4.2625,1.92928 10.1197,4.28045 13.016,5.22483 l 5.2659,1.71707 4.4842,-2.62791 c 2.4663,-1.44536 5.9466,-4.62975 7.7341,-7.07644 4.6108,-6.31151 9.7498,-7.33551 9.7498,-1.94277 0,1.3234 -1.35,3.94375 -3,5.823 -1.65,1.87924 -3,3.82815 -3,4.33091 0,0.50275 3.0247,1.89749 6.7215,3.09943 l 6.7216,2.18533 3.3444,-3.23145 c 1.8394,-1.77729 4.255,-4.69963 5.3678,-6.49409 2.5964,-4.18652 5.4583,-5.8029 7.4086,-4.1843 0.7899,0.65551 1.4361,2.08895 1.4361,3.18542 0,4.24279 -11.7106,17.07642 -17.5,19.17827 l -2,0.7261 2,1.4982 c 6.6508,4.98209 39.9693,17.63916 50.0823,19.0253 5.1005,0.6991 11.4842,-1.92474 17.1613,-7.05367 4.4036,-3.97838 6.6581,-4.50418 8.1191,-1.89356 2.1862,3.90656 -4.5668,10.73202 -14.7832,14.94187 -3.2403,1.33523 -5.4454,2.83157 -5.2597,3.56908 0.1759,0.69847 1.7509,2.77184 3.5,4.6075 2.897,3.04038 3.5965,3.29895 7.8553,2.90398 2.5713,-0.23846 7.0713,-1.61239 10,-3.05317 z m 1.3624,-39.29374 c -1.625,-1.62499 -1.584,-2.03378 0.9358,-9.3364 1.3542,-3.92435 3.5101,-5.66232 5.8908,-4.74876 3.9707,1.5237 -0.078,15.69053 -4.4838,15.69053 -0.4056,0 -1.4599,-0.72242 -2.3428,-1.60537 z m -129.0527,-26.44262 c -0.3665,-1.15452 -0.069,-2.78193 0.6826,-3.73033 0.7329,-0.92528 3.9569,-4.84119 7.1644,-8.70201 6.9949,-8.41981 12.0983,-18.67089 13.7003,-27.51967 0.6473,-3.575 1.3509,-7.46286 1.5637,-8.6397 0.5561,-3.07495 3.1081,-3.65636 5.5094,-1.25513 1.7699,1.76989 1.9606,2.78121 1.3549,7.18503 -1.7687,12.85963 -7.5945,24.88738 -17.9021,36.9598 -7.0111,8.21144 -10.7207,9.96344 -12.0732,5.70201 z m 49.0866,-7.52344 c -1.8769,-1.87695 -1.8615,-1.69785 -0.4196,-4.8623 1.4466,-3.17513 4.5793,-4.26376 6.5625,-2.28056 1.6592,1.65922 1.0735,4.7836 -1.3512,7.20837 -1.9069,1.90687 -2.8319,1.89422 -4.7917,-0.0655 z m 23.8532,-3.8728 c -0.7803,-3.10893 1.96,-7.82419 4.2813,-7.36694 4.7524,0.93611 3.9598,9.05549 -0.9394,9.62423 -2.1845,0.25359 -2.8193,-0.17516 -3.3419,-2.25729 z m -281.1568,62.98098 c 11.2612,-1.09024 24.6718,-8.31362 33.628,-18.11307 8.8289,-9.66022 7.8533,-16.21203 -1.0847,-7.28455 -6.4437,6.4361 -14.5937,10.94904 -25.3462,14.03504 -6.5412,1.87735 -10.4225,2.28951 -21.7143,2.30589 -12.1394,0.0176 -13.7494,0.21444 -13.75,1.68105 -9e-4,2.36644 5.4794,6.66583 9.2788,7.27941 6.4807,1.04658 8.2706,1.20203 10.7206,0.9311 1.375,-0.15206 5.0955,-0.52775 8.2678,-0.83487 z m 529.0425,0.81961 c 0.354,-0.354 3.0165,-1.60867 5.9167,-2.78814 6.7598,-2.74916 18.4745,-10.3301 24.3925,-15.7851 13.9861,-12.89197 22.3805,-32.47223 22.3805,-52.20345 0,-18.782 -10.8497,-30.57967 -28.1225,-30.57967 -6.3662,0 -6.9023,1.44323 -1.3269,3.57248 11.6674,4.45583 17.427,19.48999 14,36.544 -2.1382,10.64 -6.9941,20.79376 -14.4033,30.11751 -8.0956,10.18748 -15.1867,16.12416 -25.394,21.26002 l -8.7468,4.40094 4.2468,3.00794 c 4.3153,3.0565 5.9022,3.60823 7.057,2.45347 z m -6.3103,-16.59601 c 7.074,-3.33806 9.926,-5.46287 17,-12.66507 12.8617,-13.09485 18.6515,-24.44837 19.7283,-38.68613 0.6185,-8.17779 -1.4011,-15.87722 -5.011,-19.10376 -2.7815,-2.48621 -56.1485,-30.84061 -61.7977,-32.83377 -2.2941,-0.80939 -5.6151,-1.47162 -7.38,-1.47162 h -3.2089 l 1.5481,5.94211 c 2.0286,7.78626 0.4763,17.58403 -4.4312,27.96914 -7.1006,15.02603 -16.6596,25.81945 -28.2837,31.93613 l -7.2012,3.78933 13.7687,8.65116 c 50.1149,31.48837 50.6287,31.78578 53.7686,31.11978 1.65,-0.34998 6.825,-2.44126 11.5,-4.6473 z m -103.8979,-1.05018 c 1.8689,-1.25941 3.3276,-2.72191 3.2417,-3.25 -0.086,-0.52809 -4.5859,-3.67366 -10,-6.99015 -5.4141,-3.31648 -12.4121,-7.92898 -15.5511,-10.25 -3.139,-2.32101 -6.0923,-4.22002 -6.5629,-4.22002 -0.4706,0 -2.1773,1.39017 -3.7927,3.08928 -5.4312,5.71266 -11.3205,7.26281 -12.8133,3.37265 -0.8933,-2.32792 0.1362,-3.8049 4.3225,-6.20101 3.2527,-1.86171 6.1767,-5.81998 4.895,-6.62638 -0.1877,-0.11811 -4.9252,-4.1342 -10.5277,-8.92464 -5.6026,-4.79045 -10.6477,-8.7099 -11.2115,-8.7099 -1.7819,0 -3.3529,8.22652 -2.7261,14.27508 1.318,12.71654 6.0957,16.55592 39.624,31.84219 11.9536,5.44988 16.1056,5.96006 21.1021,2.5929 z m -423.1021,-0.11841 c 13.8977,-2.29006 22.372,-5.71909 29.6516,-11.99813 7.8127,-6.73894 13.1963,-17.59363 8.7258,-17.59363 -0.8924,0 -4.4716,2.66514 -7.9537,5.92252 -12.386,11.58649 -28.6085,16.84214 -48.7126,15.78156 -9.0948,-0.47979 -10.9176,-0.32956 -11.4048,0.93997 -0.8431,2.19721 1.7766,4.34783 7.8521,6.44595 6.4715,2.23492 10.7299,2.33274 21.8416,0.50176 z m 170.5468,-13.98198 c 3.2743,-1.49757 7.2308,-3.93491 8.7924,-5.41632 3.505,-3.32502 7.2625,-9.6979 8.074,-13.69346 0.5522,-2.7195 0.2311,-3.20428 -3.4346,-5.18478 -3.6382,-1.96562 -4.3164,-2.0443 -6.7612,-0.7843 -1.4946,0.77026 -4.3197,1.64531 -6.278,1.94456 -5.7823,0.88357 -14.0576,6.46664 -17.7386,11.96758 -8.3314,12.45046 1.1684,18.56605 17.346,11.16672 z m -169.346,-2.70675 c 8.4373,-1.74658 18.7119,-7.18456 24.7075,-13.07687 8.1181,-7.97809 11.5509,-16.9498 6.9462,-18.15397 -1.679,-0.43907 -3.473,0.80659 -8.25,5.72845 -11.6685,12.02219 -29.4538,18.23968 -49.8337,17.42111 -9.7633,-0.39214 -10.2648,-0.22961 -9.8057,3.17825 0.2919,2.16674 1.307,2.97937 5.6597,4.5309 4.7439,1.69095 23.1244,1.91465 30.576,0.37213 z m -6.4508,-17.44983 c 7.7597,-1.76849 17.0755,-6.39735 22.2092,-11.03531 6.6238,-5.98422 12.3412,-16.41789 8.9965,-16.41789 -0.5743,0 -4.0347,2.26384 -7.6897,5.03076 -7.9454,6.01476 -16.6054,10.37439 -24.7261,12.44762 -6.6019,1.68547 -26.5806,2.04478 -32.8447,0.59071 l -3.8048,-0.8832 0.3048,3.60815 c 0.2422,2.86717 0.9799,4.00095 3.592,5.52081 6.4759,3.76807 20.3795,4.23409 33.9628,1.13835 z m 454.4806,-9.38403 c 12.2308,-5.81389 20.6351,-15.00974 27.8936,-30.5208 3.4024,-7.27078 4.8741,-19.00362 2.9889,-23.82815 -1.1983,-3.06648 -0.5454,-2.73616 -28.6131,-14.47592 -15.8972,-6.64926 -18.993,-7.61032 -26.5,-8.22682 -7.5125,-0.61695 -9.2924,-1.170238 -15.3208,-4.762308 -3.7514,-2.23535 -9.4859,-5.06095 -12.7433,-6.27913 -5.5406,-2.07207 -6.0818,-2.11046 -8.394,-0.59545 -4.3419,2.8449 -7.3296,1.97509 -18.7143,-5.44835 -10.968,-7.15172 -22.291,-12.90266 -28.9979,-14.72807 l -3.6703,-0.99893 -0.7007,5.09537 c -0.5068,3.68483 -1.4943,5.88887 -3.5672,7.96178 l -2.8664,2.8664 2.0783,4.07398 c 4.2646,8.35931 40.5652,43.165268 69.6414,66.774078 12.6657,10.28407 36.1135,26.94596 37.9858,26.99254 0.6769,0.0168 4.9519,-1.73827 9.5,-3.90022 z m -70.0306,-50.26917 c -1.8935,-1.89349 -1.4928,-2.95804 3.3153,-8.80709 4.965,-6.04006 8.0336,-13.11137 9.0656,-20.890958 0.7925,-5.97451 2.3413,-7.74914 5.3552,-6.13616 2.5981,1.39045 2.7748,7.27351 0.4536,15.102708 -2.2612,7.62688 -4.8909,12.43507 -9.5881,17.53091 -4.1311,4.48175 -6.4555,5.34664 -8.6016,3.20059 z m -383.9179,41.22772 c 12.2528,-3.84436 28.7179,-17.14048 28.7179,-23.19063 0,-1.79383 -0.521,-1.62495 -4.8967,1.58709 -6.6558,4.8858 -14.0017,7.98816 -27.3488,11.55007 -10.5561,2.8171 -26.8518,5.1982 -30.589,4.46962 -5.8846,-1.14722 -10.1655,-1.15692 -10.1655,-0.023 0,3.31366 5.5479,6.08208 16,7.98402 5.6873,1.0349 21.6957,-0.31063 28.2821,-2.37714 z m -17.8386,-14.54583 c 11.5784,-2.01911 28.9567,-7.71563 34.7541,-11.39226 5.1049,-3.23744 7.3696,-6.09383 8.808,-11.10931 1.4192,-4.94829 0.2686,-5.37088 -4.2027,-1.5436 -5.4078,4.6289 -17.357,10.71607 -27.8029,14.16341 -7.9868,2.63581 -9.5657,2.80802 -26.1515,2.85252 -15.77937,0.0423 -17.56168,0.21516 -16.8046,1.62959 3.45435,6.45364 14.4815,8.34992 31.3996,5.39965 z m -4.9435,-14.46927 c 13.6363,-1.4435 31.8572,-8.54895 39.3819,-15.35742 3.0257,-2.73766 6.0677,-9.27927 6.0961,-13.10932 l 0.022,-2.95411 -5.25,5.33633 c -9.3255,9.47887 -26.209,15.71505 -45.4455,16.78597 -8.9813,0.5 -18.92276,-0.47914 -23.77673,-2.34179 -1.85137,-0.71043 -2.59771,2.12864 -1.4358,5.46171 1.20573,3.45876 4.5052,5.16646 11.90803,6.16322 7.9154,1.06578 8.5723,1.06633 18.5,0.0154 z m 2.119,-17.53917 c 15.8227,-2.71977 25.7741,-6.86658 32.4152,-13.5076 2.1812,-2.18122 3.9658,-4.35697 3.9658,-4.83501 0,-1.63184 -7.3018,-2.16769 -8.9697,-0.65825 -3.4082,3.08441 -14.9957,7.53432 -23.4113,8.9906 -11.3584,1.96552 -23.6731,1.95617 -33.26576,-0.0253 -4.15934,-0.85913 -7.82415,-1.30035 -8.14402,-0.98048 -1.44994,1.44994 1.59402,6.01094 5.29078,7.92758 8.6232,4.47084 18.533,5.42372 32.119,3.08842 z m 106.0875,-17.97345 c 4.2755,-7.565308 4.2128,-7.623228 -13.4565,-12.417288 -44.7286,-12.13585 -85.1463,-21.62981 -86.3907,-20.29282 -0.7626,0.81937 -4.0426,16.36013 -3.5557,16.84703 0.6847,0.68467 97.3003,20.209608 99.1694,20.041028 1.1534,-0.10403 2.912,-1.83952 4.2335,-4.17795 z m -100.521,0.0483 c 7.7339,-1.63909 13.1594,-4.10294 10.8145,-4.911098 -6.2063,-2.13898 -16.9432,-3.39545 -21.5,-2.51601 -8.5525,1.6506 -23.35823,-0.57057 -31.71676,-4.75816 -2.59421,-1.29965 -4.95671,-2.36303 -5.25,-2.36303 -0.29328,0 -0.53324,1.28931 -0.53324,2.86514 0,5.29658 5.47351,10.102048 13.7175,12.043278 6.0447,1.42337 27.0905,1.20352 34.468,-0.36007 z m -20.3633,-17.499858 c -10.51553,-3.90919 -18.31185,-8.20756 -25.63661,-14.1343 -3.40208,-2.75274 -6.18308,-4.64706 -6.18001,-4.20959 0.003,0.43747 0.46908,2.4643 1.03559,4.50407 2.64185,9.51223 16.383,16.56462 32.45883,16.6589 l 6,0.0352 -7.6778,-2.85427 z m 11.536,-8.79849 c 1.1278,-6.8236 1.1797,-6.75751 -6.7719,-8.6321 -9.3846,-2.21241 -20.6032,-7.55263 -23.43838,-11.15698 -3.15261,-4.00789 -5.49769,-12.89244 -4.78172,-18.11599 1.73195,-12.63592 11.62427,-20.61536 25.6085,-20.65659 11.0798,-0.0327 19.6291,5.02033 23.7598,14.04293 1.9291,4.21372 2.3481,6.35061 1.8527,9.44873 -0.9763,6.10554 -3.9972,11.14881 -9.6293,16.07559 -5.6679,4.95812 -5.3152,5.58908 2.7725,4.96052 4.9072,-0.38138 5.5695,-0.77271 10.7173,-6.33297 6.2401,-6.74005 8.0553,-11.62209 7.2488,-19.49583 -1.0609,-10.35756 -9.3724,-21.12623 -20.8137,-26.966899 -14.6181,-7.4623823 -37.42779,-2.0004173 -47.59092,11.396029 -6.84447,9.02198 -8.10478,22.70799 -2.90776,31.57604 3.47029,5.92161 14.18452,15.56596 21.80494,19.62761 5.99054,3.19291 18.11234,7.91514 20.43014,7.95882 0.6155,0.0116 1.398,-1.66641 1.739,-3.72891 z m 34.1802,-14.65777 c 0.3636,-2.42427 0.3457,-5.84354 -0.04,-7.59838 l -0.7007,-3.19061 -1.9986,3.34838 c -1.0991,1.84161 -3.3642,4.78231 -5.0335,6.5349 l -3.0351,3.18652 3.3847,0.97329 c 6.1583,1.77092 6.7055,1.53108 7.423,-3.2541 z m -40.7478,-5.04947 c 1.0093,-1.00931 -0.275,-1.26086 -4.0406,-0.79143 -2.0625,0.25711 -3.75,0.92713 -3.75,1.48892 0,1.01105 6.6801,0.41298 7.7906,-0.69749 z m 2.9317,-8.20792 c 8.9693,0.61513 10.8169,-0.24013 7.5581,-3.49886 -4.9334,-4.93347 -15.5809,-5.2855 -22.9076,-0.75737 -3.23612,2.00004 -5.64916,5.54276 -4.78592,7.02649 0.19363,0.33281 2.95332,-0.28123 6.13262,-1.36453 4.6551,-1.58616 7.3813,-1.85984 14.0028,-1.40573 z m -5.0474,-15.04581 c 5.8877,-0.39224 7.5051,-0.10465 11.776,2.09386 2.7231,1.40171 5.1187,2.3808 5.3238,2.17576 0.205,-0.20503 -0.2893,-1.65317 -1.0986,-3.21808 -4.4359,-8.57815 -16.2895,-11.84773 -25.7061,-7.09057 -4.55021,2.29868 -8.97,7.63272 -8.97,10.82544 0,1.56265 0.7225,1.40705 5.92489,-1.27603 4.36341,-2.25039 7.72361,-3.17553 12.75001,-3.51038 z"
     style="fill:#000000" />
</svg>
