<?xml version="1.0" encoding="UTF-8" standalone="no"?>
<svg
   xmlns:dc="http://purl.org/dc/elements/1.1/"
   xmlns:cc="http://creativecommons.org/ns#"
   xmlns:rdf="http://www.w3.org/1999/02/22-rdf-syntax-ns#"
   xmlns:svg="http://www.w3.org/2000/svg"
   xmlns="http://www.w3.org/2000/svg"
   viewBox="0 0 2352.3958 2023.84"
   height="2023.84"
   width="2352.3958"
   id="svg87"
   version="1.1">
  <metadata
     id="metadata93">
    <rdf:RDF>
      <cc:Work
         rdf:about="">
        <dc:format>image/svg+xml</dc:format>
        <dc:type
           rdf:resource="http://purl.org/dc/dcmitype/StillImage" />
        <dc:title></dc:title>
      </cc:Work>
    </rdf:RDF>
  </metadata>
  <defs
     id="defs91" />
  <path
     id="path167"
     d="m 1398.9739,2020.7104 c -1.0467,-1.7212 -6.5097,-17.1337 -12.1399,-34.25 -10.964,-33.3312 -15.552,-43.7139 -23.796,-53.8501 -10.728,-13.1905 -25.3779,-23.3738 -68.6315,-47.7066 -30.849,-17.3545 -42.7344,-27.2077 -50.158,-41.5815 -10.5623,-20.4514 -14.5945,-39.7771 -24.3037,-116.4823 -5.8531,-46.2414 -10.3644,-80.2302 -12.6285,-95.1456 -1.6059,-10.5794 -1.6348,-10.6494 -4.6379,-11.25 -6.1828,-1.2366 -64.0302,-0.6268 -73.2719,0.7723 -16.3678,2.478 -19.1879,4.4002 -32.9353,22.448 -27.4671,36.0593 -52.5597,57.1735 -82.463,69.3887 -27.35986,11.1763 -55.79436,14.3586 -101.60166,11.3709 -14.3,-0.9327 -35.537,-2.3216 -47.1933,-3.0865 -11.9975,-0.7873 -22.4365,-1.0342 -24.0584,-0.569 -4.3155,1.2377 -8.9558,3.8254 -17.2483,9.6187 -13.0346,9.1062 -26.3938,13.2688 -38.6331,12.0377 -3.3732,-0.3393 -10.9233,-1.962 -16.778,-3.606 -27.9314,-7.843 -41.1753,-7.8601 -72.0889,-0.093 -27.4634,6.8999 -35.8865,8.1574 -59.00004,8.8077 -30.9574,0.8711 -43.1617,-1.0265 -75.5,-11.739 -16.96168,-5.6189 -22.76517,-6.123 -28.3487,-2.4627 -1.56679,1.0271 -6.17127,6.041 -10.23219,11.1419 -4.06092,5.101 -9.78191,11.0853 -12.71331,13.2986 -11.16577,8.4302 -29.21378,14.839 -64.7058,22.9769 -26.81219,6.1478 -40.47452,8.2894 -53.96044,8.4585 -9.49677,0.1191 -11.10531,-0.133 -16.25763,-2.5479 -11.80961,-5.5351 -21.82707,-18.1902 -33.19464,-41.9349 -7.65978,-15.9998 -14.72802,-35.1551 -18.77635,-50.885 -2.4327,-9.4523 -2.89333,-13.0135 -2.5869,-20 0.53317,-12.1564 3.00309,-16.3013 19.6647,-33 23.13142,-23.183 32.6583,-33.6198 47.32654,-51.8471 7.81331,-9.7091 20.79801,-25.5279 28.85488,-35.1529 8.05687,-9.625 17.67462,-21.5391 21.37277,-26.4758 13.54961,-18.0876 32.24638,-49.9272 49.11578,-83.6415 19.51724,-39.0062 25.27025,-47.6363 43.58566,-65.3827 19.28943,-18.6901 27.96523,-27.5108 40.32683,-41 l 11.9133,-13 -36.4423,-1.1475 c -44.16373,-1.3906 -51.36537,-2.0391 -98.4422,-8.8649 -44.03752,-6.3851 -85.71287,-11.4671 -124,-15.121 -31.17049,-2.9747 -52.77988,-3.2717 -173.5,-2.3843 -53.087343,0.3902 -121.111833,-0.9996 -126.251063,-2.5795 -4.37775,-1.3457 -4.49944,-7.7868 -0.17816,-9.4297 1.45884,-0.5547 14.4612,-0.4958 33.16443,0.1501 40.16288,1.3871 103.594353,1.5871 165.264793,0.5213 53.69272,-0.928 66.16284,-0.4936 112,3.902 30.52349,2.927 87.60332,9.9922 116,14.3581 46.85277,7.2036 62.95424,8.3787 116,8.4658 41.7159,0.069 58.4497,-0.7601 99.50004,-4.9276 22.5853,-2.2928 33.4226,-4.0049 63,-9.9529 58.205,-11.7049 86.7961,-20.5016 139.1393,-42.8094 39.5881,-16.8718 62.6119,-24.4234 97.8607,-32.0976 35.51036,-7.731 61.25996,-11.2867 98.49996,-13.6013 36.6997,-2.2811 55.5059,-7.812 68.0252,-20.0061 5.9264,-5.7726 7.4035,-8.667 14.84,-29.0803 3.2851,-9.0174 8.4654,-22.9384 11.512,-30.9357 9.8144,-25.7634 10.3088,-30.5012 6.0409,-57.8902 -3.0528,-19.591 -6.8068,-34.7163 -12.1856,-49.0965 l -3.9173,-10.4728 -5.9076,-0.5 c -3.2492,-0.275 -9.6201,-0.3544 -14.1576,-0.1765 -8.0651,0.3162 -8.25,0.3799 -8.25,2.8433 0,1.5735 -2.7107,6.1264 -7.2172,12.1222 -21.8738,29.1023 -39.0681,39.8167 -69.2853,43.1742 -13.5462,1.5051 -47.08966,1.5577 -52.65076,0.082 -11.8142,-3.1339 -13.5243,-13.0821 -4.0132,-23.3453 13.53606,-14.6064 53.41706,-33.7141 82.66646,-39.607 28.2877,-5.6991 64.26,-7.44067 103,-4.9868 59.2057,3.7502 89.6294,-0.4652 111.4783,-15.44617 7.1701,-4.9162 26.6947,-22.4761 37.2411,-33.4937 32.1233,-33.5584 39.5616,-64.4948 21.9422,-91.2591 -8.7244,-13.2527 -24.737,-26.8008 -36.6069,-30.9727 -13.6781,-4.8075 -40.981,-5.0044 -77.0547,-0.5558 -32.6089,4.0213 -46.5051,4.9229 -75.5,4.8982 -38.6534,-0.033 -67.1352,-2.6069 -82.9937,-7.5005 -8.9179,-2.7519 -19.6906,-8.3183 -21.0637,-10.884 -1.3662,-2.5527 -0.4155,-10.2553 1.4576,-11.8099 0.7162,-0.5943 10.2566,-3.3033 21.201,-6.0199 10.9443,-2.7166 27.538,-7.0184 36.8748,-9.5596 22.2856,-6.0656 70.7159,-17.2965 80.6358,-18.6993 10.5611,-1.4936 17.8874,-0.1811 40.3721,7.2323 34.2381,11.2885 45.8685,13.4311 72.5161,13.3589 20.1205,-0.055 30.9899,-1.3075 47.1605,-5.4362 10.1208,-2.5841 14.4461,-2.5626 15.8597,0.079 1.4929,2.7895 0.3663,5.7113 -2.8411,7.3681 -3.3582,1.7348 -22.7728,6.0846 -34.6791,7.7697 -11.5313,1.632 -41.7771,1.6357 -51.5,0.01 -15.784,-2.6453 -30.8329,-6.5467 -49.8167,-12.9151 -19.0373,-6.3863 -20.0115,-6.6029 -29.6833,-6.6012 -8.8141,0 -13.3799,0.7925 -38.5,6.67 -15.675,3.6675 -38.4,9.2997 -50.5,12.5159 -12.1,3.2162 -27.0625,7.1507 -33.25,8.7433 -6.1875,1.5926 -11.25,3.203 -11.25,3.5786 0,1.0194 9.5461,4.3685 17.5,6.1396 9.8688,2.1975 22.5583,3.4433 48.5,4.7616 31.8134,1.6168 59.5749,0.3238 99.5,-4.634 36.602,-4.5452 63.3709,-4.3047 78.7632,0.7075 20.398,6.6422 43.2431,28.5528 50.7833,48.7058 1.1617,3.105 2.9144,6.3927 3.8948,7.3061 2.6913,2.5073 3.2841,12.6654 2.0643,35.3725 -2.6529,49.3856 -5.9873,79.2324 -16.5304,147.96757 -25.2831,164.8311 -28.4041,189.9825 -32.6346,263 -1.6483,28.4485 -1.6471,102.3036 0,124.8128 1.1749,16.0372 1.1458,18.0558 -0.2919,20.25 -2.0479,3.1255 -6.0049,3.2187 -7.9436,0.1872 -3.2828,-5.1331 -5.3895,-71.9309 -3.6979,-117.25 1.9071,-51.0927 5.2686,-93.9148 10.6368,-135.5 2.5266,-19.5729 18.1177,-124.7468 25.4233,-171.5 6.0289,-38.5822 8.9379,-63.11107 12.568,-105.97447 l 0.6753,-7.9746 -6.0213,8.9746 c -10.8414,16.1587 -37.3245,42.7654 -55.7802,56.0404 -12.2897,8.83987 -28.6005,14.82507 -49.1002,18.01747 -12.7804,1.9902 -47.169,2.2604 -68.2381,0.5362 -7.3849,-0.6043 -13.5391,-0.9867 -13.676,-0.8498 -0.137,0.137 1.7143,6.0948 4.114,13.2396 5.0975,15.1775 8.5972,30.4711 11.4396,49.9906 3.604,24.7494 2.7582,31.3304 -7.4822,58.2173 -3.0967,8.1305 -8.3147,22.1514 -11.5957,31.1576 -3.281,9.0062 -7.1326,18.6812 -8.559,21.5 -5.3521,10.5761 -19.4943,21.351 -35.0599,26.7119 -13.501,4.6498 -23.9577,6.1892 -57.2537,8.4287 -27.6933,1.8626 -39.5428,3.3208 -65.35726,8.0425 -44.6879,8.1738 -75.07,17.3748 -118.4053,35.8583 -14.9944,6.3954 -32.6683,13.6395 -39.2754,16.0978 -44.326,16.4929 -116.5335,32.7931 -167.962,37.9159 -20.87624,2.0795 -55.04734,4.5662 -62.77484,4.5683 -5.5785,0 -6.3725,0.2514 -7.1561,2.2517 -1.4467,3.693 -33.5325,38.0827 -51.33575,55.0218 -23.28255,22.1525 -27.32034,27.9934 -48.27417,69.8312 -16.58082,33.1063 -33.8789,62.5925 -48.28803,82.3115 -3.65142,4.997 -13.41348,17.1855 -21.69346,27.0855 -8.27997,9.9 -20.6534,24.975 -27.49651,33.5 -18.26048,22.7485 -24.38432,29.558 -44.68105,49.6833 -20.5885,20.4146 -22.24325,22.8997 -22.27817,33.4572 -0.0427,12.9079 9.14194,41.2213 21.52644,66.3595 11.21677,22.7679 19.67701,32.8599 29.85572,35.6142 13.94714,3.774 89.45686,-11.9562 112.09588,-23.3519 7.45006,-3.7501 13.20569,-8.7049 19.37371,-16.6781 7.73519,-9.9991 13.04886,-14.5656 19.40541,-16.6769 7.32919,-2.4344 13.58298,-1.4572 34.96848,5.4636 28.7423,9.3018 30.8838,9.6368 61.2524,9.583 29.52454,-0.052 35.24354,-0.7703 63.00004,-7.9099 33.3233,-8.5714 43.9955,-8.6379 76.2741,-0.4747 16.6512,4.2111 20.1693,4.5584 28.4267,2.8063 6.7833,-1.4393 12.9639,-4.5465 24.7992,-12.4676 13.5828,-9.0906 15.6745,-9.4912 41.0173,-7.8546 60.4789,3.9054 70.3539,4.4549 79.9888,4.4509 11.595,0 31.4704,-2.0803 42.8554,-4.4752 16.62776,-3.4977 33.42816,-10.8181 49.94936,-21.764 14.0526,-9.3105 35.6161,-30.8635 50.3538,-50.3293 11.617,-15.344 15.4291,-19.1828 22.7167,-22.8757 10.3132,-5.2261 18.2911,-6.0601 57.9693,-6.0601 h 36.3508 l -0.6325,-4.5 c -1.582,-11.2544 -6.6606,-55.4413 -8.5052,-74 -5.8457,-58.8144 -8.676,-115.5624 -7.681,-154 1.5879,-61.338 10.388,-170.9242 14.1936,-176.75 1.9519,-2.9882 5.927,-2.9375 7.9179,0.101 1.3949,2.1289 1.3528,3.9948 -0.4458,19.75 -3.7101,32.5001 -7.8563,88.019 -10.1489,135.899 -3.1902,66.6257 3.4214,162.5912 18.602,270 4.8316,34.1857 9.3876,68.4253 15.0361,113 7.1781,56.6459 12.0901,80.462 19.9136,96.553 3.635,7.4763 5.734,10.3186 12.0512,16.3194 8.8714,8.427 15.339,12.7721 35.9975,24.1847 64.624,35.7007 77.7634,48.9773 91.9815,92.9429 2.579,7.975 5.0652,15.625 5.5249,17 1.2355,3.6958 1.155,-2.5259 -0.5042,-39 -3.0821,-67.7553 -3.972,-138.3597 -2.5553,-202.7266 0.7478,-33.9721 1.0246,-70.8081 0.6349,-84.5 -1.0727,-37.6958 -3.4737,-94.8734 -5.0714,-120.7734 -8.1433,-132.0047 -10.9619,-225.2785 -8.6824,-287.3111 1.1291,-30.7245 1.642,-33.119 6.9614,-32.4993 4.0503,0.4719 5.2562,3.9272 4.6454,13.3104 -1.3697,21.0426 -2.0958,78.3301 -1.3625,107.5 0.9909,39.4201 5.0383,127.6817 8.4146,183.5 4.6802,77.3762 5.9144,113.8136 5.8635,173.1077 l -0.048,56.1077 9.3075,-7.1077 c 5.1191,-3.9092 11.845,-8.9889 14.9463,-11.288 9.6835,-7.179 28.048,-24.1934 36.1659,-33.5071 14.1171,-16.1965 17.1237,-22.6039 20.7771,-44.2785 3.7196,-22.0673 4.6068,-35.348 5.0461,-75.5341 0.6366,-58.2484 2.4033,-81.1222 9.5387,-123.5 5.8609,-34.8085 10.914,-54.9162 19.6015,-78 13.6075,-36.157 42.9732,-77.3035 73.3147,-102.7269 25.7831,-21.6039 51.2588,-33.7405 64.5648,-30.7586 13.6641,3.0622 21.4352,12.8294 21.4352,26.9411 0,6.4852 -1.9489,10.0444 -5.5,10.0444 -3.5032,0 -5.5,-3.5656 -5.5,-9.8214 0,-13.0366 -8.8113,-19.262 -22.2494,-15.7198 -11.9638,3.1535 -28.9483,13.4684 -47.034,28.5643 -19.9321,16.637 -43.8582,46.7671 -58.1582,73.2386 l -4.7331,8.7616 15.6897,16.2384 c 8.6293,8.931 16.727,16.8798 17.9949,17.6639 3.3746,2.0867 6.1426,-0.1199 13.3617,-10.6521 15.5424,-22.6755 32.3413,-40.8434 65.6284,-70.9771 10.45,-9.4601 21.25,-19.9386 24,-23.2856 11.6708,-14.2048 16.6121,-25.886 16.7135,-39.5108 0.099,-13.289 0.4827,-12.2157 -40.944,-114.5 -19.2599,-47.5534 -19.2766,-47.5976 -36.6105,-97 -6.2718,-17.875 -17.0316,-47.57497 -23.9106,-65.99997 -24.1944,-64.8028 -31.1102,-83.8108 -42.7509,-117.5 -22.1201,-64.0175 -33.0477,-90.6679 -55.8451,-136.1957 -13.5534,-27.0669 -26.7111,-48.6188 -42.0059,-68.8043 -8.3548,-11.0263 -46.7338,-50.0386 -62.6465,-63.6803 -11.1633,-9.57 -58.0291,-45.7734 -72.2596,-55.8197 -10.5115,-7.4208 -32.5379,-20.9794 -33.1471,-20.4041 -0.2236,0.2113 3.6244,4.5511 8.5512,9.6441 9.9203,10.255 16.6882,19.7187 24.3311,34.0229 7.0752,13.2417 11.214,24.9594 10.9007,30.8621 -0.2395,4.5113 0.012,5.0017 5.6866,11.0877 18.884,20.2532 39.2471,83.6901 45.8344,142.7873 2.1108,18.9368 2.458,23.2827 4.1149,51.5 1.6266,27.7011 2.8967,36.8723 10.8934,78.658 7.1053,37.1281 9.4384,53.3233 16.0454,111.3796 8.9682,78.80457 9.9462,89.53137 14.539,159.46237 7.6381,116.2973 7.4145,111.7336 5.6081,114.4906 -2.0955,3.1981 -6.0385,3.3265 -7.966,0.2594 -0.8925,-1.4201 -1.6557,-6.6761 -2.0693,-14.25 -0.3603,-6.6 -1.527,-25.05 -2.5926,-41 -1.0656,-15.95 -3.0745,-46.55 -4.4642,-68 -3.8432,-59.3195 -5.2693,-74.6646 -14.4986,-155.99997 -5.4228,-47.7902 -8.8487,-71.1799 -15.526,-106 -7.9956,-41.6949 -9.3388,-51.4881 -11.0084,-80.2627 -3.2948,-56.7801 -7.3895,-83.6182 -18.8027,-123.2373 -2.4558,-8.525 -6.1232,-19.8285 -8.1497,-25.119 l -3.6846,-9.619 -13.668,-6.5605 c -13.7915,-6.6198 -21.0526,-9.3972 -60.168,-23.0139 -51.5777,-17.955 -53.1478,-18.0491 -137,-8.2094 -29.0602,3.41 -47.1479,4.9701 -92.5,7.9782 -12.65,0.8391 -26.6,1.7652 -31,2.058 -9.69246,0.645 -12.85376,-0.5725 -13.30106,-5.1224 -0.1656,-1.6843 0.2844,-3.5316 1,-4.1052 0.7156,-0.5736 9.62606,-1.551 19.80106,-2.1721 64.9476,-3.9641 82.1032,-5.4549 130.5,-11.3401 29.1803,-3.5484 36.906,-4.1445 54.5,-4.2046 25.2245,-0.086 30.9147,1.0221 64.6859,12.5986 l 23.3502,8.0043 2.8116,-3.0099 c 2.6988,-2.8891 3.1297,-3.0039 10.732,-2.8598 17.7068,0.3356 19.2712,-4.6091 8.48,-26.8032 -8.3548,-17.1832 -15.9618,-27.6468 -30.9404,-42.5589 -7.4906,-7.4575 -17.6693,-16.5577 -22.6193,-20.2227 -21.3699,-15.8225 -67.1511,-34.9795 -106.7687,-44.6771 -16.3513,-4.0024 -43.5991,-8.583 -60.2313,-10.1252 -17.8029,-1.6508 -54.3337,-1.6512 -88.49996,-9e-4 -37.7316,1.8226 -68.9508,1.0611 -102,-2.488 -33.8103,-3.6308 -62.7637,-3.9224 -77.038,-0.7759 -11.6541,2.5689 -99.7049,28.8912 -116.8449,34.9301 -6.8107,2.3995 -13.4323,5.0504 -14.7149,5.8907 -1.2825,0.8404 -3.0798,1.5279 -3.994,1.5279 -3.5442,0 -30.32094,12.0044 -61.46214,27.5544 -32.2438,16.1005 -87.49759,46.9179 -119.73597,66.7819 -9.18867,5.659 -22.78323,13.8136 -30.20823,18.1174 -24.79475,14.3721 -59.91725,35.5995 -60.52248,36.5788 -0.32898,0.5323 -3.19482,2.2562 -6.36854,3.8308 -7.97439,3.9565 -24.813,14.7886 -49.60898,31.9129 -27.94506,19.2991 -36.25444,25.6035 -53.84903,40.8554 -41.12458,35.649 -58.1165,48.4431 -71.63022,53.9342 -8.95079,3.637 -16.94044,4.4778 -52.02075,5.4743 -37.92743,1.0773 -156.664553,-0.684 -158.801073,-2.3557 -0.71558,-0.5599 -1.16558,-2.4031 -1,-4.0962 0.5888,-6.02 -0.53516,-5.9424 67.17079,-4.6412 44.130643,0.848 70.342423,0.8836 94.256923,0.1278 33.1305,-1.047 40.29132,-1.8087 47.84432,-5.0891 10.73388,-4.6618 31.1607,-20.1507 61.02904,-46.2758 20.60159,-18.0197 33.33835,-27.7879 61.5,-47.1665 24.15068,-16.6185 24.7747,-17.1084 20.5,-16.0926 -7.70322,1.8305 -70.62798,11.929 -102.5,16.4498 -101.82289,14.4426 -165.79681,20.4274 -232.751553,21.7741 -29.2532704,0.5884 -31.3793304,0.5129 -33.2500004,-1.18 -2.54655004,-2.3046 -2.53984004,-4.6987 0.0197,-7.015 1.81979,-1.6469 5.03827,-1.9014 32.7500004,-2.5901 61.32794,-1.524 117.682883,-6.3622 197.731873,-16.9755 53.64681,-7.1128 104.04885,-15.0567 145.90468,-22.9961 l 21.09532,-4.0015 24,-14.3147 c 13.2,-7.8731 30.075,-17.8332 37.5,-22.1337 7.425,-4.3004 22.09895,-13.1 32.60877,-19.5547 54.34531,-33.3765 132.31221,-75.1685 168.89125,-90.5295 l 15,-6.2991 0.6912,-4.2944 c 0.3801,-2.3618 1.6514,-12.1693 2.825,-21.7943 2.8316,-23.2226 6.0039,-40.3215 11.9664,-64.5 7.2658,-29.46359 14.255,-50.24142 33.4182,-99.34816 3.0796,-7.8915 5.5992,-14.80645 5.5992,-15.36658 0,-0.58783 -1.1627,-0.76812 -2.75,-0.42642 -12.516,2.69427 -64.9614,6.0391 -135.25004,8.62588 -138.67959,5.10373 -176.9641,4.26761 -293.85302,-6.41763 -42.97306,-3.92832 -47.54064,-4.51631 -49.38124,-6.35692 -2.78582,-2.78581 -1.73473,-6.92555 1.99951,-7.87512 1.50412,-0.38249 23.88477,1.20855 49.73477,3.53563 92.0682,8.28821 120.53864,9.62212 188.5,8.83167 91.45728,-1.06372 216.46782,-6.81286 235.00002,-10.80747 9.8889,-2.13155 12.3711,-3.62996 14.3908,-8.68731 4.1391,-10.36416 18.6934,-39.51567 26.0745,-52.22599 16.2936,-28.05751 27.4815,-43.48312 50.8834,-70.15673 33.3461,-38.008129 52.2975,-52.984789 84.1061,-66.466429 22.7742,-9.65253 34.8767,-10.57966 50.9969,-3.90669 13.6775,5.66181 19.2624,10.10544 20.8584,16.59589 0.6247,2.54055 0.6521,2.54648 9.909,2.14162 8.0662,-0.3528 10.3233,-0.0566 17.22516,2.26028 8.9712,3.01152 26.1829,11.56313 35.697,17.735969 3.4973,2.26908 6.8276,4.13061 7.4007,4.13673 0.5731,0.006 12.069,-7.43427 25.5464,-16.534189 25.8243,-17.43655 39.1861,-24.72833 49.9116,-27.2377 12.4592,-2.915 44.6074,-1.5966 99.27,4.07107 14.1735,1.46957 25.9971,2.44488 26.2746,2.16735 0.2775,-0.27753 -0.2606,-4.95603 -1.1959,-10.39667 -1.0864,-6.32023 -1.7243,-15.66937 -1.7665,-25.89207 -0.059,-14.34253 0.1658,-16.57509 2.1734,-21.55148 1.2317,-3.0533204 3.7902,-7.0544304 5.6854,-8.8913604 5.2891,-5.12636 9.9632,-5.1731 27.0896,-0.27088 7.6832,2.19922 18.9194,4.96355 24.9694,6.14297 12.8488,2.5048004 21.2385,6.2523804 23.6648,10.5707504 0.9399,1.67297 2.642,9.62487 3.8477,17.97671 1.8957,13.13109 6.0736,32.23547 7.5837,34.67898 0.287,0.46437 3.3078,0.84895 6.7128,0.85463 9.2004,0.0153 29.2818,1.90215 36.691,3.44743 3.575,0.74561 9.1198,2.34206 12.3218,3.54766 6.1122,2.30134 35.0342,21.331309 54.8179,36.068779 6.4018,4.76892 14.2768,9.96564 17.5,11.54828 l 5.8603,2.87753 32.2046,-0.29505 c 58.5313,-0.53625 72.6137,2.56124 79.9966,17.59569 2.4885,5.06753 2.7823,6.69709 2.6498,14.69936 -0.082,4.95368 -0.8524,11.22698 -1.7134,13.95334 -0.8603,2.72433 -1.4352,5.08239 -1.2775,5.24012 0.3587,0.35867 32.5898,-21.37082 54.9822,-37.06782 38.3504,-26.88337 65.864,-43.99747 81.1577,-50.481969 11.7992,-5.00283 18.9495,-6.50899 31,-6.52991 40.2978,-0.07 69.5997,27.119039 82.4836,76.535849 7.4541,28.59041 10.687,61.42233 13.5247,137.35039 1.5987,42.77666 3.183,62.81363 6.5628,82.99999 3.792,22.6477 12.496,51.6521 22.625,75.3935 3.6151,8.4733 17.7725,37.7666 18.8064,38.9124 0.1518,0.1683 9.6633,-5.2105 21.1367,-11.9528 44.5303,-26.168 53.2546,-30.2123 65.3608,-30.2992 7.1183,-0.051 7.9129,0.1806 15.614,4.5536 4.4627,2.5341 9.2271,4.8868 10.5875,5.2282 1.3604,0.3415 2.8841,1.5095 3.386,2.5957 0.8777,1.8996 1.2172,1.8304 8.9125,-1.8175 19.5118,-9.2496 40.4281,-23.5635 67.5,-46.1931 33.908,-28.344 49.154,-36.1889 61.309,-31.5469 2.3774,0.908 5.68,3.1078 7.339,4.8885 3.5904,3.8537 23.4952,31.1249 35.6806,48.8853 10.388,15.1406 12.6204,19.7748 12.6494,26.2579 0.034,7.5671 -2.8228,10.4988 -17.3009,17.7554 -17.0446,8.5429 -27.8146,14.7155 -45.3797,26.0084 -8.3614,5.3757 -21.5239,13.2103 -29.25,17.4101 -7.7261,4.1998 -14.0689,7.7 -14.0952,7.7783 -0.026,0.078 -0.4688,20.1672 -0.9834,44.6422 -0.5146,24.475 -1.2237,47.2361 -1.5757,50.5802 l -0.6401,6.0802 11.8735,2.7699 c 13.8032,3.2201 39.3249,11.4951 46.1541,14.9648 5.8756,2.9852 11.0007,7.92 16.2432,15.64 4.7268,6.9604 5.0699,7.0308 16.4762,3.3762 9.0441,-2.8978 13.981,-2.7418 25.4643,0.8046 5.3702,1.6584 36.6203,14.6619 87.3633,36.3527 23.4675,10.0315 32.049,18.7535 45.1914,45.9314 8.5866,17.7567 9.9829,23.4287 9.9702,40.5 -0.01,12.6635 -0.3695,15.8817 -2.8428,25.4091 -7.032,27.0881 -30.7025,85.7607 -54.9984,136.3258 -6.2934,13.0977 -15.5702,32.8031 -20.6152,43.78957 -16.7895,36.5625 -29.0786,58.1805 -82.9822,145.9755 -12.8575,20.9415 -14.0491,22.728 -42.0233,63 -27.7409,39.9363 -37.0158,52.1192 -60.4147,79.3563 -15.4563,17.9917 -24.5464,26.2126 -36.1736,32.7149 -13.5985,7.6048 -34.3073,15.0967 -49.939,18.0668 -14.856,2.8228 -44.6387,1.8011 -52.1274,-1.7881 -1.5666,-0.7509 -4.4287,-3.5089 -6.3604,-6.1291 -2.6748,-3.6281 -4.4659,-5.0056 -7.5122,-5.7775 -8.2045,-2.0791 -12.6689,-4.2743 -32.0942,-15.782 -24.1887,-14.3294 -30.6262,-18.4514 -49.9058,-31.9554 -33.962,-23.7879 -36.5,-26.5548 -36.5,-39.7917 v -7.9102 l -7.75,-6.9786 c -21.1783,-19.0706 -29.5096,-29.9691 -41.1177,-53.7879 -14.5698,-29.8961 -37.5412,-96.563 -45.2203,-131.2375 -1.5835,-7.15 -2.8865,-14.418 -2.8955,-16.1512 l -0.017,-3.1512 -22.25,0.062 c -17.7239,0.049 -27.3355,-0.4905 -47.25,-2.654 -13.75,-1.4939 -26.2432,-3.1982 -27.7627,-3.7874 -3.7482,-1.4535 -4.6683,-5.3317 -1.9175,-8.0825 l 2.0823,-2.0823 26.799,2.9209 c 42.5491,4.6375 69.6032,3.819 104.2989,-3.1556 36.8273,-7.4031 68.8633,-24.31077 94.5515,-49.90157 18.5075,-18.4373 43.2952,-50.4415 57.3273,-74.0171 30.5574,-51.34 43.9107,-84.725 51.9974,-130 4.6115,-25.8187 5.2774,-58.7178 1.6289,-80.486 -6.2438,-37.2532 -20.6058,-72.1073 -49.453,-120.014 -14.135,-23.4741 -37.6674,-68.7191 -46.5499,-89.5 -6.4823,-15.1657 -16.8278,-46.6484 -19.8808,-60.5 -6.0083,-27.2595 -8.0083,-47.77016 -10.1166,-103.74944 -1.7025,-45.20363 -2.8448,-64.34591 -5.0577,-84.75055 -5.6635,-52.22432 -14.6877,-77.77611 -34.5277,-97.76518 -6.1758,-6.22215 -9.3678,-8.542 -16.0634,-11.67445 -10.9431,-5.11962 -22.7418,-7.509899 -33.3182,-6.749899 -21.978,1.579329 -39.6088,11.584129 -124.458,70.625379 -26.5256,18.45753 -43.903,29.29634 -72.4217,45.17168 -77.4055,43.08876 -115.2807,54.12903 -207.1581,60.38453 -72.0349,4.90452 -97.1855,10.56857 -135.036,30.41084 -35.5127,18.61675 -61.8496,39.76553 -84.1465,67.57059 -19.5883,24.4272 -44.5754,63.8061 -43.0347,67.8212 0.381,0.9928 3.3341,1.5941 10.199,2.0766 28.2503,1.9858 73.8291,12.3898 104.3931,23.8293 5.7061,2.1357 10.4883,3.7517 10.627,3.5912 0.1388,-0.1605 1.1864,-2.1449 2.3281,-4.4097 5.1062,-10.1291 17.5896,-20.6137 34.7667,-29.1996 20.0804,-10.0372 33.5944,-13.5577 116.0048,-30.2199 95.3447,-19.2773 117.7958,-26.8711 173.0758,-58.54074 37.7506,-21.62715 46.1956,-28.48679 77.8623,-63.24525 20.3167,-22.30029 28.4274,-31.99154 39.8096,-47.56735 36.4568,-49.88883 48.3598,-64.68045 63.157,-78.48398 8.3311,-7.77163 15.0107,-11.10208 22.2935,-11.1155 12.7183,-0.0234 19.3079,9.32918 22.2733,31.61277 0.7282,5.47261 0.9789,17.20563 0.679,31.77678 -0.436,21.1787 -0.7421,24.34868 -3.679,38.10068 -7.8021,36.53264 -7.465,33.67164 -7.4826,63.5 -0.019,31.24184 0.5827,36.93228 9.8777,93.49999 5.8091,35.3531 7.575,48.1118 10.0346,72.5 0.8598,8.525 3.0944,27.425 4.9657,42 1.8713,14.575 4.1287,33.2174 5.0164,41.4276 0.8877,8.2101 2.926,22.0772 4.5295,30.8158 6.982,38.0488 6.4556,56.5551 -2.5373,89.196 -4.3125,15.6526 -7.6475,24.2584 -12.2308,31.5606 -7.319,11.6609 -17.1682,19.2567 -30.6678,23.6511 -7.1714,2.3345 -10.1205,2.6837 -26.2662,3.1101 -20.1405,0.5319 -28.671,-0.4637 -49.8898,-5.8226 -25.367,-6.4065 -40.5948,-14.3423 -69.805,-36.3783 -24.0376,-18.1337 -31.6553,-23.3347 -47.3342,-32.3174 -21.4413,-12.284 -45.502,-21.8756 -62.1642,-24.7813 -7.9779,-1.3913 -29.119,-2.0616 -29.119,-0.9233 0,0.296 3.5414,5.1335 7.8697,10.75 15.5405,20.1653 28.4504,41.3823 43.6045,71.6625 22.4749,44.9085 34.6555,74.6433 55.5263,135.5492 8.4798,24.746 24.4406,68.5124 48.5027,133 5.1305,13.74997 13.6478,37.37497 18.9274,52.49997 15.9906,45.8102 17.1747,48.9493 35.8365,95 41.4651,102.3212 41.7329,103.0782 41.7329,117.9499 0,10.721 -1.8478,18.2361 -7.0376,28.6217 -6.2838,12.575 -14.8646,22.4032 -38.0667,43.6008 -33.4175,30.5302 -47.645,45.8398 -62.2521,66.9864 -7.6479,11.0719 -11.9842,15.2637 -17.4988,16.916 -7.2434,2.1702 -9.9424,0.4482 -27.3335,-17.4388 -10.0715,-10.3586 -16.0199,-15.778 -16.6138,-15.136 -2.9706,3.2114 -12.7037,36.6237 -16.6131,57.0306 -6.4287,33.5575 -10.0413,60.5062 -11.5246,85.9694 -0.951,16.327 -1.0471,20.0667 -1.117,43.5 -0.1465,49.0781 -3.8287,91.103 -9.5942,109.5 -2.0858,6.6554 -7.4621,16.4763 -13.1,23.9298 -10.0997,13.3524 -39.5756,40.379 -55.7396,51.108 -3.2277,2.1425 -9.235,7.1229 -13.3496,11.0676 l -7.481,7.1723 0.6354,59.3611 c 0.3494,32.6487 1.3017,75.1112 2.116,94.3612 3.7632,88.9572 3.8527,92.8881 2.2048,96.832 -1.3586,3.2517 -1.9373,3.668 -5.0983,3.668 -2.9226,0 -3.9089,-0.5644 -5.4689,-3.1295 z m 605.85,-686.8182 c 19.4849,-4.2951 41.7626,-14.1416 53.8785,-23.8137 15.6017,-12.4548 48.3319,-52.8721 79.7727,-98.5085 7.1123,-10.3234 17.2658,-25.0563 22.5634,-32.7397 5.2976,-7.6834 17.962,-27.587 28.1431,-44.2301 51.2904,-83.845 58.706,-97.099 78.1963,-139.76027 2.8896,-6.325 10.511,-22.4303 16.9364,-35.7896 26.7702,-55.6591 50.8363,-116.2064 56.0542,-141.0258 1.9938,-9.4835 1.9886,-26.0303 -0.011,-33.7245 -3.557,-13.6895 -15.1056,-35.6382 -23.6984,-45.04 -5.8992,-6.4547 -12.692,-10.4238 -30.8221,-18.0095 -7.3869,-3.0907 -26.9308,-11.3579 -43.4308,-18.3715 -43.399,-18.4475 -44.7444,-18.7871 -57.5425,-14.5249 -6.0278,2.0074 -9.3798,2.5856 -12.7728,2.2032 -4.9312,-0.5559 -6.2448,-1.7111 -15.4896,-13.6225 -5.677,-7.3145 -7.545,-8.5341 -20.2351,-13.2114 -36.953,-13.6201 -93.8587,-22.9594 -139.96,-22.9701 -17.5565,0 -28.8909,1.0506 -30.6462,2.8515 -0.3941,0.4043 0.3772,5.2351 1.714,10.7351 4.6463,19.1166 5.8831,30.4677 5.8839,54 0,29.9325 -3.3374,52.1692 -12.8415,85.5334 -5.825,20.4487 -11.126,33.7192 -22.1566,55.4666 -22.9558,45.2585 -45.7,78.584 -76.0912,111.4909 -20.6959,22.409 -50.0351,41.28447 -79.4656,51.12447 -12.4696,4.1691 -35.5929,9.3796 -46.6988,10.5228 -5.146,0.5297 -6.1923,0.9344 -5.7041,2.2065 0.3288,0.8569 1.7029,6.7918 3.0535,13.1888 3.4036,16.1199 7.274,29.6914 16.1039,56.4665 17.9531,54.44 30.1906,82.9121 43.8839,102.1015 2.4501,3.4335 10.543,12.0153 17.9843,19.0706 15.7774,14.9592 17.6723,17.9923 17.3134,27.7131 -0.2327,6.3026 -0.09,6.7563 3.2118,10.2018 7.6119,7.9437 44.5898,33.4916 72.9546,50.4041 25.0163,14.9159 26.05,15.4487 33.938,17.4927 7.9352,2.0562 10.1185,3.4915 12.9356,8.5038 1.2381,2.203 3.2357,4.2478 4.4391,4.5441 11.2403,2.7671 34.9378,2.5334 48.6054,-0.4794 z m -47.4654,-2.4852 c -2.3415,-3.5736 -0.9038,-5.4127 10.2904,-13.1633 20.2751,-14.0379 26.0853,-19.8604 68.1252,-68.2686 18.3717,-21.1548 57.179,-74.7204 79.6004,-109.8721 6.5823,-10.3197 22.1395,-34.5131 34.5713,-53.7631 23.8972,-37.0033 31.7992,-49.8078 60.4784,-97.99997 25.5959,-43.0108 37.9303,-67.455 53.2347,-105.5 20.9982,-52.1988 30.5194,-89.9782 30.6207,-121.5 0.027,-8.25 -0.3283,-17.1213 -0.7885,-19.714 -0.7863,-4.4308 -0.6864,-4.7825 1.6629,-5.8529 11.1022,-5.0585 13.818,19.7803 6.6222,60.5669 -6.6486,37.6851 -27.5618,95.1787 -52.9255,145.5 -12.2702,24.3441 -52.7366,92.69127 -78.5774,132.71637 -8.0901,12.531 -24.3584,37.8586 -36.1517,56.2836 -25.4212,39.7164 -33.203,51.1441 -55.1573,81 -18.712,25.4466 -28.0214,37.2778 -40.1519,51.0286 -4.6233,5.2407 -14.5187,16.4907 -21.99,25 -18.1329,20.6522 -25.1028,26.9338 -44.7253,40.3079 -9.1677,6.2485 -12.3099,6.9373 -14.7386,3.2306 z m -102.4722,-119.6049 c -0.5998,-1.1207 -0.8105,-2.9201 -0.4683,-3.9986 0.3423,-1.0784 6.7399,-7.2338 14.2168,-13.6787 20.0657,-17.2958 28.3418,-25.8535 54.8155,-56.6805 38.7121,-45.0781 42.596,-49.7899 64.381,-78.1044 38.4598,-49.9871 63.6975,-86.97817 91.1926,-133.66127 26.5457,-45.0713 37.9687,-70.9939 63.2831,-143.6103 12.3901,-35.5421 17.0673,-50.5065 21.0021,-67.1944 2.942,-12.4775 5.2956,-15.1691 10.1563,-11.6144 1.4686,1.074 1.8953,2.4738 1.7532,5.75 -0.386,8.8939 -8.0583,34.6597 -23.3054,78.2664 -17.4928,50.0294 -23.4268,65.2689 -36.108,92.7325 -17.6161,38.1508 -56.9202,101.6904 -95.7751,154.83147 -13.3048,18.1967 -45.0448,58.7825 -56.7898,72.6169 -55.968,65.9244 -66.5255,77.2571 -91.1086,97.7979 -11.036,9.2213 -15.0075,10.7291 -17.2454,6.5474 z m -826.4798,-152.9292 c 21.9173,-1.0299 30.7503,-2.7144 42,-8.0097 10.4752,-4.9308 20.0144,-13.1875 30.513,-26.4108 4.6679,-5.8792 8.637,-11.1222 8.8203,-11.651 0.4733,-1.3651 -4.95,-1.195 -18.4926,0.5803 -23.6153,3.0957 -41.3093,8.1507 -60.8407,17.3816 -19.031,8.9945 -37.99806,22.2177 -37.28246,25.9922 0.5486,2.8935 8.54876,3.3736 35.28246,2.1174 z m 700.0717,-331.05127 c 20.2443,-5.1777 29.2623,-16.2036 37.8914,-46.3283 5.8407,-20.3906 6.962,-28.1508 6.9579,-48.1534 0,-15.2952 -0.3728,-19.0057 -3.6872,-37 -2.026,-11 -4.3995,-26.75 -5.2743,-35 -0.8748,-8.25 -3.123,-26.925 -4.9959,-41.5 -1.873,-14.575 -4.3348,-35.5 -5.4708,-46.5 -2.2323,-21.6164 -4.8452,-39.8036 -10.9904,-76.5 -5.9253,-35.38286 -8.0887,-54.40886 -8.7157,-76.64935 -0.6968,-24.71644 0.3868,-35.48643 6.4738,-64.3441 4.5123,-21.39234 4.5388,-21.6345 4.9885,-45.60528 0.7161,-38.18041 -2.5242,-51.97408 -12.1453,-51.70136 -5.4016,0.15311 -9.5579,2.97845 -20.1037,13.66584 -12.3361,12.50169 -25.8649,29.28478 -43.7322,54.25187 -19.8354,27.71703 -27.7249,37.56732 -47.549,59.36613 -37.7757,41.53856 -42.3494,45.50131 -75.4297,65.3547 -25.7857,15.47544 -53.8579,29.73615 -72.7891,36.97685 -27.2701,10.4301 -51.2638,16.5202 -118.5983,30.1026 -52.185,10.5265 -77.3469,16.2026 -89.046,20.0874 -18.4143,6.1146 -36.5639,16.4484 -44.6939,25.4473 -4.267,4.723 -7.6735,11.1966 -6.1618,11.7096 4.6249,1.5697 29.5523,14.4663 35.5736,18.4047 6.1411,4.0167 8.1286,4.8427 10.5079,4.3668 8.4649,-1.693 40.3487,16.5971 76.9185,44.1241 45.4777,34.2323 56.1382,43.1755 83.2537,69.843 21.2234,20.8726 21.2567,20.8998 23.3556,19.0008 1.8752,-1.6964 3.7358,-1.8976 17.2463,-1.8648 13.2603,0.032 16.501,0.3856 26.0485,2.8415 14.2462,3.6645 25.9244,8.1567 43.0959,16.5777 19.4649,9.5457 35.3814,19.73 61,39.0312 35.1675,26.4954 47.271,32.3385 82,39.5864 15.338,3.201 42.3542,3.4049 54.0717,0.4081 z m 354.7687,-93.2317 c 0.8758,-5.0162 3.1145,-87.6284 2.3942,-88.3487 -0.6692,-0.6692 -12.289,7.1872 -23.9094,16.1656 -9.4537,7.3043 -16.8294,10.625 -24.8842,11.2035 -5.6663,0.4069 -8.0479,-0.033 -17.5,-3.2323 -6.0175,-2.0368 -16.3756,-6.3281 -23.0178,-9.5361 -14.318,-6.9151 -21.9398,-13.2707 -26.0917,-21.7569 -2.4019,-4.9093 -2.7413,-6.7368 -2.6351,-14.1901 0.1515,-10.6385 2.5785,-22.4684 6.1321,-29.8901 2.6282,-5.489 3.0755,-5.8667 14.4063,-12.1649 11.505,-6.3949 13.4809,-7.9777 10.0152,-8.0227 -0.9625,-0.013 -4.6541,-1.5875 -8.2036,-3.5 -4.1113,-2.2153 -7.8231,-3.4773 -10.2271,-3.4773 -4.9116,0 -14.9633,3.8287 -26.8193,10.2153 -8.3507,4.4985 -52.682,30.38 -54,31.5263 -0.795,0.6915 8.1788,16.918 22.8172,41.2584 18.0563,30.0236 28.7212,51.6027 36.7417,74.3425 2.7636,7.8353 2.769,7.8419 5.8536,7.1907 20.4513,-4.3173 58.8887,-3.1898 99.0875,2.9066 20.4615,3.1032 19.1704,3.1481 19.8404,-0.6898 z m -755.6338,-17.9548 c -1.395,-2.3624 -4.1501,-5.8464 -6.1225,-7.7424 l -3.5862,-3.4471 -4.7489,1.7021 c -2.612,0.9362 -6.3015,1.6999 -8.199,1.6972 -4.9156,-0.01 -3.1239,1.1786 8.95,5.9228 5.775,2.2691 11.6243,4.7518 12.9985,5.5171 1.3742,0.7653 2.6663,1.2236 2.8715,1.0185 0.2051,-0.2052 -0.7684,-2.3059 -2.1634,-4.6682 z m 718.1581,-56.6076 c 2.3699,-1.2353 8.7031,-5.5737 14.0738,-9.641 13.6368,-10.3273 21.147,-15.039 41.6818,-26.1503 9.8338,-5.321 25.0797,-14.2732 33.8797,-19.8938 18.682,-11.9322 27.5138,-17.0001 44.1212,-25.3179 6.6666,-3.339 12.355,-6.6802 12.6408,-7.4249 1.0053,-2.6199 -2.0241,-8.6271 -10.7822,-21.3801 -15.1888,-22.1173 -34.5939,-48.3703 -36.5119,-49.3968 -6.9239,-3.7055 -20.3968,3.2111 -43.9679,22.5718 -39.0081,32.0404 -53.7305,42.2537 -77.9111,54.0487 -8.5739,4.1822 -19.4013,9.4699 -24.0609,11.7504 -10.1554,4.9702 -16.3849,10.5805 -17.9283,16.1463 -2.2698,8.1855 -3.3485,21.8595 -2.0955,26.5629 2.4196,9.082 15.8603,18.0681 40.9958,27.4087 11.3248,4.2084 18.7689,4.4145 25.8647,0.716 z M 699.73654,474.75963 c 4.7685,-1.6942 27.345,-8.7125 50.17,-15.5962 53.0129,-15.988 53.1067,-16.0149 65.1453,-18.7148 l 10.1445,-2.2751 0.3665,-3.3475 c 0.6883,-6.2879 8.5646,-36.4612 13.57,-51.9861 12.7156,-39.43815 33.6364,-91.73394 48.9027,-122.24228 16.7481,-33.46957 30.2144,-52.19089 56.3255,-78.30587 28.3495,-28.35372 41.2661,-35.96929 73.04546,-43.06732 7.5184,-1.67927 15.6757,-2.64992 25.7728,-3.06678 17.1222,-0.70687 16.8342,0.12752 3.7272,-10.80033 -13.6463,-11.37753 -33.4955,-22.99251 -48.72166,-28.510149 -5.3479,-1.93797 -7.4545,-2.17198 -15,-1.66629 -4.8281,0.32357 -10.2264,0.87819 -11.9964,1.23249 -2.716,0.54366 -3.699,0.16326 -6.3003,-2.43803 -2.6374,-2.63733 -2.99,-3.57368 -2.4434,-6.4874 0.7725,-4.11792 -1.1963,-6.31358 -8.9161,-9.94338 -18.3357,-8.62128 -28.7286,-7.63882 -56.3357,5.32551 -19.7008,9.25158 -34.7301,20.419609 -53.2864,39.596379 -49.6943,51.35592 -76.2012,93.78251 -105.1949,168.37346 -33.6832,86.65559 -40.7743,113.24629 -49.1349,184.24999 -0.1781,1.5125 0.084,2.75 0.583,2.75 0.4988,0 4.8084,-1.3861 9.5768,-3.0803 z m 302.16996,-31.9822 c 10.175,-0.5837 29.001,-1.1592 41.8355,-1.2789 l 23.3355,-0.2175 2.826,-7.2634 c 3.6398,-9.355 8.6016,-17.7332 22.8994,-38.6665 30.3926,-44.49775 52.9063,-66.38006 93.1036,-90.49262 10.4708,-6.28097 29.6328,-16.07965 37.8121,-19.33555 4.6534,-1.85237 4.6828,-2.0111 1.7011,-9.18302 -3.4931,-8.4021 -25.9765,-35.9137 -41.8242,-51.17777 -23.1178,-22.26642 -50.7652,-44.8735 -67.9159,-55.53439 -12.0908,-7.51564 -33.438,-17.51947 -42.4422,-19.88944 -10.0519,-2.64573 -30.9006,-3.61729 -42.4357,-1.97752 -17.8446,2.5367 -35.42406,8.17033 -46.84126,15.01101 -21.1205,12.65442 -53.0433,46.0511 -70.0014,73.23335 -25.0148,40.09631 -60.2127,127.47372 -74.0206,183.75325 -2.2155,9.0302 -3.9165,16.5144 -3.7801,16.6315 0.1365,0.1171 6.6004,0.4077 14.3643,0.6458 l 14.1161,0.4329 0.5834,-7.5653 c 1.3163,-17.0699 14.0044,-57.6291 27.3572,-87.45113 34.6776,-77.44841 51.7091,-106.03983 82.003,-137.66169 19.5365,-20.39287 27.34506,-25.51708 30.34436,-19.9128 1.7504,3.27054 0.388,5.40434 -8.72536,13.66614 -18.4275,16.70571 -38.5237,41.05086 -51.0193,61.80659 -12.0895,20.08109 -43.2735,85.21394 -52.3694,109.38219 -9.4139,25.013 -20.3271,67.7859 -17.5042,68.6054 0.9185,0.2667 37.7497,3.7558 51.0981,4.8406 10.0305,0.8152 58.8158,0.556 75.49996,-0.4012 z m 251,-166.87051 c 21.1003,-5.45335 40.3009,-8.00842 83,-11.04504 34.0936,-2.42463 53.1807,-4.36577 70,-7.11895 14.1401,-2.31462 26,-4.83622 26,-5.52799 0,-0.25558 -3.1032,-4.79249 -6.8959,-10.08202 -3.7928,-5.28953 -8.6825,-12.80684 -10.866,-16.70515 -7.5941,-13.55811 -25.0719,-39.33327 -28.1645,-41.53545 -2.3321,-1.66059 -14.2864,-7.05238 -15.636,-7.05238 -0.1007,0 -0.4076,2.33577 -0.6819,5.19061 -0.399,4.15275 -1.0968,5.72498 -3.4898,7.86313 l -2.9911,2.67253 -30.8874,0.71527 c -30.5843,0.70825 -35.8691,0.39356 -43.8874,-2.61329 -6.2916,-2.35932 -12.4456,-7.06835 -15.5407,-11.89175 -1.7423,-2.71507 -3.5492,-4.9365 -4.0153,-4.9365 -0.4661,0 -5.8623,4.49933 -11.9915,9.9985 -6.1292,5.49918 -18.3009,15.41856 -27.0481,22.04307 -8.7472,6.62451 -18.5988,14.28714 -21.8923,17.02806 l -5.9883,4.98349 11.0728,13.19624 c 12.5534,14.96067 21.0835,27.27993 23.6109,34.09929 1.2258,3.3074 2.1662,4.51103 3.2578,4.16996 0.8441,-0.26371 6.7097,-1.81694 13.0347,-3.45163 z m 202.1984,-29.66659 c 24.2923,-7.60699 50.4799,-19.68824 88.2098,-40.69427 16.0424,-8.93155 22.4202,-13.01094 23.7736,-15.20612 6.5378,-10.60397 9.54,-32.37233 5.2564,-38.11322 -3.0964,-4.14984 -6.3058,-6.14933 -12.9382,-8.06078 -5.2421,-1.51075 -11.2423,-1.73529 -47.5,-1.77759 -37.533,-0.0438 -42.0008,-0.22304 -46.7394,-1.87526 -5.698,-1.98674 -16.4091,-8.67098 -28.2389,-17.62238 -4.1369,-3.13036 -15.8846,-11.33586 -26.1058,-18.23444 -19.784,-13.352679 -25.39,-15.939149 -38.5275,-17.775689 -8.4242,-1.17766 -32.3884,-2.55566 -32.3884,-1.86242 0,5.28315 26.6092,79.776829 28.5069,79.806199 1.7777,0.0275 18.5063,6.86035 21.805,8.90633 1.7535,1.08752 4.603,3.4695 6.3323,5.29328 3.1315,3.30268 22.8378,33.44447 29.1983,44.66032 5.2798,9.31026 17.4631,25.13921 19.3559,25.14787 0.9341,0.004 5.4341,-1.16204 10,-2.59183 z m -253.5756,-32.04214 c 3.7825,-3.10296 13.893,-10.957 22.468,-17.45342 8.5749,-6.49642 20.0499,-15.9056 25.5,-20.90928 5.45,-5.00369 11.7552,-10.03199 14.0113,-11.174 l 4.1021,-2.07638 -2.4106,-7.62259 c -3.3318,-10.53566 -14.7913,-56.029619 -16.3463,-64.894719 -1.0576,-6.02973 -1.6319,-7.34502 -3.3614,-7.69874 -3.0273,-0.61914 -38.2912,-4.29793 -58.0859,-6.05962 -9.35,-0.83213 -26.526,-1.79741 -38.169,-2.14507 -25.1512,-0.75101 -29.6078,-0.0584 -42.7663,6.64627 -9.322,4.74986 -13.6575,7.50305 -38.5647,24.489629 -7.975,5.43892 -14.5992,9.9471 -14.7206,10.01819 -0.1213,0.0711 4.9629,5.42934 11.2982,11.90721 10.1049,10.33224 12.2233,12.0159 17.2588,13.71638 7.4067,2.5013 29.6631,13.36012 38.6636,18.86388 15.6989,9.59976 45.0352,33.16869 64.5404,51.852 4.6528,4.45673 8.7399,8.12089 9.0824,8.14258 0.3426,0.0217 3.7176,-2.49936 7.5,-5.60232 z m 136.216,-32.01727 21.1612,-0.65903 v -3.64449 c 0,-4.2043 -4.0066,-16.40466 -13.3393,-40.61931 -6.6124,-17.15644 -18.7108,-56.264129 -23.1767,-74.918149 -1.3167,-5.5 -3.0964,-14.95 -3.9549,-21 -2.3595,-16.62905 -2.1878,-16.14722 -6.3401,-17.80028 -2.0289,-0.80776 -8.8022,-2.44393 -15.0517,-3.63594 -6.2494,-1.19201 -16.5583,-3.74218 -22.9087,-5.66706 -14.5078,-4.3975204 -17.06,-4.2545704 -19.6981,1.10328 -2.5249,5.12781 -3.2389,20.75276 -1.568,34.31172 3.0439,24.70059 13.9971,73.899499 22.6389,101.688279 2.0525,6.6 3.9354,13.75284 4.1841,15.8952 0.644,5.54654 6.9798,11.69824 14.2506,13.83656 6.2472,1.83728 14.0666,2.03529 43.8027,1.10922 z M 795.47944,1702.27 c -0.8634,-0.8635 -1.7822,-2.551 -2.0416,-3.75 -1.4611,-6.7529 -3.7204,-88.6838 -3.1348,-113.6801 1.3573,-57.9329 9.1717,-167.4462 14.6636,-205.5 3.9475,-27.3521 15.0021,-75.8936 18.4991,-81.2307 2.0077,-3.0642 5.9402,-2.9629 8.0169,0.2065 1.5338,2.3409 1.4225,3.211 -2.0433,15.9704 -12.4104,45.6891 -16.9608,79.3587 -22.9826,170.0538 -6.1453,92.5534 -6.5699,115.5011 -3.4841,188.2979 1.0866,25.6334 1.0494,27.4169 -0.6095,29.25 -2.134,2.3581 -4.7619,2.504 -6.8837,0.3822 z m -278.48242,-10.1801 c -1.84997,-1.5192 -2.58036,-4.8496 -5.5376,-25.25 -5.79579,-39.9821 -6.8817,-57.2484 -6.22633,-99 0.88638,-56.4677 3.19259,-84.6012 7.30785,-89.1486 2.08178,-2.3003 6.18323,-2.1192 7.72334,0.3411 0.75131,1.2003 0.71166,4.109 -0.13633,10 -1.45068,10.078 -2.87836,33.5293 -4.15845,68.3075 -1.38939,37.7476 0.56915,71.072 6.48163,110.2844 3.07881,20.4191 3.09989,22.6508 0.23286,24.6589 -2.7893,1.9537 -3.08471,1.9437 -5.68697,-0.1933 z"
     style="fill:#000000" />
</svg>
