<?xml version="1.0" encoding="UTF-8" standalone="no"?>
<svg
   xmlns:dc="http://purl.org/dc/elements/1.1/"
   xmlns:cc="http://creativecommons.org/ns#"
   xmlns:rdf="http://www.w3.org/1999/02/22-rdf-syntax-ns#"
   xmlns:svg="http://www.w3.org/2000/svg"
   xmlns="http://www.w3.org/2000/svg"
   version="1.1"
   id="svg12960"
   width="387.96057"
   height="386.45624"
   viewBox="0 0 387.96057 386.45624">
  <metadata
     id="metadata12966">
    <rdf:RDF>
      <cc:Work
         rdf:about="">
        <dc:format>image/svg+xml</dc:format>
        <dc:type
           rdf:resource="http://purl.org/dc/dcmitype/StillImage" />
        <dc:title></dc:title>
      </cc:Work>
    </rdf:RDF>
  </metadata>
  <defs
     id="defs12964" />
  <path
     style="fill:#000000"
     d="m 222.6789,385.92778 c -5.89173,-0.44893 -11.49785,-1.45524 -13.40364,-2.40597 -1.80179,-0.89886 -3.82139,-1.63428 -4.48799,-1.63428 -0.6666,0 -4.30997,-1.56288 -8.09636,-3.47306 -5.64893,-2.8498 -7.6919,-4.59602 -11.38436,-9.73074 -2.475,-3.44173 -6.525,-8.58636 -9,-11.43251 -2.475,-2.84615 -5.28286,-6.30831 -6.23969,-7.69369 -0.95682,-1.38538 -5.68182,-5.3247 -10.5,-8.75404 -11.2273,-7.99105 -14.28603,-10.85695 -20.72237,-19.41596 -9.58603,-12.74744 -16.53794,-25.39527 -16.53794,-30.08799 0,-2.48039 0.18168,-2.65491 1.43277,-1.3763 0.78803,0.80536 3.31772,5.06429 5.62154,9.46429 5.08217,9.7063 15.43041,23.88223 21.2714,29.13946 2.35908,2.12329 7.9283,6.47838 12.37606,9.67797 4.70156,3.38216 11.58464,9.79087 16.44253,15.30934 4.59563,5.22055 9.8182,10.40191 11.6057,11.51413 1.7875,1.11222 3.26643,2.54802 3.28651,3.19066 0.0338,1.08053 5.18143,4.70936 10.84475,7.64497 6.39873,3.31681 37.96607,-3.43616 49.19322,-10.52355 2.11935,-1.33788 6.90709,-3.64392 10.63944,-5.12453 9.62343,-3.81759 13.30028,-6.49806 20.82757,-15.18355 12.28228,-14.17213 21.72881,-29.66709 27.41844,-44.97395 3.31648,-8.92235 6.52099,-15.85235 10.2521,-22.17095 4.70374,-7.96574 18.4642,-40.09337 23.12853,-54 2.49037,-7.425 5.48755,-18 6.66038,-23.5 5.38218,-25.2396 6.94258,-33.98454 8.47568,-47.5 1.55996,-13.75223 3.51303,-27.40941 5.50577,-38.5 1.23693,-6.88417 1.23246,-28.277414 -0.008,-38.526234 -2.44033,-20.16139 -7.97338,-41.81062 -13.63745,-53.35944 -2.74118,-5.58916 -2.62201,-8.63057 0.19754,-5.04133 6.52284,8.3035 14.55229,35.41674 17.15479,57.927 1.47689,12.77428 0.81027,35.077594 -1.46454,49.000004 -1.16825,7.15 -2.86807,19.075 -3.77737,26.5 -1.63442,13.3461 -5.31315,34.09384 -9.48596,53.5 -4.24508,19.74225 -18.31436,55.55244 -32.90715,83.75777 -3.34577,6.46678 -6.79237,13.89178 -7.65913,16.5 -6.10507,18.37121 -26.74297,46.49505 -41.09205,55.99728 -3.74166,2.4778 -7.92802,5.53624 -9.30302,6.79653 -2.57859,2.36347 -22.36478,11.79519 -27.25945,12.99408 -5.93148,1.45285 -3.45008,2.45434 6.08114,2.45434 8.88757,0 10.98444,-0.37794 19.80902,-3.57041 19.26363,-6.969 26.37792,-12.13238 39.86026,-28.92959 19.41335,-24.18646 23.72382,-30.14155 30.4009,-42 6.62205,-11.76083 24.10808,-52.5195 24.10808,-56.19433 0,-0.78899 1.85439,-6.24303 4.12086,-12.1201 7.36505,-19.09789 16.5981,-53.56154 18.40135,-68.68557 0.72134,-6.05 1.84168,-14.825 2.48964,-19.5 1.24635,-8.99241 0.59358,-30.27741 -1.06211,-34.6322 -0.50428,-1.32636 -1.16553,-9.71422 -1.46945,-18.639684 -1.05777,-31.06528 -8.84608,-64.01332 -17.27812,-73.09422 -12.01601,-12.94065 -20.68518,-20.6868716 -24.2156,-21.6375156 -8.91927,-2.40171 -32.82359,5.016357 -60.34943,18.7278356 -13.4507,6.70021 -18.54904,9.84847 -25.19589,15.55863 -4.58316,3.9373 -8.18855,7.30318 -8.01198,7.47975 0.17656,0.17656 4.99875,-1.43601 10.71597,-3.58349 13.12112,-4.92852 26.86732,-8.17911 34.58808,-8.17911 8.42274,0 16.60372,4.32738 25.97314,13.73865 7.95118,7.9867 7.91169,7.89412 11.23215,26.33557 4.60366,25.56825 4.48423,41.115864 -0.47186,61.425784 -1.34212,5.5 -3.57208,16.075 -4.95547,23.5 -1.38338,7.425 -4.10934,19.35 -6.05768,26.5 -1.94834,7.15 -5.3177,19.67278 -7.48746,27.82841 -2.16976,8.15562 -4.21352,15.26284 -4.54167,15.7938 -0.96662,1.56402 1.64515,3.92994 7.03551,6.37323 2.77201,1.25648 6.43891,3.60055 8.14866,5.20905 6.67255,6.2774 5.08682,20.69753 -3.11156,28.29551 -1.48365,1.375 -3.95734,4.975 -5.49708,8 -3.74053,7.3487 -10.31132,13 -15.11515,13 -2.5939,0 -12.09568,-4.38742 -16.51591,-7.62617 -2.93701,-2.15199 -3.22392,-2.18818 -4.62941,-0.584 -0.82409,0.94059 -2.21404,3.06017 -3.08878,4.71017 -0.87473,1.65 -3.96649,5.78368 -6.87059,9.18596 -2.90409,3.40228 -8.47395,9.92728 -12.37747,14.5 -8.56086,10.0285 -18.20673,19.17103 -24.91331,23.61328 -8.16446,5.40791 -13.81273,6.53344 -30.02491,5.98306 -15.78429,-0.53586 -21.36404,-2.24318 -28.87046,-8.8339 -2.0981,-1.84216 -6.45421,-5.18625 -9.68024,-7.43132 -11.0311,-7.6768 -25.91377,-23.86589 -25.91377,-28.18852 0,-2.50746 1.76225,-1.32151 5.827,3.92144 4.65681,6.0066 17.97312,18.31835 22.57344,20.87053 1.70476,0.94577 5.57456,3.03403 8.59956,4.64057 3.025,1.60654 7.075,3.77582 9,4.82061 2.8315,1.5368 5.60101,1.90141 14.5,1.90896 14.28358,0.0121 19.09256,-1.96381 39.70437,-16.31385 7.87157,-5.48022 18.66602,-17.62295 27.77311,-31.24211 2.36658,-3.53909 5.31887,-7.55971 6.56064,-8.93471 4.0439,-4.47778 12.13657,-19.76541 16.814,-31.76287 10.63121,-27.26868 23.07445,-68.99435 24.02581,-80.56525 0.30878,-3.75547 1.45563,-10.05547 2.54857,-14 4.24601,-15.32427 5.1621,-25.27357 4.04447,-43.92494 -1.23525,-20.613934 -4.39447,-41.649954 -7.12657,-47.452954 -1.98326,-4.21245 -8.46114,-9.26349 -15.3444,-11.96459 -4.68435,-1.83821 -15.27019,-1.54957 -22.50318,0.61359 -10.21459,3.05486 -26.38608,9.5608 -32.59547,13.11345 -15.11382,8.64725 -20.44186,12.5697 -36.59866,26.94356 -9.58245,8.525 -22.41393,18.875004 -28.5144,23.000004 -6.10047,4.125 -10.9631,7.63539 -10.80584,7.80086 0.15727,0.16547 3.82555,-0.57539 8.15174,-1.64637 11.39773,-2.82157 17.8994,-3.46318 19.52234,-1.92653 0.73891,0.69962 3.17658,2.51572 5.41705,4.03578 4.61302,3.12973 6.69511,6.46943 11.91083,19.10513 2.95322,7.15451 3.77544,10.63392 4.25361,18 0.32601,5.02212 0.70396,8.68113 0.83989,8.13113 0.13593,-0.55 0.54243,-2.32653 0.90333,-3.94785 0.47305,-2.12517 0.89001,-2.56949 1.49408,-1.59209 0.69799,1.12939 2.02557,1.06708 7.95119,-0.37314 5.67224,-1.37864 7.8004,-1.50212 10.50496,-0.60954 4.11952,1.35957 4.84327,2.99503 3.95905,8.94624 -0.5097,3.43054 -1.61578,5.51531 -4.41759,8.32638 -4.40191,4.41647 -6.41533,4.64306 -10.47293,1.17863 -3.26681,-2.78924 -3.31752,-2.77729 4,-0.94289 3.47092,0.87011 7.29198,-3.32635 7.64252,-8.39333 0.42076,-6.08211 -0.93916,-6.75222 -10.41385,-5.13152 l -7.52931,1.28792 -0.65039,5.6256 c -1.65718,14.33393 -8.60825,37.3262 -15.29133,50.57958 -3.2301,6.4057 -11.39325,14.33199 -18.62246,18.08214 -4.72834,2.45281 -5.60691,3.30873 -5.09528,4.96387 0.34003,1.1 0.86667,5.50818 1.17031,9.79595 0.50893,7.18664 0.37005,7.98972 -1.77698,10.27512 -2.88743,3.07354 -10.84042,7.60433 -12.04319,6.86097 -0.48952,-0.30254 -0.89004,-1.42222 -0.89004,-2.48818 0,-4.93504 -13.57753,-14.83597 -22.68928,-16.54535 -3.0578,-0.57364 -3.90761,-0.22155 -7.18162,2.97543 -3.9903,3.89642 -6.86547,4.85933 -5.6018,1.87606 0.4077,-0.9625 1.06399,-3.69208 1.45843,-6.06572 0.39443,-2.37365 1.42495,-5.02353 2.29005,-5.88863 1.43053,-1.43053 1.14106,-1.99352 -3.19809,-6.21997 -2.73589,-2.66485 -6.10904,-7.45073 -7.90787,-11.21986 -3.67269,-7.69542 -5.80772,-19.79538 -4.06685,-23.04822 0.89146,-1.6657 1.28598,-1.80309 1.9892,-0.6927 0.48246,0.76181 0.8841,2.69262 0.89252,4.29071 0.029,5.51026 11.92993,18.35341 18.95808,20.4591 2.33857,0.70065 4.01346,1.5124 3.72197,1.80388 -1.22045,1.22045 -8.92806,-1.05739 -14.08442,-4.16238 l -5.54533,-3.33923 1.60703,3.16651 c 6.6982,13.19818 20.07701,19.83902 32.62138,16.19227 4.00162,-1.1633 5.67543,-2.18383 6.07255,-3.70244 0.4609,-1.76247 1.05573,-1.99498 3.73357,-1.45942 2.48269,0.49654 4.37769,-0.0451 8.5907,-2.45557 7.28162,-4.16612 10.56752,-7.05663 15.90045,-13.98717 4.42158,-5.74618 7.22815,-11.7796 7.96003,-17.11204 0.35765,-2.60585 5.2293,-19.1638 8.03483,-27.30912 2.34676,-6.81334 2.70745,-11.93342 1.48883,-21.13425 -0.95474,-7.20848 -2.09656,-10.73504 -6.10831,-18.86575 -2.71374,-5.5 -6.33287,-11.52371 -8.04251,-13.38603 -3.07008,-3.34425 -3.19038,-3.37906 -9.75099,-2.82133 -3.6534,0.31058 -8.75395,1.13314 -11.33455,1.82792 l -4.692,1.26322 7.192,1.81651 c 3.9556,0.99908 7.74985,2.56738 8.43167,3.48511 0.68181,0.91773 1.1276,1.78066 0.99063,1.91763 -0.13697,0.13697 -2.71982,-0.57219 -5.73967,-1.5759 -3.01984,-1.00371 -8.24928,-2.13336 -11.62097,-2.51033 -5.66667,-0.63356 -6.8012,-0.39539 -15,3.1489 l -8.86966,3.8343 7.5,0.6325 c 8.46892,0.71421 16,3.34211 16,5.58307 0,1.04122 -0.53395,1.27348 -1.75,0.76121 -2.60531,-1.09749 -11.56334,-2.49677 -12.16058,-1.89953 -0.28528,0.28527 0.0391,1.28459 0.72085,2.22071 3.02065,4.14774 5.30655,10.64723 5.87116,16.69342 0.56328,6.0321 0.81473,6.58707 3.21482,7.09548 4.60447,0.97537 7.27185,2.4096 6.83935,3.67749 -0.23683,0.69426 -1.47614,1.05238 -2.82855,0.81735 -6.08107,-1.05677 -7.39483,-0.68794 -7.72347,2.1683 -0.27056,2.35139 0.0461,2.75 2.1849,2.75 1.37573,0 3.67868,0.44763 5.11767,0.99473 2.44464,0.92946 2.7428,0.71616 4.54314,-3.25 2.49077,-5.48719 2.45684,-9.84634 -0.15382,-19.76074 -1.1685,-4.43754 -1.86941,-8.32339 -1.55758,-8.63522 0.31183,-0.31182 1.91714,0.39446 3.56737,1.56953 2.31011,1.64494 3.15937,3.19648 3.69132,6.74379 1.20056,8.00595 -0.20772,17.18806 -4.11619,26.83791 -7.61104,18.79132 -14.29557,28.5 -19.62255,28.5 -1.82422,0 -1.56961,-0.56733 1.98553,-4.42421 3.6399,-3.94882 10.86059,-16.68054 12.54938,-22.1274 0.5583,-1.8007 0.0316,-2.17545 -4.30658,-3.06411 -4.82575,-0.98855 -4.95776,-0.95184 -5.58081,1.55161 -1.93525,7.77594 -14.06518,22.1676 -19.92302,23.63782 -3.82853,0.9609 -4.17114,-0.0797 -0.90503,-2.74882 8.77258,-7.16903 16.05907,-17.32436 17.85619,-24.88652 0.5009,-2.10778 0.1107,-2.81065 -2.20237,-3.96715 l -2.81113,-1.40551 3.25,-0.34621 3.25,-0.34622 -0.0439,-7.18664 c -0.0493,-8.0766 -1.52438,-13.12077 -5.27472,-18.03772 -2.07293,-2.71774 -3.64504,-3.56634 -8.36192,-4.51363 -3.8705,-0.77731 -5.92201,-0.82768 -6.14758,-0.15095 -0.18621,0.55861 -0.88962,1.01566 -1.56313,1.01566 -0.93968,0 -0.87085,1.73669 0.29586,7.46484 1.40508,6.89841 1.38211,8.13145 -0.30268,16.25 -1.00273,4.83184 -2.70533,10.5174 -3.78358,12.63457 -2.5241,4.95619 -9.25808,12.26093 -14.16284,15.36327 -4.61822,2.9211 -4.24624,3.9788 0.67601,1.92216 8.091,-3.38064 17.06022,-14.8504 21.09602,-26.97742 1.59134,-4.78175 1.26585,-12.32426 -1.01014,-23.40742 -0.93009,-4.52917 1.26328,-4.25847 3.20801,0.39592 2.15425,5.15586 2.97035,20.00432 1.36995,24.9256 -2.98976,9.19364 -11.70589,21.39253 -18.31544,25.63387 l -4.89772,3.14286 4.3589,2.28069 c 2.39739,1.25437 5.38551,2.30102 6.64027,2.32587 1.25477,0.0249 2.54041,0.72019 2.85699,1.54519 0.31659,0.825 1.19301,1.5 1.94762,1.5 1.95096,0 14.72575,4.15614 15.86401,5.16118 0.59641,0.52661 0.56289,1.22593 -0.0901,1.8789 -1.47406,1.47406 -9.97928,-0.55948 -14.35992,-3.43336 -1.925,-1.26288 -5.3,-2.62881 -7.5,-3.0354 -4.84784,-0.89594 -10.49997,-4.20803 -10.49997,-6.15288 0,-0.83867 -1.00154,-1.41844 -2.45031,-1.41844 -1.34767,0 -2.81017,-0.60651 -3.25,-1.34781 -0.43983,-0.74129 -4.15917,-2.3587 -8.26519,-3.59424 -4.106034,-1.23554 -8.368664,-2.87902 -9.472514,-3.65219 -2.33106,-1.63274 -6.16744,-1.85317 -7.06199,-0.40576 -1.50417,2.4338 -18.28456,-0.63311 -32.86547,-6.00675 -2.82399,-1.04075 -7.25842,-2.41499 -9.85429,-3.05386 -2.59587,-0.63888 -5.23847,-1.7866 -5.87245,-2.55049 -0.63397,-0.7639 -1.96492,-1.3889 -2.95765,-1.3889 -0.99274,0 -2.67193,-1.10215 -3.73154,-2.44922 -2.70668,-3.44099 -5.57667,-14.08853 -4.37586,-16.23426 0.76906,-1.37424 1.60791,-0.37171 4.50864,5.38835 4.25328,8.4459 7.75428,10.79897 22.56494,15.16621 18.00468,5.30908 27.57158,7.27412 30.32246,6.22824 9.51828,-3.61885 22.327204,-22.38289 24.217824,-35.47717 0.38736,-2.68282 0.90791,-5.40847 1.15677,-6.057 0.36794,-0.95883 -3.99265,-2.82718 -11.541424,-4.94506 -0.23543,-0.0661 -0.74924,1.08085 -1.14179,2.54866 -0.6205,2.32012 -0.36862,2.74918 1.92805,3.28444 4.951624,1.154 8.141794,2.78718 8.141794,4.16813 0,1.78067 -1.87966,1.74473 -6.34576,-0.12132 -1.974504,-0.825 -4.018294,-1.5 -4.541754,-1.5 -0.52347,0 -1.68965,2.22159 -2.59152,4.93686 -3.23435,9.73772 -14.29985,23.54833 -20.83607,26.00505 -4.05094,1.52259 -5.14958,1.32829 -3.55734,-0.62914 1.2214,-1.50154 1.15233,-1.59827 -0.62756,-0.87892 -7.40265,2.99183 -17.65641,0.91516 -19.50636,-3.95058 -2.23637,-5.88209 0.11746,-7.85496 2.51774,-2.11027 2.11506,5.06205 10.28039,6.26664 18.17692,2.68155 6.13442,-2.78507 14.53815,-15.51287 15.93792,-24.13862 0.5126,-3.15881 0.28296,-3.5404 -3.03584,-5.04468 -2.10821,-0.95556 -3.59038,-1.19816 -3.59038,-0.58765 0,1.62592 -7.3111,13.7164 -8.2943,13.7164 -0.48331,0 -2.82792,1.3998 -5.21026,3.11066 -6.3284,4.54471 -7.2689,3.13943 -1.76813,-2.64193 6.87811,-7.22896 11.73294,-17.29861 11.75516,-24.38198 0.0124,-3.94321 -0.3502,-5.5132 -1.23247,-5.33675 -0.6875,0.1375 -1.25,-0.56581 -1.25,-1.56291 0,-0.9971 -1.2375,-2.96711 -2.75,-4.37781 -7.49182,-6.98757 -12.93462,-5.7782 -16.775,3.72732 l -1.60128,3.9634 2.52718,-3 c 1.38994,-1.65 2.54336,-3.3375 2.56314,-3.75 0.0198,-0.4125 0.48878,-0.75 1.04223,-0.75 0.55345,0 -0.34655,1.86752 -2,4.15004 -1.65345,2.28252 -3.00627,4.75752 -3.00627,5.5 0,0.74248 -0.45,1.34996 -1,1.34996 -2.21937,0 -0.82713,3.98904 1.96864,5.64055 1.63275,0.96449 3.19363,2.33993 3.46861,3.05653 0.63309,1.64981 0.28907,1.63324 -4.09149,-0.19708 -4.59087,-1.91819 -4.34576,-2.00456 -4.34576,1.53138 0,3.06507 0.30448,3.3205 5.25,4.40415 3.90845,0.85641 3.40891,2.56447 -0.75,2.56447 -3.82601,0 -3.99384,0.20874 -2.46482,3.06574 0.8636,1.61364 0.70258,1.93426 -0.9714,1.93426 -1.42599,0 -2.24807,-0.94038 -2.84115,-3.25 -0.59748,-2.32673 -1.82993,-3.72393 -4.33833,-4.91828 -4.10049,-1.95241 -6.9778,-4.85363 -4.75674,-4.79628 0.75484,0.0195 2.49744,0.67854 3.87244,1.46456 3.66195,2.09336 4,1.89112 4,-2.39301 0,-2.53796 -0.52211,-4.09336 -1.5,-4.46862 -2.20653,-0.84672 -1.82882,-2.53712 0.43465,-1.94521 1.58502,0.41449 2.14512,-0.28013 3.09924,-3.84362 1.31657,-4.91716 5.92761,-14.79395 6.85561,-14.68462 5.8488,0.68904 1.89416,-2.1217 -7.21135,-5.12541 -3.79591,-1.2522 -7.11047,-2.97986 -7.47255,-3.89495 -0.48147,-1.21684 -0.78789,-0.87906 -1.17815,1.29874 -0.81894,4.56992 -2.42621,3.58427 -3.52939,-2.16438 -1.13552,-5.917204 -5.15523,-11.278924 -8.45587,-11.278924 -6.28991,0 -17.8788442,11.426834 -19.6175642,19.343174 -0.377802,1.72012 -1.415398,4.23931 -2.305769,5.59818 -1.221858,1.86479 -1.617105,4.93382 -1.611713,12.51467 0.0064,9.02438 0.260203,10.4267 2.5,13.81412 2.918296,4.41358 5.7885632,5.44483 10.2622662,3.68714 3.37035,-1.3242 10.73059,-7.68989 10.73059,-9.28062 0,-0.50459 1.6875,-4.45507 3.75,-8.77884 3.45027,-7.23306 6.25,-10.08917 6.25,-6.37586 0,2.0657 -5.31146,13.63782 -9.04353,19.70321 -3.02066,4.90921 -3.02607,4.94387 -0.85957,5.51042 1.19913,0.31358 4.12502,1.6042 6.502,2.86805 2.37697,1.26385 6.21144,2.80675 8.52103,3.42865 5.14662,1.38584 8.88007,3.73299 8.88007,5.58272 0,0.76174 -0.3288,1.38499 -0.73067,1.38499 -1.11597,0 -10.89114,-3.86119 -19.34051,-7.63951 -7.36812,-3.29481 -7.65843,-3.34209 -10.82406,-1.76286 -5.44265,2.71515 -14.5449842,-0.68068 -17.5856762,-6.56072 -4.945671,-9.56388 -3.31978202,-25.1319 4.255059,-40.74256 3.2815382,-6.762774 6.2726372,-9.844474 13.3167672,-13.720104 3.8866,-2.13839 5.11272,-2.37624 7.9923,-1.55038 2.89006,0.82885 8.90189,6.00784 10.06495,8.67062 0.19351,0.44303 3.09983,1.77655 6.45849,2.96337 5.74817,2.031184 6.19282,2.057234 7.57437,0.4437 2.078,-2.42693 26.17904,-13.10504 29.5322,-13.08442 4.75119,0.0292 16.45752,3.52418 23.786784,7.10161 6.44674,3.14668 7.23311,3.88193 9.94937,9.302624 2.42115,4.83175 3.0248,7.46367 3.37057,14.6956 l 0.42119,8.8097 4.12944,1.46316 c 9.18332,3.25387 10.99107,3.64853 12.0163,2.6233 0.55722,-0.55722 1.82313,-1.01313 2.81313,-1.01313 0.99,0 1.8,-0.35395 1.8,-0.78655 0,-0.94231 7.50528,-6.669 18.61913,-14.20678 17.62229,-11.95204 28.2641,-20.098174 32.96285,-25.232534 5.24996,-5.73666 22.08966,-20.9766 27.59553,-24.97397 13.61706,-9.88624 18.18432,-13.63662 19.36415,-15.90073 0.74533,-1.43031 5.76587,-6.43717 11.15674,-11.12635 8.35214,-7.26499 12.24162,-9.74756 26.3016,-16.78771 32.56749,-16.3072866 56.10311,-22.8939246 66.41293,-18.5862086 4.4865,1.874583 25.861,23.0681986 28.34064,28.1008286 2.01082,4.08109 4.72757,12.26733 7.63297,23 3.32829,12.29484 5.84455,33.47016 8.68823,73.114894 0.74855,10.43587 0.77072,18.02017 0.0716,24.5 -2.55546,23.68544 -4.6014,36.34934 -7.81693,48.38511 -1.91023,7.15 -4.34454,16.45678 -5.40958,20.68174 -1.06504,4.22495 -3.77977,12.54995 -6.03272,18.5 -2.25296,5.95004 -5.70555,15.09326 -7.67244,20.31826 -9.9668,26.47668 -15.72183,40.00718 -21.57176,50.7168 -7.51495,13.75783 -9.72443,17.08484 -19.14294,28.82521 -12.23067,15.24579 -20.60904,25.83524 -21.31537,26.94056 -2.62559,4.1087 -19.12892,13.97714 -30.63101,18.31632 -8.34146,3.14682 -10.07621,3.43898 -22.05362,3.71427 -7.15,0.16433 -17.55744,-0.0485 -23.12765,-0.47291 z m -5.80385,-51.52944 c 6.66005,-2.01118 25.0795,-16.19614 23.31815,-17.9575 -0.25715,-0.25715 -3.37435,1.55119 -6.9271,4.01853 -9.74071,6.7648 -19.99405,12.2139 -26.0422,13.84002 l -5.41735,1.45652 5.0685,0.0658 c 2.78767,0.0362 7.28767,-0.60433 10,-1.42338 z m 46.55931,-43.74962 c 1.57325,-2.93965 0.27285,-1.9796 -2.69388,1.98881 -2.29602,3.07124 -2.39124,3.39002 -0.52607,1.76119 1.25256,-1.09385 2.70154,-2.78135 3.21995,-3.75 z m 41.17879,-14.26119 c 0.84904,-1.65 4.20076,-5.97268 7.44827,-9.60597 4.05672,-4.53862 6.25314,-7.98108 7.01842,-11 2.46847,-9.73778 2.53362,-9.33579 -2.0432,-12.60667 -4.09611,-2.92734 -12.36466,-7.28736 -13.82009,-7.28736 -0.39289,0 -1.17085,1.30953 -1.72881,2.91007 -1.602,4.59551 -14.98305,28.12863 -18.7809,33.02978 -1.89222,2.44191 -3.28245,4.91368 -3.0894,5.49283 0.19305,0.57914 3.90471,2.88679 8.24815,5.1281 l 7.89714,4.07513 3.65335,-3.56796 c 2.00935,-1.96237 4.34802,-4.91795 5.19707,-6.56795 z m -13.25649,-1.53889 c -5.07048,-2.82794 -5.64686,-4.50709 -2.88896,-8.4164 8.32688,-11.80334 12.83885,-16.64602 12.83885,-13.7799 0,1.52886 -4.30793,8.83478 -7.59575,12.88182 l -3.36873,4.14662 2.44705,1.60338 c 1.34589,0.88185 3.05358,1.60337 3.79488,1.60337 0.74131,0 3.90238,-3.23333 7.02462,-7.18519 7.44713,-9.42593 8.85264,-16.22989 3.50908,-16.98725 -3.11993,-0.44219 -2.97274,-3.25021 0.18975,-3.61995 4.50067,-0.52618 6.44732,1.91995 6.35956,7.9913 -0.0954,6.60265 -1.0354,8.46385 -8.61135,17.05109 -6.50902,7.37788 -7.99885,7.89024 -13.699,4.71111 z M 170.73624,259.38807 c 3.32368,-3.04438 3.73923,-3.90593 3.19542,-6.625 -0.34381,-1.71905 -0.62511,-4.41929 -0.62511,-6.00054 0,-1.58125 -0.87559,-3.75059 -1.94575,-4.82075 -1.63166,-1.63166 -2.47914,-1.78563 -5.25,-0.95379 -6.24991,1.87628 -17.17127,2.67594 -22.50111,1.64753 -7.78004,-1.50118 -10.33608,0.13067 -2.93722,1.87521 10.86752,2.56239 24.63408,11.99547 24.63408,16.87968 0,2.2857 1.25252,1.8238 5.42969,-2.00234 z m 121.1457,-12.07694 c 6.88912,-11.91205 7.94039,-14.95865 19.4697,-56.4236 3.44086,-12.375 6.49759,-23.175 6.79274,-24 0.46067,-1.28768 0.29781,-1.30573 -1.1506,-0.12756 -2.2051,1.7937 -2.13924,0.93857 0.69399,-9.01057 1.30967,-4.59903 2.93812,-10.83687 3.61878,-13.86187 0.68066,-3.025 2.31046,-9.26748 3.62177,-13.87218 3.31963,-11.65695 4.23677,-26.56691 1.91084,-31.064754 -1.19849,-2.31763 -1.55351,-4.53088 -1.1408,-7.11183 0.32955,-2.06089 -0.0969,-7.50551 -0.94757,-12.09915 -0.8507,-4.59365 -1.8867,-10.9024 -2.30221,-14.01943 -1.17616,-8.82325 -8.06868,-17.36535 -19.5832,-24.27004 -5.38832,-3.2311 -6.59803,-3.55334 -13,-3.46294 -9.40421,0.1328 -14.48574,1.66112 -5.98697,1.80064 7.45879,0.12245 13.26018,2.09221 20.35821,6.91228 6.77807,4.60279 9.08317,9.00134 11.4835,21.91261 0.99948,5.37614 2.50212,12.92479 3.33919,16.77479 0.83708,3.85 1.72362,9.81431 1.9701,13.25402 0.62567,8.731404 -1.37418,31.004534 -3.74826,41.745984 -1.09406,4.95 -2.86145,13.74229 -3.92755,19.53842 -2.48485,13.50955 -8.19226,35.67386 -12.47908,48.46158 -1.84376,5.5 -4.7889,14.43792 -6.54475,19.86205 -1.75585,5.42413 -5.22182,14.87413 -7.70215,21 -2.48033,6.12587 -4.72939,11.81295 -4.99792,12.63795 -1.11352,3.42106 4.27209,-4.23609 10.25224,-14.5764 z m 22.5825,-76.4236 c 0,-1.375 0.22698,-1.9375 0.50439,-1.25 0.27741,0.6875 0.27741,1.8125 0,2.5 -0.27741,0.6875 -0.50439,0.125 -0.50439,-1.25 z m -199.29361,12.98335 c 6.85428,-4.96521 12.64208,-13.75838 14.51504,-22.05209 1.90321,-8.42768 2.00097,-12.08365 0.54644,-20.43615 -1.03756,-5.95813 -1.22622,-6.24255 -5.52675,-8.33191 -2.44888,-1.18976 -4.66547,-2.1632 -4.92576,-2.1632 -0.26029,0 -0.47325,2.0392 -0.47325,4.53155 0,5.63311 -3.04663,14.94802 -7.67582,23.46845 -4.27223,7.8634 -13.847724,20.60216 -16.154444,21.49106 -1.4911,0.5746 -1.45749,0.76255 0.31416,1.75677 2.17866,1.22264 12.364024,4.61274 14.116064,4.69839 0.60498,0.0296 2.97393,-1.30371 5.26432,-2.96287 z m 94.13572,-3.98335 c 0,-0.55 -0.19844,-1 -0.44098,-1 -0.24254,0 -0.7191,0.45 -1.05902,1 -0.33992,0.55 -0.14148,1 0.44098,1 0.58246,0 1.05902,-0.45 1.05902,-1 z m -120.463764,-30.25 c 2.53596,-5.44705 3.03151,-7.75 1.66765,-7.75 -0.43786,0 -1.7471,2.925 -2.90942,6.5 -1.16232,3.575 -1.90836,6.5 -1.65788,6.5 0.25048,0 1.55532,-2.3625 2.89965,-5.25 z m 6.28658,-26.25 c -0.0299,-10.80087 -1.5819,-15.71084 -1.73845,-5.5 -0.11367,7.41358 -1.41772,12.1959 -2.4465,8.97197 -0.25834,-0.80958 -0.72071,-5.29697 -1.0275,-9.97197 l -0.55778,-8.5 -4.46809,-4.25 c -3.66356,-3.48475 -5.15873,-4.250004 -8.30378,-4.250004 -2.10964,0 -4.86494,0.720904 -6.12288,1.602004 -3.40373,2.38406 -4.09664,0.60553 -0.85208,-2.187074 4.92962,-4.24294 11.72505,-3.09221 18.64196,3.156814 2.22876,2.01354 4.05228,3.15862 4.05228,2.54462 0,-2.49411 2.91626,-0.8943 3.88935,2.13364 1.76223,5.4835 3.20584,16.72554 2.57789,20.07521 -0.58119,3.10025 -0.48214,3.20188 4.218804,4.32865 2.64768,0.63462 5.46223,1.30962 6.25457,1.5 0.81059,0.19476 1.61281,-0.52851 1.83436,-1.65386 0.21656,-1.1 0.95494,-2.45 1.64084,-3 3.25419,-2.60944 2.25048,-19.23087 -1.53741,-25.45956 -2.21374,-3.640204 -12.244814,-8.834784 -22.334624,-11.565964 l -6.50185,-1.75997 -13.77097,5.74364 c -7.57403,3.159 -13.91915,5.883924 -14.10027,6.055384 -0.18111,0.17146 2.29389,0.84227 5.5,1.49069 6.70168,1.35537 10.48835,3.41774 9.76004,5.31571 -0.27774,0.72378 0.47422,2.56081 1.67103,4.08231 1.65236,2.10063 2.37322,2.44727 2.99549,1.44041 0.61844,-1.00066 1.1021,-1.0433 1.97158,-0.17382 1.5941,1.5941 3.89668,11.86756 3.91555,17.47006 0.0104,3.0764 0.43665,4.61384 1.26562,4.56452 0.6875,-0.0409 3.1625,0.29162 5.5,0.73892 3.36901,0.6447 4.26607,1.2532 4.3275,2.93548 0.0457,1.25126 0.83467,0.0702 1.9225,-2.87781 1.23397,-3.34409 1.83765,-7.64945 1.82282,-13 z m -9.96204,9.53327 c -1.35026,-1.12488 -1.79758,-1.98097 -1.04504,-2 1.88295,-0.0476 5.18426,1.86399 5.18426,3.00191 0,1.51744 -1.57177,1.13698 -4.13922,-1.00191 z M 205.30655,318.5202 c 0,-0.31972 1.4625,-1.33477 3.25,-2.25567 1.7875,-0.9209 6.4,-4.68691 10.25,-8.36892 3.85,-3.68202 9.025,-8.07469 11.5,-9.76151 6.77785,-4.61938 20.04749,-19.73672 27.42751,-31.24657 1.58695,-2.475 3.66152,-5.64699 4.61016,-7.04886 3.31767,-4.90278 6.73457,-12.5355 10.27444,-22.95114 1.96269,-5.775 5.88336,-17.025 8.71259,-25 2.82923,-7.975 6.65585,-19.45 8.50362,-25.5 1.84776,-6.05 4.55383,-14.15 6.0135,-18 7.65077,-20.17959 10.52551,-37.96607 12.08145,-74.750004 0.57546,-13.60451 1.63879,-17.2005 2.97694,-10.06753 1.40679,7.49884 -1.29889,44.352824 -4.61182,62.817534 -0.59208,3.3 -1.44262,8.025 -1.89009,10.5 -0.44746,2.475 -2.4886,8.775 -4.53587,14 -2.04727,5.225 -4.41808,11.75 -5.26848,14.5 -0.85041,2.75 -2.67521,8.15 -4.05512,12 -1.37992,3.85 -4.45636,12.625 -6.83653,19.5 -12.82321,37.03907 -12.66377,36.67437 -22.98844,52.58276 -5.17969,7.98093 -21.98068,25.93138 -27.69959,29.5947 -2.85281,1.8274 -7.89308,5.74356 -11.2006,8.70259 -7.54505,6.75008 -16.51367,12.58986 -16.51367,10.75262 z m -81.25,-29.19852 c -1.48969,-1.52441 -0.67573,-2.19041 3.49143,-2.85677 2.33279,-0.37302 6.19311,-1.65294 8.57848,-2.84425 4.5442,-2.26948 16.56231,-14.18586 19.75089,-19.5837 1.02323,-1.73219 2.22751,-3.14943 2.67619,-3.14943 1.63083,0 1.98567,3.19699 0.63589,5.729 -2.58233,4.84408 -14.65865,16.8311 -19.746,19.59998 -5.06292,2.75559 -13.97162,4.55342 -15.38688,3.10517 z m -5.96848,-2.59031 c -3.15381,-1.14795 -9.78152,-11.04974 -9.78152,-14.61358 0,-1.71143 -0.91353,-2.71401 -3.43162,-3.76614 -1.88739,-0.7886 -3.71395,-1.89064 -4.05902,-2.44897 -0.34506,-0.55833 -1.725844,-1.01515 -3.068384,-1.01515 -2.11882,0 -2.44098,-0.45779 -2.44098,-3.46862 0,-2.70972 -0.33633,-3.33955 -1.53725,-2.87871 -0.84548,0.32444 -2.30798,-0.0793 -3.25,-0.89708 -0.94201,-0.81783 -2.89648,-1.76749 -4.34326,-2.11034 -1.58022,-0.37448 -2.8724,-1.5261 -3.23634,-2.88431 -0.95328,-3.55754 -0.73388,-9.58065 0.37391,-10.26531 1.07048,-0.66159 1.2632,-0.22633 2.62482,5.92842 0.47747,2.15823 1.31812,4.06888 1.86812,4.2459 0.55,0.17701 1.85131,-1.74782 2.8918,-4.2774 2.01398,-4.89628 1.41519,-6.34174 -2.6418,-6.37724 -0.9625,-0.008 -1.75,-0.69031 -1.75,-1.51531 0,-0.89513 0.92023,-1.5 2.28207,-1.5 3.86271,0 12.413664,2.56368 15.285874,4.58289 3.63281,2.55392 11.77383,7.34286 12.55285,7.38418 0.34143,0.0181 0.93549,-3.22957 1.32012,-7.21707 0.74816,-7.7562 3.14202,-13.24664 4.62232,-10.6015 0.44836,0.80117 0.38992,3.23301 -0.12985,5.40409 -0.51978,2.17107 -0.8697,7.32241 -0.7776,11.44741 0.13071,5.8547 -0.15107,7.56207 -1.28451,7.78295 -0.79857,0.15562 -2.28094,1.82228 -3.29415,3.7037 -1.0132,1.88141 -2.7247,4.36801 -3.80332,5.52578 -1.25002,1.34173 -1.76026,2.8996 -1.40715,4.2963 1.01896,4.03042 6.58717,11.72321 9.20629,12.719 1.4243,0.54152 2.41242,1.51618 2.19584,2.16592 -0.54602,1.63807 -1.81772,1.80386 -4.98726,0.65019 z m -6.07913,-25.04001 c 1.81369,-1.75789 3.29761,-3.60562 3.29761,-4.10608 0,-0.94891 -3.1473,-3.62987 -8.62572,-7.34763 -2.98337,-2.02457 -3.32003,-2.06192 -4.65355,-0.51629 -2.271094,2.63233 -3.913934,8.37297 -2.733864,9.55304 0.68417,0.68417 1.014744,0.37997 1.018104,-0.93687 0.007,-2.70879 4.36913,-7.95486 5.85239,-7.03816 0.87224,0.53908 0.6344,1.72014 -0.89403,4.43961 -1.68447,2.99712 -1.88467,4.22525 -1.04762,6.42685 1.36388,3.58727 3.74578,3.44213 7.78668,-0.47447 z M 98.817796,247.8751 c 2.000754,-2.21081 1.874514,-2.98757 -0.48557,-2.98757 -2.23875,0 -5.02568,4.59361 -5.02568,8.28367 0,3.99047 1.3624,4.03244 2.72936,0.0841 0.71122,-2.05432 1.96307,-4.47541 2.78189,-5.38019 z m 29.009954,24.04673 c -1.12494,-1.82018 3.51748,-9.03152 7.51888,-11.67952 2.20032,-1.4561 4.27389,-2.37414 4.60795,-2.04008 0.33406,0.33405 -1.47509,2.92357 -4.02033,5.75449 -2.54523,2.83091 -4.6277,5.54845 -4.6277,6.03896 0,1.74439 5.09775,0.85416 8.76987,-1.53148 4.75608,-3.08986 11.23013,-9.15781 11.23013,-10.52569 0,-0.57804 0.675,-1.05098 1.5,-1.05098 0.825,0 1.5,0.27274 1.5,0.6061 0,1.00709 -6.32091,8.78784 -8.44377,10.3939 -4.84253,3.66363 -16.63396,6.30128 -18.03503,4.0343 z m 186.58632,-42.94669 c -1.78847,-1.13251 -0.76785,-9.79505 1.85286,-15.72629 1.00577,-2.27627 2.56708,-7.38519 3.46957,-11.35315 0.90249,-3.96795 2.69365,-9.30555 3.98034,-11.86132 1.2867,-2.55577 3.09235,-8.47185 4.01257,-13.14685 0.92021,-4.675 2.12601,-10.82772 2.67955,-13.67272 1.04784,-5.38554 2.92203,-7.91561 5.21252,-7.03667 0.73723,0.2829 2.15621,3.97853 3.15329,8.21252 l 1.81289,7.69816 -3.73893,12.64936 c -5.63559,19.06606 -14.16634,40.59338 -17.36361,43.81702 -1.52654,1.53914 -3.0981,1.66928 -5.07105,0.41994 z m 6.1025,-9.33761 c 5.42086,-12.76063 8.71532,-21.79409 12.20578,-33.46838 3.50377,-11.71882 4.1729,-16.48298 2.95391,-21.03162 -0.85531,-3.19158 -2.36971,-2.79068 -2.36971,0.62733 0,5.78378 -3.31269,17.74301 -6.17777,22.30252 -1.94359,3.09306 -3.45858,7.50096 -4.46808,13 -0.84006,4.57608 -1.97793,9.67015 -2.52859,11.32015 -0.55066,1.65 -1.3422,4.35 -1.75899,6 -0.41679,1.65 -1.08259,4.0125 -1.47957,5.25 -1.55674,4.85285 1.1156,1.90245 3.62302,-4 z M 185.68555,190.4328 c -0.30703,-0.8001 0.64285,-5.1876 2.11084,-9.75 2.58453,-8.03254 4.52663,-11.81068 4.49538,-8.74527 -0.0176,1.72577 -2.56399,12.70643 -3.52486,15.2 -0.48855,1.26786 -0.17894,1.75 1.12378,1.75 1.66589,0 1.65537,0.10797 -0.14301,1.4682 -2.47407,1.87129 -3.36712,1.88824 -4.06213,0.0771 z m 87.03633,-3.86444 -2.69619,-2.31917 1.55728,-4.93083 c 0.8565,-2.71196 1.84122,-6.62439 2.18826,-8.69429 0.34705,-2.0699 2.19269,-8.86867 4.10143,-15.10838 1.90874,-6.23971 3.79971,-13.97894 4.20216,-17.19829 0.61657,-4.93213 1.15562,-6.09127 3.42503,-7.36498 3.72185,-2.08889 4.8287,-0.46506 1.51961,2.22936 -2.31485,1.88487 -2.85811,3.36955 -3.73441,10.20575 -0.56402,4.4 -2.30352,12.95 -3.86556,19 -5.35929,20.75727 -5.34848,20.69303 -3.75275,22.28876 1.25942,1.25943 1.57387,1.20297 2.45343,-0.4405 0.55487,-1.0368 1.33327,-3.67679 1.72978,-5.86667 0.3965,-2.18987 1.99917,-6.45659 3.56148,-9.48159 7.59195,-14.69975 10.89512,-23.61061 10.89512,-29.3914 0,-3.23671 -0.68134,-7.02549 -1.57374,-8.75119 -1.82948,-3.53784 -1.11888,-4.9786 1.27488,-2.58485 1.19052,1.19053 1.77848,4.03447 2.09982,10.15683 0.43151,8.22136 0.30958,8.81507 -3.67732,17.90585 -2.268,5.1714 -4.12364,9.75965 -4.12364,10.19611 0,0.43645 -1.31361,2.85795 -2.91912,5.3811 -1.62696,2.55685 -3.23209,6.80083 -3.62615,9.58755 -1.13016,7.99244 -3.91508,9.58858 -9.0394,5.18083 z m -76.2653,-5.58768 c 1.17491,-2.82714 2.2846,-4.99185 2.46598,-4.81047 0.71765,0.71765 -1.73895,7.57446 -3.12621,8.72578 -1.06209,0.88146 -0.87695,-0.21643 0.66023,-3.91531 z m 3.20753,-9.82779 c 0.40782,-0.67905 1.1199,-3.15405 1.5824,-5.5 l 0.84091,-4.26536 0.10956,4.12756 c 0.0736,2.77161 -0.44625,4.57841 -1.58239,5.5 -1.11011,0.90047 -1.43697,0.94786 -0.95048,0.1378 z m -8.69089,-5.93203 c -1.06195,-1.06195 -0.7711,-8.33333 0.33333,-8.33333 0.55,0 1,2.025 1,4.5 0,4.5784 -0.15181,5.01486 -1.33333,3.83333 z m -41.22397,-3.75157 c -1.06675,-0.78003 -1.60466,-1.75313 -1.19535,-2.16244 1.05397,-1.05398 5.99534,1.37898 5.25002,2.58493 -0.83447,1.35021 -1.76262,1.2535 -4.05467,-0.42249 z m 48.65608,-8.13892 c -2.45715,-4.16455 -2.64555,-5.14151 -0.67637,-3.50723 1.29642,1.07593 3.94491,7.06439 3.12435,7.06439 -0.19207,0 -1.29366,-1.60072 -2.44798,-3.55716 z m 134.31926,-3.79582 c -0.3123,-0.81385 0.42587,-7.69244 1.6404,-15.28574 1.7597,-11.00184 2.11588,-16.55364 1.75362,-27.33365 -0.43036,-12.806664 -0.38975,-13.184154 0.76193,-7.082924 1.23171,6.525174 0.43266,39.452454 -1.13634,46.826104 -0.79368,3.72999 -2.18385,5.05415 -3.01961,2.87621 z m 3.96239,-3.398 c 0.2964,-1.51196 0.84232,-5.44902 1.21316,-8.74902 0.37084,-3.3 1.10007,-7.125 1.6205,-8.5 0.52044,-1.375 1.6195,-6.55 2.44238,-11.5 1.82145,-10.95699 1.01708,-34.262324 -1.34064,-38.842934 -0.80481,-1.56361 -1.68825,-2.61798 -1.96319,-2.34304 -0.27494,0.27494 -0.85762,3.57926 -1.29484,7.34293 l -0.79495,6.84304 -0.12042,-5.5 c -0.29213,-13.34253 2.20776,-16.32645 6.76175,-8.07096 2.32563,4.21592 2.4345,5.23335 2.51337,23.488884 0.069,15.96298 -0.22791,20.14455 -1.81626,25.58208 -1.04428,3.575 -2.20871,9.2 -2.58761,12.5 -0.80132,6.97899 -1.59535,9.12549 -3.67024,9.9217 -1.18026,0.45291 -1.38651,-0.0124 -0.96301,-2.17268 z M 9.3623228,134.94331 c -1.069323,-1.06933 -2.244839,-3.54665 -2.612258,-5.50516 -0.819285,-4.36716 1.105318,-15.3962 3.8055462,-21.8079 2.290025,-5.43766 7.773175,-10.758574 11.035735,-10.709194 1.95877,0.0296 1.77626,0.39204 -1.57663,3.130554 -2.08551,1.70337 -4.51231,4.49027 -5.39289,6.19313 -3.793468,7.33576 -5.5103972,21.62611 -3.009252,25.04663 3.642312,4.98116 10.906262,-2.6854 14.739392,-15.55635 1.28078,-4.30061 2.53246,-6.81605 3.26568,-6.56284 2.34177,0.80872 0.18393,11.48856 -3.63941,18.0126 -5.18169,8.84189 -12.23781,12.13663 -16.6159132,7.75853 z M 351.97322,120.22086 c -0.36667,-0.36666 -0.66667,-4.79511 -0.66667,-9.84099 0,-8.95772 -0.83697,-18.013914 -3.12225,-33.783354 -0.62099,-4.28505 -0.8807,-8.03937 -0.57714,-8.34293 2.43925,-2.43925 6.62271,19.14908 6.71148,34.633944 0.0764,13.32638 1.64185,7.33009 2.38398,-9.131534 0.38257,-8.4861 0.25177,-16.46635 -0.31142,-19 -3.2051,-14.41883 -3.22881,-21.56848 -0.0455,-13.70734 3.30135,8.15254 4.31624,17.77711 3.58449,33.99316 -0.56817,12.591054 -1.0255,15.759804 -2.65504,18.396454 -1.08275,1.75193 -1.96864,4.14471 -1.96864,5.31729 0,2.035 -1.91974,2.8789 -3.33333,1.4653 z M 27.429616,99.258296 c -0.65887,-1.44607 -0.91931,-2.90786 -0.57875,-3.24842 0.7682,-0.7682 3.45568,2.78494 3.45568,4.568784 0,2.19899 -1.61009,1.46004 -2.87693,-1.320364 z M 345.80655,54.887526 c 0.99549,-1.1 2.52773,-1.98503 3.40499,-1.96673 1.21206,0.0253 1.02821,0.50546 -0.76577,2 -3.07914,2.56518 -4.96922,2.54135 -2.63922,-0.03327 z"
     id="path13513" />
</svg>
