<?xml version="1.0" encoding="UTF-8" standalone="no"?>
<svg
   xmlns:dc="http://purl.org/dc/elements/1.1/"
   xmlns:cc="http://creativecommons.org/ns#"
   xmlns:rdf="http://www.w3.org/1999/02/22-rdf-syntax-ns#"
   xmlns:svg="http://www.w3.org/2000/svg"
   xmlns="http://www.w3.org/2000/svg"
   version="1.0"
   width="1198.3059"
   height="1558.6442"
   viewBox="0 0 11983.059 15586.441"
   preserveAspectRatio="xMidYMid meet"
   id="svg4416">
  <metadata
     id="metadata8010">
    <rdf:RDF>
      <cc:Work
         rdf:about="">
        <dc:format>image/svg+xml</dc:format>
        <dc:type
           rdf:resource="http://purl.org/dc/dcmitype/StillImage" />
        <dc:title></dc:title>
      </cc:Work>
    </rdf:RDF>
  </metadata>
  <defs
     id="defs4420" />
  <g
     transform="translate(-1318.902,3.6215178)"
     id="layer1"
     style="display:inline">
    <g
       transform="translate(-2.0681268,-3.6215178)"
       style="fill:#010101;stroke:none"
       id="layer101">
      <path
         d="m 9322,14425 c -181,-37 -197,-45 -274,-137 -58,-71 -72,-100 -72,-156 1,-134 102,-311 223,-390 31,-20 85,-61 120,-90 61,-51 66,-53 110,-49 154,18 168,25 223,111 31,47 33,57 32,131 -3,322 -46,502 -142,586 -18,16 -38,29 -45,28 -7,0 -85,-16 -175,-34 z"
         id="path4" />
      <path
         d="m 12509,12446 c -128,-107 -158,-153 -184,-281 -26,-133 -20,-166 55,-300 39,-70 130,-184 199,-246 64,-59 67,-61 111,-56 39,4 51,12 93,58 59,67 70,88 99,197 20,74 23,110 22,243 -1,204 -21,279 -98,366 -48,54 -91,73 -170,73 -60,0 -64,-1 -127,-54 z"
         id="path6" />
      <path
         d="m 12726,10104 c -9,-24 -7,-28 9,-14 17,14 20,30 6,30 -5,0 -12,-7 -15,-16 z"
         id="path8" />
      <path
         d="m 9064,8496 c -175,-60 -269,-123 -321,-217 -16,-27 -33,-49 -39,-49 -6,0 -26,10 -45,23 -51,34 -153,77 -182,77 -53,0 -44,-30 25,-80 l 37,-27 -57,-55 c -31,-30 -65,-58 -74,-61 -10,-4 -18,-16 -18,-30 0,-13 -5,-34 -12,-48 -11,-23 -15,-24 -112,-25 -56,-1 -114,-7 -131,-13 -27,-11 -31,-10 -44,8 -13,21 -61,30 -61,12 0,-5 9,-37 19,-72 11,-35 29,-116 41,-179 11,-63 25,-131 30,-150 5,-19 12,-73 16,-119 6,-78 9,-87 43,-124 20,-22 49,-45 65,-52 22,-9 35,-29 58,-81 16,-38 39,-79 50,-91 13,-14 24,-44 28,-75 11,-75 41,-133 122,-233 65,-82 72,-96 99,-192 32,-114 95,-248 164,-349 25,-36 71,-114 102,-172 31,-59 59,-112 64,-117 11,-15 193,-381 213,-430 23,-54 44,-75 77,-75 33,0 54,26 75,96 17,57 10,89 -47,215 -33,74 -39,97 -39,155 0,105 -21,204 -90,419 -53,167 -106,307 -150,395 -20,41 -40,97 -44,125 -3,27 -18,67 -32,89 -26,38 -26,40 -9,74 14,30 17,79 20,316 4,301 11,434 25,506 4,25 16,90 26,145 25,147 67,199 187,229 24,6 27,9 16,22 -12,15 -62,11 -84,-6 -15,-12 -141,-40 -180,-40 -19,0 -37,-5 -41,-11 -9,-16 -73,-41 -85,-33 -6,4 -5,11 3,22 21,25 153,120 190,136 18,8 58,25 88,39 30,13 65,27 77,31 41,13 113,57 113,70 0,21 -23,36 -54,34 -17,0 -72,-15 -122,-32 z M 8784,6694 c 10,-25 -1,-29 -14,-5 -6,12 -7,21 -1,21 5,0 12,-7 15,-16 z"
         id="path10" />
      <path
         d="m 7125,8015 c -32,-45 -48,-58 -90,-71 -62,-20 -113,-67 -121,-111 -6,-32 -8,-33 -43,-27 -44,8 -136,48 -145,63 -8,12 -54,15 -80,5 -9,-3 -16,-18 -16,-32 0,-31 70,-99 114,-110 40,-11 46,-32 9,-32 -34,0 -73,-25 -73,-46 0,-20 60,-44 110,-44 46,0 45,1 26,-45 -14,-32 -16,-34 -47,-25 -18,5 -34,8 -37,6 -2,-2 6,-22 17,-45 12,-22 21,-48 21,-59 0,-10 4,-22 9,-28 5,-5 16,-36 25,-69 9,-33 20,-67 23,-75 3,-8 7,-21 9,-29 1,-8 9,-35 17,-60 8,-25 30,-109 48,-185 34,-146 50,-176 93,-176 21,0 25,-6 30,-47 5,-30 21,-68 42,-99 19,-28 47,-87 63,-131 16,-44 51,-127 77,-184 78,-174 171,-394 241,-568 131,-330 214,-481 267,-481 26,0 46,35 46,81 0,16 7,46 16,67 37,87 28,263 -26,507 -86,385 -128,528 -207,715 -41,95 -44,107 -34,141 26,86 -1,159 -80,218 l -45,33 34,86 c 30,76 33,92 27,146 -10,95 -36,239 -48,261 -6,11 -12,35 -14,54 -5,49 -19,68 -56,81 l -34,11 3,70 c 2,39 8,77 15,85 6,7 9,20 6,28 -8,20 -67,47 -88,41 -21,-7 -35,13 -20,28 15,15 14,80 -1,95 -23,23 -43,12 -83,-43 z m -137,-444 c 14,-9 7,-76 -8,-86 -9,-6 -60,15 -60,24 0,12 40,71 47,71 5,0 14,-4 21,-9 z m -48,-160 c 0,-7 -59,-61 -66,-61 -9,0 -3,41 7,58 8,12 20,17 35,14 13,-2 24,-7 24,-11 z"
         id="path14" />
      <path
         d="m 10555,8019 c -54,-55 -84,-69 -148,-69 -44,0 -64,-7 -120,-40 -66,-40 -66,-40 -101,-24 -30,15 -39,15 -66,4 -36,-15 -92,-80 -97,-113 -2,-12 -8,-33 -13,-47 -28,-69 -52,-225 -57,-361 l -6,-146 33,-12 c 18,-6 45,-11 59,-11 26,0 26,-1 27,-75 1,-98 43,-183 131,-270 78,-76 89,-108 108,-315 37,-394 133,-667 291,-827 80,-82 111,-92 140,-48 16,24 16,28 0,63 -14,31 -15,46 -6,91 14,76 12,295 -4,457 -8,77 -18,221 -22,322 l -7,182 h 27 c 41,0 87,23 131,67 52,51 103,184 107,274 2,50 6,63 20,67 10,2 21,16 24,31 3,14 7,36 10,48 2,13 20,37 39,54 19,17 34,34 33,38 -1,3 1,13 4,21 3,8 15,47 26,85 12,39 33,101 47,138 l 25,68 -35,15 c -19,7 -42,14 -51,14 -9,0 -33,19 -52,41 -20,23 -53,49 -74,59 l -37,16 39,53 c 42,55 48,79 28,99 -24,24 -52,10 -130,-63 -77,-74 -98,-84 -98,-45 0,21 -31,34 -59,25 -18,-5 -95,27 -106,45 -3,4 4,18 14,32 11,13 20,35 22,48 8,63 -40,67 -96,9 z m -415,-287 c 0,-54 -35,-86 -42,-39 -5,25 17,77 32,77 6,0 10,-17 10,-38 z"
         id="path16" />
      <path
         d="m 12224,7565 c 6,-22 3,-25 -21,-25 -15,0 -60,-10 -101,-22 -94,-28 -142,-75 -142,-139 0,-22 5,-49 10,-60 13,-24 13,-24 -45,2 -52,23 -66,19 -46,-13 21,-34 24,-154 6,-288 -36,-277 -64,-532 -70,-656 l -6,-132 26,-24 c 27,-25 27,-25 35,-239 5,-118 14,-275 19,-349 14,-181 17,-421 7,-552 -8,-93 -7,-111 8,-133 23,-36 50,-31 102,17 81,75 172,258 267,538 74,219 92,302 121,551 l 15,126 59,60 c 54,55 61,67 76,133 9,40 16,80 16,90 0,9 9,25 20,35 17,16 20,31 20,109 0,115 18,263 36,298 9,17 14,58 14,107 0,77 -2,84 -35,130 -38,52 -38,72 0,89 27,12 38,44 33,88 -3,27 -6,29 -41,28 -26,-1 -47,-9 -66,-28 l -27,-26 -32,53 c -18,29 -32,58 -32,64 0,5 -13,26 -30,44 -36,41 -34,54 11,54 30,0 34,3 37,28 5,46 -24,70 -76,64 -23,-2 -51,-12 -62,-22 -18,-16 -20,-16 -49,4 -41,30 -65,28 -57,-4 z m 286,-485 c 0,-10 -31,-23 -38,-15 -8,7 19,35 29,29 5,-3 9,-9 9,-14 z m -430,-455 c 16,-19 6,-45 -18,-45 -19,0 -46,43 -35,54 11,11 40,6 53,-9 z m 30,-787 c 0,-7 -5,-20 -10,-28 -8,-12 -10,-9 -10,13 0,15 5,27 10,27 6,0 10,-6 10,-12 z"
         id="path18" />
      <path
         d="m 7463,15575 c -160,-30 -268,-86 -377,-193 -92,-91 -117,-142 -149,-307 -26,-131 -27,-217 -4,-305 18,-70 60,-297 83,-450 28,-183 43,-275 54,-320 26,-109 39,-190 39,-253 1,-76 18,-202 61,-457 38,-225 49,-333 54,-540 4,-124 11,-245 16,-270 6,-25 15,-128 20,-230 13,-279 29,-442 55,-580 12,-69 26,-152 29,-185 7,-63 14,-100 46,-230 10,-44 26,-132 35,-195 8,-63 22,-142 31,-175 66,-257 94,-456 104,-755 4,-135 13,-279 19,-320 47,-309 54,-374 61,-575 9,-246 20,-330 61,-455 13,-41 22,-220 11,-220 -9,0 -162,222 -162,235 0,2 -14,25 -31,51 -45,66 -77,135 -111,239 -16,50 -33,99 -37,110 -17,38 -19,53 -11,61 5,5 16,35 24,68 9,32 20,64 26,71 20,24 49,215 61,402 13,205 7,374 -15,468 -8,33 -19,104 -25,157 -11,99 -28,161 -62,234 -11,23 -19,62 -19,90 0,27 -5,67 -10,89 -19,72 -54,175 -61,175 -11,0 -26,48 -49,150 -25,110 -40,157 -69,220 -6,14 -13,35 -16,48 -2,12 -7,27 -10,32 -4,6 -10,76 -15,155 -6,113 -12,153 -27,182 -11,21 -23,52 -27,68 -4,17 -14,44 -21,60 -39,87 -87,297 -100,428 -8,80 -19,125 -67,276 -40,128 -67,303 -68,441 0,36 -7,93 -16,125 -9,33 -20,78 -26,100 -5,21 -13,44 -18,50 -14,16 -84,337 -111,508 -8,56 -15,73 -60,173 -11,22 -19,47 -19,55 0,8 -4,19 -10,25 -5,5 -14,66 -19,136 -5,70 -14,135 -19,145 -5,10 -13,41 -16,68 -6,44 -22,99 -46,160 -21,54 -39,114 -44,151 -11,76 -60,148 -151,223 -66,54 -80,61 -118,61 -24,0 -47,-3 -51,-7 -4,-4 -44,-6 -89,-5 -106,4 -245,-21 -322,-57 -33,-16 -105,-41 -160,-56 -55,-15 -111,-32 -125,-38 -14,-6 -74,-23 -135,-38 -251,-62 -281,-70 -300,-78 -23,-10 -86,-31 -170,-56 -130,-38 -312,-97 -350,-114 -11,-5 -36,-16 -57,-25 -20,-9 -41,-16 -46,-16 -6,0 -23,-6 -39,-14 -15,-8 -44,-21 -63,-30 -19,-8 -61,-26 -94,-40 -32,-14 -63,-26 -68,-26 -6,0 -26,-7 -46,-16 -21,-9 -46,-19 -57,-24 -69,-26 -595,-297 -615,-316 -25,-24 -25,-27 -24,-178 0,-85 6,-185 12,-223 7,-37 19,-114 28,-170 9,-57 22,-126 31,-155 16,-59 30,-107 43,-153 35,-125 65,-256 96,-410 19,-99 39,-191 43,-205 5,-14 14,-45 21,-70 7,-25 26,-88 42,-140 40,-124 43,-137 58,-190 7,-25 20,-70 30,-100 10,-30 21,-68 25,-85 4,-16 15,-48 26,-72 10,-23 19,-46 19,-51 0,-13 40,-102 117,-262 62,-128 76,-157 102,-222 22,-55 28,-74 51,-148 13,-41 27,-86 31,-100 5,-14 13,-47 19,-75 6,-27 22,-88 36,-135 13,-47 31,-107 39,-135 30,-103 69,-221 82,-245 7,-14 13,-31 13,-38 0,-8 6,-28 14,-45 30,-71 39,-96 72,-197 19,-58 41,-118 48,-135 13,-29 22,-57 51,-162 44,-159 62,-211 88,-258 5,-11 10,-45 9,-75 -1,-30 3,-68 8,-85 5,-16 17,-62 26,-102 11,-49 29,-93 57,-136 66,-100 67,-101 74,-116 3,-7 32,-51 64,-98 65,-95 321,-340 399,-382 25,-13 83,-61 131,-106 l 85,-82 93,-12 c 90,-11 241,-43 259,-55 6,-3 13,-27 17,-53 4,-27 20,-87 36,-135 16,-48 34,-122 39,-165 12,-100 68,-305 100,-362 4,-8 4,-26 0,-40 -36,-119 -40,-145 -43,-271 -2,-138 17,-445 32,-522 5,-24 18,-83 29,-133 41,-179 55,-524 32,-768 -15,-159 -81,-401 -140,-517 -40,-79 -58,-121 -65,-155 -14,-64 -45,-138 -80,-190 -11,-16 -25,-37 -30,-46 -97,-153 -122,-178 -194,-194 -51,-11 -113,26 -176,105 -63,79 -85,99 -130,119 -35,17 -312,330 -410,465 -168,230 -210,282 -310,381 -61,61 -129,131 -149,157 -21,27 -67,71 -102,100 -35,28 -66,61 -70,72 -10,33 -66,86 -90,86 -25,0 -54,34 -54,62 0,10 -3,18 -8,18 -4,0 -18,21 -32,48 -13,26 -54,88 -90,137 -37,50 -83,120 -103,156 -21,37 -71,105 -113,152 -49,57 -86,111 -108,160 -19,41 -55,104 -80,141 -25,37 -46,72 -46,77 0,6 -30,71 -66,145 -45,91 -71,160 -83,217 -17,80 -42,142 -81,202 -11,17 -27,44 -35,60 -42,83 -85,131 -196,221 -52,42 -112,93 -134,113 -56,53 -199,145 -305,196 -79,39 -83,40 -220,86 -122,41 -128,42 -285,46 -130,3 -165,1 -185,-11 -37,-22 -146,-73 -172,-81 -43,-12 -163,-78 -200,-110 -77,-65 -128,-160 -126,-235 0,-19 -6,-81 -13,-137 -12,-99 -12,-105 10,-170 13,-37 31,-86 41,-108 10,-22 28,-61 39,-87 12,-26 45,-75 74,-109 99,-118 219,-274 228,-298 5,-13 19,-37 31,-54 36,-50 85,-152 92,-190 4,-20 13,-49 21,-64 8,-15 15,-35 15,-44 0,-9 3,-19 7,-23 4,-3 8,-12 9,-19 1,-7 11,-34 23,-60 12,-27 28,-83 36,-125 25,-133 65,-493 65,-582 0,-47 9,-139 19,-205 11,-66 22,-145 26,-175 4,-30 16,-95 27,-145 11,-49 23,-108 28,-130 25,-117 102,-386 128,-445 45,-105 57,-131 87,-195 52,-110 65,-142 65,-157 0,-7 6,-25 14,-39 7,-14 16,-38 20,-53 12,-47 84,-191 124,-246 20,-29 82,-110 137,-181 124,-159 185,-244 185,-256 0,-6 9,-18 20,-28 11,-10 20,-22 20,-28 0,-5 20,-35 45,-66 102,-128 142,-181 185,-240 171,-240 198,-272 402,-495 59,-64 139,-155 178,-201 119,-142 208,-225 385,-357 134,-99 179,-139 213,-187 23,-33 42,-64 42,-69 0,-19 117,-136 209,-209 217,-172 369,-292 427,-335 55,-42 114,-106 114,-124 0,-13 83,-129 136,-190 29,-34 59,-79 67,-100 7,-21 39,-73 70,-114 31,-41 57,-80 57,-87 0,-20 374,-393 438,-437 33,-23 95,-68 137,-101 78,-60 177,-129 205,-142 8,-4 37,-22 63,-40 26,-19 58,-38 70,-43 45,-19 166,-100 238,-159 31,-25 95,-74 142,-109 l 87,-62 h 115 115 l -67,61 c -71,64 -177,149 -187,149 -3,0 -55,38 -114,84 -108,83 -191,139 -267,181 -88,49 -217,134 -309,205 -54,41 -108,81 -121,87 -50,28 -385,354 -385,375 0,5 -10,24 -23,41 -32,46 -45,68 -61,102 -57,120 -51,110 -131,229 -33,49 -75,112 -94,140 -52,77 -169,188 -341,321 -85,66 -184,151 -220,190 -119,126 -252,245 -274,245 -9,0 -168,114 -253,182 -107,84 -397,363 -556,533 -201,216 -423,517 -467,635 -20,52 -48,111 -70,145 -11,17 -28,46 -37,65 -10,19 -36,62 -58,94 -59,86 -84,127 -100,163 -8,18 -28,54 -45,80 -16,26 -30,54 -30,63 0,10 -24,50 -53,91 -81,113 -94,137 -133,250 -20,57 -39,109 -44,114 -4,6 -11,21 -15,35 -4,14 -32,76 -62,139 -65,133 -90,205 -148,426 -50,187 -75,300 -90,415 -9,63 -21,135 -26,160 -6,25 -14,117 -19,205 -8,147 -44,403 -70,500 -6,22 -15,58 -20,80 -6,22 -14,56 -19,75 -5,19 -13,46 -16,60 -6,23 -10,34 -34,93 -5,12 -32,69 -60,127 l -51,105 51,11 c 106,24 185,146 197,305 5,72 -4,107 -50,203 -33,69 -44,88 -75,133 -13,17 -23,36 -23,42 0,19 -103,121 -139,137 -20,9 -45,20 -56,25 -43,19 -153,39 -216,39 -56,0 -77,-5 -138,-36 -40,-20 -74,-34 -77,-32 -5,6 33,146 49,178 39,82 73,122 149,179 45,34 92,61 104,61 13,0 25,4 28,9 8,12 124,31 211,34 92,3 253,-41 345,-94 8,-4 35,-20 59,-34 24,-14 49,-25 55,-25 45,-1 156,-63 230,-129 40,-36 168,-197 254,-317 40,-56 79,-107 87,-114 8,-7 15,-17 15,-22 0,-5 25,-43 55,-83 30,-41 55,-79 55,-83 0,-5 9,-17 20,-27 11,-10 20,-22 20,-26 0,-5 21,-41 47,-81 67,-104 121,-212 150,-295 13,-40 31,-85 38,-100 8,-16 15,-34 15,-41 0,-7 4,-20 9,-30 59,-120 95,-181 151,-257 37,-49 75,-106 85,-125 100,-194 114,-217 195,-326 43,-57 88,-105 122,-128 70,-48 148,-116 368,-321 100,-93 186,-179 191,-190 28,-64 67,-110 162,-190 126,-106 293,-281 434,-456 57,-69 120,-139 141,-156 67,-54 136,-83 196,-83 60,0 82,-14 92,-58 3,-15 13,-45 21,-67 50,-126 52,-128 86,-83 14,19 22,57 31,150 12,125 12,126 52,174 36,43 67,87 111,159 23,36 73,144 73,156 0,24 63,196 96,261 19,37 38,84 43,105 6,21 14,54 20,73 46,161 49,179 66,330 31,287 11,682 -45,875 -21,70 -39,198 -40,275 0,41 -5,104 -10,140 -15,110 -10,295 11,412 10,51 10,74 1,100 -78,226 -102,316 -102,388 0,21 -16,83 -35,139 -19,55 -35,103 -35,106 0,3 44,5 98,5 53,0 124,7 157,14 33,8 96,17 140,21 53,4 95,14 125,30 25,13 77,31 115,40 39,9 79,20 90,26 11,5 45,18 76,28 31,10 80,36 109,56 30,21 68,41 85,46 31,9 195,152 195,170 0,8 95,144 120,172 4,5 15,-15 25,-45 23,-73 71,-170 126,-253 25,-38 48,-75 50,-80 13,-34 149,-222 181,-251 57,-52 124,-42 195,28 l 43,42 v 132 c 0,102 -4,146 -20,195 -36,119 -40,154 -50,400 -5,135 -13,265 -19,290 -24,110 -60,469 -65,649 -7,245 -56,603 -102,738 -8,24 -24,107 -35,185 -11,77 -33,191 -49,252 -15,61 -31,138 -35,171 -6,51 -24,151 -55,309 -5,22 -11,81 -15,130 -3,50 -11,123 -16,162 -6,40 -7,78 -2,85 36,57 57,245 51,456 -4,128 -8,157 -32,227 -43,123 -63,206 -91,380 -14,88 -35,212 -45,276 -11,64 -25,183 -30,263 -5,80 -11,150 -14,155 -11,18 -55,238 -66,331 -11,100 -46,295 -83,470 -25,121 -27,201 -5,320 21,118 41,156 111,220 124,113 223,146 459,157 134,6 132,7 226,-98 42,-47 52,-80 15,-47 -37,33 -84,48 -165,54 -105,8 -292,-10 -349,-33 -87,-34 -156,-95 -196,-172 -28,-51 -6,-209 39,-290 45,-81 186,-257 262,-326 99,-92 132,-109 200,-103 47,4 55,9 108,64 82,85 114,155 133,289 9,61 23,160 31,220 23,159 23,159 50,84 13,-35 24,-74 24,-87 0,-12 9,-51 21,-85 43,-129 66,-324 88,-747 5,-109 12,-166 24,-192 9,-21 17,-50 17,-65 1,-15 14,-66 30,-113 17,-47 30,-94 30,-105 0,-11 11,-44 25,-73 14,-31 27,-81 31,-120 3,-37 13,-85 21,-107 9,-22 19,-58 23,-80 5,-22 17,-65 29,-94 17,-45 23,-94 31,-265 14,-277 24,-369 48,-441 26,-78 31,-101 42,-190 5,-41 18,-92 29,-112 25,-50 56,-163 81,-298 11,-60 29,-144 40,-185 11,-41 20,-85 20,-96 0,-22 5,-41 60,-224 28,-91 34,-116 64,-240 8,-30 25,-86 39,-125 13,-38 37,-110 52,-160 27,-90 49,-159 106,-335 17,-52 34,-108 39,-125 5,-16 16,-57 25,-89 8,-33 20,-65 25,-72 9,-10 89,-382 126,-584 17,-95 42,-188 54,-205 4,-5 17,-41 30,-80 24,-75 106,-286 147,-375 22,-47 75,-169 103,-235 4,-11 17,-41 29,-67 12,-26 21,-52 21,-56 0,-8 42,-100 78,-170 19,-38 85,-102 105,-102 7,0 18,5 25,12 9,9 16,7 32,-7 20,-18 21,-18 35,1 10,12 14,31 10,56 -5,33 -3,36 18,31 12,-3 29,-11 37,-18 48,-39 175,-69 384,-90 119,-12 149,-12 213,1 41,8 109,14 150,14 78,0 112,11 188,59 22,14 49,32 60,39 11,7 40,23 65,35 26,12 59,32 74,45 16,12 32,22 36,22 4,0 13,-28 20,-62 11,-58 30,-122 50,-173 4,-11 20,-56 35,-100 15,-44 42,-106 61,-138 19,-32 34,-60 34,-63 0,-2 16,-28 35,-58 19,-30 35,-57 35,-60 0,-2 34,-55 75,-118 42,-62 91,-145 110,-184 34,-72 84,-123 185,-192 49,-33 120,-52 120,-33 0,22 -33,76 -80,131 -65,75 -132,181 -125,198 9,25 25,144 35,267 5,66 18,181 30,255 11,74 27,196 34,270 7,74 23,185 34,245 18,96 37,248 57,475 4,36 13,103 20,150 8,47 19,137 25,200 6,63 16,131 22,150 5,19 14,114 18,210 5,96 16,211 25,255 8,44 20,154 25,245 5,91 18,233 29,315 11,83 25,271 31,418 6,148 15,279 20,290 10,25 60,279 85,432 8,55 26,134 40,175 13,41 29,95 36,120 7,25 23,65 36,89 13,24 23,55 23,68 0,14 14,48 31,77 31,51 66,80 165,135 l 43,24 93,-28 c 51,-15 122,-35 158,-44 61,-16 66,-20 86,-59 11,-24 28,-77 38,-120 27,-115 46,-185 55,-207 17,-39 30,-81 52,-160 20,-77 25,-105 48,-260 6,-38 15,-90 20,-115 14,-64 34,-747 28,-915 -3,-77 -13,-210 -21,-295 -9,-85 -16,-223 -16,-306 0,-89 -6,-185 -15,-230 -24,-133 -35,-266 -35,-431 0,-104 -7,-204 -19,-293 -41,-283 -61,-436 -61,-475 -1,-22 -2,-76 -3,-120 0,-44 7,-150 16,-235 9,-85 24,-218 32,-295 21,-195 38,-579 30,-705 -5,-77 -1,-153 15,-285 11,-99 25,-223 30,-275 5,-52 22,-167 39,-255 39,-211 49,-332 56,-685 7,-324 -3,-507 -37,-655 -14,-62 -23,-151 -29,-290 -4,-110 -13,-218 -18,-240 -6,-22 -16,-110 -21,-195 -6,-85 -17,-195 -25,-245 -11,-66 -17,-265 -25,-740 -5,-357 -13,-708 -16,-780 -3,-71 -9,-260 -14,-420 -9,-290 -17,-356 -54,-439 -8,-17 -20,-49 -27,-71 -6,-22 -29,-71 -49,-110 -21,-38 -52,-97 -70,-130 -35,-66 -51,-108 -74,-205 -12,-53 -15,-124 -13,-380 2,-295 4,-320 25,-395 25,-86 88,-277 102,-310 5,-11 20,-45 33,-75 13,-30 28,-70 31,-88 l 8,-32 h 89 89 l -16,38 c -9,20 -20,45 -25,54 -5,10 -9,22 -9,28 0,5 -13,38 -29,72 -26,57 -70,185 -114,328 -28,88 -37,182 -37,380 0,155 3,196 20,255 11,38 20,97 20,130 0,39 6,72 18,95 94,176 142,272 142,281 0,6 7,25 15,42 8,18 26,68 41,112 26,77 27,94 40,465 7,212 18,693 24,1070 10,587 14,704 31,815 10,72 19,164 19,205 0,41 7,116 16,165 9,50 20,178 24,285 6,135 15,221 29,280 23,95 44,321 45,480 1,190 -24,713 -38,800 -7,47 -25,153 -40,235 -41,238 -76,590 -77,770 -1,300 -13,428 -85,895 -19,129 -14,255 20,465 14,83 30,199 36,259 6,61 14,115 18,120 3,6 10,128 13,271 5,185 13,295 27,380 14,83 23,193 27,355 3,129 11,267 16,305 18,139 21,401 10,772 -10,304 -16,395 -32,465 -10,48 -19,108 -19,132 0,53 -46,238 -88,352 -16,45 -37,119 -46,165 -24,121 -79,261 -116,294 -10,9 -51,25 -91,36 -41,11 -92,24 -114,30 -22,6 -47,15 -57,19 -9,5 -44,16 -79,25 -73,19 -135,14 -172,-15 -13,-10 -54,-33 -91,-51 -41,-20 -77,-45 -94,-68 -55,-71 -91,-137 -102,-186 -6,-27 -15,-54 -20,-60 -5,-6 -20,-51 -35,-100 -14,-50 -34,-114 -45,-143 -11,-29 -31,-119 -44,-200 -34,-199 -55,-310 -68,-351 -15,-50 -26,-169 -38,-426 -6,-126 -19,-302 -30,-390 -10,-88 -21,-216 -25,-285 -3,-69 -13,-161 -21,-205 -9,-44 -19,-156 -23,-250 -4,-93 -13,-181 -18,-195 -6,-14 -13,-61 -17,-105 -4,-44 -18,-161 -31,-260 -13,-99 -29,-232 -35,-295 -6,-63 -16,-158 -21,-210 -5,-52 -18,-131 -29,-175 -10,-44 -22,-118 -25,-165 -4,-47 -22,-195 -40,-330 -19,-135 -36,-265 -37,-290 l -3,-45 -15,26 c -8,14 -27,49 -41,76 -14,28 -42,77 -63,111 -37,62 -146,361 -146,403 0,13 -7,49 -16,79 -17,60 -50,206 -90,400 -14,68 -29,172 -34,230 -5,58 -16,159 -25,225 -9,66 -24,188 -35,270 -10,83 -26,168 -35,189 -9,22 -23,71 -30,110 -7,39 -25,118 -39,176 -15,58 -33,137 -40,175 -8,39 -19,84 -24,100 -22,61 -42,249 -36,330 6,84 -12,226 -41,320 -8,28 -26,97 -41,155 -14,58 -30,121 -35,140 -5,19 -13,64 -19,100 -11,71 -36,163 -75,280 -14,41 -25,85 -25,97 0,12 -6,42 -14,65 -7,24 -21,77 -30,118 -9,41 -23,91 -31,110 -7,19 -19,76 -25,125 -17,127 -66,371 -86,430 -10,27 -25,63 -35,80 -10,16 -27,66 -39,110 -12,44 -35,108 -51,143 -16,35 -29,68 -29,73 0,6 -9,27 -19,47 -11,20 -24,57 -31,82 -28,113 -73,243 -109,315 -17,33 -49,103 -72,155 -23,52 -48,109 -55,125 -22,51 -52,167 -59,227 -4,32 -11,60 -16,63 -5,4 -9,16 -9,28 0,12 -8,38 -19,57 -10,19 -24,52 -30,73 -24,71 -65,131 -146,212 -86,86 -112,101 -220,134 -57,17 -96,21 -210,21 -126,0 -143,-2 -175,-22 -19,-12 -62,-31 -95,-43 -55,-20 -68,-32 -156,-133 -53,-61 -105,-127 -115,-148 -11,-20 -27,-51 -36,-69 -41,-78 -58,-303 -26,-342 5,-6 16,-80 24,-165 9,-92 25,-187 40,-238 14,-47 36,-137 49,-200 25,-123 96,-405 114,-455 6,-16 15,-59 20,-95 4,-36 25,-133 45,-216 20,-83 42,-209 50,-280 8,-71 24,-165 35,-209 12,-44 32,-160 46,-258 16,-110 35,-204 51,-245 14,-37 36,-119 50,-182 68,-314 108,-513 139,-700 19,-113 39,-221 45,-240 25,-87 72,-377 80,-500 5,-74 21,-187 34,-250 41,-187 119,-622 135,-762 7,-58 -3,-80 -15,-32 -4,14 -17,47 -30,74 -13,26 -26,61 -30,76 -4,15 -13,39 -20,53 -8,14 -14,32 -14,39 0,7 -4,20 -9,30 -5,9 -14,29 -20,45 -6,15 -15,37 -21,50 -13,30 -95,282 -108,332 -5,22 -37,177 -69,345 -33,168 -67,321 -75,340 -9,19 -25,64 -36,100 -70,228 -87,284 -112,360 -15,47 -33,105 -40,130 -7,25 -29,95 -50,155 -21,61 -43,135 -50,165 -7,30 -27,105 -45,165 -18,61 -43,153 -55,205 -12,52 -32,131 -43,175 -11,44 -25,112 -32,150 -30,163 -38,194 -70,280 -19,50 -39,126 -46,170 -6,44 -22,114 -36,155 -28,81 -38,167 -53,450 -9,180 -18,243 -45,305 -7,17 -17,48 -21,70 -3,22 -12,51 -20,65 -7,14 -17,61 -23,104 -6,43 -20,99 -31,123 -11,25 -20,51 -20,58 0,7 -16,59 -35,116 -19,57 -35,116 -35,131 0,15 -8,49 -19,75 -10,26 -21,89 -25,138 -4,50 -14,113 -21,140 -10,35 -14,99 -13,210 1,182 -13,286 -67,500 -36,143 -47,176 -97,279 -15,33 -28,65 -28,73 0,21 -160,183 -205,206 -35,19 -59,22 -180,23 -84,2 -169,-3 -212,-11 z m 2024,-1020 c 46,-13 76,-30 119,-68 56,-50 135,-160 148,-208 4,-13 13,-37 21,-54 19,-44 45,-138 45,-166 0,-29 38,-169 50,-184 4,-5 11,-29 15,-52 4,-24 12,-43 19,-43 7,0 21,-19 30,-42 10,-24 39,-88 66,-143 86,-181 147,-343 165,-441 7,-39 18,-82 25,-94 11,-21 20,-51 51,-175 5,-22 25,-69 43,-105 26,-51 40,-102 64,-235 17,-93 34,-199 37,-235 3,-36 15,-94 25,-130 10,-36 31,-117 45,-180 26,-111 46,-187 86,-315 10,-33 29,-114 43,-180 14,-66 34,-154 46,-195 11,-41 26,-102 34,-135 7,-33 22,-87 31,-120 13,-43 19,-100 20,-200 3,-185 14,-312 32,-355 8,-19 21,-66 28,-105 14,-75 36,-168 60,-250 7,-27 21,-85 30,-129 8,-43 22,-91 30,-106 8,-15 22,-81 31,-146 9,-66 29,-193 46,-284 42,-240 50,-289 46,-301 -2,-6 -26,8 -53,30 -27,23 -56,41 -64,41 -13,0 -79,27 -123,51 -10,5 -36,9 -59,9 -23,0 -74,10 -113,21 -63,19 -87,21 -216,16 -80,-3 -161,-11 -180,-18 -82,-28 -118,-45 -168,-78 -29,-20 -76,-51 -105,-69 -28,-18 -78,-58 -109,-89 -32,-32 -58,-55 -58,-52 0,3 -5,30 -10,60 -6,30 -19,113 -29,184 -25,163 -56,336 -81,440 -26,110 -40,211 -40,292 0,37 -6,106 -14,153 -33,194 -56,317 -66,350 -6,19 -24,114 -40,210 -35,206 -94,503 -115,577 -9,29 -19,99 -24,155 -5,57 -26,171 -46,253 -19,83 -44,218 -55,300 -26,198 -35,244 -70,345 -16,47 -34,114 -40,150 -15,93 -30,162 -40,185 -14,34 -59,226 -69,300 -10,71 -16,100 -71,330 -17,72 -35,159 -40,195 -6,36 -13,72 -16,80 -3,8 -14,94 -24,190 -11,96 -26,199 -35,229 -11,41 -12,64 -5,90 5,20 10,48 10,62 0,15 24,62 56,110 30,46 58,96 61,111 8,43 78,116 123,129 21,6 51,22 66,35 28,23 35,24 149,20 74,-2 144,-10 182,-21 z M 5775,12879 c 18,-27 -6,-61 -61,-85 -82,-36 -107,-32 -95,13 5,21 22,33 72,54 73,32 76,33 84,18 z m 112,-67 c 13,-8 62,-130 70,-174 4,-22 1,-28 -11,-28 -30,0 -62,45 -81,112 -22,81 -14,113 22,90 z m -545,-224 c 8,-7 21,-29 28,-48 7,-19 21,-53 31,-76 29,-61 23,-92 -15,-78 -22,9 -66,107 -73,165 -6,50 1,59 29,37 z m 568,-81 c 0,-22 -42,-54 -94,-71 -45,-15 -51,-15 -65,-1 -22,22 -6,43 49,66 54,22 110,25 110,6 z m -203,-146 c 7,-10 19,-47 28,-82 9,-35 23,-75 31,-91 25,-48 13,-105 -19,-92 -9,3 -17,13 -17,20 0,8 -12,37 -26,65 -31,61 -48,153 -33,180 12,24 21,24 36,0 z m -235,-113 c 17,-31 69,-176 75,-210 6,-30 -19,-50 -38,-31 -21,21 -79,208 -73,236 7,33 19,35 36,5 z m 560,-88 c 5,0 8,-10 6,-22 -2,-17 -20,-31 -68,-55 -73,-35 -126,-43 -116,-17 3,9 6,20 6,25 0,13 133,79 148,74 8,-3 18,-5 24,-5 z m 192,-96 c 21,-8 20,-38 0,-69 -16,-25 -97,-85 -113,-85 -5,0 -14,-7 -21,-15 -7,-9 -56,-36 -109,-60 -53,-25 -118,-57 -146,-71 -27,-15 -86,-45 -130,-68 -44,-23 -95,-52 -112,-64 -17,-12 -34,-22 -37,-22 -3,0 -27,-15 -53,-32 -26,-18 -122,-65 -213,-105 -91,-39 -230,-101 -310,-137 -149,-67 -196,-79 -207,-50 -10,27 8,44 87,86 41,22 89,50 105,62 48,36 216,123 289,151 37,14 136,59 221,100 84,41 158,75 164,75 21,0 95,42 141,80 25,20 74,54 110,75 36,21 77,46 92,57 15,10 51,27 80,38 29,11 71,29 93,40 43,22 46,23 69,14 z m -735,-133 c 28,-18 1,-48 -69,-80 -81,-36 -110,-39 -110,-13 0,24 22,43 85,75 54,28 72,32 94,18 z m 441,-350 c 0,-49 -15,-73 -59,-92 -25,-11 -60,-27 -78,-35 -35,-16 -62,-18 -80,-6 -21,13 3,81 31,88 13,3 45,16 72,29 48,24 114,33 114,16 z m 164,-123 c 3,-15 22,-63 42,-107 50,-109 42,-151 -22,-112 -22,13 -37,35 -49,68 -9,26 -20,55 -25,64 -13,25 -23,105 -16,127 7,20 8,20 36,4 17,-10 31,-28 34,-44 z m -378,-169 c 61,-151 76,-249 38,-249 -21,0 -41,37 -80,155 -38,116 -43,157 -23,181 17,21 26,9 65,-87 z m -302,-71 c 3,-16 21,-63 41,-105 48,-104 46,-150 -7,-122 -33,18 -56,49 -70,94 -6,22 -15,45 -19,50 -11,16 -22,101 -15,123 7,20 8,20 36,4 17,-10 31,-28 34,-44 z m 664,-114 c 17,-5 21,-11 16,-28 -8,-27 -32,-44 -111,-79 -63,-28 -64,-28 -87,-9 -22,17 -23,20 -10,50 8,19 20,32 31,32 10,0 36,9 58,19 43,21 67,24 103,15 z m 161,-65 c 13,-17 31,-59 41,-92 10,-34 28,-89 41,-122 26,-69 21,-115 -11,-115 -24,0 -48,46 -80,150 -12,41 -28,90 -36,108 -17,39 -17,43 -4,76 12,34 21,33 49,-5 z m -415,-138 c 10,-11 28,-57 41,-103 12,-45 33,-105 45,-133 16,-38 20,-60 15,-92 -3,-24 -11,-43 -16,-43 -21,0 -49,21 -49,38 0,9 -12,42 -26,72 -54,116 -76,222 -52,259 16,26 20,26 42,2 z m -426,-37 c 17,-5 21,-11 16,-28 -8,-27 -32,-44 -111,-79 -63,-28 -64,-28 -87,-9 -22,17 -23,20 -10,50 8,19 20,32 31,32 10,0 36,9 58,19 43,21 67,24 103,15 z m 152,-47 c 0,-6 7,-18 15,-27 9,-10 24,-46 34,-81 11,-35 29,-91 42,-124 26,-69 21,-115 -11,-115 -24,0 -48,46 -80,150 -12,41 -29,90 -37,109 -12,30 -11,79 3,103 6,10 34,-2 34,-15 z m -406,-156 c 10,-11 28,-57 41,-103 12,-45 33,-105 45,-133 16,-38 20,-60 15,-92 -3,-24 -11,-43 -16,-43 -24,0 -47,22 -52,50 -4,17 -17,54 -30,83 -52,112 -68,199 -45,236 16,26 20,26 42,2 z m 1112,-37 c 33,-9 17,-54 -27,-76 -86,-44 -150,-68 -179,-68 -28,0 -30,2 -24,28 9,36 10,37 95,82 74,39 95,45 135,34 z m -680,-240 c 33,-9 17,-54 -27,-76 -86,-44 -150,-68 -179,-68 -28,0 -30,2 -24,28 9,36 10,37 95,82 74,39 95,45 135,34 z m 894,-1039 c 22,-26 8,-118 -24,-160 -26,-34 -31,-36 -65,-30 -81,15 -103,57 -65,121 16,26 39,46 71,61 59,26 67,27 83,8 z"
         id="path2" />
    </g>
  </g>
  <g
     transform="translate(-1318.902,3.6215178)"
     id="layer2">
    <path
       style="fill:#7b7b7b;stroke:none"
       id="path143"
       d="m 5900.9319,14911.378 c -75,-11 -140,-29 -181,-50 -25,-12 -83,-32 -128,-44 -45,-11 -104,-29 -131,-40 -26,-10 -133,-40 -236,-66 -104,-25 -207,-53 -229,-61 -47,-17 -293,-94 -380,-119 -59,-16 -189,-68 -550,-217 -99,-41 -279,-126 -400,-188 -213,-110 -220,-115 -223,-146 l -3,-32 35,14 c 19,8 38,15 40,15 3,0 -6,-31 -19,-69 -21,-57 -25,-86 -25,-179 0,-134 15,-219 85,-477 30,-110 75,-297 100,-414 24,-118 70,-298 100,-400 145,-481 168,-546 272,-756 94,-190 136,-303 208,-560 93,-332 139,-481 191,-612 60,-153 140,-389 168,-498 24,-91.9995 65,-202.9995 130,-353.9995 25,-58 33,-88 26,-95 -27,-27 0,-153 47,-214 15,-20 28,-40 28,-44 0,-4 6,-13 13,-19 6,-7 12,-17 12,-21 0,-5 19,-37 43,-72 50,-74 315,-325 373,-352 21,-10 75,-53 119,-95 l 80,-77 105,-15 c 58,-9 161,-32 230,-52 155,-44 256,-53 365,-32 44,9 112,19 150,23 39,4 87,15 107,25 20,10 72,28 115,40 112,31 210,71 272,113 29,20 59,36 66,36 25,0 132,99 174,162 23,35 63,92 87,128 79,114 159,305 190,457 19,88 19,85 28,358 7,197.9995 0,291.9995 -22,287.9995 -6,-2 -14,14 -17,35 -3,20 -17,91 -30,157 -13,66 -27,149 -31,185 -3,36 -11,74 -17,85 -6,11 -19,47 -29,80 -9,33 -26,92 -37,130 -25,90 -82,326 -81,343 0,7 -19,57 -42,110 -40,94 -42,101 -48,242 -7,145 -8,145 -63,291 -56,149 -97,323 -116,489 -5,47 -25,133 -44,190 -20,58 -40,124 -47,148 -15,59 -40,272 -40,357 -1,73 -12,121 -72,315 -20,63 -43,160 -52,215 -29,193 -49,271 -98,399 -44,112 -51,142 -58,235 -10,125 -40,271 -75,366 -15,38 -33,98 -41,134 -18,77 -54,139 -98,169 -50,33 -193,51 -296,36 z m -178,-390 c 91,-56 213,-221 240,-321 4,-18 12,-48 17,-65 5,-18 17,-64 26,-103 38,-158 53,-213 73,-262 20,-53 60,-232 82,-373 7,-41 34,-142 61,-225 65,-201 64,-197 89,-300 13,-49 31,-107 41,-127 35,-69 132,-313 156,-393 102,-334 107,-354 133,-480 30,-145 87,-377 115,-470 14,-44 34,-137 44,-207 19,-122 28,-150 102,-314 30,-68 78,-225 100,-330 15,-74 26,-104 43,-119 35,-31 60,-98 52,-142 -3,-21 -10,-63 -15,-93 -5,-30 -20,-80 -34,-111 -98,-217.9995 -385,-455.9995 -622,-513.9995 -45,-11 -90,-32 -125,-56 -30,-21 -86,-49 -125,-62 -38,-13 -113,-39 -165,-57 -87,-30 -105,-33 -212,-32 -64,0 -126,5 -137,11 -11,6 -37,11 -59,11 -21,0 -79,13 -128,30 -49,16 -103,30 -120,30 -44,0 -192,78 -258,136 -33,29 -62,65 -72,89 -8,22 -31,60 -49,85 -18,25 -38,64 -44,87 -6,22 -22,66 -35,96 -14,30 -30,91.9995 -36,137.9995 -6,45 -20,99 -30,119 -10,20 -28,65 -40,101 -23,68 -87,237 -126,330 -13,30 -31,86 -39,123 -9,38 -29,94 -45,125 -18,36 -38,105 -54,190 -19,95 -40,165 -75,249 -62,148 -77,209 -86,349 -7,132 -47,300 -105,445 -22,53 -51,139 -65,190 -15,51 -48,138 -74,194 -27,55 -60,149 -76,210 -15,60 -34,121 -41,135 -7,15 -33,85 -58,155 -24,71 -53,149 -65,174 -11,25 -30,86 -43,136 -13,49 -33,103 -44,119 -34,50 -84,173 -98,243 -22,109 10,260 68,321 26,27 118,70 196,91 25,6 81,25 125,42 44,16 132,44 195,62 63,18 126,38 140,46 55,30 276,98 440,136 41,9 111,30 155,47 203,75 358,118 425,117 19,0 58,7 85,14 88,25 134,20 197,-20 z m 798,-5061.9995 c 26,-16 57,-48 75,-77 26,-41 30,-58 30,-114 -1,-60 -5,-73 -45,-139 -24,-40 -49,-77 -57,-84 -8,-6 -46,-13 -86,-16 -57,-3 -84,0 -129,17 -55,21 -118,73 -118,96 0,7 -9,20 -20,30 -16,14 -20,31 -20,79 0,34 6,72 13,86 31,61 220,165 282,155 17,-3 50,-18 75,-33 z" />
    <path
       id="path2349"
       transform="scale(10)"
       style="fill:#7b7b7b;stroke:none;stroke-width:0.1"
       d="m 1016.8711,931.04883 c -0.5883,0.229 -0.5324,0.45217 0.023,0.54297 -0.01,-0.18038 -0.018,-0.36336 -0.023,-0.54297 z" />
    <path
       id="path2391"
       transform="scale(10)"
       style="fill:#7b7b7b;stroke:none;stroke-width:0.1"
       d="m 1012.5938,919.73828 c -2.5,0 -1.7012,1.49883 1.7988,3.29883 0.9981,0.48558 1.8626,0.85385 2.6074,1.11914 0.044,-0.63902 0.099,-1.27045 0.1602,-1.89844 -0.024,-0.006 -0.043,-0.0139 -0.066,-0.0195 -1.6,-0.4 -3,-1.09961 -3,-1.59961 0,-0.5 -0.7001,-0.90039 -1.5,-0.90039 z" />
    <path
       style="fill:#7b7b7b;stroke:none"
       id="path2433"
       d="m 10530.932,9167.3785 c 0,-5 7,-10 15,-10 8,0 15,5 15,10 0,6 -7,10 -15,10 -8,0 -15,-4 -15,-10 z" />
    <path
       style="fill:#7b7b7b;stroke:none"
       id="path2443"
       d="m 10300.932,9135.3785 c -22,-13 -30,-23 -21,-26 7,-2 16,0 20,5 3,6 16,13 29,17 12,4 22,12 22,17 0,14 -12,11 -50,-13 z" />
    <path
       style="fill:#7b7b7b;stroke:none"
       id="path2447"
       d="m 10005.932,9137.3785 c -3,-5 1,-10 9,-10 9,0 16,5 16,10 0,6 -4,10 -9,10 -6,0 -13,-4 -16,-10 z" />
    <path
       style="fill:#7b7b7b;stroke:none"
       id="path2449"
       d="m 10230.932,9131.3785 c 0,-14 3,-14 15,-4 8,7 15,14 15,16 0,2 -7,4 -15,4 -8,0 -15,-7 -15,-16 z" />
    <path
       style="fill:#7b7b7b;stroke:none"
       id="path2451"
       d="m 10610.932,9137.3785 c 0,-5 7,-10 15,-10 8,0 15,-4 15,-10 0,-5 8,-10 18,-10 14,1 13,4 -7,20 -25,22 -41,26 -41,10 z" />
    <path
       style="fill:#7b7b7b;stroke:none"
       id="path2459"
       d="m 10925.932,9122.3785 c 4,-11 10,-28 12,-37 3,-10 14,-18 24,-18 20,0 26,-16 9,-22 -13,-4 -1,-68 13,-68 5,0 7,13 4,30 -4,17 -2,30 3,30 6,0 10,-7 10,-15 0,-8 7,-15 16,-15 13,0 13,4 -3,30 -23,40 -99,112 -88,85 z" />
    <path
       style="fill:#7b7b7b;stroke:none"
       id="path2465"
       d="m 9930.9319,9103.3785 c -55,-29 -102,-76 -77,-76 9,0 22,9 29,20 7,11 18,20 25,20 7,0 13,4 13,8 0,4 16,14 35,21 19,7 35,17 35,22 0,13 -10,11 -60,-15 z" />
    <path
       style="fill:#7b7b7b;stroke:none"
       id="path2467"
       d="m 10410.932,9117.3785 c 0,-5 7,-10 15,-10 8,0 15,5 15,10 0,6 -7,10 -15,10 -8,0 -15,-4 -15,-10 z" />
    <path
       style="fill:#7b7b7b;stroke:none"
       id="path2469"
       d="m 10510.932,9117.3785 c 0,-5 7,-10 15,-10 8,0 15,5 15,10 0,6 -7,10 -15,10 -8,0 -15,-4 -15,-10 z" />
    <path
       style="fill:#7b7b7b;stroke:none"
       id="path2471"
       d="m 10353.932,9105.3785 c -13,-6 -23,-15 -23,-20 0,-4 -6,-8 -13,-8 -16,0 -57,-42 -57,-58 0,-7 -4,-12 -9,-12 -9,0 -41,-71 -41,-90 0,-25 18,-6 29,31 15,48 96,135 135,145 14,3 26,10 26,15 0,12 -19,10 -47,-3 z" />
    <path
       style="fill:#7b7b7b;stroke:none"
       id="path2473"
       d="m 10550.932,9107.3785 c 0,-5 7,-10 15,-10 8,0 15,5 15,10 0,6 -7,10 -15,10 -8,0 -15,-4 -15,-10 z" />
    <path
       style="fill:#7b7b7b;stroke:none"
       id="path2479"
       d="m 10180.932,9081.3785 c 0,-14 3,-14 15,-4 8,7 15,14 15,16 0,2 -7,4 -15,4 -8,0 -15,-7 -15,-16 z" />
    <path
       style="fill:#7b7b7b;stroke:none"
       id="path2481"
       d="m 10230.932,9082.3785 c -10,-12 -10,-15 4,-15 9,0 16,7 16,15 0,8 -2,15 -4,15 -2,0 -9,-7 -16,-15 z" />
    <path
       style="fill:#7b7b7b;stroke:none"
       id="path2483"
       d="m 10430.932,9087.3785 c 0,-5 20,-10 45,-10 25,0 45,5 45,10 0,6 -20,10 -45,10 -25,0 -45,-4 -45,-10 z" />
    <path
       style="fill:#7b7b7b;stroke:none"
       id="path2487"
       d="m 10390.932,9077.3785 c 0,-5 7,-10 15,-10 8,0 15,5 15,10 0,6 -7,10 -15,10 -8,0 -15,-4 -15,-10 z" />
    <path
       style="fill:#7b7b7b;stroke:none"
       id="path2489"
       d="m 10534.932,9072.3785 c 4,-11 -1,-15 -19,-15 -14,0 -25,-4 -25,-10 0,-5 6,-10 14,-10 8,0 16,-6 18,-12 3,-9 10,-7 23,6 18,17 19,17 35,-15 12,-23 19,-28 24,-18 8,19 0,-21 -9,-43 -4,-11 -3,-18 4,-18 6,0 11,6 11,14 0,8 5,18 11,22 8,4 9,-1 4,-16 -6,-17 -4,-21 6,-14 12,7 12,5 1,-9 -8,-9 -11,-21 -7,-27 4,-6 -3,-22 -16,-36 -12,-13 -17,-24 -11,-24 6,0 14,5 17,10 4,6 15,8 25,5 16,-5 17,1 15,55 -1,33 -8,66 -14,74 -10,12 -8,13 11,9 l 23,-6 -25,27 c -25,28 -89,66 -111,66 -6,0 -9,-7 -5,-15 z" />
    <path
       style="fill:#7b7b7b;stroke:none"
       id="path2491"
       d="m 10610.932,9083.3785 c 0,-2 7,-9 15,-16 12,-10 15,-10 15,4 0,9 -7,16 -15,16 -8,0 -15,-2 -15,-4 z" />
    <path
       style="fill:#7b7b7b;stroke:none"
       id="path2503"
       d="m 10341.932,9054.3785 c -9,-12 -9,-16 0,-19 18,-6 1,-28 -22,-28 -11,0 -19,-7 -19,-16 0,-8 5,-12 10,-9 6,3 14,-5 20,-19 14,-38 23,-32 15,10 -4,23 -3,34 4,30 13,-9 24,30 13,49 -7,14 -10,14 -21,2 z" />
    <path
       style="fill:#7b7b7b;stroke:none"
       id="path2507"
       d="m 10142.932,9032.3785 c -25,-54 -6,-63 20,-10 14,27 15,35 4,35 -7,0 -18,-11 -24,-25 z" />
    <path
       style="fill:#7b7b7b;stroke:none"
       id="path2509"
       d="m 10192.932,9027.3785 c -24,-38 -27,-50 -13,-50 5,0 13,10 17,23 4,12 11,25 17,28 5,4 7,13 5,20 -3,9 -13,1 -26,-21 z" />
    <path
       style="fill:#7b7b7b;stroke:none"
       id="path2511"
       d="m 10417.932,9050.3785 c -27,-4 -60,-43 -36,-43 7,0 4,-9 -7,-22 -17,-19 -17,-21 -1,-15 9,4 17,2 17,-3 0,-6 5,-10 10,-10 6,0 10,11 10,25 0,15 6,25 15,25 9,0 12,6 9,15 -4,9 0,15 10,15 9,0 16,5 16,10 0,6 -3,9 -7,9 -5,-1 -20,-4 -36,-6 z" />
    <path
       style="fill:#7b7b7b;stroke:none"
       id="path2513"
       d="m 10720.932,9042.3785 c 0,-8 7,-15 16,-15 14,0 14,3 4,15 -7,8 -14,15 -16,15 -2,0 -4,-7 -4,-15 z" />
    <path
       style="fill:#7b7b7b;stroke:none"
       id="path2515"
       d="m 10895.932,9030.3785 c 8,-31 13,-39 20,-31 9,9 -6,58 -17,58 -6,0 -7,-11 -3,-27 z" />
    <path
       style="fill:#7b7b7b;stroke:none"
       id="path2529"
       d="m 10555.932,9017.3785 c 3,-5 8,-10 11,-10 2,0 4,5 4,10 0,6 -5,10 -11,10 -5,0 -7,-4 -4,-10 z" />
    <path
       style="fill:#7b7b7b;stroke:none"
       id="path2531"
       d="m 10689.932,8999.3785 c 11,-16 23,-40 26,-55 7,-27 25,-38 25,-15 0,24 -42,98 -57,98 -11,0 -10,-6 6,-28 z" />
    <path
       style="fill:#7b7b7b;stroke:none"
       id="path2535"
       d="m 9816.9319,8995.3785 c -18,-25 -21,-48 -7,-48 10,0 36,58 28,66 -3,3 -12,-5 -21,-18 z" />
    <path
       style="fill:#7b7b7b;stroke:none"
       id="path2537"
       d="m 10450.932,8992.3785 c 0,-8 5,-15 10,-15 6,0 10,7 10,15 0,8 -4,15 -10,15 -5,0 -10,-7 -10,-15 z" />
    <path
       style="fill:#7b7b7b;stroke:none"
       id="path2539"
       d="m 10540.932,8992.3785 c 0,-8 2,-15 4,-15 2,0 11,-3 20,-6 23,-9 20,9 -4,24 -17,10 -20,10 -20,-3 z" />
    <path
       style="fill:#7b7b7b;stroke:none"
       id="path2545"
       d="m 10490.932,8982.3785 c 0,-8 -7,-15 -15,-15 -22,0 -18,-17 5,-23 11,-3 20,-12 20,-21 0,-9 5,-16 10,-16 12,0 13,15 4,59 -7,31 -24,43 -24,16 z" />
    <path
       style="fill:#7b7b7b;stroke:none"
       id="path2547"
       d="m 11026.932,8960.3785 c 7,-42 11,-49 20,-40 10,9 -5,77 -17,77 -6,0 -7,-15 -3,-37 z" />
    <path
       style="fill:#7b7b7b;stroke:none"
       id="path2553"
       d="m 10805.932,8960.3785 c 8,-31 13,-39 20,-31 9,9 -6,58 -17,58 -6,0 -7,-11 -3,-27 z" />
    <path
       style="fill:#7b7b7b;stroke:none"
       id="path2555"
       d="m 10910.932,8967.3785 c 0,-11 5,-20 10,-20 6,0 10,9 10,20 0,11 -4,20 -10,20 -5,0 -10,-9 -10,-20 z" />
    <path
       style="fill:#7b7b7b;stroke:none"
       id="path2559"
       d="m 10010.932,8957.3785 c 0,-11 5,-20 10,-20 6,0 10,9 10,20 0,11 -4,20 -10,20 -5,0 -10,-9 -10,-20 z" />
    <path
       style="fill:#7b7b7b;stroke:none"
       id="path2561"
       d="m 10255.932,8944.3785 c -16,-40 -19,-67 -7,-67 9,0 35,90 27,98 -2,3 -12,-11 -20,-31 z" />
    <path
       style="fill:#7b7b7b;stroke:none"
       id="path2563"
       d="m 10765.932,8950.3785 c 8,-31 13,-39 20,-31 9,9 -6,58 -17,58 -6,0 -7,-11 -3,-27 z" />
    <path
       style="fill:#7b7b7b;stroke:none"
       id="path2565"
       d="m 10291.932,8950.3785 c 1,-27 12,-48 28,-51 9,-2 11,3 6,15 -4,10 -7,26 -7,36 0,9 -6,17 -14,17 -8,0 -14,-8 -13,-17 z" />
    <path
       style="fill:#7b7b7b;stroke:none"
       id="path2573"
       d="m 10080.932,8937.3785 c 0,-11 5,-20 10,-20 6,0 10,9 10,20 0,11 -4,20 -10,20 -5,0 -10,-9 -10,-20 z" />
    <path
       style="fill:#7b7b7b;stroke:none"
       id="path2575"
       d="m 10110.932,8942.3785 c 0,-8 5,-15 10,-15 6,0 10,7 10,15 0,8 -4,15 -10,15 -5,0 -10,-7 -10,-15 z" />
    <path
       style="fill:#7b7b7b;stroke:none"
       id="path2577"
       d="m 10550.932,8942.3785 c 0,-6 7,-20 15,-31 14,-18 15,-17 13,12 -2,28 -28,46 -28,19 z" />
    <path
       style="fill:#7b7b7b;stroke:none"
       id="path2579"
       d="m 10685.932,8930.3785 c 8,-31 13,-39 20,-31 9,9 -6,58 -17,58 -6,0 -7,-11 -3,-27 z" />
    <path
       style="fill:#7b7b7b;stroke:none"
       id="path2587"
       d="m 10150.932,8932.3785 c 0,-8 5,-15 10,-15 6,0 10,7 10,15 0,8 -4,15 -10,15 -5,0 -10,-7 -10,-15 z" />
    <path
       style="fill:#7b7b7b;stroke:none"
       id="path2589"
       d="m 10530.932,8928.3785 c 0,-8 8,-20 18,-27 10,-8 12,-13 5,-14 -7,0 -13,-7 -13,-16 0,-8 5,-12 10,-9 6,3 10,-1 10,-9 0,-9 5,-16 10,-16 19,0 9,45 -15,75 -14,17 -25,24 -25,16 z" />
    <path
       style="fill:#7b7b7b;stroke:none"
       id="path2591"
       d="m 10337.932,8911.3785 c 4,-10 -1,-17 -16,-21 -15,-4 -21,-13 -21,-34 0,-19 -5,-29 -15,-29 -8,0 -15,-7 -15,-15 0,-8 -4,-15 -10,-15 -5,0 -10,-7 -10,-15 0,-8 5,-15 10,-15 6,0 10,6 10,14 0,22 50,57 72,50 15,-4 17,-2 9,18 -4,13 -6,35 -4,51 2,15 -1,27 -6,27 -6,0 -8,-7 -4,-16 z m -2,-54 c 3,-5 4,-10 1,-10 -3,0 -8,5 -11,10 -3,6 -4,10 -1,10 3,0 8,-4 11,-10 z" />
    <path
       style="fill:#7b7b7b;stroke:none"
       id="path2593"
       d="m 10458.932,8915.3785 c 9,-9 15,-9 24,0 9,9 7,12 -12,12 -19,0 -21,-3 -12,-12 z" />
    <path
       style="fill:#7b7b7b;stroke:none"
       id="path2595"
       d="m 10597.932,8921.3785 c -11,-11 -8,-26 3,-19 6,3 10,2 10,-4 0,-5 -6,-12 -12,-14 -10,-4 -10,-6 -1,-6 6,-1 15,3 18,9 8,12 -9,43 -18,34 z" />
    <path
       style="fill:#7b7b7b;stroke:none"
       id="path2599"
       d="m 9780.9319,8892.3785 c 0,-14 5,-25 10,-25 6,0 10,11 10,25 0,14 -4,25 -10,25 -5,0 -10,-11 -10,-25 z" />
    <path
       style="fill:#7b7b7b;stroke:none"
       id="path2601"
       d="m 10100.932,8887.3785 c 0,-16 5,-30 10,-30 6,0 10,14 10,30 0,17 -4,30 -10,30 -5,0 -10,-13 -10,-30 z" />
    <path
       style="fill:#7b7b7b;stroke:none"
       id="path2605"
       d="m 10000.932,8837.3785 c 0,-40 4,-70 10,-70 6,0 10,30 10,70 0,40 -4,70 -10,70 -6,0 -10,-30 -10,-70 z" />
    <path
       style="fill:#7b7b7b;stroke:none"
       id="path2607"
       d="m 10371.932,8865.3785 c -1,-21 3,-38 9,-38 5,0 10,10 10,23 1,21 1,21 15,3 13,-17 15,-17 31,-2 15,16 15,18 -1,36 -10,11 -28,19 -40,18 -17,-2 -22,-9 -24,-40 z" />
    <path
       style="fill:#7b7b7b;stroke:none"
       id="path2609"
       d="m 10820.932,8862.3785 c 0,-25 5,-45 10,-45 6,0 10,20 10,45 0,25 -4,45 -10,45 -5,0 -10,-20 -10,-45 z" />
    <path
       style="fill:#7b7b7b;stroke:none"
       id="path2611"
       d="m 10980.932,8872.3785 c 0,-19 5,-35 10,-35 6,0 10,16 10,35 0,19 -4,35 -10,35 -5,0 -10,-16 -10,-35 z" />
    <path
       style="fill:#7b7b7b;stroke:none"
       id="path2613"
       d="m 10730.932,8857.3785 c 0,-22 5,-40 10,-40 6,0 10,18 10,40 0,22 -4,40 -10,40 -5,0 -10,-18 -10,-40 z" />
    <path
       style="fill:#7b7b7b;stroke:none"
       id="path2621"
       d="m 10140.932,8857.3785 c 0,-16 5,-30 10,-30 6,0 10,14 10,30 0,17 -4,30 -10,30 -5,0 -10,-13 -10,-30 z" />
    <path
       style="fill:#7b7b7b;stroke:none"
       id="path2623"
       d="m 10500.932,8853.3785 c 0,-28 4,-35 26,-40 29,-8 46,0 21,10 -9,3 -19,19 -22,35 -9,40 -25,37 -25,-5 z" />
    <path
       style="fill:#7b7b7b;stroke:none"
       id="path2635"
       d="m 10605.932,8841.3785 c -20,-16 -19,-16 4,-9 15,5 21,3 17,-3 -3,-6 7,-17 24,-25 37,-19 41,-1 7,31 -27,26 -26,26 -52,6 z" />
    <path
       style="fill:#7b7b7b;stroke:none"
       id="path2637"
       d="m 11040.932,8832.3785 c 0,-14 5,-25 10,-25 6,0 10,11 10,25 0,14 -4,25 -10,25 -5,0 -10,-11 -10,-25 z" />
    <path
       style="fill:#7b7b7b;stroke:none"
       id="path2641"
       d="m 10100.932,8827.3785 c 0,-11 -4,-20 -10,-20 -5,0 -10,-11 -10,-25 0,-14 5,-25 10,-25 6,0 10,9 10,20 0,11 5,20 10,20 6,0 10,11 10,25 0,14 -4,25 -10,25 -5,0 -10,-9 -10,-20 z" />
    <path
       style="fill:#7b7b7b;stroke:none"
       id="path2643"
       d="m 9780.9319,8812.3785 c 0,-14 5,-25 10,-25 6,0 10,11 10,25 0,14 -4,25 -10,25 -5,0 -10,-11 -10,-25 z" />
    <path
       style="fill:#7b7b7b;stroke:none"
       id="path2645"
       d="m 10240.932,8822.3785 c 0,-8 5,-15 10,-15 6,0 10,7 10,15 0,8 -4,15 -10,15 -5,0 -10,-7 -10,-15 z" />
    <path
       style="fill:#7b7b7b;stroke:none"
       id="path2649"
       d="m 10420.932,8812.3785 c 14,-8 37,-14 53,-15 15,0 27,-4 27,-9 0,-5 22,-8 50,-8 27,1 50,7 50,12 0,6 -19,9 -46,6 -36,-2 -49,1 -56,13 -6,11 -23,16 -56,16 -46,-1 -46,-1 -22,-15 z" />
    <path
       style="fill:#7b7b7b;stroke:none"
       id="path2655"
       d="m 10318.932,8810.3785 c -10,-2 -18,-11 -18,-19 0,-11 8,-13 33,-9 17,4 51,2 75,-3 53,-12 54,5 1,24 -35,13 -61,15 -91,7 z" />
    <path
       style="fill:#7b7b7b;stroke:none"
       id="path2657"
       d="m 10690.932,8804.3785 c 0,-19 -34,-48 -56,-49 -11,-1 -39,2 -64,6 -32,5 -41,4 -30,-3 12,-8 12,-11 1,-11 -7,0 -11,-6 -8,-14 3,-8 1,-17 -6,-19 -23,-7 14,-38 37,-31 28,8 57,35 50,45 -3,5 2,9 12,9 13,0 14,-3 5,-13 -6,-8 -8,-17 -4,-20 3,-4 -1,-7 -9,-7 -15,0 -28,-19 -28,-41 0,-5 14,0 30,13 17,12 30,30 30,40 0,11 4,17 9,14 5,-3 14,1 21,9 7,8 9,15 6,15 -4,0 0,10 8,22 18,26 21,48 6,48 -5,0 -10,-6 -10,-13 z m -97,-63 c 11,-11 -5,-34 -24,-34 -22,0 -24,6 -6,25 13,16 21,18 30,9 z" />
    <path
       style="fill:#7b7b7b;stroke:none"
       id="path2661"
       d="m 10210.932,8792.3785 c 0,-8 5,-15 10,-15 6,0 10,7 10,15 0,8 -4,15 -10,15 -5,0 -10,-7 -10,-15 z" />
    <path
       style="fill:#7b7b7b;stroke:none"
       id="path2669"
       d="m 10150.932,8782.3785 c 0,-8 5,-15 10,-15 6,0 10,7 10,15 0,8 -4,15 -10,15 -5,0 -10,-7 -10,-15 z" />
    <path
       style="fill:#7b7b7b;stroke:none"
       id="path2671"
       d="m 10624.932,8782.3785 c 10,-8 23,-12 28,-9 14,9 -2,24 -25,24 -21,-1 -21,-1 -3,-15 z" />
    <path
       style="fill:#7b7b7b;stroke:none"
       id="path2673"
       d="m 10720.932,8782.3785 c 0,-8 5,-15 10,-15 6,0 10,7 10,15 0,8 -4,15 -10,15 -5,0 -10,-7 -10,-15 z" />
    <path
       style="fill:#7b7b7b;stroke:none"
       id="path2675"
       d="m 10766.932,8771.3785 c -6,-24 -2,-43 8,-33 11,10 17,59 8,59 -5,0 -13,-12 -16,-26 z" />
    <path
       style="fill:#7b7b7b;stroke:none"
       id="path2683"
       d="m 10110.932,8772.3785 c 0,-8 5,-15 10,-15 6,0 10,7 10,15 0,8 -4,15 -10,15 -5,0 -10,-7 -10,-15 z" />
    <path
       style="fill:#7b7b7b;stroke:none"
       id="path2685"
       d="m 10798.932,8739.3785 c -35,-98 -112,-175 -210,-210 -42,-15 -64,-32 -40,-32 20,0 102,33 102,41 0,5 7,9 15,9 8,0 15,5 15,10 0,6 6,10 13,10 15,0 67,54 67,69 0,6 5,11 10,11 6,0 10,7 10,15 0,8 4,15 9,15 8,0 41,82 41,102 0,24 -17,2 -32,-40 z" />
    <path
       style="fill:#7b7b7b;stroke:none"
       id="path2687"
       d="m 9790.9319,8770.3785 c 0,-4 8,-25 19,-47 10,-23 27,-69 37,-104 12,-40 25,-64 37,-68 28,-9 33,4 10,29 -12,12 -30,49 -41,82 -25,77 -43,115 -54,115 -4,0 -8,-3 -8,-7 z" />
    <path
       style="fill:#7b7b7b;stroke:none"
       id="path2693"
       d="m 10277.932,8747.3785 c -8,-29 100,-120 143,-120 19,0 10,20 -15,32 -17,7 -21,14 -14,19 23,14 -2,31 -36,25 -25,-5 -34,-3 -40,11 -5,10 -7,23 -6,29 3,20 -27,24 -32,4 z" />
    <path
       style="fill:#7b7b7b;stroke:none"
       id="path2701"
       d="m 10230.932,8748.3785 c 0,-21 13,-41 26,-41 11,0 11,5 2,25 -11,24 -28,34 -28,16 z" />
    <path
       style="fill:#7b7b7b;stroke:none"
       id="path2703"
       d="m 10420.932,8742.3785 c 0,-9 6,-12 15,-9 8,4 15,10 15,15 0,5 -7,9 -15,9 -8,0 -15,-7 -15,-15 z" />
    <path
       style="fill:#7b7b7b;stroke:none"
       id="path2705"
       d="m 10496.932,8746.3785 c 4,-8 -1,-9 -17,-4 -13,4 -21,4 -17,0 14,-15 58,-14 58,1 0,8 -7,14 -16,14 -8,0 -12,-5 -8,-11 z" />
    <path
       style="fill:#7b7b7b;stroke:none"
       id="path2713"
       d="m 10010.932,8732.3785 c 0,-8 5,-15 10,-15 6,0 10,7 10,15 0,8 -4,15 -10,15 -5,0 -10,-7 -10,-15 z" />
    <path
       style="fill:#7b7b7b;stroke:none"
       id="path2715"
       d="m 10370.932,8737.3785 c -8,-5 -11,-12 -8,-16 10,-9 38,3 38,16 0,12 -10,13 -30,0 z" />
    <path
       style="fill:#7b7b7b;stroke:none"
       id="path2717"
       d="m 11050.932,8732.3785 c 0,-8 -9,-19 -20,-25 -11,-6 -20,-17 -20,-25 0,-11 5,-11 30,3 29,16 43,62 20,62 -5,0 -10,-7 -10,-15 z" />
    <path
       style="fill:#7b7b7b;stroke:none"
       id="path2723"
       d="m 10170.932,8725.3785 c 1,-17 39,-67 40,-51 0,18 -22,63 -32,63 -4,0 -8,-6 -8,-12 z" />
    <path
       style="fill:#7b7b7b;stroke:none"
       id="path2725"
       d="m 10330.932,8727.3785 c 0,-7 3,-10 7,-7 3,4 3,10 0,14 -4,3 -7,0 -7,-7 z" />
    <path
       style="fill:#7b7b7b;stroke:none"
       id="path2733"
       d="m 10130.932,8717.3785 c 0,-15 23,-60 30,-60 4,0 10,-9 13,-20 3,-11 12,-20 21,-20 13,0 9,9 -14,42 -16,22 -30,47 -30,55 0,7 -4,13 -10,13 -5,0 -10,-4 -10,-10 z" />
    <path
       style="fill:#7b7b7b;stroke:none"
       id="path2739"
       d="m 10400.932,8708.3785 c 0,-18 18,-21 30,-6 10,13 9,15 -9,15 -11,0 -21,-4 -21,-9 z" />
    <path
       style="fill:#7b7b7b;stroke:none"
       id="path2741"
       d="m 10740.932,8702.3785 c 0,-8 -4,-15 -10,-15 -5,0 -10,-8 -10,-17 1,-15 4,-14 20,6 22,25 26,41 10,41 -5,0 -10,-7 -10,-15 z" />
    <path
       style="fill:#7b7b7b;stroke:none"
       id="path2743"
       d="m 10978.932,8677.3785 c -2,-25 0,-39 7,-37 13,4 19,77 7,77 -6,0 -12,-18 -14,-40 z" />
    <path
       style="fill:#7b7b7b;stroke:none"
       id="path2751"
       d="m 10655.932,8677.3785 c -20,-21 -24,-30 -13,-30 19,0 51,35 46,50 -2,6 -16,-3 -33,-20 z" />
    <path
       style="fill:#7b7b7b;stroke:none"
       id="path2753"
       d="m 10090.932,8677.3785 c 0,-11 5,-20 10,-20 6,0 10,9 10,20 0,11 -4,20 -10,20 -5,0 -10,-9 -10,-20 z" />
    <path
       style="fill:#7b7b7b;stroke:none"
       id="path2755"
       d="m 10490.932,8683.3785 c 0,-9 7,-19 15,-22 8,-4 15,-13 15,-21 0,-11 6,-14 23,-9 12,3 25,6 30,6 4,0 7,9 7,20 0,17 -4,19 -25,14 -18,-4 -32,-1 -45,11 -18,17 -20,17 -20,1 z" />
    <path
       style="fill:#7b7b7b;stroke:none"
       id="path2761"
       d="m 10280.932,8672.3785 c 0,-8 7,-15 16,-15 14,0 14,3 4,15 -7,8 -14,15 -16,15 -2,0 -4,-7 -4,-15 z" />
    <path
       style="fill:#7b7b7b;stroke:none"
       id="path2763"
       d="m 10425.932,8677.3785 c -3,-5 1,-10 9,-10 9,0 16,5 16,10 0,6 -4,10 -9,10 -6,0 -13,-4 -16,-10 z" />
    <path
       style="fill:#7b7b7b;stroke:none"
       id="path2783"
       d="m 10320.932,8642.3785 c 0,-8 7,-15 16,-15 14,0 14,3 4,15 -7,8 -14,15 -16,15 -2,0 -4,-7 -4,-15 z" />
    <path
       style="fill:#7b7b7b;stroke:none"
       id="path2793"
       d="m 10239.932,8623.3785 c 27,-28 120,-80 129,-72 3,4 -14,27 -38,51 -36,36 -51,45 -79,45 h -34 z" />
    <path
       style="fill:#7b7b7b;stroke:none"
       id="path2795"
       d="m 10603.932,8640.3785 c -18,-7 -16,-23 2,-23 8,0 15,7 15,15 0,8 -1,15 -2,14 -2,0 -9,-3 -15,-6 z" />
    <path
       style="fill:#7b7b7b;stroke:none"
       id="path2801"
       d="m 10020.932,8612.3785 c 0,-8 5,-15 10,-15 6,0 10,7 10,15 0,8 -4,15 -10,15 -5,0 -10,-7 -10,-15 z" />
    <path
       style="fill:#7b7b7b;stroke:none"
       id="path2803"
       d="m 10360.932,8618.3785 c 0,-11 39,-26 47,-17 8,8 3,12 -24,20 -13,4 -23,3 -23,-3 z" />
    <path
       style="fill:#7b7b7b;stroke:none"
       id="path2807"
       d="m 10540.932,8607.3785 c 0,-5 7,-10 15,-10 8,0 15,5 15,10 0,6 -7,10 -15,10 -8,0 -15,-4 -15,-10 z" />
    <path
       style="fill:#7b7b7b;stroke:none"
       id="path2809"
       d="m 10910.932,8608.3785 c 0,-12 -55,-67 -75,-74 -8,-4 -15,-14 -15,-23 0,-14 3,-15 18,-3 68,51 112,109 82,109 -5,0 -10,-4 -10,-9 z" />
    <path
       style="fill:#7b7b7b;stroke:none"
       id="path2815"
       d="m 10100.932,8592.3785 c 0,-8 5,-15 10,-15 6,0 10,7 10,15 0,8 -4,15 -10,15 -5,0 -10,-7 -10,-15 z" />
    <path
       style="fill:#7b7b7b;stroke:none"
       id="path2817"
       d="m 10420.932,8597.3785 c 0,-5 9,-10 20,-10 11,0 20,5 20,10 0,6 -9,10 -20,10 -11,0 -20,-4 -20,-10 z" />
    <path
       style="fill:#7b7b7b;stroke:none"
       id="path2819"
       d="m 10490.932,8597.3785 c 0,-5 9,-10 20,-10 11,0 20,5 20,10 0,6 -9,10 -20,10 -11,0 -20,-4 -20,-10 z" />
    <path
       style="fill:#7b7b7b;stroke:none"
       id="path2821"
       d="m 10640.932,8598.3785 c 0,-5 -11,-12 -25,-15 -14,-4 -25,-11 -25,-16 0,-15 11,-12 48,10 35,22 40,30 17,30 -8,0 -15,-4 -15,-9 z" />
    <path
       style="fill:#7b7b7b;stroke:none"
       id="path2829"
       d="m 10230.932,8581.3785 c 0,-9 9,-18 20,-21 11,-3 20,-9 20,-13 0,-8 101,-50 120,-50 26,0 5,17 -35,29 -25,7 -63,26 -85,42 -31,23 -40,26 -40,13 z" />
    <path
       style="fill:#7b7b7b;stroke:none"
       id="path2833"
       d="m 10030.932,8572.3785 c 0,-8 5,-15 10,-15 6,0 10,7 10,15 0,8 -4,15 -10,15 -5,0 -10,-7 -10,-15 z" />
    <path
       style="fill:#7b7b7b;stroke:none"
       id="path2847"
       d="m 10110.932,8549.3785 c 0,-29 28,-60 66,-72 19,-7 38,-9 42,-6 8,8 -79,96 -95,96 -7,0 -13,-8 -13,-18 z" />
    <path
       style="fill:#7b7b7b;stroke:none"
       id="path2859"
       d="m 9950.9319,8547.3785 c 0,-5 7,-10 15,-10 8,0 15,5 15,10 0,6 -7,10 -15,10 -8,0 -15,-4 -15,-10 z" />
    <path
       style="fill:#7b7b7b;stroke:none"
       id="path2861"
       d="m 10380.932,8547.3785 c 0,-5 7,-10 15,-10 8,0 15,5 15,10 0,6 -7,10 -15,10 -8,0 -15,-4 -15,-10 z" />
    <path
       style="fill:#7b7b7b;stroke:none"
       id="path2863"
       d="m 10530.932,8547.3785 c 0,-5 7,-10 15,-10 8,0 15,5 15,10 0,6 -7,10 -15,10 -8,0 -15,-4 -15,-10 z" />
    <path
       style="fill:#7b7b7b;stroke:none"
       id="path2873"
       d="m 10023.932,8540.3785 c -27.0001,-5 -30.0001,-18 -7,-27 29,-11 44,-6 44,14 0,11 -3,19 -7,19 -5,-1 -18,-4 -30,-6 z" />
    <path
       style="fill:#7b7b7b;stroke:none"
       id="path2903"
       d="m 10420.932,8497.3785 c 0,-5 23,-10 50,-10 28,0 50,5 50,10 0,6 -22,10 -50,10 -27,0 -50,-4 -50,-10 z" />
    <path
       style="fill:#7b7b7b;stroke:none"
       id="path2913"
       d="m 10766.932,8482.3785 c -11,-8 -28,-15 -38,-15 -10,0 -18,-4 -18,-10 0,-5 7,-10 15,-10 20,0 85,32 85,42 0,13 -23,9 -44,-7 z" />
    <path
       style="fill:#7b7b7b;stroke:none"
       id="path2929"
       d="m 10250.932,8467.3785 c 0,-5 20,-10 45,-10 25,0 45,5 45,10 0,6 -20,10 -45,10 -25,0 -45,-4 -45,-10 z" />
    <path
       style="fill:#7b7b7b;stroke:none"
       id="path2943"
       d="m 10350.932,8457.3785 c 0,-5 9,-10 20,-10 11,0 20,5 20,10 0,6 -9,10 -20,10 -11,0 -20,-4 -20,-10 z" />
    <path
       style="fill:#7b7b7b;stroke:none"
       id="path2955"
       d="m 10400.932,8447.3785 c 0,-5 7,-10 15,-10 8,0 15,5 15,10 0,6 -7,10 -15,10 -8,0 -15,-4 -15,-10 z" />
    <path
       style="fill:#7b7b7b;stroke:none"
       id="path2957"
       d="m 10670.932,8447.3785 c 0,-5 7,-10 15,-10 8,0 15,5 15,10 0,6 -7,10 -15,10 -8,0 -15,-4 -15,-10 z" />
    <path
       style="fill:#7b7b7b;stroke:none"
       id="path2971"
       d="m 10570.932,8437.3785 c 0,-5 20,-10 45,-10 25,0 45,5 45,10 0,6 -20,10 -45,10 -25,0 -45,-4 -45,-10 z" />
    <path
       style="fill:#7b7b7b;stroke:none"
       id="path3117"
       d="m 8565.9319,8167.3785 c -16,-16 -27,-31 -24,-33 29,-21 57,-23 97,-6 23,10 42,21 42,23 0,5 -74,46 -83,46 -2,0 -16,-13 -32,-30 z" />
    <path
       style="fill:#7b7b7b;stroke:none"
       id="path3171"
       d="m 8750.9319,8070.3785 c -32,-14 -33,-16 -16,-29 11,-7 23,-11 27,-8 4,2 25,-2 45,-11 47,-19 44,-20 44,19 0,49 -33,58 -100,29 z" />
    <path
       style="fill:#7b7b7b;stroke:none"
       id="path3197"
       d="m 8882.9319,8025.3785 c -19,-19 -15,-34 17,-61 16,-13 31,-33 34,-43 3,-11 5,-4 6,16 1,19 4,46 7,60 5,20 3,22 -5,10 -10,-13 -14,-12 -29,8 -14,18 -20,20 -30,10 z" />
    <path
       style="fill:#7b7b7b;stroke:none"
       id="path3217"
       d="m 8175.9319,7995.3785 c -27,-5 -58,-10 -67,-11 -10,-1 -18,-9 -18,-18 0,-19 -24,-42 -33,-32 -10,9 -9,-2 3,-33 l 11,-27 32,30 c 42,40 69,53 108,53 27,0 30,2 18,16 -10,13 -10,17 2,25 16,10 11,10 -56,-3 z" />
    <path
       style="fill:#7b7b7b;stroke:none"
       id="path3233"
       d="m 8544.9319,7946.3785 -29,-30 30,-22 c 67,-49 106,-92 135,-149 34,-68 37,-90 15,-108 -21,-18 -51,-3 -66,33 -21,53 -59,96 -127,144 -51,37 -66,43 -73,32 -14,-23 -57,-158 -74,-234 -21,-94 -45,-165 -55,-165 -13,0 -23,59 -22,135 1,79 21,165 57,244 14,29 25,57 25,62 0,8 -71,49 -85,49 -3,0 -5,-9 -5,-20 0,-12 -13,-26 -34,-37 -45,-23 -146,-120 -146,-139 0,-8 4,-13 9,-10 5,3 32,-16 60,-42 40,-38 51,-55 51,-79 0,-39 -21,-57 -56,-49 l -27,7 6,-53 c 4,-29 7,-65 7,-80 0,-33 61,-105 104,-123 22,-9 35,-29 58,-81 16,-38 39,-79 50,-91 13,-14 24,-44 28,-75 11,-75 41,-133 122,-233 65,-82 72,-96 99,-192 32,-114 95,-248 164,-349 25,-36 71,-114 102,-172 31,-59 59,-112 64,-117 11,-15 193,-381 213,-430 23,-54 44,-75 77,-75 33,0 54,26 75,96 17,57 10,89 -47,215 -33,74 -39,97 -39,155 0,105 -21,204 -90,419 -53,167 -106,307 -150,395 -20,41 -40,97 -44,125 -3,27 -18,67 -32,88 -25,39 -26,40 -9,76 22,49 28,386 7,386 -44,0 -56,97 -19,148 l 22,32 6,-35 c 5,-25 7,-15 8,38 0,39 -2,72 -6,72 -5,-1 -33,-38 -63,-83 -68,-102 -85,-106 -84,-19 1,49 8,75 31,121 30,59 30,59 9,65 -11,3 -34,6 -51,7 -16,0 -39,4 -50,9 -16,6 -8,9 33,15 28,4 52,10 52,14 0,8 -136,104 -176,124 -30,16 -32,15 -60,-14 z" />
    <path
       style="fill:#7b7b7b;stroke:none"
       id="path3237"
       d="m 8730.9319,7959.3785 c 0,-4 14,-18 30,-31 17,-12 42,-40 56,-61 26,-39 44,-51 44,-29 0,19 -65,92 -99,112 -17,10 -31,14 -31,9 z" />
    <path
       id="path3245"
       transform="scale(10)"
       style="fill:#7b7b7b;stroke:none;stroke-width:0.1"
       d="m 691.69336,778.73828 c -1.7,0 -2.6,0.39883 -2,0.79883 0.6,0.4 1.50078,2.10078 1.80078,3.80078 0.9,4.2 5.69844,8.5 11.39844,10.5 2.6,0.9 4.90156,1.50078 5.10156,1.30078 0.4,-0.3 -3.00078,-4.70039 -9.30078,-11.90039 -3,-3.6 -4.5,-4.5 -7,-4.5 z" />
    <path
       style="fill:#7b7b7b;stroke:none"
       id="path3253"
       d="m 10287.932,7907.3785 c -37,-23 -73,-38 -80,-34 -9,5 -9,4 1,-7 35,-37 -5,-149 -54,-149 -10,0 -2,37 11,54 16,21 20,56 7,56 -16,0 -30,-23 -25,-38 4,-10 2,-13 -5,-8 -6,3 -13,2 -17,-4 -3,-5 -1,-10 4,-10 15,0 14,-73 -1,-88 -18,-18 -28,-15 -28,8 0,36 -14,21 -63,-65 -27,-47 -55.0001,-85 -63.0001,-85 -8,0 -14,-10 -15,-22 0,-13 -3,-84 -5,-160 l -4,-136 32,-11 c 17,-6 43.0001,-11 57.0001,-11 26,0 26,-1 27,-75 1,-98 43,-183 131,-270 78,-76 89,-108 108,-315 37,-394 133,-667 291,-827 80,-82 111,-92 140,-48 16,24 16,28 0,63 -14,31 -15,46 -6,91 14,76 12,295 -4,457 -8,77 -18,221 -22,322 l -7,182 h 27 c 41,0 87,23 131,67 52,51 103,184 107,274 2,50 6,63 20,67 18,4 25,22 9,22 -5,0 -79,47 -164,103 -174,116 -154,113 -249,39 -31,-24 -62,-41 -68,-37 -6,4 -23,-6 -38,-22 l -27,-28 -3,45 c -2,30 -10,48 -23,58 -11,8 -19,25 -19,43 0,16 -3,29 -6,29 -16,0 -108,-71 -171,-134 -69,-67 -73,-69 -73,-43 0,65 23,119 74,175 28,32 62,72 74,90 23,32 23,34 6,53 -10,11 -21,18 -26,17 -4,-2 -38,-41 -76,-88 -37,-47 -74,-85 -82,-85 -17,0 -25,51 -16,99 3,17 28,60 56,96 27,36 49,71 50,78 0,6 6,12 13,12 6,0 57,42 112,94 88,82 98,95 86,109 -11,15 -10,18 10,26 20,8 16,10 -27,10 -42,1 -62,-6 -117,-39 z" />
    <path
       style="fill:#7b7b7b;stroke:none"
       id="path3281"
       d="m 7148.9319,7860.3785 c -24,-29 -29,-41 -19,-48 6,-3 17,8 26,26 19,36 15,47 -7,22 z" />
    <path
       style="fill:#7b7b7b;stroke:none"
       id="path3297"
       d="m 7249.9319,7800.3785 c -19,-26 -37,-52 -42,-59 -5,-9 12,-19 59,-34 36,-12 67,-20 70,-17 3,2 -6,7 -20,11 -24,6 -25,8 -19,70 3,37 2,66 -4,69 -6,4 -25,-15 -44,-40 z" />
    <path
       style="fill:#7b7b7b;stroke:none"
       id="path3307"
       d="m 10409.932,7731.3785 c -91,-91 -92,-94 -75,-113 17,-19 20,-19 42,-4 13,8 24,21 24,29 0,7 11,16 24,20 22,5 23,8 13,26 -17,28 16,51 63,44 22,-3 42,0 54,9 18,13 17,16 -17,48 l -36,33 z" />
    <path
       style="fill:#7b7b7b;stroke:none"
       id="path3309"
       d="m 10922.932,7804.3785 c -26,-28 -20,-37 23,-37 18,0 38,-7 46,-16 7,-8 30,-24 51,-35 38,-20 39,-20 29,-1 -15,29 -78,81 -106,88 -14,3 -22,10 -19,15 10,16 -2,9 -24,-14 z" />
    <path
       style="fill:#7b7b7b;stroke:none"
       id="path3361"
       d="m 11110.932,7686.3785 c 14,-6 35,-19 46,-30 19,-18 22,-18 28,-4 4,12 -4,20 -29,31 -19,7 -42,14 -52,13 -13,0 -11,-3 7,-10 z" />
    <path
       style="fill:#7b7b7b;stroke:none"
       id="path3383"
       d="m 7220.9319,7616.3785 c 0,-4 26,-16 58,-27 102,-36 122,-46 123,-62 0,-9 2,-10 5,-3 3,7 0,22 -7,35 -7,13 -12,29 -11,35 2,7 -3,10 -10,8 -8,-3 -46,1 -86,8 -39,8 -72,11 -72,6 z" />
    <path
       style="fill:#7b7b7b;stroke:none"
       id="path3385"
       d="m 10972.932,7603.3785 c -9,-21 -6,-28 30,-62 53,-51 88,-107 89,-141 0,-21 4,-15 14,22 7,28 20,69 28,91 l 14,41 -74,37 c -40,20 -77,36 -82,36 -4,0 -13,-11 -19,-24 z" />
    <path
       style="fill:#7b7b7b;stroke:none"
       id="path3433"
       d="m 7101.9319,7500.3785 c -6,-21 -11,-42 -11,-48 0,-5 31,-23 69,-38 71,-30 151,-81 151,-98 0,-13 -55,-3 -147,26 l -73,23 v -23 c 0,-12 14,-55 30,-95 32,-77 38,-120 18,-120 -47,0 -127,94 -149,173 -10,38 -11,38 -29,22 -18,-16 -20,-16 -26,-1 -3,8 -1,29 4,46 13,37 4,38 -32,5 -15,-14 -31,-23 -36,-20 -4,3 -11,-17 -15,-43 -4,-26 -10,-51 -15,-57 -4,-5 0,-35 10,-65 10,-30 33,-118 51,-194 34,-146 50,-176 93,-176 21,0 25,-6 30,-47 5,-30 21,-68 42,-99 19,-28 47,-87 63,-131 16,-44 51,-127 77,-184 78,-174 171,-394 241,-568 131,-330 214,-481 267,-481 26,0 46,35 46,81 0,16 7,46 16,67 37,87 28,263 -26,507 -86,385 -128,528 -207,715 -41,95 -44,107 -34,141 26,86 -1,159 -80,218 l -45,33 34,86 34,86 -11,92 c -6,51 -11,97 -11,103 0,6 -6,11 -12,11 -7,0 -76,20 -153,45 -77,25 -143,45 -147,45 -4,0 -12,-17 -17,-37 z" />
    <path
       id="path3437"
       transform="scale(10)"
       style="fill:#7b7b7b;stroke:none;stroke-width:0.1"
       d="m 1191.5703,706.70508 c -0.3107,-0.0403 -0.4765,0.16406 -0.4765,0.63281 0,0.3 0.9,1.69961 2,3.09961 1.1,1.4 2,3.40078 2,4.30078 0,2.1 -2.5008,4.39961 -3.8008,3.59961 -0.5,-0.3 -1.1996,1.9 -1.5996,5 -0.3,3 -1.2008,6.30039 -1.8008,7.40039 -1.9,3 -0.3988,3.29961 4.7012,1.09961 5.8,-2.6 5.8,-2.59922 4.5,-0.19922 -0.5,1.1 -1,3.8 -1,6 0,6.1 4.6996,10.89883 13.5996,13.79883 9.7,3.1 13.8007,3.00117 15.3007,-0.29883 1,-2.3 0.7997,-3.00039 -1.9003,-6.40039 l -3,-3.80078 -3.0997,2.90039 c -1.7,1.6 -3.5,2.90039 -4,2.90039 -1.2,0 -1.1007,-4.60078 0.1993,-9.30078 0.9,-3.5 0.7992,-3.99922 -3.3008,-9.19922 l -4.1992,-5.40039 -2.0996,1.90039 c -5.1,4.8 -9,0.6 -6.5,-7 1.2,-3.6 1.1003,-4.00039 -1.5997,-7.40039 -1.8562,-2.26875 -3.2403,-3.54419 -3.9238,-3.63281 z" />
    <path
       style="fill:#7b7b7b;stroke:none"
       id="path3445"
       d="m 10478.932,7493.3785 c -18,-13 -23,-37 -11,-49 5,-6 43,45 43,58 0,9 -15,5 -32,-9 z" />
    <path
       style="fill:#7b7b7b;stroke:none"
       id="path3465"
       d="m 10770.932,7463.3785 c 0,-12 244,-198 248,-188 2,7 18,27 36,45 17,17 22,24 11,15 -19,-17 -21,-17 -60,21 -45,44 -235,130 -235,107 z" />
    <path
       id="path3489"
       transform="scale(10)"
       style="fill:#7b7b7b;stroke:none;stroke-width:0.1"
       d="m 1237.793,716.73828 c -0.7,0 -8.9992,10.8 -10.6992,14 -0.6,1.1 -0.1004,2.59883 1.5996,4.79883 1.4,1.8 2.7992,3.20117 3.1992,3.20117 0.4,0 2.8,-3.8 5.5,-8.5 4.7,-8.4 4.7,-8.6 3,-11 -1,-1.3 -2.0996,-2.5 -2.5996,-2.5 z" />
    <path
       id="path3529"
       transform="scale(10)"
       style="fill:#7b7b7b;stroke:none;stroke-width:0.1"
       d="m 1226.8926,702.73828 -5.7988,5 c -8.7,7.5 -8.6004,7.3 -5.4004,11.5 1.5,2 3.0004,3.19883 3.4004,2.79883 0.5,-0.4 3.1003,-3.89961 5.9003,-7.59961 4.9,-6.6 5,-6.89922 3.5,-9.19922 z" />
    <path
       id="path3535"
       transform="scale(10)"
       style="fill:#7b7b7b;stroke:none;stroke-width:0.1"
       d="m 1261.6934,711.73828 c -1.1,0 -4.6997,6.1 -4.0996,7 0.2999,0.5 0.7996,1 1.0996,1 0.3,0 0.2003,-0.5 -0.1,-1 -0.3001,-0.6 0.2999,-2.4 1.5,-4 1.1999,-1.7 1.8996,-3 1.5996,-3 z" />
    <path
       id="path3547"
       transform="scale(10)"
       style="fill:#7b7b7b;stroke:none;stroke-width:0.1"
       d="m 1264.8066,704.82617 c -0.087,-0.0125 -0.214,0.46211 -0.414,1.41211 -0.3,1.1 -0.9992,2.7 -1.6992,3.5 -1,1.3 -0.9008,1.29961 0.6992,0.0996 0.9,-0.7 1.6015,-2.3 1.6015,-3.5 -0.05,-1 -0.1,-1.49922 -0.1875,-1.51172 z" />
    <path
       id="path3555"
       transform="scale(10)"
       style="fill:#7b7b7b;stroke:none;stroke-width:0.1"
       d="m 1252.8457,699.54102 c -0.8125,0.0117 -1.7031,0.74609 -3.4531,2.49609 -3.5,3.3 -4.2985,5.00156 -1.8985,4.10156 0.8,-0.3 1.9993,0.0984 2.6993,0.89844 1.1,1.2 1.6992,0.80039 3.6992,-2.09961 2.2,-3.2 2.2,-3.49922 0.5,-4.69922 -0.6,-0.45 -1.0594,-0.7043 -1.5469,-0.69726 z" />
    <path
       style="fill:#7b7b7b;stroke:none"
       id="path3559"
       d="m 12020.932,7026.3785 -32,-41 58,-59 58,-59 38,37 c 21,20 38,40 38,44 0,4 -29,32 -64,62 l -63,56 z" />
    <path
       id="path3589"
       transform="scale(10)"
       style="fill:#7b7b7b;stroke:none;stroke-width:0.1"
       d="m 1239.6934,690.73828 c -0.7,0 -2.0004,0.79883 -2.9004,1.79883 -1.3,1.4 -1.4,2.1 -0.5,3 1.6,1.6 2.2011,1.50078 4.2011,-0.69922 1.9,-2 1.3993,-4.09961 -0.8007,-4.09961 z" />
    <path
       id="path3595"
       transform="scale(10)"
       style="fill:#7b7b7b;stroke:none;stroke-width:0.1"
       d="m 1261.9805,686.83008 c -0.4926,-0.0248 -0.9493,0.51367 -1.3867,1.60742 -0.4001,1.2 0.1,2.39961 1.5996,3.59961 2.8,2.3 3.5003,1.50117 1.9004,-2.29883 -0.7876,-1.9125 -1.4801,-2.87634 -2.1133,-2.9082 z" />
    <path
       id="path3605"
       transform="scale(10)"
       style="fill:#7b7b7b;stroke:none;stroke-width:0.1"
       d="m 1193.918,490.88477 c -1.3353,-0.0113 -2.4176,0.77851 -3.4239,2.35351 -1.5,2.2 -1.6007,3.99883 -0.8007,13.29883 1,13.1 0.7007,37.10117 -0.6993,55.20117 -0.5,7.4 -1.4003,23.10039 -1.9003,34.90039 l -0.8008,21.39844 -2.6992,2.5 -2.7012,2.5 0.6015,11.60156 c 0.8,15.9 4.8993,52.3 5.6993,51 0.4,-0.6 1.6007,0.2 2.8007,2 1.2,1.7 2.4985,3.09961 2.8985,3.09961 0.3,0 3.0004,-2.30117 5.9004,-5.20117 l 5.2011,-5.09961 -6.4003,-6.90039 c -8.2,-8.7 -10.5,-15.79883 -5,-15.79883 1.8,0 6.4,2.7 8.5,5 0.3,0.3 2.8988,2.50039 5.7988,4.90039 4.7,3.9 5.5008,4.19844 6.8008,2.89844 1.4,-1.3 1.1992,-1.99961 -1.3008,-6.09961 -2.7,-4.2 -2.9996,-4.39961 -4.0996,-2.59961 -1.2,1.8 -4.2,2.60078 -5.5,1.30078 -0.3,-0.3 -0.1004,-1.70156 0.5996,-3.10156 0.8,-1.8 1.7008,-2.3 3.3008,-2 2.1,0.4 2.1004,0.30078 0.4004,-2.69922 -2.9,-5 -3.5004,-9.50078 -1.4004,-10.30078 1.4,-0.5 4.1007,1.8 11.8007,10 5.6,5.8 12.5,12.70117 15.5,15.20117 l 5.3985,4.69922 4.8008,-5.19922 c 4,-4.3 5.1007,-5.09961 6.3007,-4.09961 1.7,1.4 1.1985,6.89844 -1.1015,11.39844 -1.6,3.1 -1.1,5.70117 1,5.70117 0.7,0 3.3011,-2 5.7012,-4.5 2.3999,-2.5 4.6999,-4 5,-3.5 0.2999,0.5 0.3992,-4.80078 0.1992,-11.80078 -0.3,-10.7 -0.6989,-12.99883 -2.2989,-14.79883 -1,-1.1 -1.9003,-2.70156 -1.9003,-3.60156 0,-0.9 -0.6997,-4.79883 -1.5997,-8.79883 -1.5,-6.6 -2.2015,-7.80078 -7.6015,-13.30078 l -5.8985,-6 -1.5,-12.59961 c -2.9,-24.9 -4.7015,-33.19961 -12.1015,-55.09961 -9.5,-28 -18.5992,-46.30078 -26.6992,-53.80078 -2.925,-2.7 -5.0587,-4.03823 -6.7754,-4.05273 z" />
    <path
       id="path3615"
       transform="scale(10)"
       style="fill:#7b7b7b;stroke:none;stroke-width:0.1"
       d="m 1221.7871,675.91602 c -0.091,-0.0215 -0.1559,-0.016 -0.1933,0.0215 -0.3001,0.3 0.8992,2.39961 2.6992,4.59961 3,3.7 5.8008,5.40039 5.8008,3.40039 -1e-4,-1.125 -6.9444,-7.69849 -8.3067,-8.02148 z" />
  </g>
</svg>
