<?xml version="1.0" encoding="UTF-8" standalone="no"?>
<svg
   xmlns:dc="http://purl.org/dc/elements/1.1/"
   xmlns:cc="http://creativecommons.org/ns#"
   xmlns:rdf="http://www.w3.org/1999/02/22-rdf-syntax-ns#"
   xmlns:svg="http://www.w3.org/2000/svg"
   xmlns="http://www.w3.org/2000/svg"
   viewBox="0 0 526.33191 529.84955"
   height="529.84955"
   width="526.33191"
   id="svg64"
   version="1.1">
  <metadata
     id="metadata70">
    <rdf:RDF>
      <cc:Work
         rdf:about="">
        <dc:format>image/svg+xml</dc:format>
        <dc:type
           rdf:resource="http://purl.org/dc/dcmitype/StillImage" />
        <dc:title></dc:title>
      </cc:Work>
    </rdf:RDF>
  </metadata>
  <defs
     id="defs68" />
  <path
     id="path74"
     d="m 108.9516,527.01619 c -8.65315,-5.48766 -7.65623,-8.12127 1.22583,-3.23834 6.23165,3.42587 7.14189,3.45226 13.74471,0.39843 1.80716,-0.83582 3.55026,-1.25518 3.87354,-0.9319 1.2487,1.24871 -0.78419,3.82828 -4.11312,5.21919 -5.31403,2.22034 -9.61372,1.79788 -14.73096,-1.44738 z m 185.36869,-4.84777 c -8.8076,-4.75588 -14.01756,-9.0036 -16.13576,-13.15561 -1.12648,-2.20809 -2.04815,-4.25764 -2.04815,-4.55455 0,-1.42557 2.42542,-0.26872 4.22011,2.01285 2.28773,2.90838 10.7221,9.33386 15.48023,11.79317 4.55018,2.35183 11.40415,2.14639 14.6927,-0.44039 2.55384,-2.00885 7.1794,-9.66636 6.34377,-10.50199 -0.22148,-0.22149 -1.775,1.30493 -3.45225,3.39204 -1.67725,2.08711 -4.89377,4.62638 -7.14782,5.64282 -3.8598,1.74053 -4.3467,1.75272 -8.36751,0.2096 -3.01375,-1.15664 -5.53601,-3.28119 -8.5769,-7.22451 -5.42721,-7.03782 -5.24252,-8.9067 0.88664,-8.97169 7.20794,-0.0764 11.1291,-2.34038 22.97212,-13.26341 8.58236,-7.91566 10.8529,-17.0928 6.70414,-27.09696 l -1.07466,-2.59137 -0.72197,3 c -0.39708,1.65 -0.77521,4.97571 -0.84029,7.39047 -0.20394,7.56807 -5.8024,15.98642 -14.30573,21.5114 -6.67517,4.33716 -21.33214,5.55585 -20.59911,1.71277 0.23104,-1.21131 1.92897,-1.76282 6.79725,-2.20784 8.80041,-0.80446 12.7793,-2.7242 17.44341,-8.41613 l 3.94765,-4.81759 -4.80227,0.65823 c -2.64125,0.36202 -6.68257,1.2966 -8.98071,2.07684 -2.29813,0.78023 -5.85251,1.73267 -7.89861,2.11652 -3.26098,0.61176 -3.72019,0.45706 -3.72019,-1.25332 0,-1.42874 1.13805,-2.29292 4.25,-3.22727 8.16577,-2.45172 10.28096,-3.46557 14.58765,-6.99215 4.60717,-3.77262 11.57262,-13.32111 10.99081,-15.06656 -0.19113,-0.57339 -2.13073,1.41867 -4.31021,4.42681 -4.53846,6.264 -7.81835,8.31553 -19.01825,11.89569 -9.95611,3.18257 -17.19184,4.13999 -20.83112,2.75634 -4.21087,-1.60097 -2.24619,-3.06234 4.14014,-3.07952 6.83067,-0.0184 9.75429,-1.39808 6.72492,-3.17359 -1.08133,-0.63376 -3.01428,-2.20053 -4.29545,-3.4817 -1.62871,-1.62871 -3.4821,-2.3294 -6.1615,-2.3294 -2.17282,0 -4.36688,-0.64437 -5.06717,-1.48817 -1.52376,-1.83601 -1.74302,-1.7626 11.99018,-4.01462 10.44871,-1.71341 18.64173,-4.71183 26.57451,-9.72554 4.33668,-2.7409 10.56894,-13.08282 11.77225,-19.53511 l 0.60862,-3.26344 -3.07874,2.26344 c -1.6933,1.24489 -3.76124,3.96122 -4.59541,6.03628 -3.21293,7.99242 -18.29961,16.90608 -31.83935,18.81164 -9.29641,1.30836 -18.1273,0.65867 -20.2778,-1.49183 -1.67254,-1.67254 -1.00971,-2.18581 3.60761,-2.79361 2.20644,-0.29045 2.14267,-0.51897 -2.22002,-7.95608 -4.17117,-7.11063 -4.7789,-7.70555 -8.51644,-8.33701 -2.21361,-0.37399 -4.3029,-1.13003 -4.64286,-1.68009 -1.28066,-2.07216 1.34536,-2.8347 7.16943,-2.08186 23.20383,2.9994 49.92503,-7.99044 58.43578,-24.03336 2.06504,-3.89265 2.24517,-4.85571 1.10897,-5.92909 -1.10734,-1.04612 -1.45098,-1.00599 -1.87055,0.21845 -0.2827,0.825 -3.72901,4.65 -7.65847,8.5 -7.94526,7.78459 -14.53085,10.96673 -28.78537,13.90902 -7.53226,1.55474 -27.06509,2.19095 -30.21037,0.98399 -2.00994,-0.77128 -2.07313,-3.39301 -0.0818,-3.39301 1.97748,0 2.00741,0.1188 -1.82037,-7.22487 -5.16589,-9.91085 -7.62445,-12.82708 -10.25699,-12.16636 -2.56311,0.6433 -7.06838,-1.38669 -5.78,-2.60435 0.47155,-0.44566 1.72302,-0.96647 2.78105,-1.15736 2.00939,-0.36252 -1.21366,-4.05644 -14.04368,-16.09541 -9.06832,-8.5092 -12.20279,-17.06089 -12.64533,-34.49993 -0.18085,-7.12698 -0.55433,-9.24867 -1.62829,-9.25 -1.45127,-0.002 -1.45104,0.0124 0.49059,30.49828 0.70631,11.09001 -1.7948,29.19961 -5.45533,39.5 -4.82005,13.56315 -6.82238,18.50249 -10.7918,26.62114 -2.44085,4.99228 -11.03315,12.55365 -22.36648,19.68288 -5.78415,3.63852 -13.65915,9.24789 -17.5,12.46527 -3.84085,3.21738 -9.68337,7.82095 -12.98337,10.23017 -3.3,2.40921 -9.75258,8.21999 -14.33906,12.91283 l -8.33907,8.53244 3.90572,1.65876 c 6.07333,2.57935 11.72934,3.22234 15.70361,1.78523 4.54643,-1.64401 5.54031,-0.55806 2.48941,2.72005 -2.23241,2.39867 -2.8749,2.5543 -8.26374,2.00166 -6.26629,-0.64263 -14.65687,-3.82222 -14.65687,-5.5542 0,-0.58093 -0.64047,-1.05623 -1.42327,-1.05623 -2.8504,0 -7.437484,-5.16072 -11.460794,-12.89403 -2.26377,-4.35125 -4.11594,-9.10671 -4.11594,-10.56768 0,-1.67108 -0.40644,-2.40513 -1.09581,-1.97907 -1.706939,1.05494 -0.0949,9.11353 3.18568,15.9255 1.5933,3.3084 5.5874,9.46419 8.875764,13.67953 4.76506,6.10829 7.12458,8.20626 11.62249,10.33411 3.97225,1.87917 5.33,2.98352 4.58459,3.72893 -0.74541,0.74541 -2.77879,0.40532 -6.86589,-1.14836 -4.91708,-1.86919 -6.49632,-3.14264 -10.30682,-8.31113 -2.475004,-3.35705 -5.755204,-7.57021 -7.289344,-9.36258 -1.53414,-1.79237 -3.86157,-5.87929 -5.172059,-9.08204 -2.01148,-4.91589 -2.51173,-5.51157 -3.21066,-3.82318 -0.45537,1.1 -0.78842,5.375 -0.74012,9.5 0.0668,5.70351 0.72549,9.03837 2.75,13.92241 3.139869,7.5748 3.404329,10.36716 0.93687,9.89197 -1.0548,-0.20313 -2.87235,-3.04919 -4.67682,-7.32332 -2.64791,-6.27191 -2.93129,-7.96829 -2.75484,-16.49106 0.42032,-20.30178 0.34181,-24.94329 -0.64276,-38 -0.55991,-7.425 -1.42549,-14.83728 -1.92353,-16.47173 -0.8029,-2.63496 -1.18154,-1.6809 -3.34113,8.41868 -2.54805,11.91625 -4.94769,15.76205 -4.92083,7.88638 0.0257,-7.5489 4.44041,-24.28808 6.13013,-23.24377 1.14898,0.71011 0.47094,-26.12865 -1.08577,-42.97805 -0.55329,-5.98867 -0.80829,-11.20838 -0.56665,-11.59935 0.24163,-0.39098 -0.83856,-2.46615 -2.40043,-4.61151 -3.26461,-4.48422 -4.74271,-8.40065 -3.17049,-8.40065 1.68358,0 13.02566,12.26249 13.71059,14.82322 0.77526,2.89842 -0.96878,4.97223 -2.86094,3.40188 -1.07551,-0.8926 -1.17957,0.30203 -0.57426,6.59238 0.40661,4.22538 0.99214,15.33252 1.3012,24.68252 0.30905,9.35 1.25725,20.27673 2.10712,24.28163 0.85142,4.0122 1.42529,10.74715 1.27811,15 -0.35241,10.18365 0.79808,16.72762 2.66804,15.17569 0.74853,-0.62123 1.83067,-0.8392 2.404769,-0.48439 2.05965,1.27294 1.03118,-6.29085 -1.444149,-10.62086 -2.71743,-4.75347 -3.47009,-14.19345 -1.43487,-17.99628 0.81857,-1.52951 0.66935,-3.01425 -0.62154,-6.18426 -3.47137,-8.52461 -1.55732,-22.67153 3.06741,-22.67153 1.801859,0 1.803059,0.34962 -0.0231,-6.66131 -1.58268,-6.07633 -1.97183,-15.06493 -0.73469,-16.97008 0.40408,-0.62226 1.972189,-1.12851 3.484689,-1.125 2.71651,0.006 2.75,0.0853 2.75,6.48838 0,5.37448 -0.2584,6.38283 -1.51237,5.90164 -1.20595,-0.46277 -1.38159,-0.0286 -0.8669,2.14301 1.05848,4.46601 3.21418,9.22336 4.17938,9.22336 0.95434,0 3.37381,-22.90957 2.55875,-24.22837 -0.26224,-0.4244 -1.29853,-0.77163 -2.30282,-0.77163 -2.2487,0 -4.6995,-3.58079 -5.54649,-8.1038 -0.81129,-4.33235 0.99004,-15.66556 2.82597,-17.77984 1.91648,-2.20705 1.20912,-3.69815 -4.901279,-10.33178 -3.26445,-3.54398 -6.05668,-7.8324 -7.3494,-11.28751 -4.25511,-11.3728 -1.72892,-13.03719 3.39697,-2.23811 2.26134,4.76412 5.176489,8.89266 8.481889,12.01235 3.42491,3.23249 5.03635,5.54934 5.03635,7.24104 0,1.36821 -0.45,2.48765 -1,2.48765 -0.55,0 -1,0.675 -1,1.5 0,0.825 0.54233,1.3875 1.20517,1.25 0.75646,-0.15692 1.4634,1.72904 1.89874,5.06541 0.861784,6.60454 1.524934,7.35489 2.690514,3.04425 0.62661,-2.31737 0.52691,-4.13525 -0.32138,-5.85966 -1.677314,-3.40968 -3.473044,-12.24155 -3.473044,-17.08134 0,-4.72361 2.297074,-10.71169 4.421864,-11.52705 3.04512,-1.16852 3.46693,0.16356 1.45926,4.60839 -1.76106,3.89887 -1.94156,5.66803 -1.35119,13.24371 0.98931,12.69486 2.63872,10.42163 4.53033,-6.24371 1.19541,-10.53183 1.20574,-9.43793 -0.15109,-16 -0.85252,-4.12308 -0.84976,-6.55999 0.0111,-9.73405 1.38061,-5.09072 5.03484,-9.62862 7.35104,-9.12869 1.50266,0.32434 1.52887,0.6274 0.24759,2.86274 -2.60786,4.54973 -3.71533,7.45822 -4.23433,11.12035 -0.77671,5.48058 1.29962,5.56676 3.27725,0.13604 0.95264,-2.61601 2.84441,-7.45639 4.20394,-10.75639 1.35953,-3.3 2.82255,-9.47267 3.25115,-13.71704 0.8317,-8.2361 3.08167,-13.1421 7.68942,-16.76656 5.36605,-4.22094 5.96378,-0.78542 0.89388,5.13762 -1.86991,2.18457 -3.6385,4.9561 -3.9302,6.15896 -0.39647,1.6349 0.2725,1.21431 2.64984,-1.66597 1.74911,-2.11914 5.20901,-6.16914 7.68867,-9 2.47967,-2.83085 5.52165,-6.57277 6.75996,-8.31537 l 2.25149,-3.16835 -3.25996,-0.71411 c -1.79298,-0.39276 -6.40996,-1.9706 -10.25996,-3.50631 -5.02132,-2.00294 -10.39617,-3.14009 -19.01469,-4.02293 -10.54234,-1.0799 -13.401704,-1.01713 -23.333064,0.51223 -6.225099,0.95862 -12.451299,1.4586 -13.835999,1.11107 -2.66211,-0.66814 -9.3163,1.05536 -9.3163,2.41299 0,0.44062 1.30124,1.34012 2.89165,1.99889 2.35463,0.97532 3.77187,0.89892 7.6313,-0.41139 9.26693,-3.14621 37.671203,-1.50711 48.583983,2.80358 3.51619,1.38894 7.96738,2.91992 9.89154,3.40219 2.15359,0.53977 3.63388,1.57995 3.85071,2.70586 0.31722,1.64723 -0.15474,1.76177 -4.74847,1.15239 -2.88117,-0.3822 -5.10071,-0.28212 -5.10071,0.23 0,0.49865 -1.76066,1.18817 -3.91258,1.53228 -2.15192,0.34411 -4.67927,0.91985 -5.61633,1.27944 -1.47005,0.56411 -1.54667,0.36027 -0.55856,-1.48603 0.62986,-1.1769 2.25721,-2.41892 3.61633,-2.76004 3.84357,-0.96467 2.96394,-1.95061 -3.27886,-3.67514 -14.62231,-4.03929 -33.606403,-4.50648 -42.930413,-1.05649 -3.83767,1.41997 -4.55508,1.40371 -8.75,-0.19835 -3.65966,-1.39763 -4.56959,-2.2197 -4.56959,-4.12833 0,-2.09255 -0.33538,-2.30302 -2.75,-1.72581 -3.84795,0.91985 -5.39978,1.82261 -8.10477,4.71487 -2.40802,2.57473 -2.20031,4.66585 0.46345,4.66585 0.81985,0 2.70579,0.62083 4.19098,1.37961 3.12735,1.59777 7.20034,0.55277 7.20034,-1.84739 0,-1.03286 0.96935,-1.53222 2.97432,-1.53222 2.29339,0 3.32948,0.68681 4.52568,3 1.66226,3.21446 1.01533,3.64756 -2.83082,1.89513 -1.91157,-0.87097 -3.18121,-0.74599 -5.99737,0.59037 -2.36789,1.12363 -4.60882,1.46761 -6.64608,1.02015 -4.23547,-0.93026 -9.02573,-5.17133 -9.02573,-7.99095 0,-2.71465 5.84129,-8.238 9.51834,-9.00025 1.36491,-0.28295 3.71916,-0.78214 5.23166,-1.10931 6.89485,-1.49144 29.310809,-2.8621 45.250003,-2.76688 l 17.5,0.10454 9.22847,3.6286 c 10.14138,3.98755 14.3147,4.48892 16.39909,1.97012 2.23292,-2.6983 9.03795,-5.29599 13.93535,-5.31956 3.70082,-0.0178 5.05103,0.4976 7.1465,2.72804 3.14493,3.34749 9.49926,16.0262 13.23609,26.40979 1.85291,5.14871 3.36419,7.81869 4.61001,8.14448 1.01938,0.26657 2.17345,1.76966 2.5646,3.3402 0.84258,3.38315 3.02651,5.27986 6.12989,5.32373 2.41142,0.0341 3.06244,-1.47042 1,-2.31098 -0.83839,-0.34169 -0.43169,-1.16984 1.23506,-2.51494 3.06315,-2.47203 2.37565,-3.39292 -1.66737,-2.23339 -4.62916,1.32762 -6.04554,-0.18405 -2.64758,-2.82572 l 2.82989,-2.20005 -4.69245,0.61108 c -4.20038,0.54701 -4.85817,0.35818 -6.27269,-1.80065 -0.86913,-1.32646 -1.29688,-3.15015 -0.95056,-4.05265 0.79801,-2.07958 1.38512,-2.06499 2.94865,0.0733 0.8613,1.17789 2.69444,1.72538 5.85945,1.75 5.55695,0.0432 6.14665,-1.80115 1.1076,-3.46418 -3.77463,-1.24574 -4.69958,-3 -1.58179,-3 3.35322,0 5.08274,-1.14971 5.04999,-3.35699 -0.0591,-3.98374 -2.30221,-5.64303 -7.62844,-5.64303 -5.36651,0 -7.33976,-1.21876 -7.33976,-4.53333 0,-3.12684 1.12588,-3.73196 2.71701,-1.46031 1.07468,1.53433 2.53527,1.99364 6.33969,1.99364 5.16678,0 5.76646,-0.5307 3.6933,-3.26844 -0.83569,-1.10359 -3.07294,-1.74696 -6.75,-1.94113 -5.21077,-0.27516 -5.51702,-0.43897 -5.82362,-3.11501 -0.29232,-2.55137 -0.1294,-2.72064 1.68426,-1.75 2.77405,1.48462 5.01259,1.34421 6.78222,-0.42542 1.33333,-1.33333 0.90567,-1.5 -3.84893,-1.5 -6.29462,0 -9.79393,-1.99659 -9.79393,-5.58809 0,-1.36107 -0.675,-2.7337 -1.5,-3.05028 -0.825,-0.31659 -1.5,-1.59998 -1.5,-2.85199 0,-1.43537 -0.7389,-2.4696 -2,-2.79939 -1.44236,-0.37718 -2,-1.36401 -2,-3.53931 0,-2.41019 -1.07661,-3.93607 -5.35781,-7.59362 -2.9468,-2.51752 -6.29148,-4.57732 -7.43262,-4.57732 -2.35344,0 -2.91605,-1.50777 -3.06061,-8.20228 -0.0593,-2.74778 0.46141,-5.26523 1.25283,-6.05665 0.7449,-0.7449 1.68029,-2.8383 2.07865,-4.652 0.39835,-1.8137 1.53386,-5.16321 2.52334,-7.44335 2.49833,-5.7571 3.69301,-15.04449 1.85658,-14.43297 -0.7482,0.24914 -1.52128,1.31569 -1.71797,2.37012 -0.54545,2.92418 -2.14403,4.41713 -4.72965,4.41713 -3.39422,0 -4.76508,-3.3141 -4.10242,-9.91769 0.88315,-8.80082 -0.51489,-13.96525 -4.8579,-17.94532 l -3.73578,-3.42359 -10.10832,0.62952 c -11.57826,0.72105 -15.54574,1.67714 -20.24982,4.87981 -4.79992,3.26793 -4.59891,3.78438 2.04379,5.25102 6.14097,1.35587 11.48852,11.20296 7.01592,12.91926 -3.29315,1.2637 -8.22465,0.54709 -10.94143,-1.58994 l -2.79295,-2.19693 0.56293,4.19693 c 0.46922,3.49832 0.2811,4.19693 -1.13015,4.19693 -2.7669,0 -9.25351,-8.60175 -9.85211,-13.06467 -0.526024,-3.92174 1.13383,-5.66684 2.35734,-2.47842 0.38999,1.0163 1.43506,1.28171 3.45556,0.87761 2.36881,-0.47376 3.0473,-0.17165 3.72424,1.6583 1.19526,3.23108 13.19836,6.9652 13.19836,4.10596 0,-1.22931 -6.70464,-5.09878 -8.83465,-5.09878 -2.60285,0 -5.91061,-2.69647 -5.78062,-4.71234 0.20933,-3.24642 4.88287,-8.22444 9.30799,-9.91441 2.38647,-0.9114 9.16939,-2.18275 15.07316,-2.82523 l 10.73412,-1.16813 -4.5,-1.37328 c -9.17858,-2.80105 -23.13769,-1.72192 -26.55375,2.05278 -0.96592,1.06734 -2.49648,1.94061 -3.40124,1.94061 -2.12622,0 -4.04501,1.94155 -4.04501,4.09301 0,0.93116 -0.70352,1.96298 -1.56338,2.29294 -0.85986,0.32996 -1.28134,1.05628 -0.93662,1.61405 0.34472,0.55777 -0.14685,1.31099 -1.09238,1.67382 -1.13147,0.43419 -2.340014,-0.10706 -3.535424,-1.58332 -1.26892,-1.56705 -2.42744,-2.04905 -3.84424,-1.59937 -2.95487,0.93784 -2.63974,5.2398 0.5687,7.76356 2.39945,1.88741 2.54639,2.44484 1.93478,7.34 -0.61296,4.90597 -0.39932,5.70793 2.89092,10.85139 3.006254,4.69953 4.010844,5.55392 6.530274,5.55392 1.63761,0 4.9057,0.62818 7.26242,1.39596 2.35672,0.76778 7.20995,1.68586 10.78495,2.04018 3.575,0.35432 7.95923,0.90061 9.74272,1.21397 4.63265,0.81395 9.88242,6.60841 11.41898,12.60374 0.9441,3.6837 1.95672,5.27315 4.04865,6.35492 1.53431,0.79343 2.81558,1.76853 2.84727,2.16691 0.0317,0.39838 0.28998,2.52432 0.57399,4.72432 0.28401,2.2 0.6256,5.8 0.7591,8 0.1335,2.2 0.59689,4.78371 1.02976,5.74157 1.03625,2.29303 -1.85708,3.47089 -4.05177,1.64946 -1.29061,-1.07111 -1.50827,-2.69622 -1.10884,-8.2789 0.45058,-6.29742 0.2791,-7.16407 -1.83597,-9.27915 -3.1142,-3.1142 -4.51123,-2.95938 -10.76509,1.19295 -6.05883,4.02284 -14.18806,7.2558 -30.6588,12.19288 -6.325004,1.89591 -15.775004,4.97465 -21.000003,6.84165 -5.225,1.867 -12.425,4.13656 -16,5.04346 -7.54502,1.91402 -12.35898,3.87721 -16.32288,6.65667 -1.55258,1.08866 -9.15959,3.95945 -16.90448,6.37953 -7.80107,2.43764 -14.68158,5.17169 -15.42681,6.13001 -3.35349,4.31241 -9.420021,16.40024 -11.6583934,23.22987 -1.861314,5.67917 -2.645672,10.89889 -3.230763,21.5 -1.006574,18.23785 -1.035893,15.51256 0.458093,42.58085 1.163471,21.07995 1.130951,24.40555 -0.306632,31.35696 -1.798676,8.69748 -2.036744,22.50688 -0.569977,33.06219 2.363217,17.00644 2.342299,16.5 0.6815,16.5 -5.08793,0 -7.9344566,-36.19326 -4.041605,-51.38855 1.35648,-5.29486 1.386279,-8.76579 0.251101,-29.24713 -1.74465,-31.47769 -0.407467,-57.48414 3.489403,-67.86432 2.978519,-7.93394 8.0785654,-18.09082 10.4734154,-20.85809 2.387268,-2.75849 9.808498,-6.24391 21.341678,-10.02321 5.64649,-1.85029 12.29135,-4.54102 14.76635,-5.97939 2.475,-1.43837 5.6475,-2.62064 7.05,-2.62726 1.4025,-0.007 2.9775,-0.41995 3.5,-0.9185 0.5225,-0.49855 3.875,-1.80482 7.45,-2.90281 3.575,-1.09799 8.975,-2.99496 12,-4.21548 3.025,-1.22053 10.674999,-3.70265 16.999999,-5.51583 24.612344,-7.05559 31.511884,-10.04942 38.750004,-16.81427 3.63101,-3.39359 3.87728,-4.53146 1.83531,-8.48018 -2.00374,-3.87482 -4.7262,-4.99193 -16.08531,-6.60028 -5.5,-0.77876 -13.375,-2.53213 -17.5,-3.8964 -9.586014,-3.17038 -12.114934,-6.43617 -12.669324,-16.36093 -0.37202,-6.65995 -1.46603,-9.30737 -3.84614,-9.30737 -2.123499,0 -2.600889,-3.0604 -0.983209,-6.30311 0.996709,-1.99796 1.188849,-3.40671 0.551569,-4.04399 -0.580359,-0.58036 -0.747919,-4.6726 -0.412139,-10.06543 l 0.565829,-9.08747 -6.353289,-2.88956 c -3.49432,-1.58926 -6.68391,-3.38926 -7.08799,-4 -1.51401,-2.28835 -0.66336,-6.0185 2.6179,-11.47963 1.86076,-3.09695 5.19136,-9.44409 7.40134,-14.10477 l 4.018139,-8.47395 -2.978169,-5.89972 c -2.60965,-5.16968 -2.89142,-6.53407 -2.27709,-11.02605 0.38559,-2.81948 1.1407,-6.251325 1.678,-7.626325 1.51088,-3.866445 5.730079,-18.349426 5.753589,-19.75 0.0325,-1.936232 -4.422659,-1.475473 -7.251889,0.75 -3.20065,2.517632 -4.72713,2.54107 -4.72713,0.07258 0,-4.232755 8.77265,-7.89993 11.757619,-4.914962 0.87682,0.876825 1.52887,0.849507 2.68817,-0.112624 2.5792,-2.140553 2.982,1.293117 1.08508,9.250024 -1.91239,8.021814 -6.35165,21.660707 -7.552889,23.204987 -0.42783,0.55 0.48907,3.64753 2.037559,6.88339 2.10193,4.39241 2.67786,6.79993 2.27261,9.5 -0.92715,6.17722 -4.124469,14.29587 -8.799469,22.34364 -2.46877,4.24986 -4.48699,8.07486 -4.48493,8.5 0.002,0.42513 2.13956,1.59255 4.75,2.59425 2.61044,1.00171 5.439859,2.18438 6.287599,2.62817 0.99185,0.51923 2.36822,0.13732 3.86078,-1.07128 2.99502,-2.42522 6.435454,-2.37077 14.258784,0.22569 4.67863,1.55278 10.26818,2.2901 21.33909,2.81486 12.82317,0.60781 15.91084,1.08535 21.27639,3.29055 7.32545,3.01072 14.23874,8.77651 16.68873,13.91867 3.09392,6.49364 0.57665,10.00474 -3.93689,5.4912 -1.39072,-1.39072 -4.14325,-2.83149 -6.11673,-3.20172 -3.28039,-0.61541 -3.50533,-0.51208 -2.62258,1.20472 2.41572,4.69814 3.60042,10.4083 3.44984,16.62786 -0.17587,7.26386 0.77416,8.54725 2.76651,3.73728 1.23561,-2.98303 4.84531,-4.8157 6.93789,-3.52241 2.09623,1.29554 1.22251,15.04933 -1.39835,22.0123 -1.9109,5.0768 -2.14567,6.52283 -1.05901,6.52283 0.76789,0 1.67428,-0.45 2.0142,-1 0.33992,-0.55 1.44866,-1 2.46386,-1 1.56844,0 1.76719,-0.58629 1.32254,-3.90143 -0.4278,-3.18947 -0.1607,-4.09547 1.46367,-4.96481 1.09283,-0.58487 2.27113,-0.77923 2.61845,-0.43191 0.95951,0.95952 0.77336,-0.0483 -0.86852,-4.70185 -2.02917,-5.75127 -1.88916,-11.10739 0.62648,-23.96745 2.99269,-15.29876 2.62048,-16.57508 -6.71607,-23.02943 -7.87863,-5.44649 -9.41041,-7.6973 -9.41041,-13.82767 0,-2.56903 -0.58897,-4.06218 -1.93355,-4.90188 -1.06345,-0.66413 -4.86741,-4.93488 -8.45326,-9.49054 -10.31531,-13.10518 -8.43562,-11.97433 -19.06752,-11.47131 -7.61392,0.36024 -10.43682,0.96843 -15.38507,3.31473 -5.21083,2.47081 -6.06723,3.25898 -6.1104,5.62355 -0.0331,1.81243 -0.58613,2.75 -1.62216,2.75 -1.31774,0 -1.46327,-0.86988 -0.89988,-5.37911 0.4629,-3.70494 0.30439,-5.60634 -0.5093,-6.10924 -2.74948,-1.69926 -13.150604,11.86225 -14.433394,18.81899 -0.83142,4.50891 -7.509899,12.60781 -7.561189,9.16936 -0.0254,-1.69931 1.60255,-5.72556 5.05401,-12.5 5.621459,-11.03365 7.672479,-14.32721 10.860929,-17.44065 3.584684,-3.50035 3.708614,-3.83776 2.740984,-7.46297 -0.97582,-3.65592 -1.11849,-3.75722 -3.843224,-2.72874 -2.22426,0.83956 -3.1438,0.75402 -4.29722,-0.39976 -0.80709,-0.80733 -1.14621,-1.9741 -0.7536,-2.59282 1.46212,-2.30416 10.705084,-7.375065 13.442864,-7.375065 3.72034,0 12.77098,4.618415 12.77098,6.516855 0,1.89215 -1.42199,1.86931 -6.59401,-0.1059 -3.82238,-1.45978 -4.41928,-1.45544 -7.33701,0.0534 l -3.17613,1.64244 2.30357,2.42934 c 1.26697,1.33614 3.33843,2.43711 4.60324,2.44661 3.42687,0.0258 8.45256,2.91762 7.84083,4.51176 -0.898,2.34016 1.76449,3.68224 4.92281,2.48145 1.54362,-0.58688 6.21086,-1.3179 10.37164,-1.62449 l 7.56506,-0.55742 7,7.80628 c 3.85,4.29346 9.1375,9.91678 11.75,12.49628 4.31389,4.2594 4.75,5.11712 4.75,9.34216 0,5.25818 1.03594,6.54239 10.34886,12.82907 7.82147,5.27989 8.60136,8.18137 6.19447,23.04577 -2.7834,17.18973 -2.85299,18.79128 -1.02923,23.68736 0.92174,2.47448 1.92352,5.83409 2.2262,7.4658 0.30268,1.6317 1.14804,3.56446 1.87858,4.295 0.73055,0.73055 1.83449,3.20824 2.45321,5.50599 0.61872,2.29775 2.20574,5.46218 3.52672,7.03207 2.96557,3.52438 3.81333,6.68975 2.98056,11.12879 -0.37127,1.97905 -0.20727,3.68334 0.38995,4.05245 0.56687,0.35035 1.03068,2.15888 1.03068,4.01896 0,1.86008 0.4892,3.68431 1.08712,4.05384 0.59791,0.36953 0.87453,1.48482 0.6147,2.47841 -0.28491,1.08948 0.47436,2.62975 1.91288,3.88053 1.61191,1.40154 2.3853,3.14282 2.3853,5.37051 0,1.81308 0.6992,5.97856 1.55378,9.25661 0.85458,3.27806 1.4327,7.37226 1.28472,9.09823 -0.14799,1.72597 0.25664,3.77159 0.89919,4.54581 0.66132,0.79683 1.15825,4.57569 1.14519,8.70843 -0.0476,15.07076 2.79502,8.08253 3.71465,-9.13191 0.99047,-18.54039 4.21462,-22.72451 18.60532,-24.14491 8.48109,-0.83711 17.75538,1.3539 24.96037,5.89678 3.61922,2.28198 5.67602,3.01705 6.76803,2.4188 0.86281,-0.47269 4.71875,-1.74348 8.56875,-2.82399 3.85,-1.0805 13.75,-4.4526 22,-7.49354 12.74238,-4.69683 16.05356,-5.53608 22,-5.57611 11.06191,-0.0745 25.00392,5.67894 20.50276,8.46081 -0.54849,0.33898 -3.81068,-0.64627 -7.24932,-2.18944 -10.1665,-4.56245 -15.94497,-4.05205 -34.25344,3.02553 -8.25,3.18923 -18.375,6.70741 -22.5,7.81817 -4.125,1.11076 -7.64193,2.16027 -7.81541,2.33224 -0.17348,0.17198 2.00894,2.48684 4.8498,5.14414 5.59227,5.23091 8.44409,10.11648 12.03681,20.62074 l 2.30856,6.74969 4.62053,-4.99969 c 4.70712,-5.09338 6.66193,-5.93746 8.79971,-3.79968 2.02393,2.02393 1.36835,5.10129 -2.84732,13.36566 l -4.04733,7.93434 1.23788,6.2857 c 1.71727,8.71996 3.10448,9.54128 6.53174,3.86722 2.85764,-4.73101 6.35471,-7.37064 8.22968,-6.21185 2.33286,1.44178 1.1026,8.31285 -2.93152,16.37278 -3.86883,7.72968 -3.97702,8.2052 -2.75652,12.1158 1.27981,4.10066 2.14601,4.91066 3.28339,3.07035 0.33992,-0.55 1.4829,-1 2.53996,-1 2.60353,0 3.31765,3.44207 1.9657,9.47475 -0.6056,2.7023 -0.81326,7.21697 -0.46148,10.03259 0.61536,4.92513 0.74617,5.10366 3.44891,4.70698 2.21182,-0.32462 2.95764,0.0551 3.50684,1.78544 0.95793,3.0182 -0.3019,10.86827 -2.32711,14.50024 -1.19179,2.13734 -1.52904,4.4306 -1.17282,7.97503 0.48924,4.868 0.52643,4.91641 1.72856,2.25 0.85957,-1.90659 1.97529,-2.72503 3.71482,-2.72503 3.12207,0 4.55819,2.58244 4.55136,8.18426 -0.005,4.07422 -0.67139,5.58898 -5.37022,12.20643 -1.67476,2.35859 -1.74112,3.12121 -0.62004,7.1253 1.34336,4.79802 2.49047,5.65065 3.4662,2.57639 0.9151,-2.88324 3.32935,-3.29235 5.66219,-0.95951 2.40611,2.40611 2.14211,6.14551 -1.11691,15.81974 -2.19395,6.51266 -1.75829,10.04739 1.23835,10.04739 1.86145,0 1.97,0.43434 1.37464,5.5 -0.39291,3.34304 -0.26462,5.5 0.32713,5.5 1.59138,0 2.89592,3.31306 3.97898,10.10517 1.08321,6.79305 -0.24318,14.71412 -3.21281,19.18662 -1.26488,1.90502 -1.20351,2.30767 0.57071,3.74435 2.81304,2.27786 2.79817,14.58024 -0.0226,18.67496 -1.05666,1.53389 -2.52912,4.31119 -3.27215,6.17176 -2.2676,5.67821 -5.76196,8.96949 -11.25479,10.60069 -6.83626,2.03015 -7.65296,1.95585 -13.55954,-1.23355 z m 12.5318,-9.76343 c 2.99089,-2.0949 8.07731,-9.85488 9.54773,-14.56628 0.67293,-2.15616 1.56395,-3.92029 1.98004,-3.92029 1.13681,0 0.90958,7.81504 -0.29994,10.31574 -0.93365,1.93033 -0.8053,1.89488 1.10399,-0.30495 1.78829,-2.06041 2.0848,-3.40152 1.72127,-7.78519 -0.63098,-7.60884 -1.77487,-8.23319 -6.95302,-3.79504 -4.94269,4.23633 -15.26227,9.44308 -20.35321,10.26923 -3.78728,0.61459 -4.25363,1.3988 -1.96257,3.30021 0.825,0.68469 1.5,1.8714 1.5,2.63714 0,1.86706 5.87455,5.35446 9.02749,5.35912 1.39013,0.002 3.49982,-0.6773 4.68822,-1.50969 z M 108.13638,488.04155 c 0,-1.31155 15.73066,-16.42129 21.7437,-20.88543 2.88403,-2.14114 8.58948,-7.45804 12.67876,-11.81534 4.08929,-4.3573 10.57249,-10.17236 14.40713,-12.92236 6.30035,-4.51829 7.0096,-5.37553 7.36176,-8.8979 0.26333,-2.63382 -0.15598,-4.5718 -1.29298,-5.97594 -1.65295,-2.0413 -1.70431,-1.99891 -2.90474,2.3979 -0.67212,2.46177 -1.39589,5.07586 -1.60836,5.8091 -0.83447,2.87966 -2.878,0.36581 -2.59199,-3.18853 0.16131,-2.00455 -0.1264,-3.64463 -0.63934,-3.64463 -0.54101,0 -0.7384,-3.67415 -0.4701,-8.75 l 0.46252,-8.75 -2.05094,2.5 c -1.12802,1.375 -2.06095,3.11559 -2.07318,3.86798 -0.0122,0.7524 -1.37224,2.90556 -3.02224,4.7848 -3.51885,4.00774 -3.72878,6.49488 -1,11.84722 3.77157,7.39771 1.17179,10.75009 -3.04524,3.9268 -1.2146,-1.96526 -2.52336,-3.20276 -2.90836,-2.75 -0.38499,0.45276 -2.86091,3.91008 -5.50203,7.68294 -2.64112,3.77286 -6.29911,7.74303 -8.12886,8.82261 -1.82976,1.07958 -3.59431,2.80564 -3.92123,3.83568 -0.32692,1.03003 -3.08272,4.14697 -6.12399,6.92652 -4.86844,4.44948 -5.45507,5.39295 -4.90643,7.89092 0.59218,2.69614 0.44153,2.84403 -3.0301,2.97454 -3.27197,0.123 -3.59462,-0.0869 -3.09142,-2.01113 0.35932,-1.37405 -0.0517,-2.59708 -1.14025,-3.39308 -1.57306,-1.15027 -1.51831,-1.44024 0.72222,-3.82521 1.33338,-1.41932 3.3826,-2.58059 4.55384,-2.58059 1.17123,0 3.62202,-1.53988 5.4462,-3.42195 l 3.31668,-3.42195 -2.87051,-0.32805 c -4.78862,-0.54726 -3.4586,-3.04441 2.31394,-4.3445 2.85145,-0.6422 6.27942,-1.88509 7.61771,-2.76197 3.94402,-2.58422 15.25761,-20.72407 12.92308,-20.72046 -0.87981,0.001 -5.52899,4.56681 -8.13673,7.99019 -1.78024,2.33705 -2.01201,2.38908 -3.74313,0.84026 -2.76783,-2.47637 -4.40372,-2.4596 -9.34539,0.0958 -5.01828,2.59501 -9.02892,6.70145 -12.03514,12.32263 -2.12811,3.97924 -3.65583,4.7189 -4.61013,2.23204 -1.626724,-4.23916 7.81498,-16.91609 13.37601,-17.95935 2.31785,-0.43483 3.64807,-1.38883 4.28971,-3.07648 0.56394,-1.48329 1.72707,-2.44621 2.9548,-2.44621 1.57772,0 2.02475,-0.65459 2.02475,-2.96482 0,-3.55513 2.26793,-5.03518 7.71556,-5.03518 3.37557,0 4.57471,-0.73534 9.78444,-6 6.21018,-6.27566 9.16878,-7.66543 8.16752,-3.83661 -0.52113,1.99282 -0.43821,2.03587 1.05167,0.546 1.45135,-1.45136 1.48069,-2.49623 0.28573,-10.17776 -0.99976,-6.42678 -1.05815,-9.45156 -0.23425,-12.13607 0.60358,-1.96665 0.85396,-4.21019 0.55639,-4.98564 -0.66709,-1.73841 2.74987,-1.93299 4.43056,-0.2523 1.64992,1.64992 4.18754,-0.65132 3.52251,-3.19439 -0.58764,-2.24715 1.58849,-2.69461 3.55262,-0.73048 0.97701,0.97701 1.35389,0.76955 1.81663,-1 0.32114,-1.22801 1.22052,-2.23275 1.99864,-2.23275 1.7974,0 3.11505,3.24564 1.53189,3.77336 -0.7519,0.25064 -1.17991,2.85341 -1.17991,7.17511 0,5.21877 -0.4512,7.35542 -1.9577,9.27062 -1.83788,2.33649 -1.89628,3.24719 -0.95418,14.88032 0.61495,7.5934 1.56659,13.25086 2.4577,14.61086 0.7998,1.22065 1.45418,3.3602 1.45418,4.75455 0,3.59336 1.1212,3.18814 6.12824,-2.21482 10.76773,-11.61917 14.91567,-19.21665 18.56063,-33.99616 2.97229,-12.05196 3.54264,-26.17596 1.9167,-47.46491 l -0.89443,-11.71108 -4.20535,0.57641 c -3.84706,0.5273 -4.39102,0.31566 -6.38465,-2.48414 l -2.17931,-3.06055 2.05405,-6.09734 c 1.12973,-3.35354 2.32831,-8.0983 2.66352,-10.54391 0.72013,-5.25393 2.81452,-7.70122 3.83611,-4.48248 0.36503,1.15013 2.38446,3.22989 4.48762,4.6217 3.55521,2.35272 4.1167,2.44283 7.99017,1.28231 3.49036,-1.04574 4.07603,-1.58418 3.61013,-3.31904 -0.30587,-1.13895 -0.56227,-2.92805 -0.56978,-3.9758 -0.0133,-1.85293 -0.0693,-1.85463 -2.04989,-0.0622 -1.7574,1.59042 -2.48605,1.68011 -5.321,0.65498 -1.80661,-0.65329 -4.01712,-1.18779 -4.91224,-1.18779 -3.77375,0 -8.57911,-6.51625 -11.79908,-16 -2.54671,-7.50081 -10.35279,-23.67724 -12.66717,-26.25 -2.25141,-2.50277 -8.23591,-2.24303 -12.36639,0.53673 -1.86883,1.25771 -5.56926,5.19521 -8.22317,8.75 -2.65391,3.5548 -6.62197,8.43824 -8.81791,10.8521 -2.19594,2.41385 -4.73917,5.56385 -5.65161,7 -0.91245,1.43614 -2.05335,2.89144 -2.53534,3.234 -0.48199,0.34255 -0.33143,1.64099 0.33457,2.88543 1.1344,2.11965 1.05116,2.22251 -1.31749,1.62801 -2.22751,-0.55907 -2.61222,-0.2529 -3.23286,2.57284 -0.45388,2.06651 -0.30422,3.34084 0.42073,3.58249 2.14318,0.71439 1.15766,3.2084 -1.26781,3.2084 -2.57825,0 -2.64361,0.10846 -6.12053,10.15584 -1.26679,3.66071 -3.08322,8.29948 -4.0365,10.30836 -1.29884,2.73712 -1.44711,3.93865 -0.5916,4.79416 1.74598,1.74598 1.35983,3.74164 -0.72399,3.74164 -1.58492,0 -1.94434,1.01564 -2.38874,6.75 -0.28771,3.7125 -1.69563,10.35 -3.12872,14.75 -2.47895,7.61114 -4.54942,20.34272 -8.21255,50.5 -0.901904,7.425 -2.711844,18.84938 -4.022094,25.38752 -3.3553,16.7429 -3.21382,21.77475 0.75301,26.78329 2.30014,2.90415 2.839174,4.25474 2.02363,5.07028 -0.81554,0.81554 -1.6901,0.59852 -3.28323,-0.81472 l -2.17158,-1.92637 0.69704,4.5 c 0.67454,4.35482 6.175584,15.67729 9.352644,19.25 1.63247,1.83577 4.24622,2.37322 4.24622,0.87313 z m 19,-72.5517 c 0,-1.60149 2.6451,-4.57143 4.07143,-4.57143 1.35002,0 1.14215,1.25005 -0.62813,3.77749 -1.76955,2.52638 -3.4433,2.91231 -3.4433,0.79394 z m -13.42937,-0.45715 c -0.99685,-1.61293 0.23446,-3.11428 2.55413,-3.11428 1.1037,0 2.97297,-0.51712 4.15393,-1.14915 l 2.14721,-1.14915 -2.21295,-0.81863 c -2.65148,-0.98085 -2.93625,-2.88307 -0.43159,-2.88307 1.94399,0 11.33796,-8.48592 13.15739,-11.88556 0.62239,-1.16294 0.90675,-2.11444 0.63192,-2.11444 -1.35229,0 -10.57425,5.68677 -14.40565,8.88332 -6.33585,5.28602 -9.38434,7.10549 -11.91502,7.11142 -3.43664,0.008 -2.72083,-2.77117 1.12792,-4.37929 3.80754,-1.59089 5.16908,-3.15935 3.58983,-4.13538 -0.73483,-0.45415 -0.68499,-1.11585 0.16082,-2.13499 0.67413,-0.81227 1.25848,-3.13471 1.29856,-5.16097 l 0.0729,-3.68411 7,-1.0216 c 3.85,-0.56188 6.4777,-1.35109 5.83933,-1.75381 -1.53171,-0.96628 -4.87998,-1.01988 -10.08933,-0.16153 -3.88985,0.64094 -4.25,0.51964 -4.25,-1.43139 0,-1.17242 0.45,-2.13167 1,-2.13167 0.55,0 1,-0.73425 1,-1.63167 0,-1.31993 0.74655,-1.53153 3.90756,-1.10755 2.14915,0.28826 4.30146,0.1302 4.7829,-0.35124 0.79939,-0.79939 9.18748,0.1172 14.6563,1.60153 1.88966,0.51289 1.93902,0.45009 0.40324,-0.51301 -0.9625,-0.60359 -1.75,-1.78583 -1.75,-2.62721 0,-1.22641 0.64448,-1.36814 3.25,-0.71472 11.09532,2.78251 17.02251,-1.68551 7.85411,-5.92058 -3.4598,-1.59815 -4.09239,-1.62229 -6.71196,-0.25616 -1.59068,0.82956 -3.43712,1.51106 -4.10319,1.51445 -0.66608,0.003 -2.08109,0.94003 -3.14446,2.08144 -1.23681,1.32755 -2.17286,1.68785 -2.59798,1 -0.3655,-0.59141 -2.5505,-1.07696 -4.85554,-1.07902 -5.42821,-0.005 -10.40573,-3.06932 -12.28297,-7.56217 -2.44659,-5.85552 1.11143,-7.97787 3.66152,-2.18409 0.81808,1.85867 2.96968,4.07414 5.02591,5.1751 3.58423,1.91909 3.61775,1.91792 10.75,-0.3754 6.21825,-1.99944 7.15456,-2.61126 7.15456,-4.6751 0,-3.06494 2.03998,-3.0254 4.97274,0.0964 1.27675,1.35904 3.94269,2.9884 5.92431,3.6208 1.98162,0.6324 4.03045,1.54546 4.55295,2.02902 1.39951,1.29521 2.7712,1.04918 5.39272,-0.96727 l 2.34272,-1.80201 -2.59272,-1.69881 c -2.42584,-1.58947 -2.75693,-1.59122 -5.14407,-0.0271 -1.79947,1.17906 -2.86417,1.35888 -3.61286,0.61019 -1.3805,-1.3805 -0.20508,-3.23579 2.05003,-3.23579 1.39539,0 1.67504,-0.63197 1.32749,-3 -0.58767,-4.00405 0.60518,-3.78433 5.8703,1.08127 l 4.41639,4.08127 2.18863,-4.83127 c 1.20374,-2.6572 2.21624,-5.75377 2.25,-6.88127 0.0337,-1.1275 0.56216,-2.55079 1.17424,-3.16287 2.10506,-2.10506 -0.10061,-3.465 -4.43275,-2.73309 -5.29128,0.89396 -11.17618,4.62222 -12.86812,8.15233 -1.54027,3.21366 -4.71675,4.21522 -6.01444,1.89637 -1.2095,-2.16126 -2.44797,-2.02539 -8.21704,0.90145 -7.94523,4.03088 -12.30558,2.6262 -5.08052,-1.63669 1.925,-1.13578 3.5,-2.63809 3.5,-3.33847 0,-0.72115 1.80952,-1.56277 4.17239,-1.94061 2.72371,-0.43553 5.50237,-1.86874 8.00288,-4.1278 2.21482,-2.00095 4.88376,-3.46062 6.32761,-3.46062 2.91233,0 3.16865,-0.78848 0.81564,-2.50904 -2.25429,-1.64838 -6.84259,-0.44687 -16.31852,4.2732 -4.125,2.05471 -7.69215,3.85299 -7.927,3.99617 -0.23485,0.14319 0.39582,0.862 1.40149,1.59736 2.70212,1.97583 0.31169,2.98729 -5.13106,2.1711 -3.7143,-0.55699 -4.75081,-0.35393 -5.84724,1.14553 -1.62123,2.21717 -3.32049,0.92266 -1.92935,-1.4698 1.47627,-2.53886 0.54066,-6.36365 -1.69999,-6.94959 -2.83355,-0.74099 -1.91302,-3.75493 1.14685,-3.75493 1.82522,0 2.88514,0.85839 3.9863,3.22836 1.46355,3.14992 3,4.30066 3,2.24689 0,-0.56361 1.1283,-1.45373 2.50732,-1.97803 1.37903,-0.52431 2.39153,-1.4885 2.25,-2.14265 -0.14152,-0.65415 1.09268,-1.53536 2.74268,-1.95823 1.65,-0.42287 5.12405,-1.30226 7.72011,-1.95419 4.17272,-1.04787 4.60353,-1.40317 3.71482,-3.06374 -1.33504,-2.49454 -5.74407,-2.43146 -13.12123,0.18773 -7.07209,2.51088 -11.3137,2.29863 -11.3137,-0.56614 0,-1.41238 0.58762,-1.93033 2,-1.76286 1.1,0.13043 3.0678,-0.005 4.37289,-0.2999 2.27683,-0.51529 2.29707,-0.59497 0.5,-1.96813 -1.61877,-1.23693 -1.67049,-1.56372 -0.3812,-2.4085 0.82043,-0.53756 2.39543,-0.80076 3.5,-0.58488 9.08069,1.77479 10.54569,1.33116 8.46191,-2.56242 -1.63154,-3.04857 0.16572,-4.6356 3.51927,-3.10762 1.61998,0.73811 2.52891,1.9668 2.5321,3.42287 0.007,3.38808 4.1147,8.03916 6.72848,7.61931 2.07245,-0.3329 2.00273,-0.58456 -1.62,-5.84787 -2.08211,-3.025 -5.29261,-6.52373 -7.13445,-7.77495 -3.01201,-2.04615 -4.08448,-2.20828 -10.6639,-1.61206 l -7.3151,0.66287 v -2.53685 c 0,-2.52385 0.0397,-2.53528 7.75,-2.23134 4.2625,0.16803 9.01221,0.7958 10.55491,1.39504 3.84393,1.49314 11.40828,7.93246 13.75382,11.70827 2.63483,4.24149 9.40685,8.75368 13.24932,8.828 2.26972,0.0439 3.25875,0.59203 3.52427,1.95321 0.3381,1.7333 -0.0802,1.83363 -4.98161,1.19476 -3.08135,-0.40163 -6.85794,-1.73431 -8.90446,-3.14219 -1.95456,-1.34462 -3.86706,-2.44476 -4.25,-2.44476 -1.43895,0 -0.62616,2.0886 1.05375,2.70777 0.9625,0.35475 3.14248,1.69062 4.84439,2.96861 1.70192,1.27799 4.17692,2.33793 5.5,2.35542 1.32309,0.0175 3.27912,0.6925 4.34674,1.5 1.06762,0.80751 2.76924,1.4682 3.78138,1.4682 2.32942,0 3.5255,2.91521 1.67321,4.0781 -0.76765,0.48193 -2.18322,0.63119 -3.14572,0.33168 -1.29479,-0.4029 -1.75,0.0176 -1.75,1.61645 0,1.32001 0.77834,2.36455 2,2.68402 1.1,0.28766 2,1.19431 2,2.01479 0,1.07457 -0.67002,1.32361 -2.39574,0.89048 -1.6599,-0.41661 -2.58134,-0.11764 -3,0.97338 -1.00453,2.61776 -0.68386,4.4111 0.78875,4.4111 0.76616,0 1.65857,0.69203 1.98314,1.53785 0.71349,1.85932 -2.06203,3.17627 -3.55261,1.68569 -0.7227,-0.7227 -2.54195,0.37363 -5.93661,3.57756 -4.57819,4.32097 -7.91447,6.44282 -17.12676,10.8925 -4.27565,2.06521 -4.63286,2.84492 -1.65955,3.62246 1.15668,0.30248 1.8042,1.02893 1.44098,1.61663 -0.79352,1.28395 -4.5416,1.43575 -4.5416,0.18394 0,-1.08278 -3.83843,-2.18707 -4.4066,-1.26775 -0.22473,0.36362 0.42204,1.68692 1.43727,2.94067 1.40259,1.73213 2.46104,2.12514 4.4076,1.63659 1.40895,-0.35363 2.56173,-0.38645 2.56173,-0.0729 0,0.31351 -1.94003,2.56616 -4.31117,5.00589 -3.67496,3.78125 -4.25321,4.93229 -3.91844,7.79984 0.27623,2.36608 -0.24628,4.17634 -1.76141,6.10252 -2.08142,2.64603 -6.00898,3.78237 -6.00898,1.73848 0,-1.77907 -2.03189,-1.06862 -5.95078,2.08069 -4.06426,3.26612 -11.25456,5.01411 -12.47859,3.03359 z m 22.42474,-14.01927 -0.005,-3.59501 -3.04606,3.25 c -1.67534,1.7875 -3.47325,3.25 -3.99538,3.25 -1.74202,0 -0.97705,1.51284 1.30069,2.5723 3.23815,1.50617 5.75128,-0.8897 5.74537,-5.47729 z m -13.85615,-8.17098 2.36078,-2.07597 -2.5,0.56231 c -1.375,0.30928 -3.04838,0.56847 -3.71862,0.57598 -0.6704,0.008 -0.95967,0.68844 -0.64301,1.51365 0.77129,2.00995 1.6945,1.89181 4.50085,-0.57597 z m 19.39108,-1.72707 c -0.67194,-0.67193 -3.5303,1.82222 -3.5303,3.08047 0,0.5679 0.90276,0.21556 2.00613,-0.78298 1.10337,-0.99854 1.78925,-2.03241 1.52417,-2.29749 z m -3.97645,-4.28409 c 0.86097,-1.39308 -0.37412,-2.49501 -3.66202,-3.26722 -2.35209,-0.55242 -2.56155,-0.36873 -2.13342,1.8709 0.34336,1.79616 1.11802,2.48345 2.79915,2.48345 1.27842,0 2.62675,-0.48921 2.99629,-1.08713 z m 13.44615,-32.91287 c 0,-0.55 -0.19844,-1 -0.44098,-1 -0.24254,0 -0.7191,0.45 -1.05902,1 -0.33992,0.55 -0.14148,1 0.44098,1 0.58246,0 1.05902,-0.45 1.05902,-1 z m 15.60699,60.41821 c -0.33385,-0.86998 -0.60699,-3.79117 -0.60699,-6.49152 0,-3.82674 0.44117,-5.18526 2,-6.15876 1.64525,-1.02748 2,-2.33203 2,-7.35484 0,-7.73347 2.1414,-12.41309 5.68023,-12.41309 2.04769,0 2.38204,-0.33571 1.74292,-1.75 -2.11202,-4.67363 -1.58384,-12.23316 1.56925,-22.45959 4.02248,-13.04616 7.89258,-21.79041 9.64416,-21.79041 1.72712,0 1.73984,-0.10514 -0.63709,5.26829 -2.69999,6.10378 -7.99344,27.31266 -7.99678,32.04014 -0.002,3.2419 0.66673,4.41766 4.49731,7.9038 4.23671,3.85575 5.74856,6.78777 3.5,6.78777 -0.55,0 -1,1.35 -1,3 0,4.24485 -3.67763,4.2232 -5.16044,-0.0304 -0.89594,-2.5701 -5.11873,-5.96962 -7.4153,-5.96962 -0.76874,0 0.12368,15.07975 1.13922,19.25 0.51743,2.1248 0.30941,2.75 -0.91497,2.75 -0.87155,0 -2.25599,-1.2375 -3.07654,-2.75 -1.44012,-2.65457 -1.49328,-2.49841 -1.53193,4.5 -0.0304,5.51114 -0.37414,7.25 -1.43305,7.25 -0.76616,0 -1.66616,-0.7118 -2,-1.58179 z m 2.35361,-43.49183 c -1.01309,-1.89297 -0.86444,-2.04543 1.70627,-1.75 1.72124,0.19781 2.94505,1.00397 3.1479,2.07362 0.48044,2.53337 -3.46596,2.27027 -4.85417,-0.32362 z m -51.45052,-22.94269 c 0.34546,-0.55897 1.04702,-0.75742 1.55902,-0.44098 1.38704,0.85723 1.12841,1.45729 -0.62812,1.45729 -0.85746,0 -1.27636,-0.45734 -0.9309,-1.01631 z m 61.5251,-8.91795 c -1.8288,-3.41716 -1.21972,-4.21253 1.96482,-2.56574 1.65,0.85325 3,2.2148 3,3.02568 0,2.15143 -3.75334,1.80372 -4.96482,-0.45994 z m -6.53518,-5.06439 c -1.1,-0.39852 -2.49781,-0.53853 -3.10624,-0.31114 -1.08087,0.40395 -3.51237,-2.18685 -9.48957,-10.1113 -1.62667,-2.15661 -3.92253,-4.40661 -5.10192,-5 -1.17938,-0.5934 -2.34846,-1.69719 -2.59795,-2.45287 -0.3445,-1.04344 0.41831,-1.27216 3.17103,-0.9508 1.99356,0.23274 3.62465,0.26758 3.62465,0.0774 0,-0.19015 -1.67945,-3.74224 -3.7321,-7.89354 -2.41248,-4.87901 -4.66585,-8.03067 -6.3729,-8.91342 -2.40313,-1.24271 -3.84553,-3.91678 -3.88135,-7.1957 -0.0242,-2.21447 2.99309,-1.32931 4.15402,1.21864 0.61863,1.35776 1.50898,2.2312 1.97856,1.94099 1.48113,-0.91539 0.92607,-4.63628 -0.88967,-5.96398 -1.61488,-1.18083 -1.54115,-1.43395 1,-3.43282 2.02117,-1.58986 2.74344,-3.04479 2.74344,-5.52639 0,-4.08862 1.49388,-5.30066 3.01957,-2.44988 0.90551,1.69196 1.39835,1.86149 2.57433,0.88551 3.61346,-2.99891 2.83793,3.21897 -0.96673,7.75086 -1.30538,1.55489 -2.70733,4.81216 -3.11544,7.23839 -0.64188,3.81592 -0.29551,5.33432 2.56631,11.25 3.61654,7.47575 5.01389,8.61592 4.39817,3.58868 -0.77155,-6.2995 -1.2292,-17.26487 -0.77212,-18.5 0.63325,-1.71119 3.29591,-1.58486 3.29591,0.15638 0,0.95051 0.70296,1.22255 2.16867,0.83926 1.8148,-0.47458 2.04828,-0.25534 1.43085,1.34362 -1.01821,2.6369 -2.59952,11.18192 -2.59952,14.04723 0,2.8805 1.6261,3.11694 2.5,0.36351 0.9818,-3.09337 2.5,-2.36318 2.5,1.20239 0,2.21665 -0.94053,4.17277 -3.05548,6.35485 -2.47138,2.54981 -2.9247,3.67357 -2.37132,5.87837 0.37628,1.49926 1.32812,2.97303 2.11518,3.27505 1.99967,0.76735 6.97635,-4.2843 7.67828,-7.79395 0.36249,-1.81244 1.20995,-2.91671 2.23839,-2.91671 1.37002,0 1.5677,0.77499 1.14784,4.5 -0.27897,2.475 -0.11249,4.5 0.36995,4.5 0.48244,0 0.87716,0.95625 0.87716,2.125 0,1.80945 -0.42884,2.03923 -2.88792,1.54742 -2.03682,-0.40737 -3.359,-0.0571 -4.48635,1.18865 -2.05717,2.27315 -0.41288,4.13893 3.64759,4.13893 2.12604,0 2.78924,0.42578 2.55,1.63714 -0.4094,2.07302 -3.71532,3.30906 -6.32332,2.36421 z m -25.5,-21.49978 c -1.43309,-0.81833 -3.78474,-1.20166 -5.51041,-0.89822 -4.24751,0.74686 -8.13356,-1.01419 -9.93803,-4.50364 -2.10287,-4.0665 -0.10711,-5.17841 3.09546,-1.72458 1.33866,1.44368 3.4401,2.62487 4.66987,2.62487 2.01658,0 2.19739,-0.40445 1.84284,-4.12223 -0.48956,-5.13361 1.76235,-5.00495 3.45387,0.19734 0.65393,2.01119 2.20183,3.96338 3.75,4.72946 1.49803,0.74127 2.6364,2.14458 2.6364,3.25 0,2.29234 -0.6426,2.36415 -4,0.447 z m 5.5,-1.50157 c -0.33992,-0.55 0.30852,-1 1.44098,-1 1.13246,0 2.05902,0.45 2.05902,1 0,0.55 -0.64844,1 -1.44098,1 -0.79254,0 -1.7191,-0.45 -2.05902,-1 z M 312.6603,468.84306 c 0.96385,-3.03684 -0.01,-3.34845 -1.34004,-0.42887 -0.62755,1.37733 -0.73097,2.50423 -0.22983,2.50423 0.50115,0 1.20759,-0.93391 1.56987,-2.07536 z m -14.9152,-4.43549 c 5.87299,-3.4418 15.40206,-14.79581 15.35532,-18.29606 l -0.036,-2.69309 -2.21403,2.57756 c -3.22083,3.74965 -11.61908,8.5233 -19.41673,11.03667 -3.73852,1.20501 -7.66604,2.49134 -8.72782,2.85851 -1.67375,0.57878 -1.34123,1.08458 2.5,3.80283 5.41219,3.82994 7.06142,3.9238 12.53923,0.71358 z M 90.389596,437.77164 c -1.387279,-1.38728 -2.707649,6.21197 -1.625379,9.35461 0.659199,1.91414 0.944499,1.41793 1.729889,-3.00871 0.63392,-3.5729 0.59985,-5.64154 -0.10451,-6.3459 z m 200.932214,3.83247 c 7.31353,-3.56537 15.23532,-10.28528 16.38131,-13.89595 0.56089,-1.76724 -2.19577,-11.78974 -3.24274,-11.78974 -0.28339,0 -1.72253,0.85965 -3.19807,1.91033 -9.31337,6.6317 -20.78718,10.94718 -31.12593,11.70696 -10.7646,0.79107 -10.49747,0.514 -6.8545,7.10961 5.26029,9.52376 5.31942,9.56346 13.4725,9.04396 5.55172,-0.35374 8.75719,-1.25266 14.56743,-4.08517 z M 94.053086,424.16842 c 0.65979,-4.2625 1.34274,-8.79753 1.51766,-10.07784 0.39079,-2.86026 -3.7184,-5.28813 -5.6615,-3.34503 -0.897159,0.89716 -0.89078,1.17287 0.0271,1.17287 0.80183,0 1.2,2.01852 1.2,6.08333 0,4.42018 -0.34175,5.97047 -1.25,5.67051 -0.6875,-0.22705 -1.528259,-1.95205 -1.868359,-3.83333 l -0.61836,-3.42051 -0.13164,3.10078 c -0.20522,4.83394 2.753569,12.39922 4.849349,12.39922 0.40485,0 1.27592,-3.4875 1.93572,-7.75 z m 37.865414,1.07799 c 3.22593,-1.45077 3.42699,-1.72372 1.51946,-2.06279 -2.43615,-0.43304 -6.30158,1.26609 -6.30158,2.76998 0,1.3027 0.46625,1.23375 4.78212,-0.70719 z m 13.96788,-6.28381 c 3.49772,-6.12555 2.67252,-6.87527 -2.25,-2.04418 -5.08341,4.98899 -5.46426,6.0033 -2.25,5.9923 1.56789,-0.005 2.93211,-1.20228 4.5,-3.94812 z m 14.7137,-5.29418 c -0.37754,-5.0875 -1.57389,-12.54993 -2.65855,-16.58319 -2.15485,-8.01269 -1.72137,-10.00936 1.35041,-6.22022 1.6354,2.01731 2.14399,2.19277 2.89861,1 0.97656,-1.54358 1.30744,-7.94659 0.41065,-7.94659 -0.29435,0 -1.64661,0.72823 -3.00501,1.61829 -1.74277,1.1419 -2.83632,1.31413 -3.71482,0.58504 -0.93431,-0.77541 -1.30742,-0.36822 -1.49518,1.63171 -0.58994,6.28386 -0.0868,10.20291 2.25885,17.59343 1.37024,4.3173 2.49134,10.03706 2.49134,12.71058 0,2.80026 0.45575,4.86095 1.07507,4.86095 0.73876,0 0.86033,-2.89371 0.38863,-9.25 z m 114.0363,0.091 c 8.86338,-1.3665 17.79337,-5.51487 23.25526,-10.80309 3.93072,-3.80573 4.20838,-4.41308 3.64067,-7.96334 l -0.61458,-3.8434 -7.1721,3.31371 c -3.94465,1.82254 -12.33295,4.65987 -18.64067,6.30516 -6.30772,1.6453 -12.16095,3.26376 -13.00719,3.59658 -1.5151,0.59589 -12.22232,-0.70748 -16.81083,-2.04635 l -2.34944,-0.68553 1.7498,3.39263 c 0.96238,1.86595 2.84048,5.12402 4.17354,7.24016 l 2.42375,3.84752 8.1759,-0.63742 c 4.49674,-0.35059 11.32589,-1.12307 15.17589,-1.71664 z m -7,-15.841 c 3.19721,-1.1 6.75362,-2 7.90314,-2 4.13113,0 17.24209,-5.08319 20.91075,-8.1072 3.52839,-2.90841 7.68611,-9.39308 7.68611,-11.98782 0,-0.64608 -0.94672,0.0289 -2.10381,1.49987 -2.63688,3.35225 -12.55063,8.38352 -24.89619,12.63493 -12.29265,4.23319 -22.20876,4.57787 -32.25,1.12098 -5.18019,-1.78338 -6.75,-2.76999 -6.75,-4.24229 0,-2.28023 0.60442,-2.33566 6.21505,-0.57001 12.38527,3.89762 13.49985,3.92914 25.82011,0.73024 19.32433,-5.01747 27.97582,-9.79877 27.95119,-15.44739 -0.008,-1.72222 -0.28511,-4.14424 -0.61689,-5.38228 -0.60165,-2.24506 -0.6123,-2.243 -4.05932,0.78353 -8.68431,7.62492 -20.71644,11.82557 -30.14861,10.52546 -8.68085,-1.19655 -15.18048,-2.87592 -16.28597,-4.20796 -1.79463,-2.16239 1.7511,-2.82733 8.09234,-1.51756 12.31753,2.54414 21.8018,0.55014 32.54707,-6.8428 4.25473,-2.92733 11.10838,-11.69969 10.00374,-12.80433 -0.25229,-0.25228 -2.38824,1.58403 -4.74655,4.08068 -3.29548,3.4888 -6.78905,5.63477 -15.09501,9.27233 -9.95893,4.36147 -11.25458,4.68618 -16.50791,4.1371 -3.13541,-0.32772 -8.84366,-1.55359 -12.685,-2.72416 -13.244,-4.03584 -12.32464,-7.5086 1.05971,-4.0029 9.69723,2.53994 14.60208,2.58172 21.57198,0.18372 13.64567,-4.6948 21.90709,-11.33352 20.32132,-16.32984 -0.40022,-1.26097 -0.69088,-3.58655 -0.64592,-5.16794 l 0.0817,-2.87525 -1.92038,2.06128 c -5.39363,5.78939 -18.33887,12.1788 -24.67772,12.18024 -1.52624,3.5e-4 -6.03429,-1.01215 -10.01789,-2.25 -5.36585,-1.66736 -7.24474,-2.70416 -7.25,-4.00063 -0.009,-2.21121 3.20516,-2.29204 9.05598,-0.22775 9.31926,3.28803 17.6391,1.46905 26.43211,-5.77889 3.29573,-2.71658 11.50487,-13.68541 11.50487,-15.37243 0,-0.40635 -2.5875,1.95792 -5.75,5.25393 -9.46902,9.86875 -21.20789,14.86426 -28.93596,12.31377 -4.86444,-1.60541 -3.58809,-3.30908 2.75661,-3.67952 6.33429,-0.36984 13.79784,-3.79158 19.33511,-8.86438 4.21687,-3.86317 4.23985,-4.60689 0.41313,-13.37082 l -2.10276,-4.81571 -5.48803,4.47006 c -3.01842,2.45854 -6.58384,4.88669 -7.92317,5.3959 -1.33932,0.50921 -7.75073,0.92584 -14.24758,0.92584 -9.12209,0 -12.08771,-0.33166 -13.021,-1.4562 -2.62762,-3.16608 -0.15915,-3.84465 11.4591,-3.15005 7.16829,0.42856 12.25133,0.28417 14.10562,-0.4007 4.40129,-1.62558 16.54569,-14.92351 20.22385,-22.14482 3.51037,-6.89188 3.2781,-6.6772 -7.23943,6.69116 -7.89888,10.03991 -11.4537,11.88497 -22.98387,11.9294 -6.54865,0.0252 -8.10162,-0.25632 -8.10162,-1.46879 0,-1.1488 1.75602,-1.63487 7.5,-2.07605 9.81624,-0.75394 13.14083,-2.16946 17.45186,-7.43051 l 3.5647,-4.35024 -2.86949,-8.85286 c -3.81384,-11.76636 -5.25836,-14.35854 -11.45088,-20.5485 -13.81022,-13.8045 -21.65588,-17.34953 -35.75652,-16.1564 l -7.56034,0.63972 -2.68966,4.7848 c -2.12505,3.78036 -2.6938,6.11836 -2.70934,11.13742 -0.0243,7.83644 -2.32937,21.36334 -3.97927,23.35135 -1.34528,1.62095 -1.034,4.82128 1.36181,14.00127 2.65508,10.17345 2.76152,10.02174 -7.7895,11.10273 -5.61011,0.57477 -6.78298,0.3842 -9.48743,-1.54153 -3.03848,-2.16359 -3.08594,-2.16631 -3.08594,-0.17635 0,3.01163 2.12923,7.11515 3.6919,7.11515 0.75398,0 1.61866,0.64572 1.92151,1.43494 0.43597,1.13614 1.99121,1.31417 7.46861,0.85496 4.27523,-0.35842 6.91798,-0.20302 6.91798,0.40678 0,0.54271 1.78836,1.52255 3.97413,2.17742 2.18576,0.65487 6.69623,3.37532 10.02326,6.04543 3.64888,2.92843 7.85422,5.30928 10.59833,6.00025 2.77276,0.6982 4.39268,1.62087 4.1484,2.36286 -1.18474,3.59862 -11.6273,0.61929 -18.18547,-5.18842 -13.54093,-11.99144 -15.95085,-11.14955 -14.0429,4.90578 2.33501,19.64891 4.70828,24.47635 16.96097,34.5 2.68923,2.2 5.59461,4 6.45639,4 2.69042,0 4.09897,1.524 3.5244,3.81326 -0.95301,3.79712 5.67484,9.09371 15.04249,12.02108 9.90952,3.09671 12.66726,3.18849 20,0.66566 z m -33.25,-27.14123 c -4.58132,-2.24296 -5.66868,-4.87262 -2,-4.83681 3.44128,0.0336 10.98255,3.77824 10.50836,5.21796 -0.6621,2.01029 -3.92207,1.86425 -8.50836,-0.38115 z m -12,-5.52105 c -1.71544,-0.6922 -1.58211,-3.33772 0.16821,-3.33772 2.51325,0 4.58179,1.17698 4.58179,2.60699 0,1.36959 -2.29266,1.72229 -4.75,0.73073 z m 9.95,-4.53772 c -1.96191,-1.96191 -1.37779,-2.95337 1.54145,-2.61642 3.19719,0.36902 4.58094,3.81642 1.53187,3.81642 -1.03032,0 -2.41332,-0.54 -3.07332,-1.2 z m -10.95,-3.83116 c -2.48053,-0.99705 -3.09086,-3.96884 -0.8151,-3.96884 2.82735,0 6.5651,1.97859 6.5651,3.47525 0,1.68447 -2.29675,1.88162 -5.75,0.49359 z m 26.95428,-17.57194 c -4.00754,-1.75095 -3.25322,-3.85669 1.07169,-2.99171 3.53055,0.70611 5.9386,2.43862 5.154,3.70812 -0.73312,1.18622 -2.27786,1.00846 -6.22569,-0.71641 z M 226.84624,330.153 c -7.25687,-2.92254 -14.70986,-9.187 -14.70986,-12.36406 0,-2.48766 0.12962,-2.4429 5.15539,1.78029 4.9577,4.166 13.44846,8.21514 19.33309,9.21972 2.55553,0.43627 4.01152,1.2192 4.01152,2.15715 0,2.52673 -6.47088,2.15457 -13.79014,-0.7931 z m 3.95681,-9.90125 c -1.51808,-1.51807 -0.51968,-3.33333 1.83333,-3.33333 1.83333,0 2.5,0.53333 2.5,2 0,1.95113 -2.84129,2.82537 -4.33333,1.33333 z m 2.33333,-7.74863 c -3.60916,-1.30253 -4.85414,-4.14918 -1.75,-4.00137 0.9625,0.0458 3.56412,0.15834 5.78138,0.25 4.26757,0.17643 6.4714,2.6015 3.86434,4.25228 -1.82237,1.15392 -3.62779,1.03938 -7.89572,-0.50091 z m -10.33333,-2.25137 c -1.51808,-1.51807 -0.51968,-3.33333 1.83333,-3.33333 1.83333,0 2.5,0.53333 2.5,2 0,1.95113 -2.84129,2.82537 -4.33333,1.33333 z m -122.66667,64.66667 c 0,-2.75235 -0.434504,-4 -1.393014,-4 -1.53959,0 -2.60699,-2.10485 -2.60699,-5.1408 0,-1.08748 -0.45,-1.69912 -1,-1.3592 -1.53786,0.95045 -1.18636,7.30503 0.61394,11.09887 2.25144,4.74456 4.386064,4.4531 4.386064,-0.59887 z m 91.78722,-46.86808 c -0.70797,-0.21609 -2.01354,-1.02356 -2.90127,-1.79436 -1.41256,-1.22651 -1.81829,-1.08977 -3.25,1.0953 -2.04215,3.11671 -2.03581,3.32907 0.11405,3.82061 2.09173,0.47824 7.93412,-2.54257 6.03722,-3.12155 z m 0.82595,-75.13192 c 2.26143,0 2.80814,-2.87697 0.93916,-4.94217 -1.51376,-1.67269 -1.97013,-1.72165 -4.37128,-0.46892 -1.47458,0.76932 -3.50605,1.40154 -4.51438,1.40493 -1.01819,0.003 -1.65002,0.56194 -1.42103,1.25616 0.55818,1.69229 4.93721,3.84644 6.58615,3.23989 0.73248,-0.26944 1.9841,-0.48989 2.78138,-0.48989 z m -1.60656,-10.01235 c 0.68529,-1.28047 0.57077,-1.93585 -0.40359,-2.30974 -1.61875,-0.62118 -7.48948,0.59734 -10.18654,2.11429 -1.83594,1.03263 -1.81958,1.11397 0.38926,1.93556 3.44379,1.28093 9.10048,0.31598 10.20087,-1.74011 z m -6.00661,-5.84179 c 2.59482,-0.50398 3.5,-1.19265 3.5,-2.66282 0,-1.67577 -0.77474,-2.02628 -5,-2.2621 -4.56939,-0.25502 -5.10526,-0.0492 -6.2222,2.39047 -1.51243,3.30342 -0.72353,4.77468 2.08506,3.88854 1.17543,-0.37086 3.71214,-0.9802 5.63714,-1.35409 z m -7.7707,-6.33377 c 0.21779,-0.65335 2.61779,-1.89085 5.33334,-2.75 6.0821,-1.92426 6.71146,-4.18384 2.60469,-9.35153 -1.60663,-2.02168 -3.41193,-5.59611 -4.01178,-7.94317 -0.73257,-2.86636 -1.85969,-4.61745 -3.43309,-5.33364 l -2.34245,-1.06624 1.54097,4.28526 c 2.02208,5.62316 0.68186,7.39744 -4.18495,5.54034 -2.91486,-1.11227 -3.41012,-1.02276 -4.99009,0.90183 -1.21872,1.48455 -2.51583,1.99104 -4.25,1.65953 -2.35266,-0.44974 -2.49594,-0.22676 -2.49594,3.8842 0,3.72989 0.29675,4.36133 2.04966,4.36133 2.66601,0 6.95859,2.24665 9.35769,4.89762 2.11128,2.33294 4.21607,2.73211 4.82195,0.91447 z M 106.7913,178.46155 c -0.32568,-0.84872 -1.07211,-1.54313 -1.65872,-1.54313 -0.73956,0 -0.72434,0.63946 0.0496,2.08565 1.2413,2.31939 2.53936,1.88174 1.60908,-0.54252 z m -9.654924,-21.22109 c 2.31589,-7.2062 6.778904,-8.42914 9.445004,-2.58809 0.93517,2.04884 0.98115,2.04279 4.42129,-0.58179 3.33549,-2.54474 3.98576,-2.65216 16.055,-2.65216 h 12.57871 l 9.74079,4.25 c 5.35743,2.3375 10.27912,4.25 10.93709,4.25 1.62097,0 -4.0289,-5.83942 -7.30761,-7.55276 -6.95511,-3.63451 -11.91366,-4.65284 -26.37027,-5.4156 -9.56528,-0.50468 -16.44926,-1.36251 -19,-2.36764 -2.2,-0.86692 -6.55718,-1.59597 -9.682614,-1.62011 -4.78964,-0.037 -5.78048,0.26446 -6.3054,1.91834 -0.34253,1.07922 -0.14786,2.84964 0.43261,3.93426 0.58047,1.08461 1.0554,4.47661 1.0554,7.53777 0,6.99281 1.90231,7.41502 4,0.88778 z m 6.000004,1.17796 c 0,-1.55556 -0.56667,-2.5 -1.5,-2.5 -1.61396,0 -1.853244,0.91589 -0.89301,3.41821 0.9342,2.43449 2.39301,1.87474 2.39301,-0.91821 z m 9,-51.5 c 0,-0.55 -0.45,-1 -1,-1 -0.55,0 -1,0.45 -1,1 0,0.55 0.45,1 1,1 0.55,0 1,-0.45 1,-1 z m -5.5,412.10226 c -6.668234,-3.83952 -10.500004,-7.53916 -10.500004,-10.13792 v -2.13115 l 2.75,2.12477 c 6.310484,4.87576 12.925074,8.96956 15.500004,9.59301 1.5125,0.36622 2.75,1.29206 2.75,2.05744 0,2.32246 -5.12829,1.58685 -10.5,-1.50615 z m 24.5,-3.12442 c 0,-0.56218 2.025,-6.20147 4.5,-12.53174 2.475,-6.33028 4.5,-11.92413 4.5,-12.43079 0,-2.05763 2.40838,-6.01531 3.66052,-6.01531 1.99525,0 1.65039,2.71187 -1.53396,12.06241 -3.31369,9.73035 -5.93483,15.69531 -7.99203,18.18759 -1.60399,1.94322 -3.13453,2.29861 -3.13453,0.72784 z m 196.69565,-19.22784 c -0.3333,-5.0875 -0.33672,-11.85193 -0.008,-15.03207 0.35694,-3.44906 -0.13053,-11.20873 -1.20814,-19.23133 -1.47092,-10.95078 -1.59418,-14.42802 -0.66349,-18.71793 0.62867,-2.89777 1.4416,-9.42955 1.80652,-14.51508 0.39065,-5.44409 1.18052,-9.67551 1.92081,-10.28989 1.00765,-0.83627 0.98235,-2.17734 -0.1274,-6.75359 -3.01701,-12.44112 -4.63389,-27.58647 -4.06908,-38.11511 0.50814,-9.47234 0.42287,-10.21183 -0.95125,-8.25 -1.53217,2.18748 -4.39601,2.95849 -4.39601,1.18351 0,-1.05313 4.1442,-9.98557 6.50851,-14.02851 0.8041,-1.375 1.46864,-3.93321 1.47675,-5.6849 0.008,-1.7517 0.4722,-4.38811 1.03131,-5.85869 0.81668,-2.14803 1.2929,-2.44447 2.42181,-1.50755 1.62629,1.3497 1.09863,10.53968 -0.89291,15.55114 -1.63118,4.10464 -1.93578,27.52912 -0.49011,37.69005 1.47416,10.36124 8.61376,39.26941 10.69031,43.28503 0.84996,1.64364 1.64666,4.57165 1.77045,6.50668 0.23913,3.73814 4.28067,20.31274 7.52498,30.86038 1.90998,6.20958 1.75565,11.59011 -0.31266,10.90067 -1.13058,-0.37686 -2.19869,-3.74544 -7.36979,-23.24281 -1.89632,-7.15 -3.47279,-14.57187 -3.50326,-16.49304 -0.0305,-1.92117 -0.76041,-4.84617 -1.6221,-6.5 -0.8613,-1.65383 -2.3252,-5.48196 -3.25272,-8.50696 l -1.68641,-5.5 -0.65661,7 c -0.36114,3.85 -1.10511,9.7675 -1.65328,13.15 -0.7354,4.53784 -0.62334,9.12529 0.4275,17.5 1.34184,10.69377 1.94619,38.27671 0.92244,42.1 -0.25773,0.9625 -1.0454,1.75 -1.75038,1.75 -0.90633,0 -1.4593,-2.7095 -1.88779,-9.25 z m -66.03559,-3.88891 c -7.37907,-8.68166 -10.44474,-14.2581 -8.49942,-15.46037 0.62852,-0.38845 1.75805,0.14998 2.51005,1.1965 0.75201,1.04653 2.13279,2.80278 3.06841,3.90278 8.94264,10.51378 12.2609,15.23214 12.2609,17.43426 0,2.64981 -3.01916,0.36339 -9.33994,-7.07317 z m 11.32869,-2.36025 c -1.36881,-0.78191 -3.47649,-1.95042 -4.68374,-2.5967 -1.20724,-0.64627 -2.43716,-1.80612 -2.73314,-2.57744 -0.79402,-2.06918 2.49179,-2.96434 3.60161,-0.98119 0.50925,0.90997 1.52869,1.65449 2.26543,1.65449 0.73674,0 2.40187,0.86806 3.70031,1.92902 3.1517,2.57528 1.43976,4.62266 -2.15047,2.57182 z m 2.51125,-7.48722 c -1.65,-0.44331 -4.2375,-1.0863 -5.75,-1.42887 -1.5125,-0.34257 -2.75,-1.28928 -2.75,-2.1038 0,-2.31908 8.88736,-1.925 11.82628,0.52438 1.27946,1.06634 2.0404,2.40137 1.69099,2.96673 -0.7154,1.15754 -0.8591,1.15873 -5.01727,0.0416 z m -127.5,-4.32653 c 0,-0.7221 1.38152,-2.6346 3.07005,-4.25 1.68852,-1.6154 3.97523,-4.39959 5.08156,-6.18709 1.10633,-1.7875 2.64981,-3.25 3.42995,-3.25 2.95691,0 1.2242,4.24302 -3.88816,9.52124 -5.23318,5.40296 -7.6934,6.73513 -7.6934,4.16585 z m 258.92104,-9.93709 c -0.0434,-2.8875 -0.0276,-16.05 0.0353,-29.25 0.13409,-28.17246 -0.89568,-40.46 -4.53027,-54.05665 -2.08306,-7.79257 -2.76617,-13.06623 -3.15807,-24.38083 -0.37856,-10.92947 -0.86126,-14.79868 -1.98661,-15.92403 -0.97997,-0.97997 -1.30575,-2.60071 -0.95599,-4.75601 0.99181,-6.11181 -1.29177,-28.83377 -4.30365,-42.82191 -2.72243,-12.6439 -3.511,-14.78152 -8.48472,-23 -8.65924,-14.30839 -10.93804,-16.25872 -24.09392,-20.62106 -6.16971,-2.0458 -14.41886,-5.58925 -18.33144,-7.87431 -8.39962,-4.90565 -13.21185,-6.71557 -21.33249,-8.02337 -3.29229,-0.5302 -10.32695,-2.95518 -15.63256,-5.38884 -16.4194,-7.53147 -27.68843,-10.7896 -45.5421,-13.16723 -3.87804,-0.51645 -5.62371,-1.41408 -8.39915,-4.31886 -10.36414,-10.84714 -17.61864,-25.00372 -17.11915,-33.4067 0.13927,-2.34311 0.15884,-6.7352 0.0435,-9.7602 -0.20877,-5.47473 -0.21659,-5.48737 -1.70163,-2.75 -0.84799,1.56309 -2.34133,2.75 -3.45997,2.75 -1.67779,0 -1.96812,-0.69204 -1.96812,-4.69113 0,-4.1925 -0.14407,-4.49411 -1.35539,-2.83752 -0.85698,1.17199 -1.9831,1.61274 -3.06239,1.19857 -1.41257,-0.54205 -1.58942,-1.43907 -1.02534,-5.20066 0.96185,-6.41408 -1.04652,-13.12435 -4.16212,-13.90632 -1.31503,-0.33005 -3.62813,-2.46956 -5.14021,-4.75447 -2.22842,-3.36737 -2.74974,-5.28773 -2.75189,-10.13693 -0.001,-3.2904 0.46836,-6.14458 1.04405,-6.34261 0.57569,-0.19804 1.60212,2.32897 2.28095,5.61556 1.20899,5.85335 5.43367,12.63007 7.19507,11.54146 1.1665,-0.72093 3.83796,3.31549 4.97343,7.5146 0.56869,2.10305 1.85626,3.89955 3.22521,4.5 1.59428,0.69928 2.37494,2.00501 2.59931,4.3476 0.27414,2.86222 0.62941,3.26741 2.44796,2.79185 3.19381,-0.8352 4.73136,1.10892 4.73136,5.98244 0,2.40766 0.46114,4.37756 1.02475,4.37756 1.27667,0 2.97525,-4.31894 2.97525,-7.5651 0,-1.42714 0.58283,-2.4349 1.4082,-2.4349 1.38245,0 5.5918,-10.59279 5.5918,-14.07173 0,-0.92586 0.61884,-2.19698 1.37521,-2.8247 0.75637,-0.62773 1.66592,-2.95935 2.02124,-5.18138 0.35532,-2.22202 2.39345,-8.17603 4.52917,-13.23112 5.01761,-11.87624 5.78057,-15.4542 3.63067,-17.02625 -1.51117,-1.10499 -1.51069,-1.53042 0.006,-5.67964 2.1609,-5.91027 2.9521,-20.71458 1.57858,-29.537088 -1.24207,-7.97815 -4.05822,-17.371632 -6.92128,-23.086441 -1.06405,-2.123911 -2.90651,-7.106803 -4.09435,-11.073094 -2.92737,-9.775826 -10.43293,-18.092604 -20.31526,-22.511349 -3.74549,-1.674743 -6.80998,-3.659738 -6.80998,-4.4111 0,-1.977302 2.14856,-1.698545 9.45604,1.22684 5.14309,2.058919 7.81463,4.010833 12.97146,9.477344 5.88927,6.242932 6.7409,7.701791 9.13999,15.657047 1.45508,4.824961 3.99747,11.886591 5.64976,15.692512 3.48538,8.028285 5.29866,17.63415 6.24447,33.080149 0.80755,13.18806 -1.18426,27.66753 -5.07885,36.9207 -1.40731,3.34362 -3.67135,9.44454 -5.03121,13.55762 -1.35986,4.11307 -2.84018,7.71307 -3.2896,8 -0.44942,0.28692 -1.15114,2.54668 -1.55939,5.02168 -0.40824,2.475 -1.42283,6.21404 -2.25464,8.30897 -1.05347,2.6532 -1.35371,5.78567 -0.98947,10.32332 0.58311,7.26431 -0.73593,9.05565 -4.29581,5.834 -1.88703,-1.70774 -1.96275,-1.7005 -1.96275,0.18759 0,1.08012 0.66069,2.83737 1.4682,3.90499 3.60394,4.76483 0.24924,7.40321 -4.15375,3.26682 l -2.31445,-2.17432 v 2.19627 c 0,3.82671 5.83138,15.23779 10.75374,21.04336 8.47842,9.99967 9.19751,10.39015 22.67734,12.31407 6.6379,0.9474 14.09392,2.63317 16.56892,3.74615 2.475,1.11299 7.425,3.10866 11,4.43483 3.575,1.32616 9.37455,3.62477 12.88788,5.10802 3.51334,1.48325 9.13834,3.07822 12.5,3.54438 4.40281,0.61054 9.74769,2.66903 19.11212,7.36073 7.15,3.58224 15.7,7.27232 19,8.20018 8.70947,2.44883 14.5,5.1285 14.5,6.71012 0,0.7593 0.96002,2.23779 2.13338,3.28553 1.17336,1.04775 3.82228,4.17912 5.88648,6.95862 11.35124,15.28471 15.24318,31.91966 18.00251,76.94637 1.64491,26.8417 2.15555,31.17197 4.85039,41.13231 2.6301,9.72107 3.14981,13.90447 4.09961,33 0.59822,12.02723 0.78171,29.63019 0.40776,39.11769 -0.62562,15.87248 -0.82766,17.25 -2.53002,17.25 -1.55519,0 -1.8627,-0.8369 -1.92907,-5.25 z m -147.93664,0.38783 c -3.5501,-1.89728 -5.42585,-6.13783 -2.71498,-6.13783 1.93645,0 8.64929,5.21175 8.69414,6.75 0.0512,1.75775 -1.92288,1.55563 -5.97916,-0.61217 z m -1.5417,-9.55607 c -1.06675,-0.78003 -1.62372,-1.73407 -1.2377,-2.1201 1.16977,-1.16976 5.795,0.47232 5.795,2.05739 0,1.87221 -2.04419,1.90034 -4.5573,0.0627 z m -7.89999,-1.51266 c -0.31644,-0.512 -0.1586,-1.18846 0.35074,-1.50325 1.30427,-0.80608 4.21062,0.45674 3.54179,1.53893 -0.72433,1.172 -3.15995,1.14967 -3.89253,-0.0357 z m -3.79271,-13.13719 c -3.86105,-2.03832 -4.92546,-3.93191 -2.21016,-3.93191 2.50106,0 9.58275,3.99263 8.93646,5.03834 -0.86258,1.39569 -2.49552,1.12708 -6.7263,-1.10643 z m -11.30887,-19.36459 c -1.46845,-1.08381 -1.66068,-1.71734 -0.78944,-2.60169 1.33291,-1.35295 6.40767,0.635 7.1078,2.78437 0.56511,1.73485 -3.89502,1.6059 -6.31836,-0.18268 z m -23.94113,-6.62469 c -2.2,-0.45505 -5.9125,-0.8533 -8.25,-0.885 -5.13538,-0.0696 -5.50932,-1.48691 -0.80219,-3.04041 2.50652,-0.82722 5.01378,-0.84839 9.18366,-0.0776 3.15472,0.58318 9.3657,1.05491 13.80219,1.04828 6.77916,-0.0101 8.77132,-0.41502 12.48422,-2.53737 3.22044,-1.84086 4.61835,-2.20098 5.15748,-1.32864 2.65834,4.30128 -5.9219,7.9197 -18.40827,7.76306 -5.0419,-0.0632 -10.96709,-0.48732 -13.16709,-0.94237 z m 91.77446,-86.21429 c 1.1429,-7.10352 7.43485,-18.29604 14.67464,-26.10416 7.29814,-7.87106 10.0509,-12.15672 10.0509,-15.64784 0,-3.20491 3.42349,-2.11909 3.80928,1.20818 0.40319,3.47737 -3.42636,9.5295 -11.41652,18.0424 -4.29866,4.57989 -7.58726,9.39498 -10.30362,15.08632 -2.19439,4.59768 -4.76192,8.99557 -5.70565,9.77309 -1.58135,1.30285 -1.66829,1.118 -1.10903,-2.35799 z M 73.538347,322.54768 c -4.92129,-1.7984 -6.40307,-3.53795 -6.3901,-7.5017 0.0122,-3.71311 2.36906,-13.84182 3.47928,-14.95204 1.20962,-1.20962 2.55366,2.37456 1.99664,5.32448 -2.0605,10.91216 -2.03455,11.07077 2.14523,13.11176 2.12684,1.03853 4.01248,2.67574 4.1903,3.63824 0.3626,1.96258 -0.85544,2.04779 -5.42135,0.37926 z m -13.35629,-26.07422 c -2.3624,-2.84652 -0.83966,-5.96199 3.60105,-7.36761 2.28071,-0.72191 6.97219,-3.75941 10.42552,-6.75 3.45333,-2.99059 6.7623,-5.48724 7.35327,-5.54812 5.52259,-0.56893 10.952089,2.00644 13.136769,6.23115 l 1.59615,3.0866 2.01681,-2.16479 c 2.322804,-2.49323 6.547544,-4.33163 7.955154,-3.46168 0.52941,0.32719 -0.85835,2.57036 -3.08392,4.98481 -2.22556,2.41445 -4.046484,4.84997 -4.046484,5.41226 0,2.3156 -4.08381,0.93212 -5.09435,-1.72583 -1.33704,-3.51667 -3.67229,-6.07979 -7.202519,-7.90535 -2.56417,-1.32598 -3.11519,-1.2594 -6.50236,0.78578 -2.03542,1.229 -5.24304,3.5583 -7.12804,5.17624 -1.885,1.61793 -4.9225,3.56644 -6.75,4.33002 -3.41143,1.42538 -4.47518,3.36148 -1.8469,3.36148 0.81171,0 2.94921,-0.89832 4.75,-1.99626 3.36104,-2.04923 10.77417,-2.76406 10.77417,-1.03892 0,1.27537 -3.36972,3.03518 -5.81181,3.03518 -1.06882,0 -2.5035,0.675 -3.18819,1.5 -1.62464,1.95757 -9.34317,1.99635 -10.95432,0.055 z M 321.02965,283.42151 c -1.4337,-0.77926 -3.35658,-2.56124 -4.27305,-3.95996 -1.54756,-2.36188 -1.54837,-2.54313 -0.0113,-2.54313 0.91026,0 3.16243,0.93163 5.00482,2.07029 1.84239,1.13866 3.808,1.7871 4.36803,1.44098 1.31222,-0.81099 1.32624,-6.20288 0.0182,-7.01127 -1.28648,-0.79509 -1.29698,-4.19842 -0.0154,-4.99048 0.54153,-0.33468 1.87118,0.84936 2.95479,2.63122 1.52857,2.51353 1.83379,4.26182 1.36163,7.79949 -0.83846,6.28216 -3.69528,7.66775 -9.40775,4.56286 z m -134.33657,-1.7256 c -1.72191,-2.45838 -2.08502,-7.33294 -0.61395,-8.24211 1.10578,-0.68341 5.30099,8.26122 4.49008,9.5733 -0.90986,1.47219 -2.23016,1.01876 -3.87613,-1.33119 z m -76.38304,-1.70377 c 0.21346,-1.36404 -0.71137,-2.9223 -2.67366,-4.50491 -2.25104,-1.81549 -2.71662,-2.70906 -1.8649,-3.57927 1.26682,-1.29432 5.98231,0.63962 8.2645,3.38948 1.96605,2.36895 0.97639,6.06772 -1.72594,6.45053 -1.87387,0.26546 -2.26286,-0.076 -2,-1.75583 z m 180.82634,-4.93505 c 0,-1.4754 -0.55076,-1.75604 -2.65632,-1.35354 -1.79585,0.3433 -3.06225,-0.0473 -3.90944,-1.20595 -1.1032,-1.50872 -1.74668,-1.56585 -5.37901,-0.47758 -3.70689,1.11061 -4.40158,1.03109 -6.84056,-0.78305 -1.49307,-1.11056 -2.85302,-2.94495 -3.0221,-4.07641 -0.41695,-2.79004 3.36039,-6.09495 7.73263,-6.76552 1.96614,-0.30154 5.3748,-1.41187 7.5748,-2.4674 10.72642,-5.14639 14.12226,-5.857 28.24602,-5.91079 12.91673,-0.0492 13.54497,0.0392 11.90945,1.67482 -1.43773,1.43785 -3.7702,1.73921 -13.94104,1.80122 -12.8988,0.0786 -17.57339,1.07117 -23.95652,5.0866 -3.3376,2.09958 -6.84514,3.06377 -11.90092,3.27144 -2.11981,0.0871 -3.3142,3.16046 -1.64086,4.22223 2.23933,1.42089 4.54205,0.91962 7.6015,-1.65474 1.96696,-1.65509 4.18966,-2.5 6.57673,-2.5 1.9831,0 3.60564,0.24658 3.60564,0.54797 0,0.30138 -1.2375,1.63716 -2.75,2.96839 -2.66167,2.3427 -2.67885,2.42145 -0.5348,2.45204 1.21837,0.0174 3.84688,-1.40103 5.84115,-3.15202 2.91996,-2.56376 3.96249,-2.97345 5.3544,-2.10419 0.95065,0.59369 2.92835,0.85006 4.3949,0.56971 3.99077,-0.76288 9.69435,0.56877 9.69435,2.26341 0,1.07745 -1.28662,1.45469 -4.96136,1.45469 -4.46154,0 -5.36031,0.40296 -8.92158,4 -4.24385,4.28647 -8.11706,5.30698 -8.11706,2.13867 z M 188.86097,142.16659 c -1.57882,-1.74458 -3.72459,-6.53393 -3.72459,-8.31327 0,-2.23622 2.9784,-0.63669 4.90979,2.63677 2.95602,5.0101 5.19123,4.26858 5.57229,-1.84857 0.40194,-6.45251 1.98952,-9.89703 5.48186,-11.89388 3.97347,-2.27195 8.70138,-11.53423 7.15311,-14.0134 -0.61438,-0.98377 -1.11705,-2.43915 -1.11705,-3.23416 0,-0.79501 -1.35,-2.40676 -3,-3.58166 -5.35893,-3.8159 -3.09123,-8.6499 2.6621,-5.67473 4.62403,2.39118 6.5968,5.29836 7.06716,10.4146 0.54512,5.92926 -3.19541,13.47058 -10.10785,20.37855 -3.76805,3.76561 -4.62141,5.27699 -4.62141,8.1849 0,6.25685 -1.49259,8.69668 -5.32026,8.69668 -1.94065,0 -4.04213,-0.74295 -4.95515,-1.75183 z m -2.97459,-13.32827 c -3.40473,-1.98307 -1.49077,-9.9199 2.39217,-9.9199 1.58094,0 1.90111,0.41462 1.35137,1.75 -1.68821,4.10075 -1.71232,5.25 -0.11017,5.25 2.08003,0 2.10671,2.59796 0.0348,3.39301 -1.8909,0.72561 -1.53028,0.77212 -3.66821,-0.47311 z m 10.85246,-9.75412 c -0.28357,-0.45882 0.42502,-2.73534 1.57464,-5.05894 1.72558,-3.4877 1.89055,-4.66294 0.94566,-6.73676 -1.04936,-2.30308 -0.95817,-2.48534 1.09621,-2.19106 1.35001,0.19338 2.60348,1.35679 3.15317,2.92659 1.58149,4.51645 -4.58621,14.5931 -6.76968,11.06017 z m -7.99022,-3.04175 c -0.93375,-1.03179 -1.95898,-3.48591 -2.2783,-5.45361 -0.49636,-3.05871 -0.1387,-4.01951 2.46582,-6.62403 2.07509,-2.07508 4.02743,-3.04639 6.12332,-3.04639 3.94028,0 3.8476,0.89891 -0.41243,4 -4.38668,3.19328 -4.84662,4.44963 -2.96271,8.09271 2.33647,4.51823 0.30669,6.61411 -2.9357,3.03132 z m -15.98691,-14.7547 c 1.06213,-3.03522 3.48751,-4.36933 7.94335,-4.36933 4.23826,0 7.19005,1.96334 5.95535,3.96111 -0.35648,0.5768 -2.53272,0.99805 -4.83609,0.93612 -2.30336,-0.0619 -5.43192,0.21456 -6.95235,0.61442 -2.40832,0.63337 -2.68014,0.48622 -2.11026,-1.14232 z m -6.62533,-3.18783 c 0,-2.10017 -0.68769,-6.13421 -1.52821,-8.96452 -1.4594,-4.914357 -1.64243,-5.102606 -4.06547,-4.181368 -1.7197,0.653829 -3.24118,0.601511 -4.72179,-0.162362 -3.50363,-1.807574 -9.68453,-8.626736 -9.68453,-10.684579 0,-1.03873 1.39464,-3.813841 3.0992,-6.166915 2.86974,-3.961566 3.04847,-4.684308 2.41405,-9.762021 -0.54327,-4.34819 -0.40851,-5.392397 0.6508,-5.042754 2.12293,0.700708 3.80521,4.917612 3.82121,9.578469 0.0112,3.26088 -0.58739,4.897587 -2.48526,6.795454 -1.375,1.375 -2.5,2.713488 -2.5,2.974417 0,0.26093 1.14978,2.295788 2.55507,4.521906 2.23773,3.5448 2.89924,3.971895 5.32627,3.438829 5.04548,-1.108171 7.84988,0.829775 9.5667,6.610939 2.40477,8.097735 1.92455,14.863005 -1.05503,14.863005 -0.94748,0 -1.39301,-1.22129 -1.39301,-3.8185 z M 98.136376,57.002747 c 0,-0.647544 1.4625,-1.943923 3.250004,-2.880842 1.7875,-0.93692 5.05,-3.593162 7.25,-5.90276 7.79226,-8.180453 22.0093,-11.475635 28.17063,-6.529303 1.55615,1.249284 4.06081,2.753693 5.5659,3.34313 1.96165,0.768236 3.02852,2.156064 3.7677,4.901138 0.56713,2.106188 1.55415,4.003766 2.19337,4.216839 1.88473,0.628244 0.0536,3.767466 -2.1976,3.767466 -2.3146,0 -2.59359,-0.57429 -3.4708,-7.144495 -0.54096,-4.051688 -0.88004,-4.57652 -2.65663,-4.111931 -1.14271,0.298825 -3.77047,-0.44197 -5.98726,-1.687877 -4.73107,-2.659009 -11.22331,-2.117109 -13.1872,1.100721 -2.97902,4.8811 -22.698114,14.374778 -22.698114,10.927914 z M 86.788947,53.409785 c -4.2462,-1.459775 -8.65257,-5.108938 -8.65257,-7.165684 0,-0.729127 0.3375,-1.338389 0.75,-1.353916 1.74628,-0.06573 13.233849,6.630994 13.241559,7.719213 0.0141,1.985546 -1.31293,2.184481 -5.338989,0.800387 z m -1.99174,-7.932858 c -2.43986,-6.358169 0.4394,-13.538193 8.375349,-20.885671 8.228124,-7.617971 11.501554,-9.543111 13.234034,-7.783071 0.97644,0.991979 0.61176,1.763557 -1.77021,3.745357 -10.706574,8.907861 -12.902394,10.977335 -14.597994,13.757979 -1.041989,1.708792 -1.896219,4.483386 -1.898269,6.165764 -0.002,1.682379 -0.60637,3.883014 -1.34291,4.890299 -1.25003,1.709513 -1.38317,1.716792 -2,0.109343 z M 108.13638,16.990995 c 0,-3.056729 10.34174,-7.7175848 25.5,-11.4924418 5.5,-1.369664 11.96908,-3.185511 14.37573,-4.035218 5.46099,-1.92809104 7.12427,-1.94679304 7.12427,-0.0801 0,2.199803 -2.58262,3.225383 -18.92664,7.515926 -8.22596,2.1594348 -17.21768,5.0721728 -19.98158,6.4727518 -5.2114,2.64081 -8.09178,3.217146 -8.09178,1.619082 z m 56.70821,-8.6109458 c -4.28548,-0.707356 -8.47641,-1.854295 -9.31318,-2.548754 -2.78309,-2.309758 0.68095,-2.757877 9.60497,-1.242528 6.20035,1.052854 12.46007,1.274054 23.13728,0.817601 14.92396,-0.638001 22.86453,0.33476 22.86098,2.800591 -0.003,1.739206 -35.98662,1.8737598 -46.29005,0.17309 z"
     style="fill:#000000" />
  <g
     transform="translate(-10.986504,-12.47989)"
     id="text85"
     style="font-style:normal;font-variant:normal;font-weight:normal;font-stretch:normal;font-size:40px;line-height:1.25;font-family:'Liberation Mono';-inkscape-font-specification:'Liberation Mono';letter-spacing:0.03px;word-spacing:0px;fill:#000000;fill-opacity:1;stroke:none"
     aria-label="Nasal Cavity">
    <path
       id="path1121"
       style="font-style:normal;font-variant:normal;font-weight:normal;font-stretch:normal;font-size:26.66666603px;font-family:sans-serif;-inkscape-font-specification:sans-serif"
       d="m 318.63025,70.923986 h 3.54167 l 8.61979,16.263021 V 70.923986 h 2.55208 V 90.36409 h -3.54167 l -8.61979,-16.26302 v 16.26302 h -2.55208 z" />
    <path
       id="path1123"
       style="font-style:normal;font-variant:normal;font-weight:normal;font-stretch:normal;font-size:26.66666603px;font-family:sans-serif;-inkscape-font-specification:sans-serif"
       d="m 345.1316,83.033361 q -2.90364,0 -4.02343,0.664062 -1.1198,0.664063 -1.1198,2.265625 0,1.276042 0.83334,2.03125 0.84635,0.742188 2.29166,0.742188 1.99219,0 3.19011,-1.40625 1.21094,-1.419271 1.21094,-3.763021 v -0.533854 z m 4.77865,-0.989583 v 8.320312 h -2.39583 v -2.213542 q -0.82032,1.328125 -2.04428,1.966146 -1.22395,0.625 -2.99479,0.625 -2.23958,0 -3.56771,-1.25 -1.3151,-1.263021 -1.3151,-3.372396 0,-2.460937 1.64063,-3.710937 1.65364,-1.25 4.92187,-1.25 h 3.35938 v -0.234375 q 0,-1.653646 -1.09375,-2.552083 -1.08073,-0.911459 -3.04688,-0.911459 -1.25,0 -2.4349,0.29948 -1.18489,0.299479 -2.27864,0.898437 v -2.213542 q 1.3151,-0.507812 2.55208,-0.755208 1.23698,-0.260417 2.40886,-0.260417 3.16406,0 4.72656,1.640625 1.5625,1.640625 1.5625,4.973959 z" />
    <path
       id="path1125"
       style="font-style:normal;font-variant:normal;font-weight:normal;font-stretch:normal;font-size:26.66666603px;font-family:sans-serif;-inkscape-font-specification:sans-serif"
       d="m 364.18504,76.210444 v 2.265625 q -1.01562,-0.520833 -2.10937,-0.78125 -1.09375,-0.260416 -2.26563,-0.260416 -1.78385,0 -2.68229,0.546875 -0.88542,0.546875 -0.88542,1.640625 0,0.833333 0.63802,1.315104 0.63802,0.46875 2.56511,0.898437 l 0.82031,0.182292 q 2.55208,0.546875 3.61979,1.549479 1.08073,0.989583 1.08073,2.773438 0,2.03125 -1.61458,3.216145 -1.60157,1.184896 -4.41407,1.184896 -1.17187,0 -2.44791,-0.234375 -1.26302,-0.221354 -2.66927,-0.677083 v -2.473958 q 1.32812,0.690104 2.61718,1.041666 1.28907,0.338542 2.55209,0.338542 1.69271,0 2.60416,-0.572917 0.91146,-0.585937 0.91146,-1.640625 0,-0.976562 -0.66406,-1.497396 -0.65104,-0.520833 -2.8776,-1.002604 l -0.83334,-0.195312 q -2.22656,-0.46875 -3.21614,-1.432292 -0.98959,-0.976562 -0.98959,-2.669271 0,-2.057291 1.45834,-3.177083 1.45833,-1.119792 4.14062,-1.119792 1.32813,0 2.5,0.195313 1.17188,0.195312 2.16146,0.585937 z" />
    <path
       id="path1127"
       style="font-style:normal;font-variant:normal;font-weight:normal;font-stretch:normal;font-size:26.66666603px;font-family:sans-serif;-inkscape-font-specification:sans-serif"
       d="m 375.45202,83.033361 q -2.90365,0 -4.02344,0.664062 -1.11979,0.664063 -1.11979,2.265625 0,1.276042 0.83333,2.03125 0.84636,0.742188 2.29167,0.742188 1.99219,0 3.1901,-1.40625 1.21094,-1.419271 1.21094,-3.763021 v -0.533854 z m 4.77864,-0.989583 v 8.320312 h -2.39583 v -2.213542 q -0.82031,1.328125 -2.04427,1.966146 -1.22396,0.625 -2.99479,0.625 -2.23958,0 -3.56771,-1.25 -1.3151,-1.263021 -1.3151,-3.372396 0,-2.460937 1.64062,-3.710937 1.65365,-1.25 4.92188,-1.25 h 3.35937 v -0.234375 q 0,-1.653646 -1.09375,-2.552083 -1.08073,-0.911459 -3.04687,-0.911459 -1.25,0 -2.4349,0.29948 -1.1849,0.299479 -2.27865,0.898437 v -2.213542 q 1.31511,-0.507812 2.55209,-0.755208 1.23698,-0.260417 2.40885,-0.260417 3.16406,0 4.72656,1.640625 1.5625,1.640625 1.5625,4.973959 z" />
    <path
       id="path1129"
       style="font-style:normal;font-variant:normal;font-weight:normal;font-stretch:normal;font-size:26.66666603px;font-family:sans-serif;-inkscape-font-specification:sans-serif"
       d="m 385.20858,70.103674 h 2.39583 V 90.36409 h -2.39583 z" />
    <path
       id="path1131"
       style="font-style:normal;font-variant:normal;font-weight:normal;font-stretch:normal;font-size:26.66666603px;font-family:sans-serif;-inkscape-font-specification:sans-serif"
       d="m 415.81545,72.421382 v 2.773437 q -1.32812,-1.236979 -2.83854,-1.848958 -1.49739,-0.611979 -3.1901,-0.611979 -3.33333,0 -5.10417,2.044271 -1.77083,2.03125 -1.77083,5.885416 0,3.841146 1.77083,5.885417 1.77084,2.03125 5.10417,2.03125 1.69271,0 3.1901,-0.611979 1.51042,-0.611979 2.83854,-1.848959 v 2.747396 q -1.3802,0.9375 -2.92968,1.40625 -1.53646,0.46875 -3.25521,0.46875 -4.41406,0 -6.95313,-2.695312 -2.53906,-2.708334 -2.53906,-7.382813 0,-4.6875 2.53906,-7.382812 2.53907,-2.708333 6.95313,-2.708333 1.74479,0 3.28125,0.46875 1.54948,0.455729 2.90364,1.380208 z" />
    <path
       id="path1133"
       style="font-style:normal;font-variant:normal;font-weight:normal;font-stretch:normal;font-size:26.66666603px;font-family:sans-serif;-inkscape-font-specification:sans-serif"
       d="m 426.45744,83.033361 q -2.90365,0 -4.02344,0.664062 -1.11979,0.664063 -1.11979,2.265625 0,1.276042 0.83333,2.03125 0.84635,0.742188 2.29167,0.742188 1.99218,0 3.1901,-1.40625 1.21094,-1.419271 1.21094,-3.763021 v -0.533854 z m 4.77864,-0.989583 v 8.320312 h -2.39583 v -2.213542 q -0.82031,1.328125 -2.04427,1.966146 -1.22396,0.625 -2.99479,0.625 -2.23959,0 -3.56771,-1.25 -1.31511,-1.263021 -1.31511,-3.372396 0,-2.460937 1.64063,-3.710937 1.65364,-1.25 4.92187,-1.25 h 3.35938 v -0.234375 q 0,-1.653646 -1.09375,-2.552083 -1.08073,-0.911459 -3.04688,-0.911459 -1.25,0 -2.43489,0.29948 -1.1849,0.299479 -2.27865,0.898437 v -2.213542 q 1.31511,-0.507812 2.55208,-0.755208 1.23698,-0.260417 2.40886,-0.260417 3.16406,0 4.72656,1.640625 1.5625,1.640625 1.5625,4.973959 z" />
    <path
       id="path1135"
       style="font-style:normal;font-variant:normal;font-weight:normal;font-stretch:normal;font-size:26.66666603px;font-family:sans-serif;-inkscape-font-specification:sans-serif"
       d="m 434.49524,75.780757 h 2.53907 l 4.55729,12.239583 4.55729,-12.239583 h 2.53906 L 443.2192,90.36409 h -3.25521 z" />
    <path
       id="path1137"
       style="font-style:normal;font-variant:normal;font-weight:normal;font-stretch:normal;font-size:26.66666603px;font-family:sans-serif;-inkscape-font-specification:sans-serif"
       d="m 452.02524,75.780757 h 2.39584 V 90.36409 h -2.39584 z m 0,-5.677083 h 2.39584 v 3.033854 h -2.39584 z" />
    <path
       id="path1139"
       style="font-style:normal;font-variant:normal;font-weight:normal;font-stretch:normal;font-size:26.66666603px;font-family:sans-serif;-inkscape-font-specification:sans-serif"
       d="m 461.82086,71.640132 v 4.140625 h 4.9349 v 1.861979 h -4.9349 v 7.916667 q 0,1.783854 0.48177,2.291666 0.49479,0.507813 1.99219,0.507813 h 2.46094 v 2.005208 h -2.46094 q -2.77344,0 -3.82812,-1.028646 -1.05469,-1.041666 -1.05469,-3.776041 v -7.916667 h -1.75781 v -1.861979 h 1.75781 v -4.140625 z" />
    <path
       id="path1141"
       style="font-style:normal;font-variant:normal;font-weight:normal;font-stretch:normal;font-size:26.66666603px;font-family:sans-serif;-inkscape-font-specification:sans-serif"
       d="m 476.01754,91.718257 q -1.01562,2.604166 -1.97916,3.398437 -0.96355,0.794271 -2.57813,0.794271 h -1.91406 v -2.005208 h 1.40625 q 0.98958,0 1.53646,-0.46875 0.54687,-0.46875 1.21093,-2.213542 l 0.42969,-1.09375 -5.89844,-14.348958 h 2.53907 l 4.55729,11.40625 4.55729,-11.40625 h 2.53906 z" />
  </g>
  <g
     transform="translate(-10.986504,-12.47989)"
     id="text85-3"
     style="font-style:normal;font-variant:normal;font-weight:normal;font-stretch:normal;font-size:40px;line-height:1.25;font-family:'Liberation Mono';-inkscape-font-specification:'Liberation Mono';letter-spacing:0.03px;word-spacing:0px;fill:#000000;fill-opacity:1;stroke:none"
     aria-label="Pharynx">
    <path
       id="path1106"
       style="font-style:normal;font-variant:normal;font-weight:normal;font-stretch:normal;font-size:26.66666603px;font-family:sans-serif;-inkscape-font-specification:sans-serif"
       d="m 320.94536,114.71354 v 7.30469 h 3.30729 q 1.83594,0 2.83855,-0.95052 1.0026,-0.95052 1.0026,-2.70833 0,-1.7448 -1.0026,-2.69532 -1.00261,-0.95052 -2.83855,-0.95052 z m -2.63021,-2.16146 h 5.9375 q 3.26823,0 4.9349,1.48438 1.67969,1.47135 1.67969,4.32292 0,2.8776 -1.67969,4.34895 -1.66667,1.47136 -4.9349,1.47136 h -3.30729 v 7.8125 h -2.63021 z" />
    <path
       id="path1108"
       style="font-style:normal;font-variant:normal;font-weight:normal;font-stretch:normal;font-size:26.66666603px;font-family:sans-serif;-inkscape-font-specification:sans-serif"
       d="m 346.45713,123.1901 v 8.80209 h -2.39583 v -8.72396 q 0,-2.07031 -0.80729,-3.09896 -0.80729,-1.02864 -2.42188,-1.02864 -1.9401,0 -3.05989,1.23697 -1.11979,1.23698 -1.11979,3.3724 v 8.24219 h -2.40886 v -20.26042 h 2.40886 v 7.94271 q 0.85937,-1.3151 2.01823,-1.96615 1.17187,-0.65104 2.69531,-0.65104 2.51302,0 3.80208,1.5625 1.28906,1.54948 1.28906,4.57031 z" />
    <path
       id="path1110"
       style="font-style:normal;font-variant:normal;font-weight:normal;font-stretch:normal;font-size:26.66666603px;font-family:sans-serif;-inkscape-font-specification:sans-serif"
       d="m 357.91943,124.66146 q -2.90365,0 -4.02344,0.66406 -1.11979,0.66406 -1.11979,2.26563 0,1.27604 0.83333,2.03125 0.84635,0.74218 2.29167,0.74218 1.99218,0 3.1901,-1.40625 1.21094,-1.41927 1.21094,-3.76302 v -0.53385 z m 4.77864,-0.98958 v 8.32031 h -2.39583 v -2.21354 q -0.82031,1.32812 -2.04427,1.96614 -1.22396,0.625 -2.99479,0.625 -2.23959,0 -3.56771,-1.25 -1.31511,-1.26302 -1.31511,-3.37239 0,-2.46094 1.64063,-3.71094 1.65364,-1.25 4.92187,-1.25 h 3.35938 v -0.23438 q 0,-1.65364 -1.09375,-2.55208 -1.08073,-0.91146 -3.04688,-0.91146 -1.25,0 -2.43489,0.29948 -1.1849,0.29948 -2.27865,0.89844 v -2.21354 q 1.31511,-0.50782 2.55209,-0.75521 1.23697,-0.26042 2.40885,-0.26042 3.16406,0 4.72656,1.64063 1.5625,1.64062 1.5625,4.97396 z" />
    <path
       id="path1112"
       style="font-style:normal;font-variant:normal;font-weight:normal;font-stretch:normal;font-size:26.66666603px;font-family:sans-serif;-inkscape-font-specification:sans-serif"
       d="m 376.12651,119.64844 q -0.40365,-0.23438 -0.88542,-0.33854 -0.46875,-0.11719 -1.04167,-0.11719 -2.03125,0 -3.125,1.32812 -1.08073,1.31511 -1.08073,3.78907 v 7.68229 h -2.40885 v -14.58334 h 2.40885 v 2.26563 q 0.75521,-1.32813 1.96615,-1.96615 1.21094,-0.65104 2.94271,-0.65104 0.24739,0 0.54687,0.0391 0.29948,0.026 0.66406,0.0911 z" />
    <path
       id="path1114"
       style="font-style:normal;font-variant:normal;font-weight:normal;font-stretch:normal;font-size:26.66666603px;font-family:sans-serif;-inkscape-font-specification:sans-serif"
       d="m 384.76328,133.34635 q -1.01563,2.60417 -1.97917,3.39844 -0.96354,0.79427 -2.57812,0.79427 h -1.91407 v -2.00521 h 1.40625 q 0.98959,0 1.53646,-0.46875 0.54688,-0.46875 1.21094,-2.21354 l 0.42969,-1.09375 -5.89844,-14.34896 h 2.53906 l 4.55729,11.40625 4.55729,-11.40625 h 2.53907 z" />
    <path
       id="path1116"
       style="font-style:normal;font-variant:normal;font-weight:normal;font-stretch:normal;font-size:26.66666603px;font-family:sans-serif;-inkscape-font-specification:sans-serif"
       d="m 406.62921,123.1901 v 8.80209 h -2.39583 v -8.72396 q 0,-2.07031 -0.80729,-3.09896 -0.80729,-1.02864 -2.42188,-1.02864 -1.9401,0 -3.05989,1.23697 -1.11979,1.23698 -1.11979,3.3724 v 8.24219 h -2.40886 v -14.58334 h 2.40886 v 2.26563 q 0.85937,-1.3151 2.01823,-1.96615 1.17187,-0.65104 2.69531,-0.65104 2.51302,0 3.80208,1.5625 1.28906,1.54948 1.28906,4.57031 z" />
    <path
       id="path1118"
       style="font-style:normal;font-variant:normal;font-weight:normal;font-stretch:normal;font-size:26.66666603px;font-family:sans-serif;-inkscape-font-specification:sans-serif"
       d="m 423.5863,117.40885 -5.27344,7.09636 5.54688,7.48698 h -2.82552 l -4.2448,-5.72917 -4.24479,5.72917 h -2.82552 l 5.66406,-7.63021 -5.18229,-6.95313 h 2.82552 l 3.86719,5.19532 3.86719,-5.19532 z" />
  </g>
  <g
     transform="translate(-10.986504,-12.47989)"
     id="text85-2"
     style="font-style:normal;font-variant:normal;font-weight:normal;font-stretch:normal;font-size:40px;line-height:1.25;font-family:'Liberation Mono';-inkscape-font-specification:'Liberation Mono';letter-spacing:0.03px;word-spacing:0px;fill:#000000;fill-opacity:1;stroke:none"
     aria-label="Larynx">
    <path
       id="path1093"
       style="font-style:normal;font-variant:normal;font-weight:normal;font-stretch:normal;font-size:26.66666603px;font-family:sans-serif;-inkscape-font-specification:sans-serif"
       d="m 319.38034,155.53365 h 2.63021 v 17.22656 h 9.46614 v 2.21354 h -12.09635 z" />
    <path
       id="path1095"
       style="font-style:normal;font-variant:normal;font-weight:normal;font-stretch:normal;font-size:26.66666603px;font-family:sans-serif;-inkscape-font-specification:sans-serif"
       d="m 340.77753,167.64303 q -2.90365,0 -4.02344,0.66406 -1.11979,0.66406 -1.11979,2.26562 0,1.27604 0.83333,2.03125 0.84636,0.74219 2.29167,0.74219 1.99219,0 3.1901,-1.40625 1.21094,-1.41927 1.21094,-3.76302 v -0.53385 z m 4.77864,-0.98959 v 8.32031 h -2.39583 v -2.21354 q -0.82031,1.32813 -2.04427,1.96615 -1.22396,0.625 -2.99479,0.625 -2.23959,0 -3.56771,-1.25 -1.3151,-1.26302 -1.3151,-3.3724 0,-2.46093 1.64062,-3.71093 1.65365,-1.25 4.92188,-1.25 h 3.35937 v -0.23438 q 0,-1.65364 -1.09375,-2.55208 -1.08073,-0.91146 -3.04687,-0.91146 -1.25,0 -2.4349,0.29948 -1.1849,0.29948 -2.27865,0.89844 v -2.21355 q 1.31511,-0.50781 2.55209,-0.7552 1.23698,-0.26042 2.40885,-0.26042 3.16406,0 4.72656,1.64062 1.5625,1.64063 1.5625,4.97396 z" />
    <path
       id="path1097"
       style="font-style:normal;font-variant:normal;font-weight:normal;font-stretch:normal;font-size:26.66666603px;font-family:sans-serif;-inkscape-font-specification:sans-serif"
       d="m 358.98461,162.63001 q -0.40365,-0.23438 -0.88542,-0.33855 -0.46875,-0.11718 -1.04166,-0.11718 -2.03125,0 -3.125,1.32812 -1.08073,1.31511 -1.08073,3.78906 v 7.68229 h -2.40886 v -14.58333 h 2.40886 v 2.26563 q 0.75521,-1.32813 1.96614,-1.96615 1.21094,-0.65104 2.94271,-0.65104 0.2474,0 0.54688,0.0391 0.29948,0.026 0.66406,0.0911 z" />
    <path
       id="path1099"
       style="font-style:normal;font-variant:normal;font-weight:normal;font-stretch:normal;font-size:26.66666603px;font-family:sans-serif;-inkscape-font-specification:sans-serif"
       d="m 367.62138,176.32792 q -1.01562,2.60417 -1.97916,3.39844 -0.96355,0.79427 -2.57813,0.79427 h -1.91406 v -2.00521 h 1.40625 q 0.98958,0 1.53646,-0.46875 0.54687,-0.46875 1.21093,-2.21354 l 0.42969,-1.09375 -5.89844,-14.34896 h 2.53907 l 4.55729,11.40625 4.55729,-11.40625 h 2.53906 z" />
    <path
       id="path1101"
       style="font-style:normal;font-variant:normal;font-weight:normal;font-stretch:normal;font-size:26.66666603px;font-family:sans-serif;-inkscape-font-specification:sans-serif"
       d="m 389.48732,166.17167 v 8.80208 h -2.39583 v -8.72395 q 0,-2.07032 -0.8073,-3.09896 -0.80729,-1.02865 -2.42187,-1.02865 -1.94011,0 -3.0599,1.23698 -1.11979,1.23698 -1.11979,3.3724 v 8.24218 h -2.40885 v -14.58333 h 2.40885 v 2.26563 q 0.85938,-1.31511 2.01823,-1.96615 1.17188,-0.65104 2.69531,-0.65104 2.51302,0 3.80209,1.5625 1.28906,1.54948 1.28906,4.57031 z" />
    <path
       id="path1103"
       style="font-style:normal;font-variant:normal;font-weight:normal;font-stretch:normal;font-size:26.66666603px;font-family:sans-serif;-inkscape-font-specification:sans-serif"
       d="m 406.4444,160.39042 -5.27344,7.09636 5.54688,7.48697 h -2.82552 l -4.2448,-5.72916 -4.24479,5.72916 h -2.82552 l 5.66406,-7.6302 -5.18229,-6.95313 h 2.82552 l 3.86719,5.19531 3.86719,-5.19531 z" />
  </g>
  <path
     id="path113"
     d="M 130.06423,130.45792 301.14512,68.577595"
     style="fill:none;stroke:#646464;stroke-width:2.5;stroke-linecap:butt;stroke-linejoin:miter;stroke-miterlimit:4;stroke-dasharray:none;stroke-opacity:1" />
  <path
     id="path920"
     d="M 167.95796,175.48502 297.5051,110.43781"
     style="fill:none;stroke:#646464;stroke-width:2.5;stroke-linecap:butt;stroke-linejoin:miter;stroke-miterlimit:4;stroke-dasharray:none;stroke-opacity:1" />
  <path
     id="path922"
     d="M 177.38447,220.54838 293.86508,154.11804"
     style="fill:none;stroke:#646464;stroke-width:2.5;stroke-linecap:butt;stroke-linejoin:miter;stroke-miterlimit:4;stroke-dasharray:none;stroke-opacity:1" />
  <g
     transform="translate(-10.986504,-12.47989)"
     id="text85-5"
     style="font-style:normal;font-variant:normal;font-weight:normal;font-stretch:normal;font-size:40px;line-height:1.25;font-family:'Liberation Mono';-inkscape-font-specification:'Liberation Mono';letter-spacing:0.03px;word-spacing:0px;fill:#000000;fill-opacity:1;stroke:none"
     aria-label="Trachea">
    <path
       id="path1078"
       style="font-style:normal;font-variant:normal;font-weight:normal;font-stretch:normal;font-size:26.66666603px;font-family:sans-serif;-inkscape-font-specification:sans-serif"
       d="m 435.38058,226.40497 h 16.44532 v 2.21355 h -6.90104 v 17.22656 h -2.64323 v -17.22656 h -6.90105 z" />
    <path
       id="path1080"
       style="font-style:normal;font-variant:normal;font-weight:normal;font-stretch:normal;font-size:26.66666603px;font-family:sans-serif;-inkscape-font-specification:sans-serif"
       d="m 458.84808,233.50133 q -0.40364,-0.23438 -0.88541,-0.33854 -0.46875,-0.11719 -1.04167,-0.11719 -2.03125,0 -3.125,1.32812 -1.08073,1.31511 -1.08073,3.78907 v 7.68229 h -2.40885 v -14.58334 h 2.40885 v 2.26563 q 0.75521,-1.32813 1.96615,-1.96615 1.21093,-0.65104 2.94271,-0.65104 0.24739,0 0.54687,0.0391 0.29948,0.026 0.66406,0.0911 z" />
    <path
       id="path1082"
       style="font-style:normal;font-variant:normal;font-weight:normal;font-stretch:normal;font-size:26.66666603px;font-family:sans-serif;-inkscape-font-specification:sans-serif"
       d="m 468.04475,238.51435 q -2.90365,0 -4.02344,0.66406 -1.11979,0.66406 -1.11979,2.26563 0,1.27604 0.83333,2.03125 0.84636,0.74218 2.29167,0.74218 1.99219,0 3.1901,-1.40625 1.21094,-1.41927 1.21094,-3.76302 v -0.53385 z m 4.77865,-0.98958 v 8.32031 h -2.39584 v -2.21354 q -0.82031,1.32812 -2.04427,1.96614 -1.22396,0.625 -2.99479,0.625 -2.23958,0 -3.56771,-1.25 -1.3151,-1.26302 -1.3151,-3.37239 0,-2.46094 1.64062,-3.71094 1.65365,-1.25 4.92188,-1.25 h 3.35937 v -0.23438 q 0,-1.65364 -1.09375,-2.55208 -1.08073,-0.91146 -3.04687,-0.91146 -1.25,0 -2.4349,0.29948 -1.18489,0.29948 -2.27864,0.89844 v -2.21354 q 1.3151,-0.50782 2.55208,-0.75521 1.23698,-0.26042 2.40885,-0.26042 3.16407,0 4.72657,1.64063 1.5625,1.64062 1.5625,4.97396 z" />
    <path
       id="path1084"
       style="font-style:normal;font-variant:normal;font-weight:normal;font-stretch:normal;font-size:26.66666603px;font-family:sans-serif;-inkscape-font-specification:sans-serif"
       d="m 488.2961,231.82164 v 2.23958 q -1.01562,-0.55989 -2.04427,-0.83333 -1.01562,-0.28646 -2.05729,-0.28646 -2.33073,0 -3.61979,1.48438 -1.28906,1.47135 -1.28906,4.14062 0,2.66927 1.28906,4.15365 1.28906,1.47135 3.61979,1.47135 1.04167,0 2.05729,-0.27344 1.02865,-0.28645 2.04427,-0.84635 v 2.21354 q -1.0026,0.46875 -2.08333,0.70313 -1.06771,0.23437 -2.27864,0.23437 -3.29428,0 -5.23438,-2.07031 -1.9401,-2.07031 -1.9401,-5.58594 0,-3.56771 1.95312,-5.61198 1.96615,-2.04427 5.37761,-2.04427 1.10677,0 2.16145,0.23438 1.05469,0.22135 2.04427,0.67708 z" />
    <path
       id="path1086"
       style="font-style:normal;font-variant:normal;font-weight:normal;font-stretch:normal;font-size:26.66666603px;font-family:sans-serif;-inkscape-font-specification:sans-serif"
       d="m 504.64121,237.04299 v 8.80209 h -2.39584 v -8.72396 q 0,-2.07031 -0.80729,-3.09896 -0.80729,-1.02864 -2.42187,-1.02864 -1.94011,0 -3.0599,1.23697 -1.11979,1.23698 -1.11979,3.3724 v 8.24219 h -2.40885 v -20.26042 h 2.40885 v 7.94271 q 0.85937,-1.3151 2.01823,-1.96615 1.17187,-0.65104 2.69531,-0.65104 2.51302,0 3.80208,1.5625 1.28907,1.54948 1.28907,4.57031 z" />
    <path
       id="path1088"
       style="font-style:normal;font-variant:normal;font-weight:normal;font-stretch:normal;font-size:26.66666603px;font-family:sans-serif;-inkscape-font-specification:sans-serif"
       d="m 521.94985,237.95445 v 1.17188 h -11.01562 q 0.15625,2.47396 1.48437,3.77604 1.34115,1.28906 3.72396,1.28906 1.38021,0 2.66927,-0.33854 1.30209,-0.33854 2.57813,-1.01562 v 2.26562 q -1.28906,0.54688 -2.64323,0.83333 -1.35417,0.28646 -2.7474,0.28646 -3.48958,0 -5.53385,-2.03125 -2.03125,-2.03125 -2.03125,-5.49479 0,-3.58073 1.92708,-5.67708 1.94011,-2.10938 5.22136,-2.10938 2.94271,0 4.64843,1.90104 1.71875,1.88802 1.71875,5.14323 z m -2.39583,-0.70312 q -0.026,-1.96615 -1.10677,-3.13802 -1.06771,-1.17188 -2.83854,-1.17188 -2.00521,0 -3.21615,1.13281 -1.19791,1.13282 -1.38021,3.19011 z" />
    <path
       id="path1090"
       style="font-style:normal;font-variant:normal;font-weight:normal;font-stretch:normal;font-size:26.66666603px;font-family:sans-serif;-inkscape-font-specification:sans-serif"
       d="m 532.53975,238.51435 q -2.90365,0 -4.02344,0.66406 -1.11979,0.66406 -1.11979,2.26563 0,1.27604 0.83333,2.03125 0.84636,0.74218 2.29167,0.74218 1.99219,0 3.1901,-1.40625 1.21094,-1.41927 1.21094,-3.76302 v -0.53385 z m 4.77864,-0.98958 v 8.32031 h -2.39583 v -2.21354 q -0.82031,1.32812 -2.04427,1.96614 -1.22396,0.625 -2.99479,0.625 -2.23958,0 -3.56771,-1.25 -1.3151,-1.26302 -1.3151,-3.37239 0,-2.46094 1.64062,-3.71094 1.65365,-1.25 4.92188,-1.25 h 3.35937 v -0.23438 q 0,-1.65364 -1.09375,-2.55208 -1.08073,-0.91146 -3.04687,-0.91146 -1.25,0 -2.4349,0.29948 -1.1849,0.29948 -2.27865,0.89844 v -2.21354 q 1.31511,-0.50782 2.55209,-0.75521 1.23698,-0.26042 2.40885,-0.26042 3.16406,0 4.72656,1.64063 1.5625,1.64062 1.5625,4.97396 z" />
  </g>
  <g
     transform="translate(-10.986504,-12.47989)"
     id="text85-5-0"
     style="font-style:normal;font-variant:normal;font-weight:normal;font-stretch:normal;font-size:40px;line-height:1.25;font-family:'Liberation Mono';-inkscape-font-specification:'Liberation Mono';letter-spacing:0.03px;word-spacing:0px;fill:#000000;fill-opacity:1;stroke:none"
     aria-label="Lungs">
    <path
       id="path1067"
       style="font-style:normal;font-variant:normal;font-weight:normal;font-stretch:normal;font-size:26.66666603px;font-family:sans-serif;-inkscape-font-specification:sans-serif"
       d="m 438.0759,307.39538 h 2.63021 v 17.22656 h 9.46614 v 2.21354 H 438.0759 Z" />
    <path
       id="path1069"
       style="font-style:normal;font-variant:normal;font-weight:normal;font-stretch:normal;font-size:26.66666603px;font-family:sans-serif;-inkscape-font-specification:sans-serif"
       d="m 452.12933,321.08027 v -8.82812 h 2.39584 v 8.73698 q 0,2.07031 0.80729,3.11197 0.80729,1.02865 2.42187,1.02865 1.94011,0 3.0599,-1.23698 1.13281,-1.23698 1.13281,-3.37239 v -8.26823 h 2.39584 v 14.58333 h -2.39584 v -2.23958 q -0.87239,1.32812 -2.03125,1.97916 -1.14583,0.63802 -2.66927,0.63802 -2.51302,0 -3.8151,-1.5625 -1.30209,-1.5625 -1.30209,-4.57031 z m 6.02865,-9.17969 z" />
    <path
       id="path1071"
       style="font-style:normal;font-variant:normal;font-weight:normal;font-stretch:normal;font-size:26.66666603px;font-family:sans-serif;-inkscape-font-specification:sans-serif"
       d="m 481.45621,318.0334 v 8.80208 h -2.39584 v -8.72396 q 0,-2.07031 -0.80729,-3.09896 -0.80729,-1.02864 -2.42187,-1.02864 -1.94011,0 -3.0599,1.23698 -1.11979,1.23698 -1.11979,3.37239 v 8.24219 h -2.40885 v -14.58333 h 2.40885 v 2.26562 q 0.85938,-1.3151 2.01823,-1.96614 1.17187,-0.65105 2.69531,-0.65105 2.51302,0 3.80209,1.5625 1.28906,1.54948 1.28906,4.57032 z" />
    <path
       id="path1073"
       style="font-style:normal;font-variant:normal;font-weight:normal;font-stretch:normal;font-size:26.66666603px;font-family:sans-serif;-inkscape-font-specification:sans-serif"
       d="m 495.88725,319.37454 q 0,-2.60416 -1.08073,-4.03646 -1.06771,-1.43229 -3.00781,-1.43229 -1.92709,0 -3.00782,1.43229 -1.0677,1.4323 -1.0677,4.03646 0,2.59115 1.0677,4.02344 1.08073,1.43229 3.00782,1.43229 1.9401,0 3.00781,-1.43229 1.08073,-1.43229 1.08073,-4.02344 z m 2.39583,5.65104 q 0,3.72396 -1.65364,5.53386 -1.65365,1.82291 -5.06511,1.82291 -1.26302,0 -2.38281,-0.19531 -1.11979,-0.18229 -2.17448,-0.57291 v -2.33073 q 1.05469,0.57291 2.08333,0.84635 1.02865,0.27344 2.09636,0.27344 2.35677,0 3.52864,-1.23698 1.17188,-1.22396 1.17188,-3.71094 v -1.18489 q -0.74219,1.28906 -1.90104,1.92708 -1.15886,0.63802 -2.77344,0.63802 -2.68229,0 -4.32292,-2.04427 -1.64062,-2.04427 -1.64062,-5.41667 0,-3.38541 1.64062,-5.42968 1.64063,-2.04428 4.32292,-2.04428 1.61458,0 2.77344,0.63803 1.15885,0.63802 1.90104,1.92708 v -2.21354 h 2.39583 z" />
    <path
       id="path1075"
       style="font-style:normal;font-variant:normal;font-weight:normal;font-stretch:normal;font-size:26.66666603px;font-family:sans-serif;-inkscape-font-specification:sans-serif"
       d="m 512.54485,312.68183 v 2.26563 q -1.01562,-0.52083 -2.10937,-0.78125 -1.09375,-0.26042 -2.26563,-0.26042 -1.78385,0 -2.68229,0.54688 -0.88542,0.54687 -0.88542,1.64062 0,0.83334 0.63802,1.31511 0.63802,0.46875 2.56511,0.89843 l 0.82031,0.1823 q 2.55208,0.54687 3.61979,1.54947 1.08073,0.98959 1.08073,2.77344 0,2.03125 -1.61458,3.21615 -1.60157,1.18489 -4.41407,1.18489 -1.17187,0 -2.44791,-0.23437 -1.26302,-0.22136 -2.66927,-0.67708 v -2.47396 q 1.32812,0.6901 2.61718,1.04166 1.28907,0.33855 2.55209,0.33855 1.69271,0 2.60416,-0.57292 0.91146,-0.58594 0.91146,-1.64063 0,-0.97656 -0.66406,-1.49739 -0.65104,-0.52084 -2.8776,-1.00261 l -0.83334,-0.19531 q -2.22656,-0.46875 -3.21614,-1.43229 -0.98959,-0.97656 -0.98959,-2.66927 0,-2.05729 1.45834,-3.17708 1.45833,-1.1198 4.14062,-1.1198 1.32813,0 2.5,0.19532 1.17188,0.19531 2.16146,0.58593 z" />
  </g>
  <g
     transform="translate(-10.986504,-12.47989)"
     id="text85-5-0-9"
     style="font-style:normal;font-variant:normal;font-weight:normal;font-stretch:normal;font-size:40px;line-height:1.25;font-family:'Liberation Mono';-inkscape-font-specification:'Liberation Mono';letter-spacing:0.03px;word-spacing:0px;fill:#000000;fill-opacity:1;stroke:none"
     aria-label="Bronchi">
    <path
       id="path1052"
       style="font-style:normal;font-variant:normal;font-weight:normal;font-stretch:normal;font-size:26.66666603px;font-family:sans-serif;-inkscape-font-specification:sans-serif"
       d="m 439.65606,275.54604 v 7.1224 h 4.21875 q 2.12239,0 3.13802,-0.8724 1.02864,-0.88542 1.02864,-2.69531 0,-1.82292 -1.02864,-2.68229 -1.01563,-0.8724 -3.13802,-0.8724 z m 0,-7.99479 v 5.85937 h 3.89323 q 1.92708,0 2.86458,-0.71614 0.95052,-0.72917 0.95052,-2.21354 0,-1.47136 -0.95052,-2.20052 -0.9375,-0.72917 -2.86458,-0.72917 z m -2.63021,-2.16146 h 6.71875 q 3.00781,0 4.63541,1.25 1.62761,1.25 1.62761,3.55469 0,1.78385 -0.83333,2.83854 -0.83334,1.05469 -2.44792,1.3151 1.9401,0.41667 3.00781,1.7448 1.08073,1.3151 1.08073,3.29427 0,2.60416 -1.77083,4.02343 -1.77084,1.41928 -5.03907,1.41928 h -6.97916 z" />
    <path
       id="path1054"
       style="font-style:normal;font-variant:normal;font-weight:normal;font-stretch:normal;font-size:26.66666603px;font-family:sans-serif;-inkscape-font-specification:sans-serif"
       d="m 463.68345,272.48615 q -0.40364,-0.23438 -0.88541,-0.33855 -0.46875,-0.11718 -1.04167,-0.11718 -2.03125,0 -3.125,1.32812 -1.08073,1.31511 -1.08073,3.78906 v 7.6823 h -2.40885 v -14.58334 h 2.40885 v 2.26563 q 0.75521,-1.32813 1.96615,-1.96615 1.21093,-0.65104 2.9427,-0.65104 0.2474,0 0.54688,0.0391 0.29948,0.026 0.66406,0.0912 z" />
    <path
       id="path1056"
       style="font-style:normal;font-variant:normal;font-weight:normal;font-stretch:normal;font-size:26.66666603px;font-family:sans-serif;-inkscape-font-specification:sans-serif"
       d="m 471.33064,271.92625 q -1.92708,0 -3.04688,1.51042 -1.11979,1.49739 -1.11979,4.11458 0,2.61719 1.10677,4.1276 1.11979,1.4974 3.0599,1.4974 1.91406,0 3.03385,-1.51042 1.11979,-1.51041 1.11979,-4.11458 0,-2.59115 -1.11979,-4.10156 -1.11979,-1.52344 -3.03385,-1.52344 z m 0,-2.03125 q 3.125,0 4.90885,2.03125 1.78386,2.03125 1.78386,5.625 0,3.58073 -1.78386,5.625 -1.78385,2.03125 -4.90885,2.03125 -3.13802,0 -4.92188,-2.03125 -1.77083,-2.04427 -1.77083,-5.625 0,-3.59375 1.77083,-5.625 1.78386,-2.03125 4.92188,-2.03125 z" />
    <path
       id="path1058"
       style="font-style:normal;font-variant:normal;font-weight:normal;font-stretch:normal;font-size:26.66666603px;font-family:sans-serif;-inkscape-font-specification:sans-serif"
       d="m 494.13407,276.02781 v 8.80209 h -2.39583 v -8.72396 q 0,-2.07032 -0.80729,-3.09896 -0.80729,-1.02865 -2.42188,-1.02865 -1.9401,0 -3.05989,1.23698 -1.11979,1.23698 -1.11979,3.3724 v 8.24219 h -2.40886 v -14.58334 h 2.40886 v 2.26563 q 0.85937,-1.31511 2.01823,-1.96615 1.17187,-0.65104 2.69531,-0.65104 2.51302,0 3.80208,1.5625 1.28906,1.54948 1.28906,4.57031 z" />
    <path
       id="path1060"
       style="font-style:normal;font-variant:normal;font-weight:normal;font-stretch:normal;font-size:26.66666603px;font-family:sans-serif;-inkscape-font-specification:sans-serif"
       d="m 509.46355,270.80646 v 2.23958 q -1.01562,-0.55989 -2.04427,-0.83333 -1.01562,-0.28646 -2.05729,-0.28646 -2.33073,0 -3.61979,1.48437 -1.28906,1.47136 -1.28906,4.14063 0,2.66927 1.28906,4.15365 1.28906,1.47135 3.61979,1.47135 1.04167,0 2.05729,-0.27344 1.02865,-0.28646 2.04427,-0.84635 V 284.27 q -1.0026,0.46875 -2.08333,0.70312 -1.06771,0.23438 -2.27864,0.23438 -3.29428,0 -5.23438,-2.07031 -1.9401,-2.07032 -1.9401,-5.58594 0,-3.56771 1.95312,-5.61198 1.96615,-2.04427 5.37761,-2.04427 1.10677,0 2.16145,0.23437 1.05469,0.22136 2.04427,0.67709 z" />
    <path
       id="path1062"
       style="font-style:normal;font-variant:normal;font-weight:normal;font-stretch:normal;font-size:26.66666603px;font-family:sans-serif;-inkscape-font-specification:sans-serif"
       d="m 525.80866,276.02781 v 8.80209 h -2.39584 v -8.72396 q 0,-2.07032 -0.80729,-3.09896 -0.80729,-1.02865 -2.42187,-1.02865 -1.94011,0 -3.0599,1.23698 -1.11979,1.23698 -1.11979,3.3724 v 8.24219 h -2.40885 v -20.26042 h 2.40885 v 7.94271 q 0.85937,-1.31511 2.01823,-1.96615 1.17187,-0.65104 2.69531,-0.65104 2.51302,0 3.80208,1.5625 1.28907,1.54948 1.28907,4.57031 z" />
    <path
       id="path1064"
       style="font-style:normal;font-variant:normal;font-weight:normal;font-stretch:normal;font-size:26.66666603px;font-family:sans-serif;-inkscape-font-specification:sans-serif"
       d="m 530.64335,270.24656 h 2.39583 v 14.58334 h -2.39583 z m 0,-5.67708 h 2.39583 v 3.03385 h -2.39583 z" />
  </g>
  <path
     id="path986"
     d="M 188.62762,250.31978 410.34568,224.1884"
     style="fill:none;stroke:#646464;stroke-width:2.5;stroke-linecap:butt;stroke-linejoin:miter;stroke-miterlimit:4;stroke-dasharray:none;stroke-opacity:1" />
  <path
     id="path988"
     d="m 227.28415,334.67812 2.87446,-44.51896"
     style="fill:none;stroke:#646464;stroke-width:2.5;stroke-linecap:butt;stroke-linejoin:miter;stroke-miterlimit:4;stroke-dasharray:none;stroke-opacity:1" />
  <path
     id="path990"
     d="m 177.13698,342.01946 53.02163,-51.8603 183.47998,-27.70922"
     style="fill:none;stroke:#646464;stroke-width:2.5;stroke-linecap:butt;stroke-linejoin:miter;stroke-miterlimit:4;stroke-dasharray:none;stroke-opacity:1" />
  <path
     id="path994"
     d="M 186.95101,350.74373 344.60036,332.05936 416.4184,309.28779"
     style="fill:none;stroke:#646464;stroke-width:2.5;stroke-linecap:butt;stroke-linejoin:miter;stroke-miterlimit:4;stroke-dasharray:none;stroke-opacity:1" />
  <path
     id="path996"
     d="m 278.62119,405.62906 65.97917,-73.5697"
     style="fill:none;stroke:#646464;stroke-width:2.5;stroke-linecap:butt;stroke-linejoin:miter;stroke-miterlimit:4;stroke-dasharray:none;stroke-opacity:1" />
</svg>
