<?xml version="1.0" encoding="UTF-8" standalone="no"?>
<svg
   xmlns:dc="http://purl.org/dc/elements/1.1/"
   xmlns:cc="http://creativecommons.org/ns#"
   xmlns:rdf="http://www.w3.org/1999/02/22-rdf-syntax-ns#"
   xmlns:svg="http://www.w3.org/2000/svg"
   xmlns="http://www.w3.org/2000/svg"
   viewBox="0 0 3127.3254 1329.583"
   height="1329.583"
   width="3127.3254"
   id="svg221"
   version="1.1">
  <metadata
     id="metadata227">
    <rdf:RDF>
      <cc:Work
         rdf:about="">
        <dc:format>image/svg+xml</dc:format>
        <dc:type
           rdf:resource="http://purl.org/dc/dcmitype/StillImage" />
        <dc:title></dc:title>
      </cc:Work>
    </rdf:RDF>
  </metadata>
  <defs
     id="defs225" />
  <path
     id="path270"
     d="m 2638.6857,1329.395 c -0.2532,-0.2354 -13.9604,-0.7335 -30.4604,-1.1069 -16.5,-0.3733 -33.6,-0.8488 -38,-1.0566 -4.4,-0.2079 -30.275,-0.6816 -57.5,-1.0528 -27.225,-0.3712 -49.725,-0.7994 -50,-0.9516 -0.275,-0.1522 -26.825,-0.5805 -59,-0.952 -32.175,-0.3714 -63,-0.8493 -68.5,-1.0621 -5.5,-0.2127 -44.875,-0.4876 -87.5,-0.6109 -42.625,-0.1233 -92.575,-0.5566 -111,-0.9629 -105.9854,-2.3369 -140.643,-2.8996 -208,-3.3769 -72.8623,-0.5162 -138.0028,-1.472 -139,-2.0395 -0.275,-0.1565 -13.55,-0.5652 -29.5,-0.9082 -15.95,-0.343 -35.8996,-0.858 -44.3324,-1.1444 -20.8802,-0.7091 -127.8693,-0.7371 -129.0074,-0.034 -1.5333,0.9476 -83.079,2.099 -148.6602,2.099 -40.8932,0 -71.7023,-0.4997 -90.5,-1.4677 -21.3244,-1.0982 -55.44,-1.4761 -135.5,-1.501 -97.6199,-0.03 -108.0958,-0.1911 -119.5,-1.8329 -34.1659,-4.9186 -64.6714,-14.4863 -95.54499,-29.9665 -10.2904,-5.1596 -13.4258,-6.3278 -14.8478,-5.5319 -1.8747,1.0491 -23.61538,0.2214 -110.1072,-4.192 -57.25291,-2.9214 -89.85568,-4.0686 -144,-5.0668 -33,-0.6085 -71.475,-1.4277 -85.5,-1.8206 -78.45686,-2.1979 -175.04873,-1.0639 -242.5,2.8468 -17.25864,1.0006 -24.36218,1.2475 -87.5,3.0407 -19.525,0.5545 -50.8,1.718 -69.5,2.5854 -83.85903,3.8901 -144.889384,0.2107 -178.000004,-10.7312 -22.3045,-7.3708 -35.07311,-18.4477 -42.6078,-36.9626 -5.65467,-13.8951 -6.43659,-22.525 -7.42062,-81.8997 -0.31447,-18.975 -1.21353,-50.475 -1.9979,-70 -0.78437,-19.525 -1.66252,-51.925 -1.95144,-72 -0.28892,-20.07496 -0.77325,-52.24996 -1.07629,-71.49996 -0.7157799,-45.4682 0.69806,-61.5009 7.01888,-79.5924 7.57075,-21.6692 17.45229,-27.9511 53.38479,-33.9378 23.5083,-3.9167 44.123854,-5.0519 102.707084,-5.6556 57.71772,-0.5949 86.08501,0.1435 132.4433,3.4473 28.0589,1.9996 110.05181,2.1017 154,0.1918 19.42222,-0.844 52.17394,-0.9954 111.5,-0.5151 55.66204,0.4505 95.47013,0.2999 118,-0.4465 47.46083,-1.5723 99.80726,-1.3701 141.5,0.5467 19.38261,0.8911 95.90754,0.5162 107.5,-0.5266 6.6,-0.5937 15.30084,-1.1214 19.33521,-1.1726 l 7.33519,-0.093 11.3637,-8.123 c 30.53979,-21.8304 54.84529,-34.3655 77.70089,-40.0729 29.9297,-7.4738 80.7567,-8.3577 165.265,-2.8739 27.9939,1.8165 113.3131,2.3582 201.5,1.2794 42.1883,-0.5161 109.6195,0.1243 153.5,1.4577 11,0.3343 34.85,1.0449 53,1.5791 18.15,0.5342 36.825,1.1971 41.5,1.473 4.675,0.276 30.55,0.5864 57.5,0.6898 26.95,0.1034 60.25,0.5477 74,0.9874 13.75,0.4397 75.175,0.7043 136.5,0.588 193.6212,-0.3672 219.9706,-0.1986 253.5,1.6221 67.1209,3.6448 78.3626,3.9 142.5,3.2345 34.925,-0.3624 68,-0.9228 73.5,-1.2454 15.0173,-0.8809 124.0415,-0.94 147.5,-0.08 23.6186,0.8659 77.3976,2.3947 113,3.2124 30.2689,0.6952 54.1913,1.3701 72.5,2.0454 7.7,0.284 31.55,0.9458 53,1.4706 36.6027,0.8956 53.5436,1.1675 158.5,2.5431 98.4557,1.2904 113.3017,3.7049 136.2906,22.1656 20.8649,16.755 32.5401,42.8968 38.0964,85.3012 3.361,25.65 3.0057,47.6185 -1.8359,113.49996 -4.5264,61.5932 -4.8033,68.9607 -5.169,137.5 -0.44,82.4744 -1.2592,93.0666 -8.7387,113 -4.3033,11.4684 -9.238,18.6885 -20.5898,30.1248 -23.196,23.3688 -52.7875,35.1707 -102.5536,40.9011 -35.0562,4.0365 -44.9042,4.2688 -198.0396,4.6706 -81.9718,0.215 -149.2468,0.1984 -149.5,-0.037 z m 270.5396,-16.0572 c 65.9775,-1.2517 105.5565,-6.448 133.2994,-17.5008 17.0991,-6.8123 32.5408,-18.2336 42.6216,-31.5248 7.0044,-9.235 9.2784,-13.9371 12.077,-24.972 4.1755,-16.464 4.6278,-25.3109 4.9539,-96.8832 0.3177,-69.7505 0.9922,-87.3312 5.5716,-145.22146 5.0941,-64.3967 4.8789,-92.1251 -0.9383,-120.9071 -5.7873,-28.6342 -11.5993,-41.3341 -25.0302,-54.6932 -13.9679,-13.8934 -25.5638,-18.6202 -51.0676,-20.8167 -22.8336,-1.9665 -23.6944,-1.9869 -151.9874,-3.591 -23.375,-0.2923 -51.5,-0.7534 -62.5,-1.0247 -54.5341,-1.3448 -94.8896,-2.4977 -103,-2.9425 -4.95,-0.2715 -24.3,-0.7373 -43,-1.0351 -18.7,-0.2978 -36.925,-0.7476 -40.5,-0.9995 -3.575,-0.2519 -19.775,-0.7414 -36,-1.0877 -16.225,-0.3463 -29.7464,-0.7738 -30.0476,-0.95 -0.3012,-0.1762 -25.0512,-0.6178 -55,-0.9813 -40.0998,-0.4867 -68.8175,-0.2412 -108.9524,0.9314 -29.975,0.8757 -72.725,1.5834 -95,1.5726 -40.6863,-0.02 -53.8755,-0.4442 -112,-3.6053 -27.1909,-1.4788 -57.3544,-1.7491 -220.5,-1.9765 -103.95,-0.1448 -191.475,-0.4729 -194.5,-0.729 -3.025,-0.256 -26.875,-0.5697 -53,-0.6969 -26.125,-0.1273 -57.85,-0.5986 -70.5,-1.0475 -106.6814,-3.7857 -135.5029,-4.3078 -215.5,-3.9038 -169.1546,0.8543 -192.3002,0.5654 -245,-3.0578 -17.6005,-1.21 -65,-2.4458 -65,-1.6947 0,0.3205 1.7712,3.8798 3.936,7.9095 4.9288,9.175 12.9587,29.2026 18.7749,46.8268 7.0495,21.3616 10.49,37.4125 15.219,71 4.0734,28.9313 6.5691,89.7891 5.7207,139.49996 -0.8387,49.1437 -3.7169,92.8175 -9.1935,139.5 -6.1288,52.2408 -9.5198,67.8447 -22.2756,102.5 -3.239,8.8 -5.7327,16.1848 -5.5414,16.4106 0.1912,0.2258 14.188,0.3068 31.1038,0.18 125.9405,-0.9441 144.5859,-0.765 202.2561,1.9426 39.079,1.8347 134.0923,1.2808 205.5,-1.1981 28.2669,-0.9813 169.2905,-0.4947 183.5,0.6332 1.925,0.1528 14.3,0.5799 27.5,0.9491 13.2,0.3692 28.5,0.8606 34,1.0919 5.5,0.2314 43.075,0.6605 83.5,0.9535 98.9289,0.7171 152.5911,1.4942 207.5,3.0049 25.3,0.6961 81.55,1.3563 125,1.4672 43.45,0.1109 85.075,0.36 92.5,0.5536 7.425,0.1936 36.225,0.6292 64,0.9679 27.775,0.3388 56.125,0.8069 63,1.0402 6.875,0.2334 30.275,0.6738 52,0.9786 41.4423,0.5815 64.9316,1.1061 96.5,2.1549 55.2759,1.8365 231.0161,2.3949 306,0.9722 z m 62.7339,-20.146 c -4.8702,-2.0478 -5.8729,-8.5679 -1.8926,-12.3072 1.9597,-1.8411 4.2,-2.3616 13.75,-3.1948 21.0532,-1.8367 41.7634,-9.2831 54.3624,-19.5462 7.5866,-6.18 16.0771,-17.7762 22.383,-30.5704 8.9861,-18.2319 13.2585,-34.788 13.3299,-51.6541 0.039,-9.2032 0.285,-10.597 2.2802,-12.9167 3.1067,-3.6117 8.046,-3.5578 11.2115,0.1222 2.1283,2.4743 2.3417,3.6625 2.3417,13.0357 0,38.0312 -21.3496,81.5601 -48.8611,99.6211 -15.9925,10.4989 -35.4275,16.3333 -60.8046,18.2535 -2.8412,0.2149 -6.4863,-0.1644 -8.1004,-0.8431 z m 55.2206,-57.9108 c -3.8316,-3.8316 -3.1846,-6.8932 2.792,-13.2126 2.8855,-3.051 6.373,-7.6224 7.75,-10.1586 6.9819,-12.86 19.6454,-3.1935 12.9667,9.8979 -1.18,2.3129 -4.3378,6.3976 -7.0174,9.0772 -7.3376,7.3377 -12.2422,8.6451 -16.4913,4.3961 z m -420.4545,-61.865 c -0.4579,-0.4513 -242.1344,-2.1612 -278,-1.9669 -71.8327,0.3891 -152.4802,0.3236 -181.5,-0.1474 -49.6167,-0.8053 -86.9285,-1.6265 -94.5,-2.0799 -6.563,-0.393 -57.3255,-1.0443 -154.5,-1.9822 -52.283,-0.5046 -86.4499,-1.1503 -106,-2.0031 -5.5,-0.24 -16.075,-0.7009 -23.5,-1.0244 -7.425,-0.3235 -22.05,-1.0036 -32.5,-1.5113 -29.8509,-1.4502 -175.7763,-0.4503 -217.5,1.4903 -49.0403,2.281 -232.2306,1.5537 -246.3747,-0.9781 -25.4016,-4.5469 -38.4971,-15.1288 -45.7609,-36.9775 l -2.3272,-7 0.2823,-76 c 0.1998,-53.79226 -0.061,-78.77596 -0.8939,-85.49996 -1.7232,-13.9183 -2.2646,-43.2321 -0.939,-50.8442 4.052,-23.2685 24.1485,-33.9947 70.3972,-37.5734 58.8238,-4.5517 113.6922,-5.7273 169.1168,-3.6236 13.7497,0.5219 48.3994,1.1985 76.9994,1.5034 84.7963,0.9043 178.6816,3.4542 223,6.0566 15.2988,0.8983 61.4453,0.8295 96.5,-0.144 35.2664,-0.9794 60.6829,-0.9885 405.5,-0.146 134.2,0.328 246.7,0.8233 250,1.1009 3.3,0.2776 19.05,0.8122 35,1.188 15.95,0.3758 29.225,0.8154 29.5,0.9768 0.275,0.1614 18.275,0.5756 40,0.9205 42.0752,0.668 47.4567,0.9253 67,3.2037 42.8925,5.0004 61.5513,12.9466 66.3872,28.272 0.7999,2.5351 1.719,8.6593 2.0424,13.6093 0.815,12.4744 2.3664,71.4935 3.0755,116.99996 0.3257,20.9 1.2834,47.225 2.1282,58.5 3.2097,42.838 -1.6355,61.4722 -18.0749,69.5152 -9.8704,4.8292 -18.2808,5.4816 -78.5584,6.0941 -30.525,0.3102 -55.725,0.3422 -56,0.071 z m 117.8422,-17.6206 c 4.0382,-0.7609 8.7632,-2.3238 10.5,-3.4731 7.7732,-5.1439 10.7053,-20.2301 8.8001,-45.2792 -0.6194,-8.1442 -1.5801,-34.8326 -2.1348,-59.3076 -1.4365,-63.37566 -2.9893,-116.13306 -3.7045,-125.85846 -0.9087,-12.3558 -3.4492,-14.8743 -19.7772,-19.606 -19.0746,-5.5276 -46.1502,-8.2328 -90.0258,-8.9949 -18.15,-0.3153 -45.825,-1.0433 -61.5,-1.6178 -71.5812,-2.6237 -113.0696,-2.8538 -604,-3.3505 -39.325,-0.04 -96.475,0.3274 -127,0.8158 -39.115,0.626 -63.1759,0.5498 -81.5,-0.2582 -51.6812,-2.2786 -98.5992,-3.9368 -130,-4.5944 -13.75,-0.288 -47.5,-0.7581 -75,-1.0448 -51.9831,-0.5418 -78.5718,-1.1023 -99.0293,-2.0874 -14.947,-0.7197 -73.8141,-0.7148 -85.9707,0.01 -4.95,0.294 -18.45,1.0006 -30,1.5702 -56.6883,2.7956 -67.5521,4.2866 -82.8985,11.3771 -12.2504,5.66 -13.9681,10.0746 -13.3089,34.2043 0.2395,8.7658 0.9881,24.2629 1.6637,34.4379 0.8769,13.2064 1.0603,36.8129 0.6411,82.49996 -0.3401,37.0788 -0.2011,66.6255 0.3306,70.2416 1.8974,12.9048 8.3332,22.3915 18.4231,27.1567 13.664,6.4532 11.5245,6.3372 125.6489,6.8102 89.2099,0.3698 109.0918,0.1779 144,-1.3898 55.9063,-2.5106 189.3301,-2.554 237,-0.077 47.8975,2.4887 53.4941,2.6005 214.5,4.2845 28.6,0.2992 66.175,0.964 83.5,1.4776 54.1277,1.6043 119.6507,2.1262 303.2661,2.4154 97.7714,0.1539 177.9466,0.4602 178.1672,0.6805 0.2205,0.2203 39.0258,0.3877 86.2338,0.3722 68.7833,-0.023 87.2913,-0.3032 93.1751,-1.4118 z m -1603.1376,132.3824 c 8.3948,-22.3523 16.3568,-47.9126 18.672,-59.9423 3.2231,-16.7466 9.1422,-64.1482 11.6131,-93 4.3323,-50.5876 6.1097,-122.829 4.122,-167.53426 -2.2979,-51.6805 -7.241,-91.52 -14.6365,-117.9657 -8.6127,-30.7979 -21.7581,-62.1292 -30.21,-72.0033 l -3.6442,-4.2574 -11.0605,0.697 c -28.8869,1.8204 -47.3592,6.4102 -68.4547,17.0088 -19.7579,9.9267 -33.37379,19.1542 -84.60579,57.3371 -26.35038,19.6389 -66.83581,48.4323 -87,61.8748 -20.35269,13.5683 -39.98544,23.0216 -49.94659,24.0496 -6.59746,0.681 -8.68238,-0.3867 -22.52531,-11.5352 -18.41634,-14.8318 -34.33348,-23.0136 -48.60164,-24.9825 -13.24331,-1.8275 -30.95498,1.4654 -44.23363,8.2238 -13.73,6.9882 -31.29975,22.4917 -39.98737,35.2847 -4.28559,6.3109 -10.41119,12.3026 -12.57739,12.3026 -0.71628,0 -5.76312,0.6812 -11.2152,1.5138 -5.45208,0.8326 -12.83787,1.9583 -16.41287,2.5016 -8.33395,1.2665 -45.9187,6.4694 -57,7.8906 -28.77731,3.6908 -75.26508,7.7427 -98.5,8.5854 -9.35,0.3392 -22.85,1.0388 -30,1.5548 -35.78832,2.5829 -51.04644,3.0253 -55.07058,1.5968 -2.16118,-0.7672 -9.32942,-5.2817 -15.92942,-10.0323 -13.74582,-9.894 -32.7929,-19.7095 -42.97812,-22.1479 -35.0727,-8.3965 -88.11683,15.5823 -110.29853,49.8609 -9.64814,14.90976 -13.24454,27.01016 -13.18846,44.37366 0.0424,13.1244 1.67734,22.8069 5.96522,35.3271 8.33626,24.3411 23.50665,45.9195 42.16996,59.9827 9.94394,7.493 17.10985,11.1738 28.53334,14.6561 7.91401,2.4126 10.40191,2.6881 24.79659,2.7458 17.76681,0.071 24.27749,-1.033 42,-7.1237 11.58641,-3.9819 20.34656,-8.5299 29.5,-15.3156 8.24468,-6.1119 12.21301,-10.245 17.93035,-18.6747 6.29478,-9.281 6.92573,-9.5274 22.56965,-8.8144 12.08826,0.5509 20.38751,1.2681 75.5,6.524 36.53222,3.4839 71.93875,5.8353 98,6.5082 34.30643,0.8859 58.32171,2.6793 60.54101,4.5211 0.94823,0.787 4.21245,4.8138 7.25382,8.9484 7.3685,10.0173 20.33016,23.2948 27.56797,28.2398 16.17419,11.0504 36.8217,15.8564 59.03091,13.7403 18.65966,-1.7779 30.03676,-6.1745 48.98821,-18.9313 26.28262,-17.6914 27.78568,-18.5363 32.83966,-18.4588 8.75127,0.1343 35.24285,15.637 54.77842,32.0559 5.225,4.3915 20.75,17.0063 34.5,28.0329 13.75,11.0267 31.525,25.5303 39.5,32.2303 20.88852,17.549 34.5505,26.3236 64.50669,41.4303 30.8856,15.5754 63.6402,25.6486 92.9933,28.5986 13.2959,1.3363 18.6967,1.7686 19.9231,1.5949 0.5077,-0.072 2.4344,-4.1547 4.2815,-9.073 z m -80.9796,-51.9398 c -44.63889,-24.5931 -65.68909,-37.8405 -106.88263,-67.2637 -28.77216,-20.5511 -42.43508,-31.6954 -45.23583,-36.8972 -1.77481,-3.2963 -1.79228,-3.7289 -0.2787,-6.9029 1.70935,-3.5845 5.00545,-5.1025 8.60138,-3.9612 1.14045,0.362 6.01043,4.0418 10.82217,8.1775 10.6501,9.1536 51.37476,38.5757 72.95742,52.7091 21.09049,13.8111 36.95569,23.2408 65.21539,38.7616 12.9667,7.1217 24.3633,13.8816 25.3258,15.0221 2.3238,2.7537 2.2103,5.9973 -0.3226,9.2173 -3.801,4.8323 -7.1038,3.8631 -30.2024,-8.8626 z M 288.22531,1121.2786 c -16.74575,-3.2502 -31.62674,-11.6734 -44.58521,-25.2369 -12.93484,-13.5387 -18.21681,-24.6727 -20.23143,-42.6462 -4.03369,-35.9866 18.52948,-67.93846 56.36597,-79.82026 6.55649,-2.0589 9.37089,-2.3331 23.45067,-2.2848 12.9993,0.045 17.64546,0.466 24.77378,2.2466 13.63106,3.4048 15.24312,4.3116 18.26462,10.2743 2.4573,4.8492 2.70038,6.5186 3.39618,23.32356 0.41219,9.9553 0.84766,37.7315 0.96771,61.7248 l 0.21828,43.6241 -2.31029,2.5565 c -1.49708,1.6567 -4.95021,3.3224 -9.81028,4.7325 -9.60396,2.7863 -39.33477,3.6728 -50.5,1.5058 z m 44.2127,-16.0382 c 2.17997,-0.708 2.21695,-1.0352 2.5,-22.1181 0.31148,-23.2003 -0.79803,-78.7406 -1.73769,-86.98526 l -0.58107,-5.0986 -8.19697,-1.9014 c -6.03012,-1.3989 -11.89783,-1.8941 -22.19697,-1.8736 -12.59512,0.025 -14.73602,0.2939 -21.3346,2.6792 -10.62495,3.8407 -17.71653,8.347 -25.7703,16.37546 -8.5047,8.4779 -12.78788,16.5062 -15.11905,28.339 -1.9729,10.0141 -0.88873,23.094 2.68563,32.4007 6.3932,16.6463 27.27406,33.9418 46.03832,38.1333 6.7714,1.5126 39.09507,1.549 43.7127,0.049 z m 481.5956,-0.5238 c -3.01058,-1.1999 -5.64734,-5.5158 -5.02979,-8.233 0.28103,-1.2364 2.09714,-8.3971 4.0358,-15.9126 6.35855,-24.6497 6.99526,-43.4758 2.60992,-77.1696 -2.11271,-16.23246 -2.87429,-19.85336 -6.14132,-29.19826 -2.65822,-7.6035 -1.98678,-10.9259 2.65553,-13.1396 3.18448,-1.5186 3.58453,-1.4991 6.72375,0.3282 5.99831,3.4915 9.92656,17.3438 13.28399,46.84376 3.98631,35.0256 2.21525,58.5576 -6.55419,87.0854 -2.52579,8.2166 -6.48486,11.4278 -11.58369,9.3957 z M 640.17986,1089.281 c -2.99066,-2.9907 -3.01795,-4.1148 -0.34326,-14.1355 3.36474,-12.6061 3.82526,-42.3033 0.94993,-61.2583 -1.19709,-7.8916 -3.32888,-17.45716 -4.73731,-21.25696 -2.20447,-5.9473 -2.39323,-7.3131 -1.35656,-9.8159 2.25238,-5.4377 8.97861,-6.145 13.25632,-1.3939 10.23864,11.3716 14.42298,78.57366 6.30661,101.28656 -3.16503,8.8571 -9.04598,11.6037 -14.07573,6.574 z m -404.95455,168.506 c 18.31527,-1.1194 36.43824,-1.8685 61.5,-2.5421 9.625,-0.2587 26.5,-0.7135 37.5,-1.0108 31.58717,-0.8535 67.49321,-2.3846 100,-4.2641 24.19627,-1.3989 46.1537,-1.7283 113.5,-1.7026 45.925,0.018 90.65317,0.3505 99.39593,0.7399 l 15.89593,0.708 -0.57797,-26.2399 c -0.58866,-26.725 -2.00265,-45.6359 -3.85118,-51.5061 -0.63407,-2.0136 -5.13528,-7.383 -11.73631,-14 -5.88927,-5.9036 -12.86646,-13.7713 -15.50486,-17.4838 -2.6384,-3.7125 -5.40808,-6.75 -6.15485,-6.75 -0.74676,0 -6.89476,-0.4484 -13.66222,-0.9965 -6.76746,-0.5481 -26.70447,-1.4336 -44.30447,-1.9676 -31.15372,-0.9454 -58.94523,-3.0007 -121.5,-8.9855 -16.775,-1.6049 -35.45,-3.2113 -41.5,-3.5698 l -11,-0.6518 -2.77672,4.4827 c -7.08816,11.443 -27.52315,27.4148 -43.93025,34.3356 -25.06655,10.5735 -53.34556,14.6523 -75.18383,10.844 -23.43147,-4.0861 -41.4948,-14.1738 -60.1421,-33.5871 -24.98927,-26.0159 -39.49677,-60.9231 -39.44226,-94.904 0.0355,-22.1544 6.43702,-40.57086 20.50829,-59.00036 22.68212,-29.7074 66.31376,-51.9086 102.15149,-51.978 23.52046,-0.045 40.13128,6.3536 68.81538,26.5099 13.95928,9.8093 11.11696,9.3159 40.50995,7.0314 10.16953,-0.7905 26.81505,-1.7158 36.99005,-2.0564 18.98987,-0.6356 74.78227,-4.8497 85.5,-6.458 3.3,-0.4952 9.375,-1.1878 13.5,-1.5391 7.20003,-0.6133 21.68475,-2.4099 36.5,-4.5272 18.32673,-2.6193 29.17958,-4.1964 42.75738,-6.2137 l 14.75738,-2.1924 2.64328,-4.0381 c 4.41594,-6.746 14.97606,-18.8407 20.96397,-24.0102 l 5.65652,-4.8835 -0.64115,-18.0722 c -0.88039,-24.8155 -2.78788,-54.9398 -3.52695,-55.6998 -1.30494,-1.3419 -174.95486,-2.4901 -195.11043,-1.2902 -16.6895,0.9936 -79.58643,2.0303 -107.5,1.7718 -14.85,-0.1374 -37.35,-0.9231 -50,-1.7457 -12.65,-0.8227 -29.075,-1.7782 -36.5,-2.1233 -7.425,-0.3451 -15.75,-0.8205 -18.5,-1.0565 -10.11886,-0.8681 -103.67082,-0.4505 -124.5,0.5558 -47.101994,2.2756 -75.073944,6.7811 -85.256514,13.7324 -7.16813,4.8934 -12.62263,20.2501 -14.7061,41.4039 -1.29817,13.1803 0.31019,160.80206 1.97615,181.37946 0.53434,6.6 1.40712,36.075 1.93953,65.5 0.5324,29.425 1.23884,58.225 1.56986,64 2.32615,40.5824 20.92251,55.3889 77.283774,61.5338 36.49686,3.9791 85.6692,4.9641 125.6933,2.5177 z m 715.41068,-3.2504 c -4.07164,-2.8594 -14.15471,-10.8668 -22.40683,-17.7942 -8.25212,-6.9274 -25.35385,-20.8693 -38.00385,-30.982 -12.65,-10.1127 -27.5,-22.1683 -33,-26.7901 -14.86941,-12.4952 -40.88399,-29.1786 -45.56404,-29.2207 -0.86022,-0.01 -9.81907,5.4145 -19.90856,12.0494 -19.78625,13.0116 -24.14724,15.4564 -33.80812,18.9534 -3.45439,1.2504 -6.48562,2.605 -6.73606,3.0102 -0.25044,0.4053 -0.0355,6.3024 0.47764,13.1049 0.51313,6.8024 1.03514,21.593 1.16002,32.868 0.1469,13.2635 0.60688,20.7593 1.30308,21.2347 0.59182,0.4041 8.27604,0.7455 17.07604,0.7588 8.8,0.013 29.95,0.6844 47,1.4914 60.37038,2.8576 73.11517,3.4829 83.5,4.0971 14.57846,0.8621 41.12374,2.0783 49.40683,2.2635 l 6.90683,0.1545 z m -213.37204,-19.0511 c -0.25091,-8.3875 -0.75553,-22.7472 -1.12138,-31.9104 l -0.66519,-16.6603 -14.62603,-0.045 c -15.84244,-0.049 -27.1126,-1.7104 -37.72188,-5.5614 -3.48795,-1.266 -6.4822,-2.1614 -6.6539,-1.9897 -0.1717,0.1717 -0.004,3.8232 0.37351,8.1145 0.37714,4.2913 1.02217,20.0472 1.4334,35.0131 l 0.74771,27.2107 7.59756,0.338 c 4.17866,0.186 17.3839,0.4287 29.34498,0.5394 l 21.74742,0.2012 -0.4562,-15.25 z m 80.30284,-321.31616 c 13.12474,-6.0573 24.51449,-13.1549 53.33007,-33.2332 25.11733,-17.5013 59.28438,-42.1605 67.13386,-48.452 l 2.80541,-2.2486 h -54.30541 c -29.86798,0 -69.38041,-0.395 -87.80541,-0.8777 -18.425,-0.4827 -34.4,-0.9004 -35.5,-0.9282 -1.1,-0.028 -3.575,0.03 -5.5,0.1276 l -3.5,0.1783 0.21864,28.6633 0.21864,28.6633 9.88852,5.1774 c 12.41267,6.4991 21.58121,12.6587 31.1742,20.9435 8.75437,7.5606 9.59713,7.6373 21.84148,1.9863 z m -120.84596,-27.622 c 9.93726,-3.4508 19.25338,-4.9465 30.75448,-4.9374 l 11.25,0.01 0.1572,-16.6916 c 0.17896,-19.003 -0.10526,-32.9949 -0.71486,-35.1916 -0.36468,-1.3141 -4.22804,-1.4007 -31.1793,-0.6984 -16.91967,0.4409 -31.03337,1.1159 -31.36377,1.5 -0.3304,0.3841 -0.0212,7.8859 0.68718,16.6706 0.70835,8.7848 1.40557,22.7348 1.54936,31 0.1438,8.2653 0.42036,15.36 0.61459,15.7661 0.19422,0.406 3.14032,-0.6687 6.54688,-2.3884 3.40656,-1.7196 8.67077,-3.9867 11.69824,-5.0381 z M 2900.3784,741.65084 c -30.2603,-0.9768 -47.7165,-2.1502 -96.1531,-6.4633 -57.4343,-5.1144 -58.404,-5.1932 -104,-8.4456 -51.7328,-3.6902 -64.2096,-4.8298 -121.5,-11.0968 -44.277,-4.8435 -63.0674,-6.7348 -202,-20.3323 -75.5179,-7.391 -151.7697,-14.3568 -198,-18.0877 -46.7836,-3.7756 -62.2764,-5.2142 -97,-9.007 -61.355,-6.7019 -116.1824,-11.9472 -203.5,-19.4689 -59.724,-5.1448 -89.3927,-8.0632 -132.5,-13.0338 -81.6304,-9.4126 -147.3946,-15.0466 -210,-17.9904 -12.375,-0.5819 -32.175,-1.7238 -44,-2.5375 -11.825,-0.8137 -38.375,-2.6017 -59,-3.9733 -43.1636,-2.8705 -60.2619,-4.4317 -93,-8.4916 -34.3639,-4.2615 -75.476,-8.746 -91.5,-9.9808 -7.7,-0.5933 -21.65,-1.7369 -31,-2.5413 -9.35,-0.8044 -28.25,-2.1433 -42,-2.9752 -88.5553,-5.3581 -117.2283,-9.7189 -152.5,-23.1934 -19.0278,-7.2691 -33.46519,-14.2737 -49.99999,-24.2586 -10.87907,-6.5696 -14.04503,-8.0468 -16.30737,-7.6086 -1.54406,0.299 -14.81906,-1.0146 -29.5,-2.9191 -14.68095,-1.9045 -54.36763,-7.0555 -88.19263,-11.4465 -65.16956,-8.4602 -82.30677,-10.4462 -125.5,-14.5446 -28.66083,-2.7194 -36.2181,-3.4937 -87.5,-8.9648 -96.08118,-10.2505 -151.07995,-14.3562 -222,-16.5725 -38.656,-1.2081 -67.49897,-2.4613 -115,-4.9968 -20.075,-1.0715 -50.225,-2.3976 -67,-2.9469 -60.47512,-1.9803 -85.99442,-4.2796 -129.000004,-11.6231 -63.51409,-10.8455 -88.2994299,-29.9779 -92.51793988,-71.4168 -0.7063,-6.938 0.3728,-30.6468 3.52729998,-77.4981 1.07392,-15.95 2.41159,-42.5 2.97261,-59 1.12317,-33.0334 2.12444,-50.5185 5.0392599,-88 1.0693,-13.75 2.63254,-37.375 3.47388,-52.5 1.781,-32.017696 3.46364,-46.527296 7.07743,-61.029696 2.83865,-11.3917 9.46014,-26.5434 13.87578,-31.7515 3.91727,-4.6203 10.62179,-9.0066003 17.25469,-11.2887003 20.49981,-7.053 72.211874,-7.5274 151.193924,-1.387 38.03784,2.9572 56.81059,5.0458 103.10307,11.4709003 19.525,2.71 41.35,5.5972 48.5,6.416 18.00993,2.0626 79.51476,6.2527 118.5,8.073 37.88848,1.7691 58.34392,3.313 107,8.0757 65.35019,6.3969 88.80626,8.049 169.5,11.9388 8.46203,0.4079 19.33821,1.4789 60.5,5.9574 78.49292,8.5402 113.74872,11.3685 145,11.6319 l 20.5,0.1728 12.6495,-7.581 c 22.90849,-13.7295 48.18499,-25.3797 64.35049,-29.6597 14.8284,-3.926 25.7927,-5.0274 50,-5.0227 31.0839,0.01 59.7759,2.5501 113.4226,10.0575 63.1353,8.8352 102.1157,12.5653 177.0774,16.9451 57.7654,3.375 133.3858,10.0973 208.5,18.5346 84.1041,9.4471 94.116,10.4929 133.5,13.9449 22.275,1.9523 60.075,5.5619 84,8.0211 55.1204,5.6659 68.2878,6.833896 112.5,9.978496 19.8,1.4084 49.725,3.6645 66.5,5.0136 16.775,1.3491 49.625,3.8219 73,5.495 68.2894,4.8879 79.324,5.9873 140.5,13.9984 76.7301,10.0479 100.9393,12.1808 198.5,17.4885 70.6905,3.8459 95.0339,5.8979 178,15.0043 22.275,2.445 61.875,6.7157 88,9.4906 26.125,2.7748 63.25,6.819 82.5,8.9871 46.287,5.2131 112.4146,11.8316 180,18.0157 106.8003,9.7722 122.7633,12.7446 141.9417,26.43 8.4995,6.0651 19.8417,18.4381 25.0357,27.311 8.1896,13.9904 13.2379,34.1796 15.5701,62.2679 2.0845,25.1044 -0.6356,57.2583 -9.5493,112.8836 -10.325,64.4322 -15.2212,106.7811 -19.4948,168.6164 -2.3789,34.421 -3.3088,43.0968 -6.1092,57 -5.3415,26.5191 -14.3015,43.2367 -30.5709,57.039 -20.6092,17.4841 -41.0894,26.089 -73.5412,30.899 -9.328,1.3826 -49.7529,3.797 -56.7821,3.3914 -1.375,-0.079 -13.2311,-0.4907 -26.3469,-0.9141 z m 74.5355,-17.3865 c 34.9103,-4.1156 56.5719,-13.3012 75.4372,-31.9889 7.6369,-7.5649 9.7822,-10.4268 13.1484,-17.5399 7.9095,-16.7136 11.1753,-34.6572 14.196,-78 4.8237,-69.2117 8.0502,-96.9403 21.4664,-184.4835 7.2628,-47.3913 7.9592,-54.3119 8.0021,-79.5165 0.042,-24.633 -1.1144,-35.6876 -5.596,-53.4995 -4.0115,-15.9438 -12.5895,-30.0559 -24.0839,-39.6216 -17.5816,-14.6316 -30.7591,-17.1856 -141.2588,-27.3787 -77.7791,-7.1748 -129.4567,-12.3559 -184.5,-18.4977 -24.475,-2.731 -57.55,-6.3375 -73.5,-8.0145 -15.95,-1.6769 -55.55,-5.94 -88,-9.4736 -91.0608,-9.9157 -113.8157,-11.785 -201,-16.5121 -69.0429,-3.7435 -108.276,-7.1291 -157.5,-13.5914 -80.742,-10.6001 -90.6322,-11.6334 -157,-16.4031 -23.375,-1.6799 -56.45,-4.1636 -73.5,-5.5192 -17.05,-1.3557 -43.825,-3.3784 -59.5,-4.4949 -53.3453,-3.7996 -84.9376,-6.6146 -134.5,-11.9845 -9.9,-1.0726 -38.7,-3.7733 -64,-6.0015 -25.3,-2.228096 -78.175,-7.626596 -117.5,-11.996596 -108.5111,-12.0583 -165.2608,-17.212 -237,-21.5232 -75.2468,-4.522 -110.3004,-7.9226 -175,-16.9774 -13.475,-1.8859 -33.275,-4.3493 -44,-5.4743 -10.725,-1.125 -21.4358,-2.2994 -23.8018,-2.6099 l -4.3019,-0.5644 2.5306,4.9938 c 6.5081,12.8431 17.7883,52.796096 21.4983,76.144296 3.7729,23.7436 4.5271,36.4375 4.5454,76.5 0.038,83.6036 -9.3246,170.3148 -28.1075,260.3145 -9.0743,43.4799 -13.2858,56.9195 -27.5796,88.0113 -4.3809,9.5292 -7.8118,17.4707 -7.6244,17.6478 0.4213,0.398 50.0822,4.1235 73.8409,5.5396 46.8914,2.7947 104.9107,8.2645 159,14.9897 34.8665,4.3352 49.627,5.7112 91,8.4835 20.625,1.382 46.95,3.1723 58.5,3.9784 11.55,0.8062 35.625,2.1652 53.5,3.0202 17.875,0.855 41.95,2.2305 53.5,3.0568 29.199,2.0888 108.2953,9.7628 149,14.4561 43.9152,5.0634 74.1242,8.0435 132,13.0217 84.5906,7.2761 148.2168,13.3577 209,19.977 32.5037,3.5397 48.5554,5.0293 97,9.0018 64.4083,5.2816 172.607,15.3034 248,22.9707 15.95,1.6221 45.65,4.5628 66,6.5349 20.35,1.9721 52.975,5.3548 72.5,7.5172 57.0488,6.3182 83.4832,8.7584 135,12.462 26.675,1.9178 68.525,5.2778 93,7.4668 52.8391,4.7259 68.8612,5.9073 95.5,7.0421 26.2651,1.1189 65.7915,0.4108 81.6886,-1.4633 z m -38.2655,-16.4519 c -3.5543,-3.5543 -3.6865,-6.0771 -0.5118,-9.7711 2.4018,-2.7948 2.4736,-2.8083 18.25,-3.4483 18.865,-0.7653 31.051,-3.5334 44.2862,-10.0598 22.4599,-11.075 43.9098,-44.1004 49.5132,-76.233 0.8466,-4.8547 1.5393,-10.8132 1.5393,-13.2412 0,-8.7859 8.1754,-12.4691 13.5361,-6.0983 2.5998,3.0897 2.6866,3.5525 2.0646,11.0104 -2.2375,26.8303 -13.8348,54.3517 -32.4743,77.065 -17.8655,21.77 -46.6646,33.6836 -81.4533,33.6954 -11.7408,0 -11.8482,-0.017 -14.75,-2.9191 z m 61.5314,-51.5314 c -4.2388,-4.2389 -3.2484,-8.0841 3.3872,-13.1508 2.5239,-1.9271 6.2063,-5.8418 8.1833,-8.6993 3.1265,-4.519 4.0876,-5.2366 7.3828,-5.5116 6.9579,-0.5808 9.9901,4.8676 6.7656,12.157 -3.7409,8.457 -14.379,17.6592 -20.4146,17.6592 -1.6923,0 -3.8467,-0.9969 -5.3043,-2.4545 z m -322.4545,-88.6538 c -32.1058,-2.1087 -59.0478,-4.2274 -88,-6.9205 -17.325,-1.6115 -43.2,-3.8469 -57.5,-4.9674 -14.3,-1.1206 -37.025,-3.1508 -50.5,-4.5116 -13.475,-1.3609 -41.6,-3.8325 -62.5,-5.4925 -20.9,-1.6601 -49.475,-4.1209 -63.5,-5.4685 -36.7806,-3.5341 -57.4621,-5.2184 -92.5,-7.5332 -41.268,-2.7263 -62.0277,-4.4095 -105,-8.5131 -19.8,-1.8909 -48.375,-4.5963 -63.5,-6.0121 -15.125,-1.4158 -38.75,-3.8857 -52.5,-5.4888 -13.75,-1.6031 -37.825,-4.0626 -53.5,-5.4657 -15.675,-1.4031 -47.85,-4.3426 -71.5,-6.5323 -23.65,-2.1896 -55.825,-5.1267 -71.5,-6.5268 -32.9298,-2.9414 -57.2152,-5.6212 -107.5,-11.8624 -67.3914,-8.3644 -151.2992,-15.1603 -217,-17.5753 -42.3478,-1.5566 -98.0817,-5.5093 -162.5,-11.5247 -14.575,-1.3611 -38.875,-3.3797 -54,-4.4859 -15.125,-1.1061 -31.5759,-2.674 -36.5576,-3.4842 -38.2615,-6.2222 -55.4424,-24.1037 -55.4424,-57.7032 0,-5.4211 1.3547,-23.2367 3.0105,-39.5901 5.2311,-51.6639 8.0993,-90.8582 8.541,-116.7107 0.4653,-27.2396 1.6779,-42.5647 3.9815,-50.3219 6.2403,-21.0135 26.9625,-29.1882 74.0113,-29.1968 54.3366,-0.01 98.4114,2.4972 157.9557,8.9851 24.75,2.6968 62.325,6.5081 83.5,8.4696 21.175,1.9615 50.65,4.7025 65.5,6.091 27.885,2.6075 105.2348,11.2953 146.5,16.4548 43.9964,5.5009 59.3618,6.7725 121,10.0137 44.0673,2.3172 60.2223,3.5823 159.5,12.4907 101.971,9.1501 101.4686,9.108 149,12.4951 23.65,1.6853 62.8,4.8336 87,6.9963 24.2,2.1627 70.325,5.9829 102.5,8.4894 82.2861,6.4103 136.7766,11.5881 195.1983,18.5482 13.584,1.6184 38.784,4.2968 56,5.9521 36.8744,3.5455 43.1808,4.3439 59.9171,7.5859 29.4684,5.7083 48.8079,12.6251 57.3722,20.5193 6.0149,5.5444 8.6553,10.8161 9.2733,18.5144 0.5537,6.8986 -1.0999,47.1738 -3.3417,81.3904 -3.1063,47.4094 -4.5396,74.5057 -5.4219,102.5 -1.0035,31.8361 -2.5465,42.7301 -7.4128,52.3331 -8.6669,17.1033 -19.9894,20.5935 -58.5845,18.0586 z m 32.0819,-15.9073 c 3.8105,-0.7226 6.3098,-1.941 8.6657,-4.2244 6.0528,-5.8666 9.2524,-21.2493 9.2524,-44.4823 0,-13.8389 1.7723,-49.4671 4.5156,-90.7777 2.322,-34.9655 4.469,-77.7901 4.4771,-89.2997 0.01,-12.0435 -1.099,-14.9798 -7.0725,-18.7507 -5.1498,-3.2509 -21.6412,-8.7701 -35.663,-11.9354 -17.9317,-4.0478 -34.0075,-6.327 -67.2254,-9.5309 -17.3076,-1.6693 -44.7576,-4.5874 -61,-6.4846 -59.4647,-6.9458 -117.7607,-12.4963 -189.0318,-17.9979 -52.0751,-4.0199 -68.5366,-5.3881 -114.5,-9.517 -18.15,-1.6304 -51.9,-4.318 -75,-5.9724 -48.7852,-3.494 -56.065,-4.1012 -144,-12.0104 -102.9885,-9.2632 -122.2704,-10.7896 -164,-12.9827 -64.2624,-3.3773 -76.5696,-4.3628 -119,-9.5296 -75.1471,-9.1508 -129.8243,-15.2247 -166.5,-18.496 -49.8528,-4.4465 -98.0925,-9.1858 -137,-13.4595 -22.275,-2.4467 -47.25,-4.9105 -55.5,-5.4751 -21.6066,-1.4786 -68.2243,-3.07 -95.5,-3.2601 -25.3339,-0.1765 -34.1759,0.7261 -47.1422,4.8124 -9.6255,3.0335 -14.1178,7.4616 -15.7666,15.5414 -1.4969,7.3354 -3.0625,31.3321 -2.4082,36.9119 1.0161,8.6653 -3.1642,67.1668 -8.7846,122.9363 -2.092,20.7588 -2.9659,34.1799 -2.7361,42.0222 0.3125,10.6607 0.5838,12.0221 3.6297,18.208 4.1496,8.4276 9.2837,12.8823 19.2979,16.7442 10.2406,3.9492 21.1526,5.7565 45.9101,7.6039 11.275,0.8414 40.525,3.2924 65,5.4468 84.073,7.4003 109.708,9.133 177.5,11.9976 27.2525,1.1515 63.304,3.6125 110,7.5088 39.2354,3.2739 53.689,4.776 91,9.4577 59.6138,7.48 89.3098,10.4527 225.5,22.573 21.725,1.9335 57.5,5.5084 79.5,7.9442 22,2.4359 52.825,5.5759 68.5,6.9779 15.675,1.402 39.75,3.6603 53.5,5.0184 30.4506,3.0078 51.6319,4.694 100.5,8.001 33.6673,2.2783 54.8675,4.0619 106.5,8.96 8.8,0.8348 30.625,2.6532 48.5,4.0409 17.875,1.3876 43.525,3.6357 57,4.9956 13.475,1.36 35.975,3.3847 50,4.4993 14.025,1.1147 42.825,3.606 64,5.5363 42.3373,3.8593 87.7212,7.1553 101.1135,7.3432 4.7374,0.066 11.0232,-0.336 13.9684,-0.8946 z m -1612.4003,0.2656 c 17.1397,-36.3333 22.1348,-51.4246 30.7514,-92.9066 19.7343,-95.0046 29.6724,-190.2721 28.2538,-270.8434 -0.3099,-17.6 -1.0524,-36.5 -1.65,-42 -3.5507,-32.6796 -14.4482,-74.873996 -24.1863,-93.647696 -6.1819,-11.918 -4.8597,-11.372 -27.209,-11.235 -28.0697,0.1722 -41.6169,2.8755 -65.6109,13.0923 -16.4199,6.9917 -32.7636,16.2931 -75.73345,43.1009 -88.68637,55.329096 -126.74719,75.872296 -147.0075,79.346496 -9.37801,1.6082 -12.18634,0.3387 -23.88571,-10.7968 -18.34831,-17.464 -34.57098,-27.7036 -48.96437,-30.9059 -9.12884,-2.0309 -24.26693,-1.5486 -33.93956,1.0815 -19.04385,5.1782 -43.58874,21.9424 -55.14068,37.6612 -6.22868,8.4754 -6.52069,8.5581 -37.98163,10.7544 -65.56718,4.5774 -119.96511,5.494 -196.15417,3.3054 -50.08663,-1.4388 -45.67394,-0.4824 -60.66018,-13.1475 -17.57531,-14.8531 -30.99315,-23.0671 -44.56334,-27.2806 -10.56987,-3.2819 -29.34702,-3.229 -43,0.1212 -36.74163,9.0157 -65.12867,29.5792 -78.1917,56.642 -5.34548,11.0742 -6.79388,16.9693 -7.49023,30.4857 -1.65856,32.1932 11.62744,66.3751 35.37337,91.0078 10.4056,10.7941 19.75506,17.2369 31.27399,21.551 17.87829,6.6958 34.31384,7.9914 55.47795,4.3732 27.73149,-4.7409 49.1704,-15.8591 62.29202,-32.3047 2.99871,-3.7583 6.54796,-7.3326 7.88722,-7.9428 2.98815,-1.3615 22.29022,0.8309 46.59698,5.2925 51.31419,9.419 107.88288,18.3657 136.07105,21.5204 43.08113,4.8214 62.39107,7.8269 64.90515,10.1021 1.10059,0.9961 3.73238,4.7754 5.84843,8.3986 5.60638,9.5994 16.98294,23.9431 23.12274,29.1534 10.76209,9.1327 22.01615,14.8336 36.4796,18.4791 5.16499,1.3018 10.91844,1.7169 23.35343,1.6847 15.04588,-0.039 17.29316,-0.2836 25.5,-2.7767 4.95,-1.5037 12.15,-4.4418 16,-6.5291 3.85,-2.0873 14.2,-7.7316 23,-12.5429 14.91308,-8.1535 16.3182,-8.7172 20.68408,-8.2991 9.23999,0.8849 31.82859,16.8724 53.31592,37.7353 7.7,7.4762 20.975,20.0996 29.5,28.0521 8.525,7.9525 24.275,23.0226 35,33.4893 23.95234,23.3753 36.95667,33.385 66.5,51.1862 28.47849,17.1595 62.69089,30.1514 93.99999,35.6958 15.1262,2.6786 13.8174,3.3371 20.1816,-10.1538 z m -57.6816,-41.9904 c -3.2662,-1.2682 -54.36129,-35.6957 -67.99999,-45.8178 -20.0683,-14.894 -30.07327,-22.9244 -55.5,-44.5465 -23.72759,-20.1773 -38.78508,-34.7587 -40.42342,-39.1453 -1.89303,-5.0686 1.60936,-10.0834 7.04239,-10.0834 2.47265,0 4.83721,1.797 13.19672,10.0292 9.12959,8.9904 37.58536,33.6099 57.68431,49.9074 16.7491,13.5813 38.007,28.9286 65.49999,47.2882 15.95,10.6513 29.5625,20.069 30.25,20.9284 0.6875,0.8593 1.25,3.0339 1.25,4.8323 0,5.5056 -5.433,8.7691 -11,6.6075 z M 801.74192,347.44954 c -4.41957,-2.2362 -4.82081,-5.868 -1.60599,-14.5362 4.62174,-12.4618 8.56006,-26.0881 10.16722,-35.1778 3.49381,-19.7602 2.62536,-63.8106 -1.55228,-78.7374 -1.11406,-3.9805 -2.02556,-7.9385 -2.02556,-8.7954 0,-2.6166 4.65504,-6.4672 7.81818,-6.4672 9.5609,0 13.32584,16.5298 13.43823,59 0.0724,27.3485 -1.21672,38.8765 -6.23597,55.7661 -7.98068,26.8549 -12.16704,32.913 -20.00383,28.9479 z m -510.51661,-22.7819 c -8.68416,-1.1586 -23.17518,-5.2193 -28.78367,-8.0658 -14.86775,-7.5462 -30.44634,-23.3492 -38.16228,-38.7122 -6.19809,-12.3409 -8.154,-29.616 -5.13792,-45.3796 2.8866,-15.0869 9.39529,-26.6376 21.38143,-37.9448 8.89539,-8.3914 18.09985,-13.8528 30.20244,-17.9204 7.95758,-2.6745 11.46421,-3.272 21.59787,-3.6803 13.15401,-0.5299 20.4117,0.3896 33.87905,4.2923 14.46049,4.1905 17.00088,5.7644 19.58632,12.1345 2.11015,5.1991 2.20111,6.4252 1.57119,21.1813 -1.0802,25.3045 -3.54335,62.9393 -5.5968,85.5148 -2.19921,24.1777 -2.63285,25.2987 -10.63487,27.4917 -6.10432,1.6729 -30.52809,2.3391 -39.90276,1.0885 z m 32.91311,-16.009 c 1.37796,-1.3849 5.8732,-61.3767 7.27412,-97.0779 l 0.6143,-15.6548 -9.90077,-3.2218 c -8.32954,-2.7106 -11.88447,-3.3002 -22.40076,-3.7155 -10.71966,-0.4233 -13.64528,-0.1841 -20.54115,1.6798 -22.87858,6.1839 -40.47221,23.9027 -44.51477,44.8317 -1.73486,8.9817 -0.75191,24.2724 2.02832,31.5525 3.01868,7.9045 12.82425,20.631 20.88517,27.1065 14.4685,11.623 28.24687,15.6044 52.81199,15.2607 7.24326,-0.1014 13.42786,-0.4439 13.74355,-0.7612 z m 309.58689,12.3674 c -5.3785,-1.9776 -6.22855,-6.4066 -3.01969,-15.7333 5.08612,-14.7831 7.80269,-42.846 6.1567,-63.6002 -0.587,-7.4014 -1.75309,-15.707 -2.59131,-18.457 -0.83823,-2.75 -1.52892,-6.4625 -1.53488,-8.25 -0.0234,-7.0293 7.70424,-9.6888 12.9397,-4.4534 12.191,12.191 8.35604,96.4537 -4.93591,108.4534 -3.04205,2.7462 -4.18837,3.0797 -7.01461,2.0405 z m 295.47784,189.4595 c -7.15786,-5.8482 -13.92778,-12.2828 -84.37811,-80.1984 -16.38809,-15.7984 -36.7079,-32.2354 -45.29853,-36.6425 l -3.69881,-1.8976 -12.30119,6.6275 c -6.76566,3.6451 -15.27178,8.3067 -18.90249,10.3592 -6.8271,3.8594 -19.04914,8.9522 -26.89871,11.2083 l -4.5,1.2935 -0.67943,22 c -0.37369,12.1 -1.15106,27.1476 -1.7275,33.4391 -0.57643,6.2916 -0.85493,11.6323 -0.61889,11.8684 0.23604,0.236 10.91341,1.5127 23.72749,2.837 18.68297,1.931 97.75549,11.9341 163.79833,20.7216 16.41354,2.1839 16.17078,2.2181 11.47784,-1.6161 z M 715.5648,466.03934 c 0.66255,-11.4421 1.30721,-25.8669 1.43258,-32.0551 l 0.22793,-11.2512 -7,-0.01 c -14.34368,-0.01 -32.38741,-3.7158 -44.38832,-9.1175 -3.51357,-1.5811 -6.47921,-2.875 -6.59032,-2.875 -0.1111,0 -0.49555,10.6875 -0.85434,23.75 -0.35878,13.0625 -1.11351,28.8796 -1.67717,35.1491 -0.56366,6.2696 -0.87247,11.5516 -0.68626,11.7378 0.46989,0.4699 57.06304,6.1099 57.76383,5.7567 0.31208,-0.1573 1.10951,-9.6477 1.77207,-21.0898 z m -75.51839,11.4462 c 1.31217,-5.4886 2.87478,-41.9533 2.54308,-59.3448 l -0.36418,-19.0947 -7.65419,-8.1364 c -5.70009,-6.0592 -18.79369,-23.7281 -21.48363,-28.9906 -0.42124,-0.8241 -25.95861,-4.353 -55.36218,-7.6502 -29.98145,-3.362 -83.77515,-11.7908 -134.6288,-21.0947 -10.58823,-1.9371 -24.06825,-4.1543 -29.9556,-4.9271 l -10.70428,-1.405 -6.80526,7.287 c -21.1904,22.6904 -54.17896,35.1169 -92.90606,34.9967 -14.516,-0.045 -17.66705,-0.3639 -26.20581,-2.6519 -28.81535,-7.7212 -51.53496,-25.7625 -69.24678,-54.9878 -17.77449,-29.3286 -24.82852,-68.2333 -17.54449,-96.762 10.15464,-39.7718 48.95477,-72.6549 98.04041,-83.0893 14.53543,-3.0898 35.04177,-3.1032 46.40269,-0.03 15.09756,4.0838 31.0442,13.2932 49.32494,28.4859 5.39033,4.4798 10.62247,8.8045 11.62697,9.6105 1.89336,1.5193 4.02954,1.5979 98.10207,3.6068 35.72895,0.7629 77.06811,-0.4115 128.5,-3.6506 l 33.5,-2.1098 4.44411,-5.1559 c 6.52522,-7.5704 16.04865,-16.6058 22.30205,-21.1592 l 5.48897,-3.9968 0.61652,-8 c 0.33909,-4.4 0.91455,-21.3348 1.2788,-37.632896 l 0.66226,-29.633 -8.39635,-0.652 c -4.618,-0.3586 -14.24636,-1.1078 -21.39636,-1.665 -7.15,-0.5571 -28.75,-2.5595 -48,-4.4498 -56.15292,-5.5138 -79.40852,-7.2976 -123.5,-9.4729 -77.28162,-3.8128 -106.8766,-6.3766 -161,-13.9472 -43.97673,-6.1513 -72.76324,-9.374 -107,-11.9788 -74.56425,-5.6729 -127.329614,-5.1219 -143.886164,1.5028 -5.92713,2.3715 -11.50185,9.2189 -15.09844,18.5451 -6.16491,15.9862 -8.44805,30.7059 -10.52761,67.873096 -0.8466,15.1309 -2.19587,35.8357 -2.99839,46.0107 -3.06859,38.906 -4.46996,62.5664 -5.50824,93 -0.59107,17.325 -1.94523,44.2416 -3.00925,59.8148 -1.06401,15.5731 -2.468,39.4231 -3.11997,53 -1.05796,22.0311 -1.00839,25.5453 0.46099,32.6852 6.5126,31.6453 27.60941,43.0579 98.687074,53.3864 36.86601,5.3571 51.20281,6.5097 101,8.12 17.875,0.578 48.925,1.9246 69,2.9925 55.46659,2.9505 76.39226,3.8626 126.5,5.5136 45.03316,1.4839 73.3759,3.0629 108.5,6.0447 26.87327,2.2814 90.18718,8.3769 102.5,9.8682 16.03566,1.9421 16.19685,1.9357 16.8211,-0.6754 z m 182.58041,-320.0076 c 4.72917,-1.7106 13.99849,-5.8672 20.59849,-9.2371 14.61485,-7.462 58.47413,-33.1276 87,-50.910596 l 21,-13.0914 -21.5,-1.2222 c -24.49256,-1.3924 -68.95074,-5.5237 -121.70965,-11.3099 -19.91531,-2.1842 -37.80281,-3.9712 -39.75,-3.9712 h -3.54035 l -0.0114,7.25 c -0.006,3.9875 -0.90114,15.8 -1.98855,26.249996 -2.7053,25.9978 -3.09937,23.4417 4.26712,27.6785 9.76435,5.616 22.2548,15.2668 31.64949,24.4542 9.89216,9.674 9.01619,9.5239 23.9849,4.1097 z m -111.74781,-38.3427 c 9.09143,-1.5887 27.81799,-1.5333 31.99678,0.095 1.30807,0.5097 1.77474,-0.1492 2.24944,-3.1757 1.48103,-9.4425 3.60008,-34.040896 3.60008,-41.790396 v -8.5284 l -2.75,-0.012 c -1.5125,-0.01 -14.45,-0.6741 -28.75,-1.4836 -14.3,-0.8096 -27.1658,-1.4793 -28.59068,-1.4884 l -2.59067,-0.016 -0.64491,28.75 c -0.3547,15.812496 -0.92828,30.394396 -1.27462,32.404196 l -0.62972,3.6542 9.019,-3.3877 c 4.96045,-1.8632 13.22483,-4.1226 18.3653,-5.021 z"
     style="fill:#000000" />
</svg>
